M48
;DRILL file {KiCad (2016-03-03 BZR 6607, Git 8dc0a33)-product} date 7/18/2016 5:06:19 PM
;FORMAT={-:-/ absolute / inch / decimal}
FMAT,2
INCH,TZ
T1C0.026
T2C0.030
T3C0.039
%
G90
G05
M72
T1
X2.0546Y-3.7452
T2
X1.7329Y-3.517
X1.8391Y-3.517
T3
X9.5906Y-3.5378
X9.5909Y-3.7949
T1
X2.0546Y-4.0227G85X2.0546Y-4.0345
G05
T0
M30
