EESchema Schematic File Version 4
LIBS:main-cache
EELAYER 26 0
EELAYER END
$Descr A4 11693 8268
encoding utf-8
Sheet 9 9
Title "Hammamatsu Detectors"
Date ""
Rev ""
Comp ""
Comment1 "Jon Zeeff"
Comment2 ""
Comment3 ""
Comment4 ""
$EndDescr
$Comp
L multispec:MCP4728 U7
U 1 1 5A9CCB04
P 1425 4540
F 0 "U7" H 1410 4540 40  0000 C CNN
F 1 "MCP4728" H 1210 4880 40  0000 C CNN
F 2 "Package_SO:MSOP-10_3x3mm_P0.5mm" H 1425 5011 30  0001 C CIN
F 3 "OPTIONAL-16B-DET" H 1425 4440 60  0001 C CNN
F 4 "OO" H 1425 4540 50  0001 C CNN "Note"
F 5 "MCP4728" H 1425 4540 50  0001 C CNN "Desc"
F 6 "MCP4728A0T-E/UN" H 1425 4540 50  0001 C CNN "manf#"
	1    1425 4540
	1    0    0    -1  
$EndComp
$Comp
L main-rescue:ADA4075-2-Amplifier_Operational U9
U 2 1 5A982415
P 2965 5355
F 0 "U9" H 2985 5360 50  0000 C CNN
F 1 "ADA4522-2" H 3205 5490 50  0000 C CNN
F 2 "Package_SO:SOIC-8_3.9x4.9mm_P1.27mm" H 2965 5355 50  0001 C CNN
F 3 "OPTIONAL-16B-DET" H 2965 5355 50  0001 C CNN
F 4 "OO" H 2965 5355 50  0001 C CNN "Note"
F 5 "ADA4075-2" H 2965 5355 50  0001 C CNN "Desc"
F 6 "ADA4075-2ARZ" H 2965 5355 50  0001 C CNN "manf#"
	2    2965 5355
	1    0    0    -1  
$EndComp
$Comp
L main-rescue:ADA4075-2-Amplifier_Operational U9
U 1 1 5A9824F0
P 2970 4170
F 0 "U9" H 2985 4170 50  0000 C CNN
F 1 "ADA4522-2" H 3175 4335 50  0000 C CNN
F 2 "Package_SO:SOIC-8_3.9x4.9mm_P1.27mm" H 2970 4170 50  0001 C CNN
F 3 "OPTIONAL-16B-DET" H 2970 4170 50  0001 C CNN
F 4 "OO" H 2970 4170 50  0001 C CNN "Note"
F 5 "ADA4075-2" H 2985 4270 50  0001 C CNN "Desc"
F 6 "ADA4075-2ARZ" H 2970 4170 50  0001 C CNN "manf#"
	1    2970 4170
	1    0    0    -1  
$EndComp
$Comp
L main-rescue:R-RESCUE-main R42
U 1 1 5A993CAE
P 7530 2585
F 0 "R42" V 7605 2595 30  0000 C CNN
F 1 "100" V 7530 2585 50  0000 C CNN
F 2 "multispeq:r_0603" H 7530 2585 60  0001 C CNN
F 3 "OPTIONAL-16B-DET" V 7530 2585 10  0001 C CNN
F 4 "CRCW0603100RFKEAC" H 7530 2585 60  0001 C CNN "manf#"
	1    7530 2585
	-1   0    0    1   
$EndComp
$Comp
L main-rescue:R-RESCUE-main R40
U 1 1 5A993CB6
P 7380 2435
F 0 "R40" V 7455 2425 30  0000 C CNN
F 1 "2K" V 7380 2435 50  0000 C CNN
F 2 "multispeq:r_0603" H 7380 2435 60  0001 C CNN
F 3 "OPTIONAL-16B-DET" V 7380 2435 10  0001 C CNN
F 4 "precision" H 7380 2435 50  0001 C CNN "Note"
F 5 "RR0816P-202-D" H 7380 2435 60  0001 C CNN "manf#"
	1    7380 2435
	0    1    1    0   
$EndComp
$Comp
L main-rescue:C-RESCUE-main C17
U 1 1 5A993CBE
P 7680 2585
F 0 "C17" V 7705 2635 30  0000 L CNN
F 1 ".1u" V 7705 2460 30  0000 L CNN
F 2 "multispeq:c_1206" H 7680 2585 60  0001 C CNN
F 3 "OPTIONAL-16B-DET" H 7680 2585 10  0001 C CNN
F 4 "CL31C104JAHNNWE" H 7680 2585 60  0001 C CNN "manf#"
	1    7680 2585
	1    0    0    -1  
$EndComp
$Comp
L main-rescue:C-RESCUE-main C13
U 1 1 5A993CD1
P 5760 1715
F 0 "C13" V 5785 1765 30  0000 L CNN
F 1 "5p" V 5795 1545 30  0000 L CNN
F 2 "multispeq:c_0603" H 5760 1715 60  0001 C CNN
F 3 "OPTIONAL-16B-DET" H 5760 1715 10  0001 C CNN
F 4 "precision" H 5760 1715 50  0001 C CNN "Note"
F 5 "CL10C050DB8NNNC" H 5760 1715 60  0001 C CNN "manf#"
	1    5760 1715
	0    1    1    0   
$EndComp
$Comp
L main-rescue:R-RESCUE-main R38
U 1 1 5A993CD9
P 5760 1945
F 0 "R38" V 5835 1955 30  0000 C CNN
F 1 "4.75M" V 5760 1945 50  0000 C CNN
F 2 "multispeq:r_0603" H 5760 1945 60  0001 C CNN
F 3 "OPTIONAL-16B-DET" V 5760 1945 10  0001 C CNN
F 4 "RC0603FR-074M75L" H 5760 1945 60  0001 C CNN "manf#"
	1    5760 1945
	0    -1   -1   0   
$EndComp
$Comp
L main-rescue:C_Small-RESCUE-main C11
U 1 1 5A994762
P 4965 2995
F 0 "C11" H 5020 3055 30  0000 L CNN
F 1 "10u" H 4855 3050 30  0000 L CNN
F 2 "multispeq:c_0603" H 4965 2995 60  0001 C CNN
F 3 "OPTIONAL-16B-DET" H 4965 2995 10  0001 C CNN
F 4 "GRM188R61A106KE69D" H 4965 2995 60  0001 C CNN "manf#"
	1    4965 2995
	-1   0    0    1   
$EndComp
$Comp
L main-rescue:C-RESCUE-main C16
U 1 1 5A99476A
P 5755 2910
F 0 "C16" H 5780 2985 30  0000 L CNN
F 1 "10u" H 5780 2835 30  0000 L CNN
F 2 "multispeq:c_0603" H 5755 2910 60  0001 C CNN
F 3 "OPTIONAL-16B-DET" H 5755 2910 10  0001 C CNN
F 4 "GRM188R61A106KE69D" H 5755 2910 60  0001 C CNN "manf#"
	1    5755 2910
	-1   0    0    1   
$EndComp
$Comp
L main-rescue:GND-RESCUE-main #PWR011
U 1 1 5A994775
P 5755 3060
F 0 "#PWR011" H 5755 2810 50  0001 C CNN
F 1 "GND" H 5755 2900 50  0000 C CNN
F 2 "" H 5755 3060 60  0000 C CNN
F 3 "" H 5755 3060 60  0000 C CNN
	1    5755 3060
	1    0    0    -1  
$EndComp
$Comp
L main-rescue:GND-RESCUE-main #PWR09
U 1 1 5A994781
P 5875 2135
F 0 "#PWR09" H 5875 1885 50  0001 C CNN
F 1 "GND" H 5950 2035 20  0000 C CNN
F 2 "" H 5875 2135 60  0000 C CNN
F 3 "" H 5875 2135 60  0000 C CNN
	1    5875 2135
	1    0    0    -1  
$EndComp
$Comp
L main-rescue:R-RESCUE-main R41
U 1 1 5A994789
P 9290 1130
F 0 "R41" V 9200 1130 30  0000 C CNN
F 1 "10" V 9290 1130 50  0000 C CNN
F 2 "multispeq:r_0603" H 9290 1130 60  0001 C CNN
F 3 "OPTIONAL-16B-DET" H 9290 1130 10  0001 C CNN
F 4 "RC0603FR-0710RL" H 9290 1130 60  0001 C CNN "manf#"
	1    9290 1130
	0    -1   -1   0   
$EndComp
$Comp
L main-rescue:PWR_FLAG-RESCUE-main #FLG01
U 1 1 5A994790
P 8935 1125
F 0 "#FLG01" H 8935 1220 50  0001 C CNN
F 1 "PWR_FLAG" H 8935 1305 50  0000 C CNN
F 2 "" H 8935 1125 60  0000 C CNN
F 3 "" H 8935 1125 60  0000 C CNN
	1    8935 1125
	1    0    0    -1  
$EndComp
$Comp
L main-rescue:R-RESCUE-main R36
U 1 1 5A994798
P 5230 2745
F 0 "R36" V 5140 2745 30  0000 C CNN
F 1 "10K" V 5230 2745 50  0000 C CNN
F 2 "multispeq:r_0603" H 5230 2745 60  0001 C CNN
F 3 "OPTIONAL-16B-DET" H 5230 2745 10  0001 C CNN
F 4 "precision" H 5230 2745 50  0001 C CNN "Note"
F 5 "RR0816P-103-D" H 5230 2745 60  0001 C CNN "manf#"
	1    5230 2745
	-1   0    0    1   
$EndComp
$Comp
L main-rescue:R-RESCUE-main R37
U 1 1 5A9947A0
P 5230 3045
F 0 "R37" V 5140 3045 30  0000 C CNN
F 1 "300" V 5230 3045 50  0000 C CNN
F 2 "multispeq:r_0603" H 5230 3045 60  0001 C CNN
F 3 "OPTIONAL-16B-DET" H 5230 3045 10  0001 C CNN
F 4 "RR0816P-301-D" H 5230 3045 60  0001 C CNN "manf#"
	1    5230 3045
	1    0    0    -1  
$EndComp
$Comp
L main-rescue:GND-RESCUE-main #PWR05
U 1 1 5A9947A7
P 5230 3195
F 0 "#PWR05" H 5230 2945 50  0001 C CNN
F 1 "GND" H 5305 3095 20  0000 C CNN
F 2 "" H 5230 3195 60  0000 C CNN
F 3 "" H 5230 3195 60  0000 C CNN
	1    5230 3195
	1    0    0    -1  
$EndComp
$Comp
L main-rescue:INDUCTOR_SMALL-RESCUE-main L5
U 1 1 5A9947B1
P 9690 1130
F 0 "L5" H 9690 1230 50  0000 C CNN
F 1 "ferrite" H 9690 1080 50  0000 C CNN
F 2 "Inductor_SMD:L_0805_2012Metric" H 9690 1130 60  0001 C CNN
F 3 "OPTIONAL-16B-DET" H 9690 1130 60  0001 C CNN
F 4 "MI0805K601R-10" H 9690 1130 60  0001 C CNN "manf#"
	1    9690 1130
	1    0    0    -1  
$EndComp
$Comp
L main-rescue:OPA333D-RESCUE-main U10
U 1 1 5A9947BB
P 5855 2435
F 0 "U10" H 5805 2440 50  0000 L CNN
F 1 "AD820" H 5905 2575 50  0000 L CNN
F 2 "Package_SO:SOIC-8_3.9x4.9mm_P1.27mm" H 5855 2285 50  0001 L CNN
F 3 "OPTIONAL-16B-DET" H 6005 2585 50  0001 C CNN
F 4 "OO" H 5855 2435 50  0001 C CNN "Note"
F 5 "AD820ARZ" H 5855 2435 50  0001 C CNN "manf#"
	1    5855 2435
	1    0    0    1   
$EndComp
$Comp
L main-rescue:R-RESCUE-main R39
U 1 1 5A9947C3
P 6390 2735
F 0 "R39" V 6300 2735 30  0000 C CNN
F 1 "0" V 6390 2735 50  0000 C CNN
F 2 "multispeq:r_0603" H 6390 2735 60  0001 C CNN
F 3 "OPTIONAL-16B-DET" H 6390 2735 10  0001 C CNN
F 4 "ERJ-3GEY0R00V" H 6390 2735 60  0001 C CNN "manf#"
	1    6390 2735
	0    -1   -1   0   
$EndComp
$Comp
L main-rescue:GND-RESCUE-main #PWR037
U 1 1 5A9A5B04
P 5195 1935
F 0 "#PWR037" H 5195 1685 50  0001 C CNN
F 1 "GND" H 5270 1835 20  0000 C CNN
F 2 "" H 5195 1935 60  0000 C CNN
F 3 "" H 5195 1935 60  0000 C CNN
	1    5195 1935
	1    0    0    -1  
$EndComp
$Comp
L main-rescue:GND-RESCUE-main #PWR038
U 1 1 5A9B3590
P 6240 2735
F 0 "#PWR038" H 6240 2485 50  0001 C CNN
F 1 "GND" H 6160 2640 20  0000 C CNN
F 2 "" H 6240 2735 60  0000 C CNN
F 3 "" H 6240 2735 60  0000 C CNN
	1    6240 2735
	1    0    0    -1  
$EndComp
$Comp
L main-rescue:GND-RESCUE-main #PWR01
U 1 1 5A9DF3EF
P 1425 4940
F 0 "#PWR01" H 1425 4690 50  0001 C CNN
F 1 "GND" H 1500 4840 20  0000 C CNN
F 2 "" H 1425 4940 60  0000 C CNN
F 3 "" H 1425 4940 60  0000 C CNN
	1    1425 4940
	1    0    0    -1  
$EndComp
$Comp
L main-rescue:GND-RESCUE-main #PWR031
U 1 1 5A9DF42D
P 2870 4470
F 0 "#PWR031" H 2870 4220 50  0001 C CNN
F 1 "GND" H 2945 4370 20  0000 C CNN
F 2 "" H 2870 4470 60  0000 C CNN
F 3 "" H 2870 4470 60  0000 C CNN
	1    2870 4470
	1    0    0    -1  
$EndComp
$Comp
L main-rescue:R-RESCUE-main R60
U 1 1 5A9ED072
P 2720 4470
F 0 "R60" V 2630 4470 30  0000 C CNN
F 1 "510" V 2720 4470 50  0000 C CNN
F 2 "multispeq:r_0603" H 2720 4470 60  0001 C CNN
F 3 "OPTIONAL-16B-DET" H 2720 4470 10  0001 C CNN
F 4 "RR0816P-511-D" H 2720 4470 60  0001 C CNN "manf#"
	1    2720 4470
	0    1    1    0   
$EndComp
$Comp
L main-rescue:R-RESCUE-main R44
U 1 1 5A9EEA86
P 2570 4620
F 0 "R44" V 2480 4620 30  0000 C CNN
F 1 "10K" V 2570 4620 50  0000 C CNN
F 2 "multispeq:r_0603" H 2570 4620 60  0001 C CNN
F 3 "OPTIONAL-16B-DET" H 2570 4620 10  0001 C CNN
F 4 "precision" H 2570 4620 50  0001 C CNN "Note"
F 5 "RR0816P-103-D" H 2570 4620 60  0001 C CNN "manf#"
	1    2570 4620
	-1   0    0    1   
$EndComp
$Comp
L main-rescue:GND-RESCUE-main #PWR023
U 1 1 5A9F24D9
P 2865 5655
F 0 "#PWR023" H 2865 5405 50  0001 C CNN
F 1 "GND" H 2940 5555 20  0000 C CNN
F 2 "" H 2865 5655 60  0000 C CNN
F 3 "" H 2865 5655 60  0000 C CNN
	1    2865 5655
	1    0    0    -1  
$EndComp
$Comp
L main-rescue:R-RESCUE-main R54
U 1 1 5A9F24E1
P 2715 5655
F 0 "R54" V 2625 5655 30  0000 C CNN
F 1 "510" V 2715 5655 50  0000 C CNN
F 2 "multispeq:r_0603" H 2715 5655 60  0001 C CNN
F 3 "OPTIONAL-16B-DET" H 2715 5655 10  0001 C CNN
F 4 "RR0816P-511-D" H 2715 5655 60  0001 C CNN "manf#"
	1    2715 5655
	0    1    1    0   
$EndComp
$Comp
L main-rescue:GND-RESCUE-main #PWR034
U 1 1 5A99BB96
P 4200 2035
F 0 "#PWR034" H 4200 1785 50  0001 C CNN
F 1 "GND" H 4195 1910 20  0000 C CNN
F 2 "" H 4200 2035 60  0000 C CNN
F 3 "" H 4200 2035 60  0000 C CNN
	1    4200 2035
	1    0    0    -1  
$EndComp
$Comp
L multispec:MEMS-FPI U11
U 1 1 5A9EC726
P 4650 1985
F 0 "U11" H 4635 1955 50  0000 C CNN
F 1 "MEMS-FPI" H 4640 1730 50  0000 C CNN
F 2 "multispeq:MEMS-FPI" H 4700 1935 50  0001 C CNN
F 3 "OPTIONAL-16B-DET" H 4700 1935 50  0001 C CNN
F 4 "socket" H 4650 1985 50  0001 C CNN "Note"
F 5 "917-47-108-41-005000" H 4650 1985 50  0001 C CNN "manf#"
	1    4650 1985
	1    0    0    -1  
$EndComp
$Comp
L multispec:AD7689 U14
U 1 1 5A9A20BE
P 9480 4350
F 0 "U14" H 9435 4300 60  0000 C CNN
F 1 "AD7689" H 9435 4990 60  0000 C CNN
F 2 "multispeq:AD7689" H 9230 4350 60  0001 C CNN
F 3 "OPTIONAL-16B-DET" H 9230 4350 60  0001 C CNN
F 4 "AD7689ACPZ" H 9480 4350 50  0001 C CNN "Desc"
F 5 "AD7689ACPZ" H 9480 4350 50  0001 C CNN "manf#"
	1    9480 4350
	-1   0    0    1   
$EndComp
$Comp
L main-rescue:R-RESCUE-main R81
U 1 1 5A9ABBAB
P 7115 4800
F 0 "R81" V 7190 4810 30  0000 C CNN
F 1 "100" V 7115 4800 50  0000 C CNN
F 2 "multispeq:r_0603" H 7115 4800 60  0001 C CNN
F 3 "OPTIONAL-16B-DET" V 7115 4800 10  0001 C CNN
F 4 "CRCW0603100RFKEAC" H 7115 4800 60  0001 C CNN "manf#"
	1    7115 4800
	-1   0    0    1   
$EndComp
$Comp
L main-rescue:R-RESCUE-main R80
U 1 1 5A9ABBB2
P 6965 4650
F 0 "R80" V 7040 4640 30  0000 C CNN
F 1 "2K" V 6965 4650 50  0000 C CNN
F 2 "multispeq:r_0603" H 6965 4650 60  0001 C CNN
F 3 "OPTIONAL-16B-DET" V 6965 4650 10  0001 C CNN
F 4 "precision" H 6965 4650 50  0001 C CNN "Note"
F 5 "RR0816P-202-D" H 6965 4650 60  0001 C CNN "manf#"
	1    6965 4650
	0    1    1    0   
$EndComp
$Comp
L main-rescue:C-RESCUE-main C22
U 1 1 5A9ABBB9
P 7265 4800
F 0 "C22" V 7290 4850 30  0000 L CNN
F 1 ".1u" V 7290 4675 30  0000 L CNN
F 2 "multispeq:c_1206" H 7265 4800 60  0001 C CNN
F 3 "OPTIONAL-16B-DET" H 7265 4800 10  0001 C CNN
F 4 "CL31C104JAHNNWE" H 7265 4800 60  0001 C CNN "manf#"
	1    7265 4800
	1    0    0    -1  
$EndComp
$Comp
L main-rescue:C-RESCUE-main C21
U 1 1 5A9ABBC2
P 5760 3930
F 0 "C21" V 5785 3980 30  0000 L CNN
F 1 "5p" V 5795 3760 30  0000 L CNN
F 2 "multispeq:c_0603" H 5760 3930 60  0001 C CNN
F 3 "OPTIONAL-16B-DET" H 5760 3930 10  0001 C CNN
F 4 "precision" H 5760 3930 50  0001 C CNN "Note"
F 5 "CL10C050DB8NNNC" H 5760 3930 60  0001 C CNN "manf#"
	1    5760 3930
	0    1    1    0   
$EndComp
$Comp
L main-rescue:R-RESCUE-main R62
U 1 1 5A9ABBC9
P 5760 4160
F 0 "R62" V 5835 4170 30  0000 C CNN
F 1 "4.75M" V 5760 4160 50  0000 C CNN
F 2 "multispeq:r_0603" H 5760 4160 60  0001 C CNN
F 3 "OPTIONAL-16B-DET" V 5760 4160 10  0001 C CNN
F 4 "RC0603FR-074M75L" H 5760 4160 60  0001 C CNN "manf#"
	1    5760 4160
	0    -1   -1   0   
$EndComp
$Comp
L main-rescue:C_Small-RESCUE-main C20
U 1 1 5A9ABBD3
P 4965 5210
F 0 "C20" H 5020 5270 30  0000 L CNN
F 1 "10u" H 4855 5265 30  0000 L CNN
F 2 "multispeq:c_0603" H 4965 5210 60  0001 C CNN
F 3 "OPTIONAL-16B-DET" H 4965 5210 10  0001 C CNN
F 4 "GRM188R61A106KE69D" H 4965 5210 60  0001 C CNN "manf#"
	1    4965 5210
	-1   0    0    1   
$EndComp
$Comp
L main-rescue:GND-RESCUE-main #PWR048
U 1 1 5A9ABBD9
P 5875 4350
F 0 "#PWR048" H 5875 4100 50  0001 C CNN
F 1 "GND" H 5950 4250 20  0000 C CNN
F 2 "" H 5875 4350 60  0000 C CNN
F 3 "" H 5875 4350 60  0000 C CNN
	1    5875 4350
	1    0    0    -1  
$EndComp
$Comp
L main-rescue:R-RESCUE-main R56
U 1 1 5A9ABBE1
P 5230 4960
F 0 "R56" V 5140 4960 30  0000 C CNN
F 1 "10K" V 5230 4960 50  0000 C CNN
F 2 "multispeq:r_0603" H 5230 4960 60  0001 C CNN
F 3 "OPTIONAL-16B-DET" H 5230 4960 10  0001 C CNN
F 4 "precision" H 5230 4960 50  0001 C CNN "Note"
F 5 "RR0816P-103-D" H 5230 4960 60  0001 C CNN "manf#"
	1    5230 4960
	-1   0    0    1   
$EndComp
$Comp
L main-rescue:R-RESCUE-main R61
U 1 1 5A9ABBE8
P 5230 5260
F 0 "R61" V 5140 5260 30  0000 C CNN
F 1 "300" V 5230 5260 50  0000 C CNN
F 2 "multispeq:r_0603" H 5230 5260 60  0001 C CNN
F 3 "OPTIONAL-16B-DET" H 5230 5260 10  0001 C CNN
F 4 "RR0816P-301-D" H 5230 5260 60  0001 C CNN "manf#"
	1    5230 5260
	1    0    0    -1  
$EndComp
$Comp
L main-rescue:GND-RESCUE-main #PWR043
U 1 1 5A9ABBEE
P 5230 5410
F 0 "#PWR043" H 5230 5160 50  0001 C CNN
F 1 "GND" H 5305 5310 20  0000 C CNN
F 2 "" H 5230 5410 60  0000 C CNN
F 3 "" H 5230 5410 60  0000 C CNN
	1    5230 5410
	1    0    0    -1  
$EndComp
$Comp
L main-rescue:OPA333D-RESCUE-main U13
U 1 1 5A9ABBF8
P 5855 4650
F 0 "U13" H 5805 4655 50  0000 L CNN
F 1 "AD820" H 5905 4790 50  0000 L CNN
F 2 "Package_SO:SOIC-8_3.9x4.9mm_P1.27mm" H 5855 4500 50  0001 L CNN
F 3 "OPTIONAL-16B-DET" H 6005 4800 50  0001 C CNN
F 4 "OO" H 5855 4650 50  0001 C CNN "Note"
F 5 "AD820ARZ" H 5855 4650 50  0001 C CNN "manf#"
	1    5855 4650
	1    0    0    1   
$EndComp
$Comp
L main-rescue:R-RESCUE-main R63
U 1 1 5A9ABBFF
P 6390 4950
F 0 "R63" V 6300 4950 30  0000 C CNN
F 1 "0" V 6390 4950 50  0000 C CNN
F 2 "multispeq:r_0603" H 6390 4950 60  0001 C CNN
F 3 "OPTIONAL-16B-DET" H 6390 4950 10  0001 C CNN
F 4 "ERJ-3GEY0R00V" H 6390 4950 60  0001 C CNN "manf#"
	1    6390 4950
	0    -1   -1   0   
$EndComp
$Comp
L main-rescue:GND-RESCUE-main #PWR042
U 1 1 5A9ABC10
P 5195 4150
F 0 "#PWR042" H 5195 3900 50  0001 C CNN
F 1 "GND" H 5270 4050 20  0000 C CNN
F 2 "" H 5195 4150 60  0000 C CNN
F 3 "" H 5195 4150 60  0000 C CNN
	1    5195 4150
	1    0    0    -1  
$EndComp
$Comp
L main-rescue:GND-RESCUE-main #PWR049
U 1 1 5A9ABC21
P 6240 4950
F 0 "#PWR049" H 6240 4700 50  0001 C CNN
F 1 "GND" H 6170 4840 20  0000 C CNN
F 2 "" H 6240 4950 60  0000 C CNN
F 3 "" H 6240 4950 60  0000 C CNN
	1    6240 4950
	1    0    0    -1  
$EndComp
$Comp
L main-rescue:GND-RESCUE-main #PWR041
U 1 1 5A9ABC36
P 4200 4250
F 0 "#PWR041" H 4200 4000 50  0001 C CNN
F 1 "GND" H 4240 4140 20  0000 C CNN
F 2 "" H 4200 4250 60  0000 C CNN
F 3 "" H 4200 4250 60  0000 C CNN
	1    4200 4250
	1    0    0    -1  
$EndComp
$Comp
L multispec:MEMS-FPI U12
U 1 1 5A9ABC3E
P 4650 4200
F 0 "U12" H 4635 4170 50  0000 C CNN
F 1 "MEMS-FPI" H 4640 3945 50  0000 C CNN
F 2 "multispeq:MEMS-FPI" H 4700 4150 50  0001 C CNN
F 3 "OPTIONAL-16B-DET" H 4700 4150 50  0001 C CNN
F 4 "socket" H 4650 4200 50  0001 C CNN "Note"
F 5 "917-47-108-41-005000" H 4650 4200 50  0001 C CNN "manf#"
	1    4650 4200
	1    0    0    -1  
$EndComp
$Comp
L main-rescue:GND-RESCUE-main #PWR052
U 1 1 5A9C1004
P 10570 4550
F 0 "#PWR052" H 10570 4300 50  0001 C CNN
F 1 "GND" H 10645 4450 20  0000 C CNN
F 2 "" H 10570 4550 60  0000 C CNN
F 3 "" H 10570 4550 60  0000 C CNN
	1    10570 4550
	1    0    0    -1  
$EndComp
$Comp
L main-rescue:GND-RESCUE-main #PWR050
U 1 1 5A9CCADC
P 8780 3650
F 0 "#PWR050" H 8780 3400 50  0001 C CNN
F 1 "GND" H 8730 3630 20  0000 C CNN
F 2 "" H 8780 3650 60  0000 C CNN
F 3 "" H 8780 3650 60  0000 C CNN
	1    8780 3650
	1    0    0    -1  
$EndComp
$Comp
L main-rescue:C-RESCUE-main C23
U 1 1 5A9E7BD8
P 10610 5000
F 0 "C23" H 10635 5075 30  0000 L CNN
F 1 "10u" H 10635 4925 30  0000 L CNN
F 2 "multispeq:c_0603" H 10610 5000 60  0001 C CNN
F 3 "OPTIONAL-16B-DET" H 10610 5000 10  0001 C CNN
F 4 "GRM188R61A106KE69D" H 10610 5000 60  0001 C CNN "manf#"
	1    10610 5000
	-1   0    0    1   
$EndComp
$Comp
L main-rescue:GND-RESCUE-main #PWR058
U 1 1 5A9EDE9B
P 10610 5150
F 0 "#PWR058" H 10610 4900 50  0001 C CNN
F 1 "GND" H 10685 5050 20  0000 C CNN
F 2 "" H 10610 5150 60  0000 C CNN
F 3 "" H 10610 5150 60  0000 C CNN
	1    10610 5150
	1    0    0    -1  
$EndComp
$Comp
L main-rescue:C-RESCUE-main C24
U 1 1 5A9F2015
P 10850 5000
F 0 "C24" H 10875 5075 30  0000 L CNN
F 1 ".1u" H 10875 4925 30  0000 L CNN
F 2 "multispeq:c_0603" H 10850 5000 60  0001 C CNN
F 3 "OPTIONAL-16B-DET" H 10850 5000 10  0001 C CNN
F 4 "CC0603KRX7R8BB104" H 10850 5000 60  0001 C CNN "manf#"
	1    10850 5000
	-1   0    0    1   
$EndComp
$Comp
L main-rescue:GND-RESCUE-main #PWR059
U 1 1 5A9F2125
P 10850 5150
F 0 "#PWR059" H 10850 4900 50  0001 C CNN
F 1 "GND" H 10925 5050 20  0000 C CNN
F 2 "" H 10850 5150 60  0000 C CNN
F 3 "" H 10850 5150 60  0000 C CNN
	1    10850 5150
	1    0    0    -1  
$EndComp
$Comp
L main-rescue:Conn_01x01-Connector_Generic J2
U 1 1 5AEBC123
P 10240 1130
F 0 "J2" H 10319 1126 50  0000 L CNN
F 1 "Conn_01x01" H 10320 1081 50  0001 L CNN
F 2 "PINTST" H 10240 1130 50  0001 C CNN
F 3 "OPTIONAL-16B-DET" H 10240 1130 50  0001 C CNN
F 4 "DNI" H 10240 1130 50  0001 C CNN "manf#"
	1    10240 1130
	1    0    0    -1  
$EndComp
$Comp
L main-rescue:C_Small-RESCUE-main C26
U 1 1 5A9ECB6A
P 3450 4790
F 0 "C26" H 3505 4850 30  0000 L CNN
F 1 "4.7u" H 3340 4845 30  0000 L CNN
F 2 "multispeq:c_0805" H 3450 4790 60  0001 C CNN
F 3 "OPTIONAL-16B-DET" H 3450 4790 10  0001 C CNN
F 4 "hi voltage" H 3450 4790 50  0001 C CNN "Note"
F 5 "OPTIONAL-16B-DET" H 3450 4790 50  0001 C CNN "Desc"
F 6 "CL21A475KBQNNNE" H 3450 4790 60  0001 C CNN "manf#"
	1    3450 4790
	-1   0    0    1   
$EndComp
$Comp
L main-rescue:GND-RESCUE-main #PWR064
U 1 1 5A9EDA93
P 3450 4890
F 0 "#PWR064" H 3450 4640 50  0001 C CNN
F 1 "GND" H 3525 4790 20  0000 C CNN
F 2 "" H 3450 4890 60  0000 C CNN
F 3 "" H 3450 4890 60  0000 C CNN
	1    3450 4890
	1    0    0    -1  
$EndComp
$Comp
L main-rescue:C_Small-RESCUE-main C25
U 1 1 5A9F9CED
P 1670 4005
F 0 "C25" H 1725 4065 30  0000 L CNN
F 1 "10u" H 1560 4060 30  0000 L CNN
F 2 "multispeq:c_0603" H 1670 4005 60  0001 C CNN
F 3 "OPTIONAL-16B-DET" H 1670 4005 10  0001 C CNN
F 4 "GRM188R61A106KE69D" H 1670 4005 60  0001 C CNN "manf#"
	1    1670 4005
	-1   0    0    1   
$EndComp
$Comp
L main-rescue:GND-RESCUE-main #PWR061
U 1 1 5A9FE332
P 1670 4105
F 0 "#PWR061" H 1670 3855 50  0001 C CNN
F 1 "GND" H 1745 4005 20  0000 C CNN
F 2 "" H 1670 4105 60  0000 C CNN
F 3 "" H 1670 4105 60  0000 C CNN
	1    1670 4105
	1    0    0    -1  
$EndComp
$Comp
L main-rescue:C-RESCUE-main C29
U 1 1 5AA16483
P 10280 5430
F 0 "C29" H 10305 5505 30  0000 L CNN
F 1 "10u" H 10305 5355 30  0000 L CNN
F 2 "multispeq:c_0603" H 10280 5430 60  0001 C CNN
F 3 "OPTIONAL-16B-DET" H 10280 5430 10  0001 C CNN
F 4 "GRM188R61A106KE69D" H 10280 5430 60  0001 C CNN "manf#"
	1    10280 5430
	-1   0    0    1   
$EndComp
$Comp
L main-rescue:GND-RESCUE-main #PWR069
U 1 1 5AA1656B
P 10280 5580
F 0 "#PWR069" H 10280 5330 50  0001 C CNN
F 1 "GND" H 10355 5480 20  0000 C CNN
F 2 "" H 10280 5580 60  0000 C CNN
F 3 "" H 10280 5580 60  0000 C CNN
	1    10280 5580
	1    0    0    -1  
$EndComp
$Comp
L main-rescue:C-RESCUE-main C27
U 1 1 5AA46E3D
P 5755 5140
F 0 "C27" H 5780 5215 30  0000 L CNN
F 1 "10u" H 5780 5065 30  0000 L CNN
F 2 "multispeq:c_0603" H 5755 5140 60  0001 C CNN
F 3 "OPTIONAL-16B-DET" H 5755 5140 10  0001 C CNN
F 4 "GRM188R61A106KE69D" H 5755 5140 60  0001 C CNN "manf#"
	1    5755 5140
	-1   0    0    1   
$EndComp
$Comp
L main-rescue:GND-RESCUE-main #PWR065
U 1 1 5AA46E43
P 5755 5290
F 0 "#PWR065" H 5755 5040 50  0001 C CNN
F 1 "GND" H 5755 5130 50  0000 C CNN
F 2 "" H 5755 5290 60  0000 C CNN
F 3 "" H 5755 5290 60  0000 C CNN
	1    5755 5290
	1    0    0    -1  
$EndComp
$Comp
L main-rescue:C-RESCUE-main C28
U 1 1 5AA5D18D
P 8240 4550
F 0 "C28" H 8265 4625 30  0000 L CNN
F 1 "10u" H 8265 4475 30  0000 L CNN
F 2 "multispeq:c_0603" H 8240 4550 60  0001 C CNN
F 3 "OPTIONAL-16B-DET" H 8240 4550 10  0001 C CNN
F 4 "GRM188R61A106KE69D" H 8240 4550 60  0001 C CNN "manf#"
	1    8240 4550
	-1   0    0    1   
$EndComp
$Comp
L main-rescue:GND-RESCUE-main #PWR067
U 1 1 5AA5D193
P 8240 4700
F 0 "#PWR067" H 8240 4450 50  0001 C CNN
F 1 "GND" H 8315 4600 20  0000 C CNN
F 2 "" H 8240 4700 60  0000 C CNN
F 3 "" H 8240 4700 60  0000 C CNN
	1    8240 4700
	1    0    0    -1  
$EndComp
$Comp
L main-rescue:R-RESCUE-main R83
U 1 1 5AA751BF
P 10130 5280
F 0 "R83" V 10040 5280 30  0000 C CNN
F 1 "10" V 10130 5280 50  0000 C CNN
F 2 "multispeq:r_0603" H 10130 5280 60  0001 C CNN
F 3 "OPTIONAL-16B-DET" H 10130 5280 10  0001 C CNN
F 4 "RC0603FR-0710RL" H 10130 5280 60  0001 C CNN "manf#"
	1    10130 5280
	0    1    1    0   
$EndComp
$Comp
L main-rescue:INDUCTOR_SMALL-RESCUE-main L8
U 1 1 5AA751C6
P 9730 5280
F 0 "L8" H 9730 5380 50  0000 C CNN
F 1 "ferrite" H 9730 5230 50  0000 C CNN
F 2 "Inductor_SMD:L_0805_2012Metric" H 9730 5280 60  0001 C CNN
F 3 "OPTIONAL-16B-DET" H 9730 5280 60  0001 C CNN
F 4 "MI0805K601R-10" H 9730 5280 60  0001 C CNN "manf#"
	1    9730 5280
	-1   0    0    -1  
$EndComp
$Comp
L main-rescue:R-RESCUE-main R82
U 1 1 5AABCEF6
P 9295 1890
F 0 "R82" V 9205 1890 30  0000 C CNN
F 1 "10" V 9295 1890 50  0000 C CNN
F 2 "multispeq:r_0603" H 9295 1890 60  0001 C CNN
F 3 "OPTIONAL-16B-DET" H 9295 1890 10  0001 C CNN
F 4 "RC0603FR-0710RL" H 9295 1890 60  0001 C CNN "manf#"
	1    9295 1890
	0    -1   -1   0   
$EndComp
$Comp
L main-rescue:PWR_FLAG-RESCUE-main #FLG03
U 1 1 5AABCEFC
P 8940 1885
F 0 "#FLG03" H 8940 1980 50  0001 C CNN
F 1 "PWR_FLAG" H 8940 2065 50  0000 C CNN
F 2 "" H 8940 1885 60  0000 C CNN
F 3 "" H 8940 1885 60  0000 C CNN
	1    8940 1885
	1    0    0    -1  
$EndComp
$Comp
L main-rescue:INDUCTOR_SMALL-RESCUE-main L7
U 1 1 5AABCF04
P 9695 1890
F 0 "L7" H 9695 1990 50  0000 C CNN
F 1 "ferrite" H 9695 1840 50  0000 C CNN
F 2 "Inductor_SMD:L_0805_2012Metric" H 9695 1890 60  0001 C CNN
F 3 "OPTIONAL-16B-DET" H 9695 1890 60  0001 C CNN
F 4 "MI0805K601R-10" H 9695 1890 60  0001 C CNN "manf#"
	1    9695 1890
	1    0    0    -1  
$EndComp
$Comp
L main-rescue:Conn_01x01-Connector_Generic J3
U 1 1 5AABCF11
P 10245 1890
F 0 "J3" H 10324 1886 50  0000 L CNN
F 1 "Conn_01x01" H 10325 1841 50  0001 L CNN
F 2 "PINTST" H 10245 1890 50  0001 C CNN
F 3 "OPTIONAL-16B-DET" H 10245 1890 50  0001 C CNN
F 4 "DNI" H 10245 1890 50  0001 C CNN "manf#"
	1    10245 1890
	1    0    0    -1  
$EndComp
$Comp
L main-rescue:Conn_01x01-Connector_Generic J4
U 1 1 5AABFAF6
P 10245 2330
F 0 "J4" H 10324 2326 50  0000 L CNN
F 1 "Conn_01x01" H 10325 2281 50  0001 L CNN
F 2 "PINTST" H 10245 2330 50  0001 C CNN
F 3 "OPTIONAL-16B-DET" H 10245 2330 50  0001 C CNN
F 4 "hole" H 10245 2330 50  0001 C CNN "Desc"
F 5 "DNI" H 10245 2330 50  0001 C CNN "manf#"
	1    10245 2330
	1    0    0    -1  
$EndComp
$Comp
L main-rescue:GND-RESCUE-main #PWR068
U 1 1 5AAC2982
P 10045 2330
F 0 "#PWR068" H 10045 2080 50  0001 C CNN
F 1 "GND" H 10120 2230 20  0000 C CNN
F 2 "" H 10045 2330 60  0000 C CNN
F 3 "" H 10045 2330 60  0000 C CNN
	1    10045 2330
	1    0    0    -1  
$EndComp
$Comp
L main-rescue:R-RESCUE-main R85
U 1 1 5AA16D62
P 7380 2735
F 0 "R85" V 7290 2735 30  0000 C CNN
F 1 "0" V 7380 2735 50  0000 C CNN
F 2 "multispeq:r_0603" H 7380 2735 60  0001 C CNN
F 3 "OPTIONAL-16B-DET" H 7380 2735 10  0001 C CNN
F 4 "ERJ-3GEY0R00V" H 7380 2735 60  0001 C CNN "manf#"
	1    7380 2735
	0    -1   -1   0   
$EndComp
$Comp
L main-rescue:R-RESCUE-main R84
U 1 1 5AA20047
P 6965 4950
F 0 "R84" V 6875 4950 30  0000 C CNN
F 1 "0" V 6965 4950 50  0000 C CNN
F 2 "multispeq:r_0603" H 6965 4950 60  0001 C CNN
F 3 "OPTIONAL-16B-DET" H 6965 4950 10  0001 C CNN
F 4 "ERJ-3GEY0R00V" H 6965 4950 60  0001 C CNN "manf#"
	1    6965 4950
	0    -1   1    0   
$EndComp
$Comp
L main-rescue:R-RESCUE-main R43
U 1 1 5A9F24EC
P 2565 5805
F 0 "R43" V 2475 5805 30  0000 C CNN
F 1 "10K" V 2565 5805 50  0000 C CNN
F 2 "multispeq:r_0603" H 2565 5805 60  0001 C CNN
F 3 "OPTIONAL-16B-DET" H 2565 5805 10  0001 C CNN
F 4 "precision" H 2565 5805 50  0001 C CNN "Note"
F 5 "RR0816P-103-D" H 2565 5805 60  0001 C CNN "manf#"
	1    2565 5805
	-1   0    0    1   
$EndComp
$Comp
L main-rescue:R-RESCUE-main R87
U 1 1 5B396397
P 2250 5400
F 0 "R87" V 2160 5400 30  0000 C CNN
F 1 "100K" V 2250 5400 50  0000 C CNN
F 2 "multispeq:r_0603" H 2250 5400 60  0001 C CNN
F 3 "CRCW0603100KJNEA" H 2250 5400 10  0001 C CNN
F 4 "CRCW0603100KJNEA" H 2250 5400 60  0001 C CNN "manf#"
	1    2250 5400
	-1   0    0    1   
$EndComp
$Comp
L main-rescue:GND-RESCUE-main #PWR0102
U 1 1 5B3964DE
P 2250 5550
F 0 "#PWR0102" H 2250 5300 50  0001 C CNN
F 1 "GND" H 2325 5450 20  0000 C CNN
F 2 "" H 2250 5550 60  0000 C CNN
F 3 "" H 2250 5550 60  0000 C CNN
	1    2250 5550
	1    0    0    -1  
$EndComp
$Comp
L main-rescue:R-RESCUE-main R91
U 1 1 5B398E7A
P 2370 4220
F 0 "R91" V 2280 4220 30  0000 C CNN
F 1 "100K" V 2370 4220 50  0000 C CNN
F 2 "multispeq:r_0603" H 2370 4220 60  0001 C CNN
F 3 "CRCW0603100KJNEA" H 2370 4220 10  0001 C CNN
F 4 "CRCW0603100KJNEA" H 2370 4220 60  0001 C CNN "manf#"
	1    2370 4220
	-1   0    0    1   
$EndComp
$Comp
L main-rescue:GND-RESCUE-main #PWR0103
U 1 1 5B398E80
P 2370 4370
F 0 "#PWR0103" H 2370 4120 50  0001 C CNN
F 1 "GND" H 2445 4270 20  0000 C CNN
F 2 "" H 2370 4370 60  0000 C CNN
F 3 "" H 2370 4370 60  0000 C CNN
	1    2370 4370
	1    0    0    -1  
$EndComp
Text Notes 7290 2345 0    60   ~ 0
thin film
Text Notes 7800 2620 0    60   ~ 0
C0G
Text Notes 5830 1670 0    40   ~ 0
C0G
Text Notes 5865 1895 0    39   ~ 0
low ppm\nthin film
Text Notes 5770 1105 0    118  ~ 0
MEMS FPI\nDetector TIA
Text Notes 6840 2995 0    60   ~ 0
differential pairs\nfor noise reduction\n
Text Label 8740 1130 2    60   ~ 0
+30V
Text Label 5755 2760 0    60   ~ 0
+30V
Text Notes 4690 2850 0    60   ~ 0
thin films
Text Notes 4490 2740 0    60   ~ 0
offset voltage
Text Notes 9325 835  0    60   ~ 0
noise filter\n(2nd order would be better)
Text Label 5230 2595 0    60   ~ 0
+30V
Text Notes 5970 2925 0    39   ~ 0
place near op amp
Text Label 3270 4170 0    60   ~ 0
Drive1
Text Label 3265 5360 0    60   ~ 0
Drive2
Text Label 4950 2265 0    60   ~ 0
Drive2
Text Notes 4380 2380 0    60   ~ 0
C13272-02
Text Notes 6875 4560 0    60   ~ 0
thin film
Text Notes 7385 4835 0    60   ~ 0
C0G
Text Notes 5830 3885 0    40   ~ 0
C0G
Text Notes 5865 4110 0    39   ~ 0
low ppm\nthin film
Text Notes 6840 5210 0    60   ~ 0
differential pairs\nfor noise reduction\n
Text Label 5755 4990 0    60   ~ 0
+30V
Text Notes 4710 5050 0    60   ~ 0
thin films
Text Notes 4505 4955 0    60   ~ 0
offset voltage
Text Label 5230 4810 0    60   ~ 0
+30V
Text Notes 5975 5135 0    39   ~ 0
place near op amp
Text Label 4950 4480 0    60   ~ 0
Drive1
Text Notes 4490 4605 0    60   ~ 0
C14272
Text HLabel 10280 3800 2    40   Input ~ 0
AD2N
Text HLabel 10280 3950 2    40   Input ~ 0
AD2P
Text HLabel 10280 4100 2    40   Input ~ 0
AD1N
Text HLabel 10280 4250 2    40   Input ~ 0
AD1P
Text Notes 8870 3280 0    60   ~ 0
Use MAx4618 mux instead?
Text Label 2870 3870 0    60   ~ 0
+45V
Text Label 2865 5055 0    60   ~ 0
+45V
Text GLabel 1425 4075 0    60   Input ~ 0
+3.3V_SW
Text GLabel 9480 5280 0    40   Input ~ 0
+5V
Text GLabel 8240 4400 0    40   Input ~ 0
+3.3V_SW
Text GLabel 925  4390 0    40   Input ~ 0
SCL
Text GLabel 925  4490 0    40   BiDi ~ 0
SDA
Text GLabel 925  4590 0    40   Input ~ 0
~LDAC
Text GLabel 8780 4550 0    40   Output ~ 0
MISO
Text GLabel 8780 4700 0    40   Input ~ 0
CLK
Text GLabel 8780 4850 0    40   Input ~ 0
MOSI
Text GLabel 8780 5000 0    40   Input ~ 0
CNV
Text Notes 10460 1535 0    40   ~ 0
External DC \nPower Inputs
Text Notes 1160 3820 0    60   ~ 0
Variable Voltage Source
Text Label 3450 4690 0    60   ~ 0
+45V
Text Notes 1465 4900 0    60   ~ 0
0-2.048V output
Text Notes 8415 4785 0    60   ~ 0
SPI
Text Notes 9205 4005 0    60   ~ 0
4V Max
Text Label 8745 1890 2    60   ~ 0
+45V
Text Notes 10460 1155 0    60   ~ 0
+30V
Text Notes 10480 1890 0    60   ~ 0
+45V
Text Notes 10490 2360 0    60   ~ 0
GND
Text Notes 2695 5890 0    60   ~ 0
20x gain
Text Notes 7070 3780 0    60   ~ 0
filters near ADC
Text Label 6615 2435 0    60   ~ 0
DET_H2_P
Text Label 6755 2735 0    60   ~ 0
DET_H2_N
Text Label 6365 4650 0    60   ~ 0
DET_H1_P
Text Label 6560 4950 0    60   ~ 0
DET_H1_N
Text Label 8160 3800 0    60   ~ 0
DET_H2B_P
Text Label 8165 3950 0    60   ~ 0
DET_H2B_N
Text Label 8165 4100 0    60   ~ 0
DET_H1B_P
Text Label 8180 4250 0    60   ~ 0
DET_H1B_N
Text Notes 5290 3665 0    60   ~ 0
Use AD820 and limit supply to < 30V\nInput (+) offset may not be needed
Wire Wire Line
	5610 1945 5555 1945
Wire Wire Line
	8935 1125 8935 1130
Wire Wire Line
	8740 1130 8935 1130
Wire Wire Line
	4965 2895 5230 2895
Wire Wire Line
	4965 3095 4965 3195
Wire Wire Line
	4965 3195 5230 3195
Wire Wire Line
	8935 1130 8940 1130
Wire Wire Line
	6155 2435 6190 2435
Wire Wire Line
	8935 1130 8935 1135
Wire Wire Line
	8935 1130 9140 1130
Wire Wire Line
	5555 2535 5555 2895
Wire Wire Line
	5230 2895 5555 2895
Wire Wire Line
	5555 1715 5610 1715
Wire Wire Line
	5910 1715 6190 1715
Wire Wire Line
	5555 1715 5555 1945
Wire Wire Line
	5910 1945 6190 1945
Wire Wire Line
	6190 1715 6190 1945
Wire Wire Line
	6190 1945 6190 2435
Wire Wire Line
	5555 1945 5555 2335
Wire Wire Line
	4950 1715 5555 1715
Wire Wire Line
	6190 2435 7230 2435
Wire Wire Line
	7530 2435 7680 2435
Wire Wire Line
	2670 4270 2570 4270
Wire Wire Line
	2570 4270 2570 4470
Wire Wire Line
	2570 4770 3270 4770
Wire Wire Line
	3270 4770 3270 4170
Wire Wire Line
	1925 4390 1925 4070
Wire Wire Line
	1925 4070 2370 4070
Wire Wire Line
	2665 5455 2565 5455
Wire Wire Line
	2565 5455 2565 5655
Wire Wire Line
	2565 5955 3265 5955
Wire Wire Line
	3265 5955 3265 5355
Wire Wire Line
	1925 4490 2250 4490
Wire Wire Line
	2250 4490 2250 5250
Wire Wire Line
	2250 5255 2665 5255
Wire Wire Line
	4950 1715 4950 1835
Wire Wire Line
	5000 1935 5195 1935
Wire Wire Line
	4300 2035 4200 2035
Wire Wire Line
	4950 2265 4950 2135
Wire Wire Line
	5610 4160 5555 4160
Wire Wire Line
	4965 5110 5230 5110
Wire Wire Line
	4965 5310 4965 5410
Wire Wire Line
	4965 5410 5230 5410
Wire Wire Line
	6155 4650 6190 4650
Wire Wire Line
	5555 4750 5555 5110
Wire Wire Line
	5230 5110 5555 5110
Wire Wire Line
	5555 3930 5610 3930
Wire Wire Line
	5910 3930 6190 3930
Wire Wire Line
	5555 3930 5555 4160
Wire Wire Line
	5910 4160 6190 4160
Wire Wire Line
	6190 3930 6190 4160
Wire Wire Line
	6190 4160 6190 4650
Wire Wire Line
	5555 4160 5555 4550
Wire Wire Line
	4950 3930 5555 3930
Wire Wire Line
	6190 4650 6815 4650
Wire Wire Line
	7115 4650 7265 4650
Wire Wire Line
	7265 4650 7635 4650
Wire Wire Line
	4950 3930 4950 4050
Wire Wire Line
	5000 4150 5195 4150
Wire Wire Line
	4300 4250 4200 4250
Wire Wire Line
	4950 4480 4950 4350
Wire Wire Line
	10280 3650 10570 3650
Wire Wire Line
	10570 3650 10570 4400
Wire Wire Line
	10280 4400 10570 4400
Wire Wire Line
	10570 4400 10570 4550
Wire Wire Line
	10280 4550 10570 4550
Wire Wire Line
	10280 4850 10610 4850
Wire Wire Line
	10280 4700 10850 4700
Wire Wire Line
	10850 4700 10850 4850
Wire Wire Line
	8780 3950 7955 3950
Wire Wire Line
	7955 3950 7955 2735
Wire Wire Line
	7680 2735 7955 2735
Wire Wire Line
	8780 3800 8095 3800
Wire Wire Line
	8095 3800 8095 2435
Wire Wire Line
	7680 2435 8095 2435
Wire Wire Line
	7635 4650 7635 4100
Wire Wire Line
	7635 4100 8780 4100
Wire Wire Line
	7755 4950 7755 4250
Wire Wire Line
	7755 4250 8780 4250
Wire Wire Line
	7265 4950 7755 4950
Wire Wire Line
	5755 4350 5875 4350
Wire Wire Line
	5755 2135 5875 2135
Wire Wire Line
	1425 3905 1670 3905
Wire Wire Line
	1425 3905 1425 4140
Wire Wire Line
	5755 2735 5755 2760
Wire Wire Line
	5755 4990 5755 4950
Wire Wire Line
	8240 4400 8780 4400
Wire Wire Line
	10280 5280 10280 5000
Wire Wire Line
	9940 1130 10040 1130
Wire Wire Line
	8940 1885 8940 1890
Wire Wire Line
	8745 1890 8940 1890
Wire Wire Line
	8940 1890 8945 1890
Wire Wire Line
	8940 1890 8940 1895
Wire Wire Line
	8940 1890 9145 1890
Wire Wire Line
	9945 1890 10045 1890
Wire Wire Line
	5000 4250 5000 4150
Wire Wire Line
	4350 4350 4300 4350
Wire Wire Line
	4300 4350 4300 4250
Wire Wire Line
	5000 2035 5000 1935
Wire Wire Line
	4350 2135 4300 2135
Wire Wire Line
	4300 2135 4300 2035
Wire Wire Line
	7530 2735 7680 2735
Wire Wire Line
	6540 2735 7230 2735
Wire Wire Line
	7115 4950 7265 4950
Wire Wire Line
	6540 4950 6815 4950
Wire Wire Line
	2250 5250 2250 5255
Wire Wire Line
	2370 4070 2670 4070
Connection ~ 8935 1130
Connection ~ 5230 2895
Connection ~ 5230 3195
Connection ~ 6190 1945
Connection ~ 5555 1945
Connection ~ 5555 1715
Connection ~ 6190 2435
Connection ~ 7530 2435
Connection ~ 7680 2435
Connection ~ 7680 2735
Connection ~ 2870 4470
Connection ~ 2570 4470
Connection ~ 2865 5655
Connection ~ 5230 5110
Connection ~ 5230 5410
Connection ~ 6190 4160
Connection ~ 5555 4160
Connection ~ 5555 3930
Connection ~ 6190 4650
Connection ~ 7115 4650
Connection ~ 7265 4650
Connection ~ 7265 4950
Connection ~ 10570 4400
Connection ~ 10570 4550
Connection ~ 10280 5280
Connection ~ 8940 1890
Connection ~ 5000 4150
Connection ~ 4300 4250
Connection ~ 5000 1935
Connection ~ 4300 2035
Connection ~ 7530 2735
Connection ~ 7115 4950
Connection ~ 2565 5655
Connection ~ 2250 5250
Connection ~ 2370 4070
NoConn ~ 4350 1835
NoConn ~ 4300 1935
NoConn ~ 4350 4050
NoConn ~ 4300 4150
NoConn ~ 1925 4590
NoConn ~ 1925 4690
NoConn ~ 925  4690
Text Notes 2690 4715 0    60   ~ 0
20x gain
$EndSCHEMATC
