EESchema Schematic File Version 4
LIBS:main-cache
EELAYER 26 0
EELAYER END
$Descr A4 11693 8268
encoding utf-8
Sheet 3 9
Title "Reflectance 1.0"
Date "2017-04-24"
Rev "1.0"
Comp "OurSci"
Comment1 "Zegarac Robert"
Comment2 "Jon Zeeff"
Comment3 ""
Comment4 ""
$EndDescr
$Comp
L main-rescue:GND-RESCUE-main #PWR024
U 1 1 55E4B6FE
P 4375 1575
F 0 "#PWR024" H 4375 1325 50  0001 C CNN
F 1 "GND" H 4375 1425 50  0000 C CNN
F 2 "" H 4375 1575 60  0000 C CNN
F 3 "" H 4375 1575 60  0000 C CNN
	1    4375 1575
	1    0    0    -1  
$EndComp
$Comp
L main-rescue:INDUCTOR-RESCUE-main L2
U 1 1 55E4B703
P 3575 2100
F 0 "L2" V 3525 2100 50  0000 C CNN
F 1 "ferrite" V 3675 2100 50  0000 C CNN
F 2 "Inductor_SMD:L_0805_2012Metric" H 3575 2100 60  0001 C CNN
F 3 "MI0805K601R-10" H 3575 2100 60  0001 C CNN
F 4 "MI0805K601R-10" H 3575 2100 60  0001 C CNN "manf#"
	1    3575 2100
	1    0    0    -1  
$EndComp
$Comp
L main-rescue:R-RESCUE-main R47
U 1 1 55E4B709
P 4425 2650
F 0 "R47" V 4505 2650 50  0000 C CNN
F 1 "680" V 4425 2650 50  0000 C CNN
F 2 "multispeq:r_0603" V 4355 2650 30  0001 C CNN
F 3 "ERJ-3GEYJ681V" H 4425 2650 30  0001 C CNN
F 4 "ERJ-3GEYJ681V" H 4425 2650 60  0001 C CNN "manf#"
	1    4425 2650
	0    1    1    0   
$EndComp
$Comp
L main-rescue:R-RESCUE-main R45
U 1 1 55E4B70A
P 2750 3300
F 0 "R45" V 2650 3300 50  0000 C CNN
F 1 "33" V 2750 3300 50  0000 C CNN
F 2 "multispeq:r_0603" V 2680 3300 30  0001 C CNN
F 3 "ERJ-3GEYJ330V" H 2750 3300 30  0001 C CNN
F 4 "ERJ-3GEYJ330V" H 2750 3300 60  0001 C CNN "manf#"
	1    2750 3300
	0    1    1    0   
$EndComp
$Comp
L main-rescue:R-RESCUE-main R46
U 1 1 55E4B70B
P 2750 3475
F 0 "R46" V 2675 3475 50  0000 C CNN
F 1 "33" V 2750 3475 50  0000 C CNN
F 2 "multispeq:r_0603" V 2680 3475 30  0001 C CNN
F 3 "ERJ-3GEYJ330V" H 2750 3475 30  0001 C CNN
F 4 "ERJ-3GEYJ330V" H 2750 3475 60  0001 C CNN "manf#"
	1    2750 3475
	0    1    1    0   
$EndComp
$Comp
L main-rescue:INDUCTOR-RESCUE-main L1
U 1 1 55E4B70C
P 3275 2950
F 0 "L1" V 3225 2950 50  0000 C CNN
F 1 "ferrite" V 3375 2950 50  0000 C CNN
F 2 "Inductor_SMD:L_0805_2012Metric" H 3275 2950 60  0001 C CNN
F 3 "MI0805K601R-10" H 3275 2950 60  0001 C CNN
F 4 "MI0805K601R-10" H 3275 2950 60  0001 C CNN "manf#"
	1    3275 2950
	0    1    1    0   
$EndComp
$Comp
L main-rescue:GND-RESCUE-main #PWR025
U 1 1 55E4B70D
P 2975 2950
F 0 "#PWR025" H 2975 2700 50  0001 C CNN
F 1 "GND" H 2975 2800 50  0000 C CNN
F 2 "" H 2975 2950 60  0000 C CNN
F 3 "" H 2975 2950 60  0000 C CNN
	1    2975 2950
	1    0    0    -1  
$EndComp
$Comp
L main-rescue:GND-RESCUE-main #PWR026
U 1 1 55E4B710
P 3025 4225
F 0 "#PWR026" H 3025 3975 50  0001 C CNN
F 1 "GND" H 3025 4075 50  0000 C CNN
F 2 "" H 3025 4225 60  0000 C CNN
F 3 "" H 3025 4225 60  0000 C CNN
	1    3025 4225
	1    0    0    -1  
$EndComp
$Comp
L main-rescue:GND-RESCUE-main #PWR027
U 1 1 55E4B715
P 5675 5200
F 0 "#PWR027" H 5675 4950 50  0001 C CNN
F 1 "GND" H 5675 5050 50  0000 C CNN
F 2 "" H 5675 5200 60  0000 C CNN
F 3 "" H 5675 5200 60  0000 C CNN
	1    5675 5200
	1    0    0    -1  
$EndComp
$Comp
L main-rescue:GND-RESCUE-main #PWR028
U 1 1 55E4B718
P 4250 2100
F 0 "#PWR028" H 4250 1850 50  0001 C CNN
F 1 "GND" H 4250 1950 50  0000 C CNN
F 2 "" H 4250 2100 60  0000 C CNN
F 3 "" H 4250 2100 60  0000 C CNN
	1    4250 2100
	1    0    0    -1  
$EndComp
$Comp
L main-rescue:AGND-RESCUE-main #PWR029
U 1 1 55E4B719
P 3575 3075
AR Path="/55E4B719" Ref="#PWR029"  Part="1" 
AR Path="/563D36EF/55E4B719" Ref="#PWR029"  Part="1" 
F 0 "#PWR029" H 3575 3075 40  0001 C CNN
F 1 "AGND" H 3575 3005 50  0000 C CNN
F 2 "" H 3575 3075 60  0000 C CNN
F 3 "" H 3575 3075 60  0000 C CNN
	1    3575 3075
	1    0    0    -1  
$EndComp
$Comp
L main-rescue:CONN_02X05-RESCUE-main P1
U 1 1 55E4B71E
P 4575 4400
F 0 "P1" H 4575 4700 50  0000 C CNN
F 1 "SWD" H 4575 4100 50  0000 C CNN
F 2 "multispeq:2x5_SWG_ISP_0.05_reversed" H 4575 3200 60  0001 C CNN
F 3 "GRPB052VWVN-RC" H 4575 3200 60  0001 C CNN
F 4 "GRPB052VWVN-RC" H 4575 4400 60  0001 C CNN "manf#"
	1    4575 4400
	1    0    0    -1  
$EndComp
$Comp
L main-rescue:GND-RESCUE-main #PWR030
U 1 1 55E4B71F
P 4150 4600
F 0 "#PWR030" H 4150 4350 50  0001 C CNN
F 1 "GND" H 4150 4450 50  0000 C CNN
F 2 "" H 4150 4600 60  0000 C CNN
F 3 "" H 4150 4600 60  0000 C CNN
	1    4150 4600
	1    0    0    -1  
$EndComp
$Comp
L main-rescue:GND-RESCUE-main #PWR032
U 1 1 55E4B729
P 4625 3500
F 0 "#PWR032" H 4625 3250 50  0001 C CNN
F 1 "GND" H 4625 3350 50  0000 C CNN
F 2 "" H 4625 3500 60  0000 C CNN
F 3 "" H 4625 3500 60  0000 C CNN
	1    4625 3500
	1    0    0    -1  
$EndComp
$Comp
L main-rescue:MK20DX256VLH7-RESCUE-main U15
U 1 1 55E4B71A
P 7275 3350
F 0 "U15" H 7175 5325 60  0000 L CNN
F 1 "MK20DX256VLH7" H 6925 2825 60  0000 L CNN
F 2 "multispeq:MK20" H 7275 3350 60  0001 C CNN
F 3 "MK20DX256VLH7" H 7175 4500 60  0001 C CNN
F 4 "MK20DX256VLH7" H 7275 3350 60  0001 C CNN "manf#"
	1    7275 3350
	1    0    0    -1  
$EndComp
$Comp
L main-rescue:C-RESCUE-main C34
U 1 1 5635965C
P 3025 4075
F 0 "C34" H 3050 4175 50  0000 L CNN
F 1 ".1u" H 3050 3975 50  0000 L CNN
F 2 "multispeq:c_0603" H 3063 3925 30  0001 C CNN
F 3 "06035C104K4T2A" H 3025 4075 60  0001 C CNN
F 4 "CC0603KRX7R8BB104" H 3025 4075 60  0001 C CNN "manf#"
	1    3025 4075
	-1   0    0    1   
$EndComp
$Comp
L main-rescue:C-RESCUE-main C35
U 1 1 565DB505
P 3575 2650
F 0 "C35" H 3600 2750 50  0000 L CNN
F 1 "10u" H 3600 2550 50  0000 L CNN
F 2 "multispeq:c_0603" H 3613 2500 30  0001 C CNN
F 3 "GRM188R61A106KE69D" H 3575 2650 60  0001 C CNN
F 4 "GRM188R61A106KE69D" H 3575 2650 60  0001 C CNN "manf#"
	1    3575 2650
	-1   0    0    1   
$EndComp
$Comp
L main-rescue:C-RESCUE-main C40
U 1 1 565DBBA9
P 4800 2800
F 0 "C40" H 4825 2900 50  0000 L CNN
F 1 "10u" H 4825 2700 50  0000 L CNN
F 2 "multispeq:c_0603" H 4838 2650 30  0001 C CNN
F 3 "GRM188R61A106KE69D" H 4800 2800 60  0001 C CNN
F 4 "GRM188R61A106KE69D" H 4800 2800 60  0001 C CNN "manf#"
	1    4800 2800
	-1   0    0    1   
$EndComp
$Comp
L main-rescue:C-RESCUE-main C42
U 1 1 565DC040
P 5525 2750
F 0 "C42" V 5575 2825 50  0000 L CNN
F 1 "10u" V 5575 2575 50  0000 L CNN
F 2 "multispeq:c_0603" H 5563 2600 30  0001 C CNN
F 3 "GRM188R61A106KE69D" H 5525 2750 60  0001 C CNN
F 4 "GRM188R61A106KE69D" H 5525 2750 60  0001 C CNN "manf#"
	1    5525 2750
	0    -1   -1   0   
$EndComp
$Comp
L main-rescue:C-RESCUE-main C36
U 1 1 565FA538
P 3975 1950
F 0 "C36" H 4000 2050 50  0000 L CNN
F 1 "10u" H 4000 1850 50  0000 L CNN
F 2 "multispeq:c_0603" H 4013 1800 30  0001 C CNN
F 3 "GRM188R61A106KE69D" H 3975 1950 60  0001 C CNN
F 4 "GRM188R61A106KE69D" H 3975 1950 60  0001 C CNN "manf#"
	1    3975 1950
	-1   0    0    1   
$EndComp
$Comp
L main-rescue:C-RESCUE-main C37
U 1 1 5662BCB0
P 4250 1950
F 0 "C37" H 4275 2050 50  0000 L CNN
F 1 "10u" H 4275 1850 50  0000 L CNN
F 2 "multispeq:c_0603" H 4288 1800 30  0001 C CNN
F 3 "GRM188R61A106KE69D" H 4250 1950 60  0001 C CNN
F 4 "GRM188R61A106KE69D" H 4250 1950 60  0001 C CNN "manf#"
	1    4250 1950
	-1   0    0    1   
$EndComp
$Comp
L main-rescue:C-RESCUE-main C39
U 1 1 5662BD0F
P 4575 1950
F 0 "C39" H 4600 2050 50  0000 L CNN
F 1 "10u" H 4600 1850 50  0000 L CNN
F 2 "multispeq:c_0603" H 4613 1800 30  0001 C CNN
F 3 "GRM188R61A106KE69D" H 4575 1950 60  0001 C CNN
F 4 "GRM188R61A106KE69D" H 4575 1950 60  0001 C CNN "manf#"
	1    4575 1950
	-1   0    0    1   
$EndComp
$Comp
L main-rescue:C-RESCUE-main C41
U 1 1 5662BD75
P 4975 1950
F 0 "C41" H 5000 2050 50  0000 L CNN
F 1 "10u" H 5000 1850 50  0000 L CNN
F 2 "multispeq:c_0603" H 5013 1800 30  0001 C CNN
F 3 "GRM188R61A106KE69D" H 4975 1950 60  0001 C CNN
F 4 "GRM188R61A106KE69D" H 4975 1950 60  0001 C CNN "manf#"
	1    4975 1950
	-1   0    0    1   
$EndComp
$Comp
L main-rescue:C-RESCUE-main C38
U 1 1 5662C309
P 4375 1400
F 0 "C38" H 4400 1500 50  0000 L CNN
F 1 "10u" H 4400 1300 50  0000 L CNN
F 2 "multispeq:c_0603" H 4413 1250 30  0001 C CNN
F 3 "GRM188R61A106KE69D" H 4375 1400 60  0001 C CNN
F 4 "GRM188R61A106KE69D" H 4375 1400 60  0001 C CNN "manf#"
	1    4375 1400
	-1   0    0    1   
$EndComp
$Comp
L multispec:CRYSTAL_SMD_4PIN X1
U 1 1 56952E09
P 4975 3500
F 0 "X1" V 5100 3400 50  0000 C CNN
F 1 "16Mhz" V 4850 3575 50  0000 L CNN
F 2 "multispeq:crystal_FA238-TSX3225_tape" H 4975 3500 60  0001 C CNN
F 3 "CX3225SB16000D0GZJC1" H 4975 3500 60  0001 C CNN
F 4 "CX3225SB16000D0GZJC1" V 4975 3500 60  0001 C CNN "manf#"
	1    4975 3500
	0    1    1    0   
$EndComp
$Comp
L multispec:CRYSTAL_SMD_2PIN X2
U 1 1 5695300F
P 5475 3700
F 0 "X2" H 5575 3800 50  0000 C CNN
F 1 "32.768 Khz" H 5200 3550 50  0000 L CNN
F 2 "multispeq:Crystal_SMD_0603_2Pads" H 5475 3700 60  0001 C CNN
F 3 "DNI FX135A-327" H 5475 3700 60  0001 C CNN
F 4 "DNI FX135A-327" H 5475 3700 60  0001 C CNN "manf#"
	1    5475 3700
	1    0    0    -1  
$EndComp
$Comp
L main-rescue:AGND-RESCUE-main #PWR033
U 1 1 5968F51A
P 8775 5725
AR Path="/5968F51A" Ref="#PWR033"  Part="1" 
AR Path="/563D36EF/5968F51A" Ref="#PWR033"  Part="1" 
F 0 "#PWR033" H 8775 5725 40  0001 C CNN
F 1 "AGND" H 8775 5655 50  0000 C CNN
F 2 "" H 8775 5725 60  0000 C CNN
F 3 "" H 8775 5725 60  0000 C CNN
	1    8775 5725
	1    0    0    -1  
$EndComp
$Comp
L main-rescue:PWR_FLAG-RESCUE-main #FLG034
U 1 1 59857999
P 3950 2950
F 0 "#FLG034" H 3950 3045 50  0001 C CNN
F 1 "PWR_FLAG" H 3950 3130 50  0000 C CNN
F 2 "" H 3950 2950 60  0000 C CNN
F 3 "" H 3950 2950 60  0000 C CNN
	1    3950 2950
	1    0    0    -1  
$EndComp
Text Notes 510  3200 0    60   ~ 0
http://www.usb.org/developers/docs/hs_usb_pdg_r1_0.pdf\nUSB needs 90 ohm, \nequal length \ndifferential data lines\n7.5 mil wide, 7.5 mil apart
Text Notes 6325 3400 0    60   ~ 0
Crystal tight to MCU\nGround plane island
Text HLabel 8875 1650 2    40   Output ~ 0
23/A9
Text HLabel 8875 1750 2    40   Output ~ 0
22/A8
Text HLabel 8875 1850 2    40   Output ~ 0
21/A7
Text HLabel 8875 1950 2    40   Output ~ 0
20/A6
Text HLabel 8875 2050 2    40   BiDi ~ 0
19/A5
Text HLabel 8875 2150 2    40   Output ~ 0
18/A4
Text HLabel 8875 2250 2    40   Input ~ 0
17/A3
Text HLabel 8875 2350 2    40   Input ~ 0
16/A2
Text HLabel 8875 2450 2    40   Input ~ 0
15/A1
Text HLabel 8875 2550 2    40   Output ~ 0
14/A0
Text HLabel 8875 2650 2    40   Output ~ 0
13(LED)
Text HLabel 8875 2800 2    40   Output ~ 0
12
Text HLabel 8875 2900 2    40   Input ~ 0
11
Text HLabel 8875 3000 2    40   BiDi ~ 0
10
Text HLabel 8875 3100 2    40   Output ~ 0
9
Text HLabel 8875 3200 2    40   Output ~ 0
8
Text HLabel 8875 3300 2    40   Output ~ 0
7
Text HLabel 8875 3400 2    40   Output ~ 0
6
Text HLabel 8875 3500 2    40   Output ~ 0
5
Text HLabel 8875 3700 2    40   Output ~ 0
3
Text HLabel 8875 3800 2    40   Output ~ 0
2
Text HLabel 8875 4800 2    40   Output ~ 0
28
Text HLabel 8875 4900 2    40   Output ~ 0
27
Text HLabel 2500 1800 0    40   Output ~ 0
+3.3V
Text HLabel 5675 2300 0    40   Input ~ 0
A11
Text HLabel 5550 2600 0    40   Output ~ 0
AREF
Text HLabel 5675 2400 0    40   Input ~ 0
A10
Text HLabel 8875 5350 2    40   Input ~ 0
A12
Text HLabel 8875 3600 2    40   Output ~ 0
4
Text HLabel 8875 3900 2    40   Output ~ 0
1
Text HLabel 8875 4000 2    40   Input ~ 0
0
Text HLabel 8875 4300 2    40   Output ~ 0
33
Text HLabel 8875 4400 2    40   Output ~ 0
32
Text HLabel 8875 4500 2    40   Output ~ 0
31
Text HLabel 8875 4600 2    40   Output ~ 0
30
Text HLabel 8875 4700 2    40   Output ~ 0
29
Text HLabel 8875 4150 2    40   Input ~ 0
A13
Text HLabel 8875 5000 2    40   Output ~ 0
26
Text HLabel 8875 5100 2    40   Output ~ 0
25
Text HLabel 8875 5200 2    40   Output ~ 0
24
Text HLabel 2500 1250 0    60   Input ~ 0
+5V
Text HLabel 2525 3925 0    40   Input ~ 0
3.3Vperm
Text HLabel 4325 4200 0    40   Input ~ 0
+3.3V
Text HLabel 2575 5100 0    40   Input ~ 0
RESET
Text Notes 6250 4475 0    60   ~ 0
Also create test pads \nfor these
Text HLabel 2450 3475 0    60   BiDi ~ 0
D+
Text HLabel 2450 3300 0    60   BiDi ~ 0
D-
Text HLabel 8875 5500 2    40   Output ~ 0
DAC/A14
Text Label 4975 3200 0    40   ~ 0
Guard_trace
Text Notes 9150 4375 0    60   ~ 0
26/PTA4 is boot critical
Text Label 3250 3300 0    60   ~ 0
-
Text Label 3275 3475 0    60   ~ 0
+
Text Label 5175 3775 0    40   ~ 0
G
Text HLabel 8875 5625 2    40   Output ~ 0
AGND
Text Notes 2420 6550 0    60   ~ 0
Critical to boot process:\nVREGIN\nVDD\nUSB\nXTALs\nVBAT\nPTA0/1/2/3\nRESET\nVSS\nPTA4
Wire Wire Line
	2500 1250 4375 1250
Wire Wire Line
	2500 1800 3575 1800
Wire Wire Line
	5250 5100 5250 4600
Wire Wire Line
	3825 3475 2900 3475
Wire Wire Line
	3825 3150 3825 3475
Wire Wire Line
	5675 3150 3825 3150
Wire Wire Line
	5300 1250 5300 1700
Wire Wire Line
	5300 1700 5675 1700
Wire Wire Line
	3575 2400 3575 2500
Wire Wire Line
	3575 2500 4275 2500
Wire Wire Line
	5675 2950 5675 2850
Wire Wire Line
	5375 2750 5375 2850
Wire Wire Line
	5375 2850 5675 2850
Wire Wire Line
	3575 2950 3950 2950
Wire Wire Line
	3575 2800 3575 2950
Wire Wire Line
	4575 2650 4800 2650
Wire Wire Line
	4275 2650 4275 2500
Wire Wire Line
	3725 3050 5675 3050
Wire Wire Line
	3725 3050 3725 3300
Wire Wire Line
	4975 3300 5675 3300
Wire Wire Line
	5125 3450 5125 3700
Wire Wire Line
	5125 3450 5675 3450
Wire Wire Line
	5675 2600 5550 2600
Wire Wire Line
	5675 2650 5675 2600
Wire Wire Line
	5675 4850 5675 4950
Wire Wire Line
	4825 4600 5250 4600
Wire Wire Line
	4375 1575 4375 1550
Wire Wire Line
	3975 2100 4250 2100
Wire Wire Line
	4825 4200 5675 4200
Wire Wire Line
	4825 4300 5675 4300
Wire Wire Line
	4825 4400 5675 4400
Wire Wire Line
	5125 3700 4975 3700
Wire Wire Line
	4625 3500 4825 3500
Wire Wire Line
	5000 4500 4825 4500
Wire Wire Line
	5000 4000 5675 4000
Wire Wire Line
	4150 4600 4325 4600
Wire Wire Line
	4150 4300 4150 4400
Wire Wire Line
	4325 4300 4150 4300
Wire Wire Line
	4325 4400 4150 4400
Wire Wire Line
	3725 3300 2900 3300
Wire Wire Line
	5250 5100 2575 5100
Wire Wire Line
	5275 3700 5275 3550
Wire Wire Line
	5275 3550 5675 3550
Wire Wire Line
	5675 3925 5675 3800
Wire Wire Line
	2525 3925 3025 3925
Wire Wire Line
	5000 4000 5000 4500
Wire Wire Line
	2450 3475 2600 3475
Wire Wire Line
	2450 3300 2600 3300
Wire Wire Line
	4825 3200 4825 3500
Wire Wire Line
	4825 3200 4975 3200
Wire Wire Line
	4825 3775 5075 3775
Wire Wire Line
	5075 3500 5075 3775
Wire Wire Line
	5675 1800 5675 1900
Wire Wire Line
	8775 5725 8775 5625
Wire Wire Line
	8775 5625 8875 5625
Wire Wire Line
	4375 1250 5300 1250
Wire Wire Line
	5250 4600 5675 4600
Wire Wire Line
	4800 2950 5675 2950
Wire Wire Line
	4800 2650 5675 2650
Wire Wire Line
	4275 2500 5675 2500
Wire Wire Line
	3025 3925 5675 3925
Wire Wire Line
	5675 2000 5675 2100
Wire Wire Line
	5675 1900 5675 2000
Wire Wire Line
	5675 4950 5675 5050
Wire Wire Line
	5675 5050 5675 5200
Wire Wire Line
	3575 1800 3975 1800
Wire Wire Line
	4250 1800 4575 1800
Wire Wire Line
	4575 1800 4975 1800
Wire Wire Line
	4975 1800 5675 1800
Wire Wire Line
	4575 2100 4975 2100
Wire Wire Line
	4250 2100 4575 2100
Wire Wire Line
	4825 3500 4875 3500
Wire Wire Line
	4825 3500 4825 3775
Wire Wire Line
	4150 4400 4150 4600
Wire Wire Line
	3975 1800 4250 1800
Wire Wire Line
	3575 2950 3575 3075
Wire Wire Line
	5075 3775 5175 3775
Wire Wire Line
	3950 2950 4800 2950
Connection ~ 4375 1250
Connection ~ 5250 4600
Connection ~ 4800 2950
Connection ~ 4800 2650
Connection ~ 4275 2500
Connection ~ 3025 3925
Connection ~ 5675 2650
Connection ~ 5675 2000
Connection ~ 5675 1900
Connection ~ 5675 4950
Connection ~ 5675 5050
Connection ~ 3575 1800
Connection ~ 4250 1800
Connection ~ 4575 1800
Connection ~ 5675 1800
Connection ~ 4975 1800
Connection ~ 4575 2100
Connection ~ 4250 2100
Connection ~ 4825 3500
Connection ~ 4150 4400
Connection ~ 3975 1800
Connection ~ 3575 2950
Connection ~ 5675 2850
Connection ~ 5675 2950
Connection ~ 3575 2500
Connection ~ 5075 3775
Connection ~ 3950 2950
NoConn ~ 4325 4500
$EndSCHEMATC
