"Id";"Designator";"Package";"Quantity";"Designation";"Supplier and ref";
1;"C38,C46";"c_1206";2;"0.1u";;;
2;"D1,D2,D3,D10,D11,D13,D14";"sod323";7;"D";;;
3;"D4,D5,D6,D7,D8";"Luxeon_Z+t";5;"ACT_PULSE";;;
4;"D9";"Pin_diode_SIPS_down";1;"DETB";;;
5;"D12";"Led_1206";1;"DETB";;;
6;"D15,D16";"Led_0603";2;"LED";;;
7;"L1,L2";"R_0805";2;"INDUCTOR";;;
8;"Q1";"sot23";1;"Q_PMOS_GSD";;;
9;"Q2,Q3,Q4,Q5,Q6";"tsot-6";5;"MOSN";;;
10;"Q7,Q8,Q9";"sot23";3;"JFET";;;
11;"Q10,Q12";"sc70-6";2;"SIA461DJ-T1-GE3";;;
12;"Q11";"sc70-6";1;"SIA418DJ-T1-GE3";;;
13;"R32,R38,R44,R50,R56";"r_0805";5;"2";;;
14;"U1";"SOT-23-5";1;"TPS782";;;
15;"U2";"QFN-20-1EP_4x4mm_Pitch0.5mm";1;"AD7689";;;
16;"U3,U6";"DFN-10-1EP_2x2mm_Pitch0.4mm";2;"MCP4728";;;
17;"U8";"DFN-8-1EP_3x3mm_Pitch0.65mm";1;"BME280";;;
18;"U10";"DFN-10-1EP_2x2mm_Pitch0.4mm";1;"MMA8653";;;
19;"U11";"DFN-10-1EP_2x2mm_Pitch0.4mm";1;"MAG3110";;;
20;"U12";"TO-72_4Pin";1;"MLX90615";;;
21;"U13,U15,U17,U19,U21";"sc70-6";5;"SW_SPDT";;;
22;"U14,U16,U18,U20,U22";"sot23-5";5;"TS461";;;
23;"U23,U25";"sot23-6";2;"ADG1201";;;
24;"U24,U26";"so-8";2;"OPA2228";;;
25;"U30,U31,U32";"sot23-6";3;"MC33078";;;
26;"U33";"LQFP-64_10x10mm_Pitch0.5mm";1;"MK20DX256VLH7";;;
27;"U34";"TSSOP-10_3x3mm_Pitch0.5mm";1;"BQ24093DGQR";;;
28;"U35";"DFN-10-1EP_3x3mm_Pitch0.5mm";1;"TPS63700";;;
29;"U36";"DFN-8-1EP_2x2mm_Pitch0.5mm";1;"TPS61252";;;
30;"U37";"SOT-23-5";1;"AP3012";;;
31;"Conn1";"USB_Type-C";1;"USB_Type-C";;;
32;"P3";"ISP_10";1;"SWD";;;
33;"U4";"BLE_CC2540";1;"CC2540-S1";;;
34;"P1";"FPC_27";1;"206RIBBON_MAIN";;;
35;"U5";"TO-92_Inline_Narrow_Oval";1;"OHS3150U";;;
36;"U9";"TCS3472-Wide-solderable";1;"TCS34715FN";;;
37;"P4";"conn_usb_B_micro_smd-4";1;"USB_MICRO";;;
38;"X2";"Crystal_SMD_0603_4Pads";1;"32.767 Mhz";;;
39;"C70";"R_0603";1;"100n";;;
40;"C72,C73,C74,C75,C77,C15";"R_0603";6;"10u";;;
41;"R1";"R_0603";1;"100K";;;
42;"R2,R4,R5";"R_0603";3;"10K";;;
43;"R82,R83";"R_0603";2;"33";;;
44;"R84";"R_0603";1;"680";;;
45;"R89";"R_0603";1;"10";;;
46;"R93";"R_0603";1;"27K";;;
47;"R95,R97,R98";"R_0603";3;"18K";;;
48;"R96";"R_0603";1;"2K";;;
49;"U29,U28,U27";"sot23";3;"AN431AN-ATRG1";;;
50;"R25,R26,R27";"R_0603";3;"100";;;
51;"L8,L7,L6,L5,L4";"Neosid_Inductor_SMs50";5;"10uH";;;
52;"R91";"R_0603";1;"160K";;;
53;"C76,C71,C79,C60,C59,C58,C57,C56,C55,C54,C53,C52,C50,C49,C48,C45,C42,C41,C40,C37,C35,C32,C29,C26,C23,C20,C19,C18,C17,C16,C13,C12,C10,C9,C8,C6,C5,C4,C3,C2,C85,C84,C83,C81,C80,C78,C14";"C_0603";47;"10u";;;
54;"R69,R63";"C_0603";2;"680";;;
55;"C66,C65,C64,C11,C7,C1";"C_0603";6;"100n";;;
56;"C63,C62,C61,C90";"C_0603";4;"10p";;;
57;"C51,C47,C43,C39";"C_0603";4;"1n";;;
58;"R88,R87,R86,R57,R55,R52,R51,R49,R46,R45,R43,R40,R39,R37,R34,R33,R31,R28";"r_0603";18;"2K";;;
59;"R85,R72,R71,R70,R68,R67,R66,R65,R64,R62,R61,R60,R59,R58";"r_0603";14;"1K";;;
60;"R81,R80,R79,R77";"r_0603";4;"10K";;;
61;"R78,R76,R75,R74,R73";"r_0603";5;"30K";;;
62;"R54,R48,R42,R36,R30";"r_0603";5;"150";;;
63;"R53,R47,R41,R35,R29,R3,NTC1";"r_0603";7;"100K";;;
64;"C34,C31,C28,C25,C22";"r_0603";5;"22p";;;
65;"C33,C30,C27,C24,C21";"r_0603";5;"100n";;;
66;"D18,D17";"SOD-123";2;"SL03";;;
67;"C36,C44,C67,C68,C69,C87,C89,C91,C92,C93,C88";"C_1210";11;"100u";;;
68;"R99,R90";"C_0603";2;"160K";;;
69;"R94,R92";"C_0603";2;"6.8K";;;
70;"C86";"C_0603";1;"100pF";;;
71;"C82";"C_0603";1;"4.7n";;;
72;"X1";"crystal_FA238-TSX3225";1;"CRYSTAL_SMD";;;
73;"R7,R8,R9,R10,R11,R6,R12,R13,R14,R15,R16,R17,R18,R19,R20";"R_0402S";15;"0";;;
74;"SW1";"SW_PB_RA";1;"RESET";;;
75;"L3";"Neosid_Inductor_Ms42";1;"1uH";;;
