EESchema Schematic File Version 2
LIBS:programmer
LIBS:programmer-cache
EELAYER 25 0
EELAYER END
$Descr USLetter 11000 8500
encoding utf-8
Sheet 1 1
Title "Programmer"
Date ""
Rev ""
Comp "Photosynq"
Comment1 "teensy type programmer"
Comment2 "http://www.pjrc.com/store/ic_mkl02.html"
Comment3 "Jon Zeeff"
Comment4 ""
$EndDescr
$Comp
L CONN_02X05 P1
U 1 1 562679E0
P 5600 4000
F 0 "P1" H 5600 4300 50  0000 C CNN
F 1 "CONN_02X05" H 5600 3700 50  0000 C CNN
F 2 "photosynq:header_2x5_.050" H 5600 2800 60  0001 C CNN
F 3 "M50-3500542" H 5600 2800 60  0000 C CNN
F 4 "M50-3500542" H 5600 4000 60  0001 C CNN "manf#"
	1    5600 4000
	1    0    0    -1  
$EndComp
$Comp
L MKL04Z32_TQFP32 IC1
U 1 1 56268BFB
P 2800 4025
F 0 "IC1" H 2000 5325 40  0000 L BNN
F 1 "MKL04Z32_TQFP32" H 2375 3775 40  0000 L BNN
F 2 "Housings_QFP:TQFP-32_7x7mm_Pitch0.8mm" H 2800 4025 30  0000 C CIN
F 3 "" H 2800 4025 60  0000 C CNN
F 4 "Value" H 2800 4025 60  0001 C CNN "manf#"
	1    2800 4025
	1    0    0    -1  
$EndComp
Wire Wire Line
	3750 4325 3750 4425
Wire Wire Line
	3750 4525 3750 4625
NoConn ~ 5350 4100
Wire Wire Line
	3750 4325 5075 4325
Connection ~ 3750 4325
Wire Wire Line
	5350 4000 5350 3900
Wire Wire Line
	5350 3900 5225 3900
Wire Wire Line
	5225 3900 5225 4525
Wire Wire Line
	5225 4525 3750 4525
Connection ~ 3750 4525
Wire Wire Line
	5350 4200 5225 4200
Connection ~ 5225 3900
Connection ~ 5350 3900
Wire Wire Line
	3750 3225 5850 3225
Wire Wire Line
	5850 3225 5850 3800
Wire Wire Line
	3750 3325 5925 3325
Wire Wire Line
	5925 3325 5925 3900
Wire Wire Line
	3750 3425 6000 3425
Wire Wire Line
	6000 3425 6000 4000
Wire Wire Line
	3750 3525 6100 3525
Wire Wire Line
	6100 3525 6100 4100
Wire Wire Line
	3750 3700 3750 3825
$Comp
L SW_PUSH SW1
U 1 1 562698DD
P 4050 4025
F 0 "SW1" H 4200 4135 50  0000 C CNN
F 1 "SW_PUSH" H 4050 3945 50  0000 C CNN
F 2 "Buttons_Switches_SMD:SW_SPST_FSMSM" H 4050 4025 60  0001 C CNN
F 3 "" H 4050 4025 60  0000 C CNN
F 4 "Value" H 4050 4025 60  0001 C CNN "manf#"
	1    4050 4025
	1    0    0    -1  
$EndComp
NoConn ~ 3750 4200
Wire Wire Line
	3750 3825 4925 3825
Wire Wire Line
	4925 3825 4925 4775
Wire Wire Line
	4925 4775 5850 4775
Wire Wire Line
	5850 4775 5850 4200
Connection ~ 5225 4200
Wire Wire Line
	5350 3800 5075 3800
Wire Wire Line
	5075 3800 5075 4325
Wire Wire Line
	6100 4100 5850 4100
Wire Wire Line
	6000 4000 5850 4000
Wire Wire Line
	5925 3900 5850 3900
Connection ~ 3750 3825
$Comp
L GND #PWR01
U 1 1 56269AF0
P 4150 4525
F 0 "#PWR01" H 4150 4275 50  0001 C CNN
F 1 "GND" H 4150 4375 50  0000 C CNN
F 2 "" H 4150 4525 60  0000 C CNN
F 3 "" H 4150 4525 60  0000 C CNN
	1    4150 4525
	1    0    0    -1  
$EndComp
$Comp
L GND #PWR02
U 1 1 56269B0B
P 4350 4025
F 0 "#PWR02" H 4350 3775 50  0001 C CNN
F 1 "GND" H 4350 3875 50  0000 C CNN
F 2 "" H 4350 4025 60  0000 C CNN
F 3 "" H 4350 4025 60  0000 C CNN
	1    4350 4025
	1    0    0    -1  
$EndComp
Connection ~ 4150 4525
$Comp
L PWR_FLAG #FLG03
U 1 1 56269B6D
P 4650 4325
F 0 "#FLG03" H 4650 4420 50  0001 C CNN
F 1 "PWR_FLAG" H 4650 4505 50  0000 C CNN
F 2 "" H 4650 4325 60  0000 C CNN
F 3 "" H 4650 4325 60  0000 C CNN
	1    4650 4325
	1    0    0    -1  
$EndComp
$Comp
L PWR_FLAG #FLG04
U 1 1 56269B98
P 4650 4525
F 0 "#FLG04" H 4650 4620 50  0001 C CNN
F 1 "PWR_FLAG" H 4650 4705 50  0000 C CNN
F 2 "" H 4650 4525 60  0000 C CNN
F 3 "" H 4650 4525 60  0000 C CNN
	1    4650 4525
	-1   0    0    1   
$EndComp
Connection ~ 4650 4325
Connection ~ 4650 4525
$Comp
L C_Small C1
U 1 1 56269A96
P 4325 4425
F 0 "C1" H 4335 4495 50  0000 L CNN
F 1 "10 uF" H 4335 4345 50  0000 L CNN
F 2 "Capacitors_SMD:C_0805_HandSoldering" H 4325 4425 60  0001 C CNN
F 3 "" H 4325 4425 60  0000 C CNN
F 4 "Value" H 4325 4425 60  0001 C CNN "manf#"
	1    4325 4425
	1    0    0    -1  
$EndComp
Connection ~ 4325 4325
Connection ~ 4325 4525
$EndSCHEMATC
