EESchema Schematic File Version 2
LIBS:multispec
LIBS:main-rescue
LIBS:main-cache
LIBS:power
LIBS:device
LIBS:transistors
LIBS:conn
LIBS:linear
LIBS:regul
LIBS:74xx
LIBS:cmos4000
LIBS:adc-dac
LIBS:memory
LIBS:xilinx
LIBS:microcontrollers
LIBS:dsp
LIBS:microchip
LIBS:analog_switches
LIBS:motorola
LIBS:texas
LIBS:intel
LIBS:audio
LIBS:interface
LIBS:digital-audio
LIBS:philips
LIBS:display
LIBS:cypress
LIBS:siliconi
LIBS:opto
LIBS:atmel
LIBS:contrib
LIBS:valves
EELAYER 25 0
EELAYER END
$Descr A4 11693 8268
encoding utf-8
Sheet 5 9
Title "Reflectance 1.0"
Date "2017-04-24"
Rev "1.0"
Comp "OurSci"
Comment1 "Zegarac Robert"
Comment2 "Jon Zeeff"
Comment3 ""
Comment4 ""
$EndDescr
$Comp
L bq24093 U16
U 1 1 560E54C4
P 6450 3500
F 0 "U16" H 6450 3300 60  0000 C CNN
F 1 "BQ24093DGQR" H 6650 3850 50  0000 C CNN
F 2 "multispeq:TSSOP-10_3x3mm_Pitch0.5mm" H 6450 3500 60  0001 C CNN
F 3 "BQ24093DGQT" H 6450 3500 60  0001 C CNN
F 4 "BQ24093DGQT" H 6450 3500 60  0001 C CNN "manf#"
	1    6450 3500
	1    0    0    -1  
$EndComp
$Comp
L USB_A-RESCUE-Handheld_board-RESCUE-main P2
U 1 1 560E58F1
P 4550 3500
F 0 "P2" V 4250 3575 50  0000 C CNN
F 1 "USB_MICRO" H 4495 3735 50  0000 C CNN
F 2 "multispeq:conn_usb_B_micro_smd-4" V 4500 3400 60  0001 C CNN
F 3 "10118194-0001LF" V 4505 3475 20  0000 C CNN
F 4 "10118194-0001LF" H 4550 3500 60  0001 C CNN "manf#"
	1    4550 3500
	0    -1   1    0   
$EndComp
$Comp
L Battery-RESCUE-Handheld_board BT1
U 1 1 560E5DA8
P 9350 3575
F 0 "BT1" H 9450 3625 50  0000 L CNN
F 1 "Battery" H 9450 3525 50  0000 L CNN
F 2 "" H 9285 3640 20  0000 C CNN
F 3 "18650" V 9350 3615 60  0001 C CNN
F 4 "18650" H 9350 3575 60  0001 C CNN "manf#"
	1    9350 3575
	1    0    0    -1  
$EndComp
$Comp
L R R48
U 1 1 560E5FD7
P 5525 3650
F 0 "R48" V 5605 3650 50  0000 C CNN
F 1 "680" V 5525 3650 50  0000 C CNN
F 2 "multispeq:r_0603" V 5455 3650 30  0001 C CNN
F 3 "RC0603JR-07680RL" H 5525 3650 30  0001 C CNN
F 4 "RC0603JR-07680RL" H 5525 3650 60  0001 C CNN "manf#"
	1    5525 3650
	1    0    0    -1  
$EndComp
$Comp
L R R49
U 1 1 560E6012
P 5825 3750
F 0 "R49" V 5905 3750 50  0000 C CNN
F 1 "2K" V 5825 3750 50  0000 C CNN
F 2 "multispeq:r_0603" V 5755 3750 30  0001 C CNN
F 3 "RC0603JR-072KL" H 5825 3750 30  0001 C CNN
F 4 "RC0603JR-072KL" H 5825 3750 60  0001 C CNN "manf#"
	1    5825 3750
	1    0    0    -1  
$EndComp
$Comp
L GND #PWR035
U 1 1 560E718D
P 4450 3900
F 0 "#PWR035" H 4450 3650 50  0001 C CNN
F 1 "GND" H 4450 3750 50  0000 C CNN
F 2 "" H 4450 3900 60  0000 C CNN
F 3 "" H 4450 3900 60  0000 C CNN
	1    4450 3900
	1    0    0    -1  
$EndComp
$Comp
L C C43
U 1 1 560E7547
P 5325 3550
F 0 "C43" H 5350 3650 50  0000 L CNN
F 1 "10u" H 5150 3450 50  0000 L CNN
F 2 "multispeq:c_0603" H 5363 3400 30  0001 C CNN
F 3 "CC0603KRX5R6BB106" H 5325 3550 60  0001 C CNN
F 4 "CC0603KRX5R6BB106" H 5325 3550 60  0001 C CNN "manf#"
	1    5325 3550
	1    0    0    -1  
$EndComp
Text HLabel 4900 3500 2    60   Input ~ 0
D+
Text HLabel 4900 3400 2    60   BiDi ~ 0
D-
Text HLabel 7950 3300 2    60   Output ~ 0
Vbatt
$Comp
L LED-RESCUE-Handheld_board D5
U 1 1 560E7ED2
P 7150 4050
F 0 "D5" H 7150 4150 50  0000 C CNN
F 1 "LED_DNI" H 7150 3950 50  0000 C CNN
F 2 "multispeq:Led_0603" H 7150 4050 60  0001 C CNN
F 3 "DNI" H 7150 4050 20  0000 C CNN
F 4 "LTST-C190KGKT" H 7150 4050 60  0001 C CNN "manf#"
	1    7150 4050
	0    -1   -1   0   
$EndComp
NoConn ~ 6850 3700
Text HLabel 7950 4300 2    60   Output ~ 0
Iset
Text Notes 7200 3950 0    60   ~ 0
CHG
Text Notes 6150 2875 0    60   ~ 0
Power OK
$Comp
L GND #PWR036
U 1 1 560E9B7D
P 7800 3650
F 0 "#PWR036" H 7800 3400 50  0001 C CNN
F 1 "GND" H 7800 3500 50  0000 C CNN
F 2 "" H 7800 3650 60  0000 C CNN
F 3 "" H 7800 3650 60  0000 C CNN
	1    7800 3650
	1    0    0    -1  
$EndComp
Text HLabel 7950 3650 2    60   Output ~ 0
GNDb
Text HLabel 4825 3050 0    60   Output ~ 0
Vusb
Wire Wire Line
	6850 3300 7950 3300
Connection ~ 7150 3300
Wire Wire Line
	6000 3500 5675 3500
Wire Wire Line
	5825 3600 6000 3600
Wire Wire Line
	5525 3500 5525 3400
Wire Wire Line
	5525 3400 6000 3400
Wire Wire Line
	4450 3800 4450 3900
Wire Wire Line
	4450 3900 5825 3900
Wire Wire Line
	5525 3800 5525 3900
Connection ~ 5525 3900
Wire Wire Line
	5675 3500 5675 3900
Connection ~ 5675 3900
Wire Wire Line
	4850 3300 6000 3300
Wire Wire Line
	4850 3600 4850 3900
Connection ~ 4850 3900
Wire Wire Line
	5325 3050 5325 3400
Connection ~ 5325 3300
Wire Wire Line
	5325 3700 5325 3900
Connection ~ 5325 3900
Wire Wire Line
	4850 3500 4900 3500
Wire Wire Line
	4850 3400 4900 3400
Connection ~ 7650 3300
Wire Wire Line
	6850 3500 7000 3500
Wire Wire Line
	7000 3500 7000 4250
Wire Wire Line
	7000 4250 7150 4250
Wire Wire Line
	6850 3600 6900 3600
Wire Wire Line
	6900 3600 6900 4300
Wire Wire Line
	6900 4300 7950 4300
Wire Wire Line
	7150 3050 7150 3500
Wire Wire Line
	7150 3800 7150 3850
Wire Wire Line
	6000 3700 5950 3700
Wire Wire Line
	5950 3700 5950 3050
Wire Wire Line
	5950 3050 6150 3050
Wire Wire Line
	6550 3050 6700 3050
Wire Wire Line
	7000 3050 7150 3050
Wire Wire Line
	7800 3650 7950 3650
Wire Wire Line
	4825 3050 5325 3050
$Comp
L PWR_FLAG #FLG037
U 1 1 562678B1
P 5325 3050
F 0 "#FLG037" H 5325 3145 50  0001 C CNN
F 1 "PWR_FLAG" H 5325 3230 50  0000 C CNN
F 2 "" H 5325 3050 60  0000 C CNN
F 3 "" H 5325 3050 60  0000 C CNN
	1    5325 3050
	1    0    0    -1  
$EndComp
$Comp
L PWR_FLAG #FLG038
U 1 1 5630679C
P 7650 3300
F 0 "#FLG038" H 7650 3395 50  0001 C CNN
F 1 "PWR_FLAG" H 7650 3480 50  0000 C CNN
F 2 "" H 7650 3300 60  0000 C CNN
F 3 "" H 7650 3300 60  0000 C CNN
	1    7650 3300
	1    0    0    -1  
$EndComp
Wire Wire Line
	6850 3400 7950 3400
$Comp
L R R51
U 1 1 56298188
P 7150 3650
F 0 "R51" V 7080 3725 50  0000 C CNN
F 1 "2K_DNI" V 7150 3650 50  0000 C CNN
F 2 "multispeq:r_0603" V 7080 3650 30  0001 C CNN
F 3 "DNI" H 7150 3650 30  0001 C CNN
F 4 "RC0603JR-072KL" H 7150 3650 60  0001 C CNN "manf#"
	1    7150 3650
	1    0    0    -1  
$EndComp
$Comp
L R R50
U 1 1 5629853D
P 6850 3050
F 0 "R50" V 6770 3060 50  0000 C CNN
F 1 "2K_DNI" V 6850 3050 50  0000 C CNN
F 2 "multispeq:r_0603" V 6780 3050 30  0001 C CNN
F 3 "DNI" H 6850 3050 30  0001 C CNN
F 4 "RC0603JR-072KL" H 6850 3050 60  0001 C CNN "manf#"
	1    6850 3050
	0    1    1    0   
$EndComp
$Comp
L LED-RESCUE-Handheld_board D4
U 1 1 5629B4DA
P 6350 3050
F 0 "D4" H 6480 3135 50  0000 C CNN
F 1 "LED_DNI" H 6250 3135 50  0000 C CNN
F 2 "multispeq:Led_0603" H 6350 3050 60  0001 C CNN
F 3 "DNI" H 6350 3050 20  0000 C CNN
F 4 "LTST-C190KGKT" H 6350 3050 60  0001 C CNN "manf#"
	1    6350 3050
	1    0    0    -1  
$EndComp
$Comp
L GND #PWR039
U 1 1 56682AE6
P 8975 4000
F 0 "#PWR039" H 8975 3750 50  0001 C CNN
F 1 "GND" H 8975 3850 50  0000 C CNN
F 2 "" H 8975 4000 60  0000 C CNN
F 3 "" H 8975 4000 60  0000 C CNN
	1    8975 4000
	1    0    0    -1  
$EndComp
Wire Wire Line
	8975 3725 8975 4000
Wire Wire Line
	8975 3925 9350 3925
Wire Wire Line
	9350 3925 9350 3725
Text HLabel 9400 3375 2    60   Output ~ 0
Vbatt
Text HLabel 8975 3375 0    60   Input ~ 0
NTC
Wire Wire Line
	8975 3375 8975 3425
Wire Wire Line
	9400 3375 9350 3375
Wire Wire Line
	9350 3375 9350 3425
$Comp
L CONN_01X04 P3
U 1 1 56683B4F
P 10675 3525
F 0 "P3" H 10675 3775 50  0000 C CNN
F 1 "Batt_conn" V 10775 3525 50  0000 C CNN
F 2 "multispeq:Batt_Conn_18650_18mm" H 10675 3525 60  0001 C CNN
F 3 "Keystone 54" H 10675 3525 60  0001 C CNN
F 4 "Keystone 54" H 10675 3525 60  0001 C CNN "manf#"
	1    10675 3525
	1    0    0    -1  
$EndComp
Text HLabel 10350 3375 0    60   Output ~ 0
Vbatt
Text HLabel 10350 3575 0    60   Input ~ 0
NTC
$Comp
L GND #PWR040
U 1 1 56683E30
P 10350 3675
F 0 "#PWR040" H 10350 3425 50  0001 C CNN
F 1 "GND" H 10350 3525 50  0000 C CNN
F 2 "" H 10350 3675 60  0000 C CNN
F 3 "" H 10350 3675 60  0000 C CNN
	1    10350 3675
	1    0    0    -1  
$EndComp
$Comp
L GND #PWR041
U 1 1 56683E5F
P 10050 3475
F 0 "#PWR041" H 10050 3225 50  0001 C CNN
F 1 "GND" H 10050 3325 50  0000 C CNN
F 2 "" H 10050 3475 60  0000 C CNN
F 3 "" H 10050 3475 60  0000 C CNN
	1    10050 3475
	1    0    0    -1  
$EndComp
Wire Wire Line
	10350 3375 10475 3375
Wire Wire Line
	10050 3475 10475 3475
Wire Wire Line
	10350 3575 10475 3575
Wire Wire Line
	10350 3675 10475 3675
Text Notes 7025 4425 0    60   ~ 0
Selects charge rate
Text Notes 8475 3200 0    60   ~ 0
Pull NTC low to disable charging
Text HLabel 7950 3400 2    60   Input ~ 0
NTC
$Comp
L R R11
U 1 1 595D2403
P 8975 3575
F 0 "R11" V 9055 3575 50  0000 C CNN
F 1 "100K" V 8975 3575 50  0000 C CNN
F 2 "multispeq:r_0603" V 8905 3575 30  0001 C CNN
F 3 "RC0603JR-07100KL" H 8975 3575 30  0001 C CNN
F 4 "RC0603JR-07100KL" H 8975 3575 60  0001 C CNN "manf#"
	1    8975 3575
	1    0    0    -1  
$EndComp
Connection ~ 8975 3925
$EndSCHEMATC
