EESchema Schematic File Version 2
LIBS:multispec
LIBS:main-rescue
LIBS:main-cache
LIBS:power
LIBS:device
LIBS:transistors
LIBS:conn
LIBS:linear
LIBS:regul
LIBS:74xx
LIBS:cmos4000
LIBS:adc-dac
LIBS:memory
LIBS:xilinx
LIBS:microcontrollers
LIBS:dsp
LIBS:microchip
LIBS:analog_switches
LIBS:motorola
LIBS:texas
LIBS:intel
LIBS:audio
LIBS:interface
LIBS:digital-audio
LIBS:philips
LIBS:display
LIBS:cypress
LIBS:siliconi
LIBS:opto
LIBS:atmel
LIBS:contrib
LIBS:valves
EELAYER 25 0
EELAYER END
$Descr A3 16535 11693
encoding utf-8
Sheet 8 9
Title "Reflectance 1.0"
Date "2017-04-24"
Rev "1.0"
Comp "OurSci"
Comment1 "Zegarac Robert"
Comment2 "Jon Zeeff"
Comment3 ""
Comment4 ""
$EndDescr
Text Notes 7890 3965 0    118  ~ 0
Detector TIA
Text HLabel 11460 4485 2    40   Input ~ 0
DetVcc
Text HLabel 10665 6040 2    40   Output ~ 0
-5V
$Comp
L C_Small C9
U 1 1 563BA59A
P 7660 4965
AR Path="/563D36D0/563BA59A" Ref="C9"  Part="1" 
AR Path="/5948C701/563BA59A" Ref="C59"  Part="1" 
F 0 "C9" H 7715 5025 30  0000 L CNN
F 1 "10u" H 7550 5020 30  0000 L CNN
F 2 "multispeq:c_0603" H 7660 4965 60  0001 C CNN
F 3 "CC0603KRX5R6BB106" H 7660 4965 10  0001 C CNN
F 4 "CC0603KRX5R6BB106" H 7660 4965 60  0001 C CNN "manf#"
	1    7660 4965
	-1   0    0    1   
$EndComp
$Comp
L C C13
U 1 1 5662C7E4
P 9610 6190
AR Path="/563D36D0/5662C7E4" Ref="C13"  Part="1" 
AR Path="/5948C701/5662C7E4" Ref="C63"  Part="1" 
F 0 "C13" H 9635 6265 30  0000 L CNN
F 1 "10u" H 9635 6115 30  0000 L CNN
F 2 "multispeq:c_0603" H 9610 6190 60  0001 C CNN
F 3 "CC0603KRX5R6BB106" H 9610 6190 10  0001 C CNN
F 4 "CC0603KRX5R6BB106" H 9610 6190 60  0001 C CNN "manf#"
	1    9610 6190
	-1   0    0    1   
$EndComp
$Comp
L C C14
U 1 1 5662C918
P 10455 4635
AR Path="/563D36D0/5662C918" Ref="C14"  Part="1" 
AR Path="/5948C701/5662C918" Ref="C64"  Part="1" 
F 0 "C14" H 10480 4710 30  0000 L CNN
F 1 "10u" H 10480 4560 30  0000 L CNN
F 2 "multispeq:c_0603" H 10455 4635 60  0001 C CNN
F 3 "CC0603KRX5R6BB106" H 10455 4635 10  0001 C CNN
F 4 "CC0603KRX5R6BB106" H 10455 4635 60  0001 C CNN "manf#"
	1    10455 4635
	-1   0    0    1   
$EndComp
Text HLabel 11610 5515 2    40   Output ~ 0
AnaOut_P
Text HLabel 11435 6730 2    40   Output ~ 0
AnaOut_N
Text HLabel 7295 5615 0    40   Output ~ 0
det_out
Text HLabel 7355 6730 0    40   Output ~ 0
det_return
$Comp
L GND #PWR055
U 1 1 597BF9EF
P 10455 4810
AR Path="/563D36D0/597BF9EF" Ref="#PWR055"  Part="1" 
AR Path="/5948C701/597BF9EF" Ref="#PWR061"  Part="1" 
F 0 "#PWR055" H 10455 4560 50  0001 C CNN
F 1 "GND" H 10455 4650 50  0000 C CNN
F 2 "" H 10455 4810 60  0000 C CNN
F 3 "" H 10455 4810 60  0000 C CNN
	1    10455 4810
	1    0    0    -1  
$EndComp
$Comp
L GND #PWR056
U 1 1 597C0073
P 7625 7080
AR Path="/563D36D0/597C0073" Ref="#PWR056"  Part="1" 
AR Path="/5948C701/597C0073" Ref="#PWR062"  Part="1" 
F 0 "#PWR056" H 7625 6830 50  0001 C CNN
F 1 "GND" H 7675 6930 50  0000 C CNN
F 2 "" H 7625 7080 60  0000 C CNN
F 3 "" H 7625 7080 60  0000 C CNN
	1    7625 7080
	1    0    0    -1  
$EndComp
$Comp
L GND #PWR057
U 1 1 597D0D53
P 9610 6340
AR Path="/563D36D0/597D0D53" Ref="#PWR057"  Part="1" 
AR Path="/5948C701/597D0D53" Ref="#PWR063"  Part="1" 
F 0 "#PWR057" H 9610 6090 50  0001 C CNN
F 1 "GND" H 9685 6240 20  0000 C CNN
F 2 "" H 9610 6340 60  0000 C CNN
F 3 "" H 9610 6340 60  0000 C CNN
	1    9610 6340
	1    0    0    -1  
$EndComp
Text Notes 11520 6085 0    60   ~ 0
differential pair from detector to MK20 filter\n
$Comp
L R R79
U 1 1 597CC466
P 10810 4485
AR Path="/5948C701/597CC466" Ref="R79"  Part="1" 
AR Path="/563D36D0/597CC466" Ref="R78"  Part="1" 
F 0 "R78" V 10720 4485 30  0000 C CNN
F 1 "10" V 10810 4485 50  0000 C CNN
F 2 "multispeq:r_0603" H 10810 4485 60  0001 C CNN
F 3 "RC0603FR-0710RL" H 10810 4485 10  0001 C CNN
F 4 "RC0603FR-0710RL" H 10810 4485 60  0001 C CNN "manf#"
	1    10810 4485
	0    -1   -1   0   
$EndComp
$Comp
L R R86
U 1 1 597EF538
P 10515 6040
AR Path="/563D36D0/597EF538" Ref="R86"  Part="1" 
AR Path="/5948C701/597EF538" Ref="R87"  Part="1" 
F 0 "R86" V 10425 6040 30  0000 C CNN
F 1 "10" V 10515 6040 50  0000 C CNN
F 2 "multispeq:r_0603" H 10515 6040 60  0001 C CNN
F 3 "RC0603FR-0710RL" H 10515 6040 10  0001 C CNN
F 4 "RC0603FR-0710RL" H 10515 6040 60  0001 C CNN "manf#"
	1    10515 6040
	0    -1   -1   0   
$EndComp
$Comp
L PWR_FLAG #FLG058
U 1 1 597FEA63
P 10030 6040
AR Path="/563D36D0/597FEA63" Ref="#FLG058"  Part="1" 
AR Path="/5948C701/597FEA63" Ref="#FLG064"  Part="1" 
F 0 "#FLG058" H 10030 6135 50  0001 C CNN
F 1 "PWR_FLAG" H 10030 6220 50  0000 C CNN
F 2 "" H 10030 6040 60  0000 C CNN
F 3 "" H 10030 6040 60  0000 C CNN
	1    10030 6040
	1    0    0    -1  
$EndComp
$Comp
L PWR_FLAG #FLG059
U 1 1 597FEDA4
P 10455 4480
AR Path="/563D36D0/597FEDA4" Ref="#FLG059"  Part="1" 
AR Path="/5948C701/597FEDA4" Ref="#FLG065"  Part="1" 
F 0 "#FLG059" H 10455 4575 50  0001 C CNN
F 1 "PWR_FLAG" H 10455 4660 50  0000 C CNN
F 2 "" H 10455 4480 60  0000 C CNN
F 3 "" H 10455 4480 60  0000 C CNN
	1    10455 4480
	1    0    0    -1  
$EndComp
Text Notes 6485 6160 0    60   ~ 0
photodiode here
$Comp
L R R27
U 1 1 59E247B6
P 7925 4715
AR Path="/563D36D0/59E247B6" Ref="R27"  Part="1" 
AR Path="/5948C701/59E247B6" Ref="R30"  Part="1" 
F 0 "R27" V 7835 4715 30  0000 C CNN
F 1 "10K" V 7925 4715 50  0000 C CNN
F 2 "multispeq:r_0603" H 7925 4715 60  0001 C CNN
F 3 "RT0603FRE0710KL" H 7925 4715 10  0001 C CNN
F 4 "RT0603FRE0710KL" H 7925 4715 60  0001 C CNN "manf#"
	1    7925 4715
	-1   0    0    1   
$EndComp
$Comp
L R R28
U 1 1 59E24BED
P 7925 5015
AR Path="/563D36D0/59E24BED" Ref="R28"  Part="1" 
AR Path="/5948C701/59E24BED" Ref="R55"  Part="1" 
F 0 "R28" V 7835 5015 30  0000 C CNN
F 1 "240" V 7925 5015 50  0000 C CNN
F 2 "multispeq:r_0603" H 7925 5015 60  0001 C CNN
F 3 "RT0603DRE07240RL" H 7925 5015 10  0001 C CNN
F 4 "RT0603DRE07240RL" H 7925 5015 60  0001 C CNN "manf#"
	1    7925 5015
	1    0    0    -1  
$EndComp
$Comp
L GND #PWR060
U 1 1 59E24CDE
P 7925 5165
AR Path="/563D36D0/59E24CDE" Ref="#PWR060"  Part="1" 
AR Path="/5948C701/59E24CDE" Ref="#PWR066"  Part="1" 
F 0 "#PWR060" H 7925 4915 50  0001 C CNN
F 1 "GND" H 8000 5065 20  0000 C CNN
F 2 "" H 7925 5165 60  0000 C CNN
F 3 "" H 7925 5165 60  0000 C CNN
	1    7925 5165
	1    0    0    -1  
$EndComp
Text Label 9865 4365 0    60   ~ 0
Power
Text Label 7925 4565 2    60   ~ 0
Power
Text Label 8425 5215 0    60   ~ 0
Power
Text Notes 8990 6285 0    40   ~ 0
Optional, can \nreplace with \n0 ohm to GND
$Comp
L INDUCTOR_SMALL L4
U 1 1 59D7A110
P 11210 4485
AR Path="/563D36D0/59D7A110" Ref="L4"  Part="1" 
AR Path="/5948C701/59D7A110" Ref="L10"  Part="1" 
F 0 "L4" H 11210 4585 50  0000 C CNN
F 1 "ferrite" H 11210 4435 50  0000 C CNN
F 2 "multispeq:r_0805" H 11210 4485 60  0001 C CNN
F 3 "MI0805K601R-10" H 11210 4485 60  0001 C CNN
F 4 "MI0805K601R-10" H 11210 4485 60  0001 C CNN "manf#"
	1    11210 4485
	1    0    0    -1  
$EndComp
Text Notes 7415 4740 0    60   ~ 0
thin film
$Comp
L OPA333D U8
U 1 1 5A42346C
P 8525 5515
AR Path="/563D36D0/5A42346C" Ref="U8"  Part="1" 
AR Path="/5948C701/5A42346C" Ref="U21"  Part="1" 
F 0 "U8" H 8866 5561 50  0000 L CNN
F 1 "OPA145" H 8866 5470 50  0000 L CNN
F 2 "multispeq:so-8" H 8525 5365 50  0001 L CNN
F 3 "" H 8675 5665 50  0001 C CNN
	1    8525 5515
	1    0    0    -1  
$EndComp
$Comp
L R R21
U 1 1 5A4651EF
P 9975 6730
AR Path="/563D36D0/5A4651EF" Ref="R21"  Part="1" 
AR Path="/5948C701/5A4651EF" Ref="R33"  Part="1" 
F 0 "R21" V 9885 6730 30  0000 C CNN
F 1 "0" V 9975 6730 50  0000 C CNN
F 2 "multispeq:r_0402" H 9975 6730 60  0001 C CNN
F 3 "?" H 9975 6730 10  0001 C CNN
F 4 "?" H 9975 6730 60  0001 C CNN "manf#"
	1    9975 6730
	0    -1   -1   0   
$EndComp
Wire Wire Line
	7625 6730 7625 7080
Wire Wire Line
	8425 6040 10365 6040
Wire Wire Line
	10455 4785 10455 4810
Wire Wire Line
	7355 6730 9825 6730
Wire Wire Line
	10125 6730 11435 6730
Connection ~ 9610 6040
Wire Wire Line
	10030 6040 10030 6040
Connection ~ 10030 6040
Wire Wire Line
	10455 4480 10455 4490
Wire Wire Line
	9865 4485 10660 4485
Connection ~ 10455 4485
Connection ~ 7625 6730
Wire Wire Line
	7660 4865 8225 4865
Wire Wire Line
	7660 5065 7660 5165
Wire Wire Line
	7660 5165 7925 5165
Wire Wire Line
	9865 4365 9865 4485
Wire Wire Line
	10455 4485 10460 4485
Connection ~ 7925 4865
Wire Wire Line
	7295 5615 8225 5615
Wire Wire Line
	8825 5515 11610 5515
Wire Wire Line
	8425 5815 8425 6040
Wire Wire Line
	8225 4865 8225 5415
$EndSCHEMATC
