M48
;DRILL file {KiCad 5.0.2-bee76a0~70~ubuntu18.04.1} date Thu 30 Jul 2020 09:04:14 AM EDT
;FORMAT={-:-/ absolute / inch / decimal}
FMAT,2
INCH,TZ
T1C0.0079
T2C0.0098
T3C0.0118
T4C0.0120
T5C0.0157
T6C0.0197
T7C0.0217
T8C0.0236
T9C0.0250
T10C0.0276
T11C0.0315
T12C0.0510
T13C0.0512
T14C0.0720
%
G90
G05
T1
X4.5617Y-7.1628
X4.5617Y-7.2028
X4.5817Y-7.1828
X4.6017Y-7.1628
X4.6017Y-7.2028
T2
X3.5622Y-2.5552
X3.5622Y-2.5822
X3.5652Y-2.6251
X3.5652Y-2.6531
X3.6178Y-2.3394
X3.6178Y-2.363
X3.6414Y-2.3394
X3.6414Y-2.363
X3.6414Y-2.3866
X3.6421Y-2.546
X3.6421Y-2.5696
X3.6421Y-2.5932
X3.6421Y-2.6169
X3.6421Y-2.6405
X3.6421Y-2.6641
X3.6421Y-2.6877
X3.6758Y-2.413
X3.6758Y-2.4366
X3.6758Y-2.4602
X3.6758Y-2.4838
X3.6758Y-2.5074
X3.6758Y-2.5311
X3.6798Y-2.561
X3.6798Y-2.5846
X3.6798Y-2.6082
X3.6798Y-2.6318
X3.6798Y-2.6554
X3.6798Y-2.6791
X3.6799Y-2.704
X3.719Y-2.4141
X3.719Y-2.4377
X3.719Y-2.4613
X3.719Y-2.4849
X3.719Y-2.5086
X3.719Y-2.5322
X3.719Y-2.5558
X3.719Y-2.5794
X3.719Y-2.603
X3.719Y-2.6267
X3.719Y-2.6503
X3.719Y-2.6739
X3.719Y-2.6975
X3.721Y-2.3367
X3.7446Y-2.3367
X3.7682Y-2.3367
X3.7966Y-2.6424
X3.7966Y-2.6718
X3.798Y-2.4224
X3.7983Y-2.448
X3.7983Y-2.495
X3.7983Y-2.5211
X3.7983Y-2.5964
X3.7987Y-2.5698
T3
X3.3835Y-6.3079
X3.5597Y-2.5095
X3.5612Y-2.4672
X3.5772Y-2.7945
X3.5859Y-2.3496
X3.5859Y-2.3811
X3.7971Y-2.3297
X3.798Y-6.0618
X3.8048Y-2.8365
X3.8079Y-6.0254
X3.8317Y-2.3206
X3.8413Y-6.0254
X3.9598Y-6.2365
X4.0318Y-6.0925
X4.085Y-7.47
X4.085Y-7.535
X4.24Y-6.2422
X4.2429Y-6.05
X4.2559Y-4.1692
X4.2889Y-7.537
X4.29Y-7.47
X4.305Y-7.11
X4.3218Y-4.1775
X4.4898Y-4.3415
X4.5067Y-5.6602
X4.5241Y-5.9642
X4.5608Y-4.1035
X4.5628Y-4.0475
X4.5628Y-4.0715
X4.5884Y-4.1035
X4.6008Y-4.0475
X4.6018Y-4.0715
X4.6159Y-4.1035
X4.6327Y-5.735
X4.6435Y-4.1035
X4.6578Y-4.0475
X4.6578Y-4.0715
X4.671Y-4.1035
X4.6958Y-4.0475
X4.6968Y-4.0715
X4.6986Y-4.1035
X3.5166Y-6.7472
X3.517Y-6.7134
T4
X3.2698Y-3.3165
X3.2885Y-2.8157
X3.2985Y-5.435
X3.3135Y-4.92
X3.3248Y-6.8265
X3.3261Y-6.8543
X3.3295Y-2.9345
X3.3498Y-5.6265
X3.3549Y-3.0118
X3.3549Y-3.0825
X3.3612Y-3.7925
X3.3855Y-3.046
X3.397Y-5.9
X3.3972Y-6.8542
X3.4207Y-3.0211
X3.4216Y-5.9768
X3.4272Y-3.5148
X3.4321Y-6.6632
X3.4583Y-5.6705
X3.4711Y-6.9722
X3.4741Y-6.6532
X3.4748Y-3.3465
X3.4816Y-6.7897
X3.5021Y-6.9732
X3.5105Y-4.969
X3.5155Y-5.4745
X3.528Y-2.8015
X3.5354Y-7.1098
X3.538Y-5.9245
X3.563Y-6.4587
X3.594Y-5.7496
X3.6025Y-5.8704
X3.6075Y-5.777
X3.608Y-5.8069
X3.6098Y-5.839
X3.6115Y-6.3061
X3.6191Y-6.8142
X3.6367Y-5.9776
X3.6435Y-6.254
X3.6488Y-4.1634
X3.6538Y-5.546
X3.6595Y-5.5159
X3.6773Y-5.455
X3.689Y-3.3361
X3.6912Y-3.3669
X3.6972Y-4.6531
X3.7043Y-5.2311
X3.7048Y-6.5265
X3.7098Y-6.3765
X3.7151Y-6.2454
X3.7228Y-5.4547
X3.7287Y-4.7772
X3.7369Y-6.36
X3.747Y-5.0095
X3.7523Y-5.6237
X3.8103Y-3.7312
X3.8394Y-7.3488
X3.8448Y-5.3365
X3.8705Y-7.0697
X3.8718Y-5.0665
X3.8795Y-2.8425
X3.8925Y-6.4329
X3.8996Y-5.5344
X3.8996Y-5.5679
X3.9029Y-2.9359
X3.9142Y-6.4111
X3.9214Y-3.0319
X3.9321Y-6.0806
X3.9514Y-3.0969
X3.9539Y-6.1024
X3.9598Y-6.163
X3.9598Y-6.1965
X3.9635Y-4.25
X3.9649Y-4.2114
X3.9649Y-4.1146
X3.9975Y-3.053
X4.0134Y-3.0142
X4.0354Y-3.0906
X4.0421Y-5.4555
X4.0618Y-6.0106
X4.0698Y-6.3865
X4.0748Y-6.3465
X4.1004Y-3.3374
X4.1074Y-5.7792
X4.1115Y-5.7414
X4.1377Y-5.395
X4.1401Y-5.7786
X4.1433Y-6.5512
X4.1478Y-5.6735
X4.162Y-5.8458
X4.1701Y-5.3975
X4.176Y-6.0579
X4.1805Y-5.9592
X4.188Y-7.3045
X4.2101Y-5.9589
X4.2232Y-6.1169
X4.2244Y-5.2638
X4.2429Y-5.7823
X4.2448Y-6.2915
X4.252Y-3.1496
X4.2647Y-5.6267
X4.2654Y-4.0083
X4.2825Y-5.9903
X4.283Y-6.0237
X4.2985Y-5.4736
X4.3101Y-6.1029
X4.315Y-7.2765
X4.3185Y-3.7331
X4.3198Y-6.9915
X4.3319Y-6.0811
X4.3525Y-5.5301
X4.365Y-5.672
X4.3655Y-6.474
X4.4439Y-3.8122
X4.4509Y-5.8138
X4.4639Y-3.6072
X4.4673Y-4.6365
X4.4759Y-3.9187
X4.4957Y-5.3075
X4.515Y-7.165
X4.5421Y-6.1327
X4.5539Y-5.3965
X4.59Y-7.32
X4.5939Y-3.6072
X4.5959Y-3.8312
X4.6063Y-4.5748
X4.6289Y-3.8072
X4.63Y-6.375
X4.6389Y-3.9822
X4.6402Y-4.6166
X4.6445Y-6.1455
X4.6698Y-4.3165
X4.6891Y-7.1216
X4.7224Y-3.5177
X4.7445Y-6.4114
X4.7488Y-7.3614
X4.7506Y-6.2065
X4.7638Y-5.
T5
X3.5272Y-6.6235
X3.568Y-2.8373
X3.5784Y-2.7544
X3.6301Y-3.5222
X3.7393Y-3.6102
X3.81Y-2.7933
X4.0019Y-3.5343
X4.0285Y-5.9926
X4.049Y-5.9612
X4.0539Y-5.924
X4.1298Y-3.5137
X4.1354Y-3.6079
X4.2032Y-5.6234
X4.2593Y-6.4311
X4.2611Y-5.8438
X4.2789Y-5.8767
X4.2945Y-5.8193
X4.3177Y-5.8768
X4.3295Y-5.7941
X4.334Y-6.3745
X4.3483Y-3.4724
X4.3529Y-5.8898
X4.3572Y-6.7222
X4.363Y-7.3323
X4.3651Y-6.8836
X4.3691Y-6.545
X4.3862Y-3.4729
X4.3913Y-6.3606
X4.4Y-6.3971
X4.4001Y-4.1855
X4.407Y-5.9429
X4.4361Y-5.8951
X4.4373Y-4.064
X4.4448Y-6.7265
X4.4554Y-5.9712
X4.4755Y-5.7972
X4.4759Y-4.0718
X4.4807Y-6.0798
X4.484Y-6.0425
X4.4862Y-5.9211
X4.5089Y-5.8186
X4.5215Y-4.3809
X4.5541Y-6.9006
X4.5777Y-6.9663
X4.5935Y-6.7852
X4.6209Y-5.9319
X4.6565Y-6.7773
X4.6604Y-7.297
X4.695Y-6.5075
X4.6975Y-6.6775
X4.757Y-5.9869
T8
X4.7396Y-5.1635
X4.7396Y-5.2135
X4.7396Y-5.2635
T9
X3.3181Y-6.5516
X3.3213Y-6.3744
X4.7648Y-5.4265
X4.7436Y-5.3383
X3.3123Y-6.463
T10
X3.304Y-4.7783
X3.3376Y-4.6971
X3.3376Y-4.8596
X3.4189Y-4.6634
X3.4189Y-4.8933
X3.5002Y-4.6971
X3.5002Y-4.8596
X3.5339Y-4.7783
X3.3018Y-5.2906
X3.3355Y-5.2093
X3.3355Y-5.3719
X3.4168Y-5.1757
X3.4168Y-5.4056
X3.4981Y-5.2093
X3.4981Y-5.3719
X3.5317Y-5.2906
X4.6896Y-5.5084
X4.6896Y-5.5584
X4.6896Y-5.6084
X4.6896Y-5.6584
X4.6896Y-5.7084
X4.7396Y-5.5084
X4.7396Y-5.5584
X4.7396Y-5.6084
X4.7396Y-5.6584
X4.7396Y-5.7084
T11
X3.299Y-3.4155
X3.349Y-3.3655
X3.349Y-3.4655
X3.399Y-3.4155
T12
X3.3429Y-7.2398
X3.4413Y-7.2398
X3.5397Y-7.4367
X3.6382Y-7.2398
X3.7366Y-7.2398
T14
X3.961Y-4.9302
X3.961Y-6.76
X4.0606Y-4.6302
X4.061Y-7.06
X4.161Y-4.9302
X4.161Y-6.76
T6
X4.4797Y-7.5047G85X4.4797Y-7.5303
G05
X4.7553Y-7.5047G85X4.7553Y-7.5303
G05
T7
X4.5132Y-7.4122G85X4.525Y-7.4122
G05
X4.71Y-7.4122G85X4.7218Y-7.4122
G05
T13
X3.2802Y-2.7084G85X3.2802Y-2.7573
G05
X3.4802Y-2.7084G85X3.4802Y-2.7573
G05
X3.9023Y-2.7084G85X3.9023Y-2.7573
G05
X4.1023Y-2.7084G85X4.1023Y-2.7573
G05
T0
M30
