G04 #@! TF.FileFunction,Legend,Bot*
%FSLAX46Y46*%
G04 Gerber Fmt 4.6, Leading zero omitted, Abs format (unit mm)*
G04 Created by KiCad (PCBNEW (2016-07-20 BZR 6990, Git 78e4787)-product) date 08/12/16 17:08:12*
%MOMM*%
%LPD*%
G01*
G04 APERTURE LIST*
%ADD10C,0.100000*%
%ADD11C,0.200000*%
%ADD12C,0.508000*%
%ADD13C,0.300000*%
%ADD14C,0.150000*%
%ADD15C,0.005000*%
%ADD16C,0.010000*%
%ADD17C,0.020000*%
%ADD18C,0.031750*%
G04 APERTURE END LIST*
D10*
D11*
X83968095Y-90082380D02*
X83968095Y-89082380D01*
X83968095Y-89558571D02*
X83396666Y-89558571D01*
X83396666Y-90082380D02*
X83396666Y-89082380D01*
X82349047Y-89987142D02*
X82396666Y-90034761D01*
X82539523Y-90082380D01*
X82634761Y-90082380D01*
X82777619Y-90034761D01*
X82872857Y-89939523D01*
X82920476Y-89844285D01*
X82968095Y-89653809D01*
X82968095Y-89510952D01*
X82920476Y-89320476D01*
X82872857Y-89225238D01*
X82777619Y-89130000D01*
X82634761Y-89082380D01*
X82539523Y-89082380D01*
X82396666Y-89130000D01*
X82349047Y-89177619D01*
X81730000Y-89082380D02*
X81634761Y-89082380D01*
X81539523Y-89130000D01*
X81491904Y-89177619D01*
X81444285Y-89272857D01*
X81396666Y-89463333D01*
X81396666Y-89701428D01*
X81444285Y-89891904D01*
X81491904Y-89987142D01*
X81539523Y-90034761D01*
X81634761Y-90082380D01*
X81730000Y-90082380D01*
X81825238Y-90034761D01*
X81872857Y-89987142D01*
X81920476Y-89891904D01*
X81968095Y-89701428D01*
X81968095Y-89463333D01*
X81920476Y-89272857D01*
X81872857Y-89177619D01*
X81825238Y-89130000D01*
X81730000Y-89082380D01*
X80539523Y-89082380D02*
X80730000Y-89082380D01*
X80825238Y-89130000D01*
X80872857Y-89177619D01*
X80968095Y-89320476D01*
X81015714Y-89510952D01*
X81015714Y-89891904D01*
X80968095Y-89987142D01*
X80920476Y-90034761D01*
X80825238Y-90082380D01*
X80634761Y-90082380D01*
X80539523Y-90034761D01*
X80491904Y-89987142D01*
X80444285Y-89891904D01*
X80444285Y-89653809D01*
X80491904Y-89558571D01*
X80539523Y-89510952D01*
X80634761Y-89463333D01*
X80825238Y-89463333D01*
X80920476Y-89510952D01*
X80968095Y-89558571D01*
X81015714Y-89653809D01*
X247745285Y-94559380D02*
X248316714Y-94559380D01*
X248031000Y-94559380D02*
X248031000Y-93559380D01*
X248126238Y-93702238D01*
X248221476Y-93797476D01*
X248316714Y-93845095D01*
X244824285Y-81097380D02*
X245395714Y-81097380D01*
X245110000Y-81097380D02*
X245110000Y-80097380D01*
X245205238Y-80240238D01*
X245300476Y-80335476D01*
X245395714Y-80383095D01*
X116554285Y-97988380D02*
X117125714Y-97988380D01*
X116840000Y-97988380D02*
X116840000Y-96988380D01*
X116935238Y-97131238D01*
X117030476Y-97226476D01*
X117125714Y-97274095D01*
D12*
X132910000Y-78790000D02*
X126560000Y-78790000D01*
X126560000Y-97840000D02*
X126560000Y-78790000D01*
X126560000Y-97840000D02*
X132910000Y-97840000D01*
X132910000Y-78790000D02*
X132910000Y-97840000D01*
D13*
X91413095Y-80054761D02*
X90113095Y-80054761D01*
X91041666Y-80488095D01*
X90113095Y-80921428D01*
X91413095Y-80921428D01*
X90546428Y-82097619D02*
X91413095Y-82097619D01*
X90546428Y-81540476D02*
X91227380Y-81540476D01*
X91351190Y-81602380D01*
X91413095Y-81726190D01*
X91413095Y-81911904D01*
X91351190Y-82035714D01*
X91289285Y-82097619D01*
X91413095Y-82902380D02*
X91351190Y-82778571D01*
X91227380Y-82716666D01*
X90113095Y-82716666D01*
X90546428Y-83211904D02*
X90546428Y-83707142D01*
X90113095Y-83397619D02*
X91227380Y-83397619D01*
X91351190Y-83459523D01*
X91413095Y-83583333D01*
X91413095Y-83707142D01*
X91413095Y-84140476D02*
X90546428Y-84140476D01*
X90113095Y-84140476D02*
X90175000Y-84078571D01*
X90236904Y-84140476D01*
X90175000Y-84202380D01*
X90113095Y-84140476D01*
X90236904Y-84140476D01*
X91351190Y-84697619D02*
X91413095Y-84821428D01*
X91413095Y-85069047D01*
X91351190Y-85192857D01*
X91227380Y-85254761D01*
X91165476Y-85254761D01*
X91041666Y-85192857D01*
X90979761Y-85069047D01*
X90979761Y-84883333D01*
X90917857Y-84759523D01*
X90794047Y-84697619D01*
X90732142Y-84697619D01*
X90608333Y-84759523D01*
X90546428Y-84883333D01*
X90546428Y-85069047D01*
X90608333Y-85192857D01*
X90546428Y-85811904D02*
X91846428Y-85811904D01*
X90608333Y-85811904D02*
X90546428Y-85935714D01*
X90546428Y-86183333D01*
X90608333Y-86307142D01*
X90670238Y-86369047D01*
X90794047Y-86430952D01*
X91165476Y-86430952D01*
X91289285Y-86369047D01*
X91351190Y-86307142D01*
X91413095Y-86183333D01*
X91413095Y-85935714D01*
X91351190Y-85811904D01*
X91351190Y-87483333D02*
X91413095Y-87359523D01*
X91413095Y-87111904D01*
X91351190Y-86988095D01*
X91227380Y-86926190D01*
X90732142Y-86926190D01*
X90608333Y-86988095D01*
X90546428Y-87111904D01*
X90546428Y-87359523D01*
X90608333Y-87483333D01*
X90732142Y-87545238D01*
X90855952Y-87545238D01*
X90979761Y-86926190D01*
X91536904Y-88969047D02*
X91475000Y-88845238D01*
X91351190Y-88721428D01*
X91165476Y-88535714D01*
X91103571Y-88411904D01*
X91103571Y-88288095D01*
X91413095Y-88350000D02*
X91351190Y-88226190D01*
X91227380Y-88102380D01*
X90979761Y-88040476D01*
X90546428Y-88040476D01*
X90298809Y-88102380D01*
X90175000Y-88226190D01*
X90113095Y-88350000D01*
X90113095Y-88597619D01*
X90175000Y-88721428D01*
X90298809Y-88845238D01*
X90546428Y-88907142D01*
X90979761Y-88907142D01*
X91227380Y-88845238D01*
X91351190Y-88721428D01*
X91413095Y-88597619D01*
X91413095Y-88350000D01*
X90113095Y-90269047D02*
X91413095Y-90702380D01*
X90113095Y-91135714D01*
X91413095Y-92250000D02*
X91413095Y-91507142D01*
X91413095Y-91878571D02*
X90113095Y-91878571D01*
X90298809Y-91754761D01*
X90422619Y-91630952D01*
X90484523Y-91507142D01*
X91289285Y-92807142D02*
X91351190Y-92869047D01*
X91413095Y-92807142D01*
X91351190Y-92745238D01*
X91289285Y-92807142D01*
X91413095Y-92807142D01*
X90113095Y-93673809D02*
X90113095Y-93797619D01*
X90175000Y-93921428D01*
X90236904Y-93983333D01*
X90360714Y-94045238D01*
X90608333Y-94107142D01*
X90917857Y-94107142D01*
X91165476Y-94045238D01*
X91289285Y-93983333D01*
X91351190Y-93921428D01*
X91413095Y-93797619D01*
X91413095Y-93673809D01*
X91351190Y-93550000D01*
X91289285Y-93488095D01*
X91165476Y-93426190D01*
X90917857Y-93364285D01*
X90608333Y-93364285D01*
X90360714Y-93426190D01*
X90236904Y-93488095D01*
X90175000Y-93550000D01*
X90113095Y-93673809D01*
X92982142Y-82376190D02*
X93044047Y-82561904D01*
X93105952Y-82623809D01*
X93229761Y-82685714D01*
X93415476Y-82685714D01*
X93539285Y-82623809D01*
X93601190Y-82561904D01*
X93663095Y-82438095D01*
X93663095Y-81942857D01*
X92363095Y-81942857D01*
X92363095Y-82376190D01*
X92425000Y-82500000D01*
X92486904Y-82561904D01*
X92610714Y-82623809D01*
X92734523Y-82623809D01*
X92858333Y-82561904D01*
X92920238Y-82500000D01*
X92982142Y-82376190D01*
X92982142Y-81942857D01*
X93663095Y-83428571D02*
X93601190Y-83304761D01*
X93539285Y-83242857D01*
X93415476Y-83180952D01*
X93044047Y-83180952D01*
X92920238Y-83242857D01*
X92858333Y-83304761D01*
X92796428Y-83428571D01*
X92796428Y-83614285D01*
X92858333Y-83738095D01*
X92920238Y-83800000D01*
X93044047Y-83861904D01*
X93415476Y-83861904D01*
X93539285Y-83800000D01*
X93601190Y-83738095D01*
X93663095Y-83614285D01*
X93663095Y-83428571D01*
X93663095Y-84976190D02*
X92982142Y-84976190D01*
X92858333Y-84914285D01*
X92796428Y-84790476D01*
X92796428Y-84542857D01*
X92858333Y-84419047D01*
X93601190Y-84976190D02*
X93663095Y-84852380D01*
X93663095Y-84542857D01*
X93601190Y-84419047D01*
X93477380Y-84357142D01*
X93353571Y-84357142D01*
X93229761Y-84419047D01*
X93167857Y-84542857D01*
X93167857Y-84852380D01*
X93105952Y-84976190D01*
X93663095Y-85595238D02*
X92796428Y-85595238D01*
X93044047Y-85595238D02*
X92920238Y-85657142D01*
X92858333Y-85719047D01*
X92796428Y-85842857D01*
X92796428Y-85966666D01*
X93663095Y-86957142D02*
X92363095Y-86957142D01*
X93601190Y-86957142D02*
X93663095Y-86833333D01*
X93663095Y-86585714D01*
X93601190Y-86461904D01*
X93539285Y-86400000D01*
X93415476Y-86338095D01*
X93044047Y-86338095D01*
X92920238Y-86400000D01*
X92858333Y-86461904D01*
X92796428Y-86585714D01*
X92796428Y-86833333D01*
X92858333Y-86957142D01*
X92363095Y-88380952D02*
X93663095Y-88814285D01*
X92363095Y-89247619D01*
X92363095Y-89928571D02*
X92363095Y-90052380D01*
X92425000Y-90176190D01*
X92486904Y-90238095D01*
X92610714Y-90300000D01*
X92858333Y-90361904D01*
X93167857Y-90361904D01*
X93415476Y-90300000D01*
X93539285Y-90238095D01*
X93601190Y-90176190D01*
X93663095Y-90052380D01*
X93663095Y-89928571D01*
X93601190Y-89804761D01*
X93539285Y-89742857D01*
X93415476Y-89680952D01*
X93167857Y-89619047D01*
X92858333Y-89619047D01*
X92610714Y-89680952D01*
X92486904Y-89742857D01*
X92425000Y-89804761D01*
X92363095Y-89928571D01*
X93539285Y-90919047D02*
X93601190Y-90980952D01*
X93663095Y-90919047D01*
X93601190Y-90857142D01*
X93539285Y-90919047D01*
X93663095Y-90919047D01*
X92363095Y-92095238D02*
X92363095Y-91847619D01*
X92425000Y-91723809D01*
X92486904Y-91661904D01*
X92672619Y-91538095D01*
X92920238Y-91476190D01*
X93415476Y-91476190D01*
X93539285Y-91538095D01*
X93601190Y-91600000D01*
X93663095Y-91723809D01*
X93663095Y-91971428D01*
X93601190Y-92095238D01*
X93539285Y-92157142D01*
X93415476Y-92219047D01*
X93105952Y-92219047D01*
X92982142Y-92157142D01*
X92920238Y-92095238D01*
X92858333Y-91971428D01*
X92858333Y-91723809D01*
X92920238Y-91600000D01*
X92982142Y-91538095D01*
X93105952Y-91476190D01*
X94613095Y-80209523D02*
X94613095Y-80457142D01*
X94675000Y-80580952D01*
X94798809Y-80704761D01*
X95046428Y-80766666D01*
X95479761Y-80766666D01*
X95727380Y-80704761D01*
X95851190Y-80580952D01*
X95913095Y-80457142D01*
X95913095Y-80209523D01*
X95851190Y-80085714D01*
X95727380Y-79961904D01*
X95479761Y-79900000D01*
X95046428Y-79900000D01*
X94798809Y-79961904D01*
X94675000Y-80085714D01*
X94613095Y-80209523D01*
X95046428Y-81323809D02*
X96346428Y-81323809D01*
X95108333Y-81323809D02*
X95046428Y-81447619D01*
X95046428Y-81695238D01*
X95108333Y-81819047D01*
X95170238Y-81880952D01*
X95294047Y-81942857D01*
X95665476Y-81942857D01*
X95789285Y-81880952D01*
X95851190Y-81819047D01*
X95913095Y-81695238D01*
X95913095Y-81447619D01*
X95851190Y-81323809D01*
X95851190Y-82995238D02*
X95913095Y-82871428D01*
X95913095Y-82623809D01*
X95851190Y-82500000D01*
X95727380Y-82438095D01*
X95232142Y-82438095D01*
X95108333Y-82500000D01*
X95046428Y-82623809D01*
X95046428Y-82871428D01*
X95108333Y-82995238D01*
X95232142Y-83057142D01*
X95355952Y-83057142D01*
X95479761Y-82438095D01*
X95046428Y-83614285D02*
X95913095Y-83614285D01*
X95170238Y-83614285D02*
X95108333Y-83676190D01*
X95046428Y-83800000D01*
X95046428Y-83985714D01*
X95108333Y-84109523D01*
X95232142Y-84171428D01*
X95913095Y-84171428D01*
X95913095Y-85780952D02*
X94613095Y-85780952D01*
X95232142Y-85780952D02*
X95232142Y-86523809D01*
X95913095Y-86523809D02*
X94613095Y-86523809D01*
X95913095Y-87700000D02*
X95232142Y-87700000D01*
X95108333Y-87638095D01*
X95046428Y-87514285D01*
X95046428Y-87266666D01*
X95108333Y-87142857D01*
X95851190Y-87700000D02*
X95913095Y-87576190D01*
X95913095Y-87266666D01*
X95851190Y-87142857D01*
X95727380Y-87080952D01*
X95603571Y-87080952D01*
X95479761Y-87142857D01*
X95417857Y-87266666D01*
X95417857Y-87576190D01*
X95355952Y-87700000D01*
X95913095Y-88319047D02*
X95046428Y-88319047D01*
X95294047Y-88319047D02*
X95170238Y-88380952D01*
X95108333Y-88442857D01*
X95046428Y-88566666D01*
X95046428Y-88690476D01*
X95913095Y-89680952D02*
X94613095Y-89680952D01*
X95851190Y-89680952D02*
X95913095Y-89557142D01*
X95913095Y-89309523D01*
X95851190Y-89185714D01*
X95789285Y-89123809D01*
X95665476Y-89061904D01*
X95294047Y-89061904D01*
X95170238Y-89123809D01*
X95108333Y-89185714D01*
X95046428Y-89309523D01*
X95046428Y-89557142D01*
X95108333Y-89680952D01*
X95046428Y-90176190D02*
X95913095Y-90423809D01*
X95294047Y-90671428D01*
X95913095Y-90919047D01*
X95046428Y-91166666D01*
X95913095Y-92219047D02*
X95232142Y-92219047D01*
X95108333Y-92157142D01*
X95046428Y-92033333D01*
X95046428Y-91785714D01*
X95108333Y-91661904D01*
X95851190Y-92219047D02*
X95913095Y-92095238D01*
X95913095Y-91785714D01*
X95851190Y-91661904D01*
X95727380Y-91600000D01*
X95603571Y-91600000D01*
X95479761Y-91661904D01*
X95417857Y-91785714D01*
X95417857Y-92095238D01*
X95355952Y-92219047D01*
X95913095Y-92838095D02*
X95046428Y-92838095D01*
X95294047Y-92838095D02*
X95170238Y-92900000D01*
X95108333Y-92961904D01*
X95046428Y-93085714D01*
X95046428Y-93209523D01*
X95851190Y-94138095D02*
X95913095Y-94014285D01*
X95913095Y-93766666D01*
X95851190Y-93642857D01*
X95727380Y-93580952D01*
X95232142Y-93580952D01*
X95108333Y-93642857D01*
X95046428Y-93766666D01*
X95046428Y-94014285D01*
X95108333Y-94138095D01*
X95232142Y-94200000D01*
X95355952Y-94200000D01*
X95479761Y-93580952D01*
X96925000Y-80580952D02*
X96863095Y-80457142D01*
X96863095Y-80271428D01*
X96925000Y-80085714D01*
X97048809Y-79961904D01*
X97172619Y-79900000D01*
X97420238Y-79838095D01*
X97605952Y-79838095D01*
X97853571Y-79900000D01*
X97977380Y-79961904D01*
X98101190Y-80085714D01*
X98163095Y-80271428D01*
X98163095Y-80395238D01*
X98101190Y-80580952D01*
X98039285Y-80642857D01*
X97605952Y-80642857D01*
X97605952Y-80395238D01*
X98163095Y-81200000D02*
X96863095Y-81200000D01*
X96863095Y-81695238D01*
X96925000Y-81819047D01*
X96986904Y-81880952D01*
X97110714Y-81942857D01*
X97296428Y-81942857D01*
X97420238Y-81880952D01*
X97482142Y-81819047D01*
X97544047Y-81695238D01*
X97544047Y-81200000D01*
X98163095Y-83119047D02*
X98163095Y-82500000D01*
X96863095Y-82500000D01*
X97296428Y-83428571D02*
X98163095Y-83738095D01*
X97296428Y-84047619D01*
X96863095Y-84419047D02*
X96863095Y-85223809D01*
X97358333Y-84790476D01*
X97358333Y-84976190D01*
X97420238Y-85100000D01*
X97482142Y-85161904D01*
X97605952Y-85223809D01*
X97915476Y-85223809D01*
X98039285Y-85161904D01*
X98101190Y-85100000D01*
X98163095Y-84976190D01*
X98163095Y-84604761D01*
X98101190Y-84480952D01*
X98039285Y-84419047D01*
X98163095Y-86957142D02*
X98101190Y-86833333D01*
X97977380Y-86771428D01*
X96863095Y-86771428D01*
X98163095Y-87452380D02*
X97296428Y-87452380D01*
X96863095Y-87452380D02*
X96925000Y-87390476D01*
X96986904Y-87452380D01*
X96925000Y-87514285D01*
X96863095Y-87452380D01*
X96986904Y-87452380D01*
X98101190Y-88628571D02*
X98163095Y-88504761D01*
X98163095Y-88257142D01*
X98101190Y-88133333D01*
X98039285Y-88071428D01*
X97915476Y-88009523D01*
X97544047Y-88009523D01*
X97420238Y-88071428D01*
X97358333Y-88133333D01*
X97296428Y-88257142D01*
X97296428Y-88504761D01*
X97358333Y-88628571D01*
X98101190Y-89680952D02*
X98163095Y-89557142D01*
X98163095Y-89309523D01*
X98101190Y-89185714D01*
X97977380Y-89123809D01*
X97482142Y-89123809D01*
X97358333Y-89185714D01*
X97296428Y-89309523D01*
X97296428Y-89557142D01*
X97358333Y-89680952D01*
X97482142Y-89742857D01*
X97605952Y-89742857D01*
X97729761Y-89123809D01*
X97296428Y-90300000D02*
X98163095Y-90300000D01*
X97420238Y-90300000D02*
X97358333Y-90361904D01*
X97296428Y-90485714D01*
X97296428Y-90671428D01*
X97358333Y-90795238D01*
X97482142Y-90857142D01*
X98163095Y-90857142D01*
X98101190Y-91414285D02*
X98163095Y-91538095D01*
X98163095Y-91785714D01*
X98101190Y-91909523D01*
X97977380Y-91971428D01*
X97915476Y-91971428D01*
X97791666Y-91909523D01*
X97729761Y-91785714D01*
X97729761Y-91600000D01*
X97667857Y-91476190D01*
X97544047Y-91414285D01*
X97482142Y-91414285D01*
X97358333Y-91476190D01*
X97296428Y-91600000D01*
X97296428Y-91785714D01*
X97358333Y-91909523D01*
X98101190Y-93023809D02*
X98163095Y-92900000D01*
X98163095Y-92652380D01*
X98101190Y-92528571D01*
X97977380Y-92466666D01*
X97482142Y-92466666D01*
X97358333Y-92528571D01*
X97296428Y-92652380D01*
X97296428Y-92900000D01*
X97358333Y-93023809D01*
X97482142Y-93085714D01*
X97605952Y-93085714D01*
X97729761Y-92466666D01*
X98163095Y-94200000D02*
X96863095Y-94200000D01*
X98101190Y-94200000D02*
X98163095Y-94076190D01*
X98163095Y-93828571D01*
X98101190Y-93704761D01*
X98039285Y-93642857D01*
X97915476Y-93580952D01*
X97544047Y-93580952D01*
X97420238Y-93642857D01*
X97358333Y-93704761D01*
X97296428Y-93828571D01*
X97296428Y-94076190D01*
X97358333Y-94200000D01*
D14*
X104543860Y-88181180D02*
X106014520Y-88541860D01*
X106014520Y-88541860D02*
X104952800Y-88821260D01*
X104952800Y-88821260D02*
X106024680Y-89131140D01*
X106024680Y-89131140D02*
X104574340Y-89471500D01*
X105234740Y-86761320D02*
X105224580Y-87551260D01*
X105224580Y-87551260D02*
X105234740Y-87561420D01*
X105234740Y-87561420D02*
X105224580Y-87561420D01*
X104513380Y-87602060D02*
X106055160Y-87602060D01*
X104503220Y-86713060D02*
X106072940Y-86713060D01*
X106072940Y-86713060D02*
X106062780Y-86723220D01*
X104604820Y-86161880D02*
X104523540Y-85811360D01*
X104523540Y-85811360D02*
X104513380Y-85491320D01*
X104513380Y-85491320D02*
X104714040Y-85252560D01*
X104714040Y-85252560D02*
X104983280Y-85222080D01*
X104983280Y-85222080D02*
X105224580Y-85463380D01*
X105224580Y-85463380D02*
X105354120Y-85852000D01*
X105354120Y-85852000D02*
X105514140Y-86032340D01*
X105514140Y-86032340D02*
X105813860Y-86072980D01*
X105813860Y-86072980D02*
X106034840Y-85841840D01*
X106034840Y-85841840D02*
X106062780Y-85521800D01*
X106062780Y-85521800D02*
X105953560Y-85171280D01*
X104503220Y-84132420D02*
X104523540Y-83883500D01*
X104523540Y-83883500D02*
X104764840Y-83642200D01*
X104764840Y-83642200D02*
X105255060Y-83553300D01*
X105255060Y-83553300D02*
X105603040Y-83581240D01*
X105603040Y-83581240D02*
X105923080Y-83781900D01*
X105923080Y-83781900D02*
X106045000Y-84033360D01*
X106045000Y-84033360D02*
X105973880Y-84343240D01*
X105973880Y-84343240D02*
X105793540Y-84561680D01*
X105793540Y-84561680D02*
X105333800Y-84632800D01*
X105333800Y-84632800D02*
X104924860Y-84582000D01*
X104924860Y-84582000D02*
X104642920Y-84472780D01*
X104642920Y-84472780D02*
X104513380Y-84112100D01*
X102783640Y-84731860D02*
X103344980Y-84472780D01*
X103344980Y-84472780D02*
X103863140Y-85011260D01*
X103863140Y-85011260D02*
X103593900Y-85531960D01*
X103593900Y-85531960D02*
X103753920Y-85811360D01*
X103733600Y-87251540D02*
X103543100Y-87581740D01*
X103543100Y-87581740D02*
X103873300Y-88021160D01*
X103873300Y-88021160D02*
X103383080Y-88493600D01*
X103383080Y-88493600D02*
X102903020Y-88211660D01*
X102903020Y-88211660D02*
X102433120Y-88402160D01*
X102433120Y-88402160D02*
X102245160Y-89011760D01*
X102245160Y-89011760D02*
X101564440Y-89011760D01*
X101564440Y-89011760D02*
X101424740Y-88452960D01*
X101424740Y-88452960D02*
X100853240Y-88252300D01*
X100853240Y-88252300D02*
X100383340Y-88521540D01*
X100383340Y-88521540D02*
X99872800Y-88051640D01*
X99872800Y-88051640D02*
X100134420Y-87533480D01*
X100134420Y-87533480D02*
X99933760Y-87063580D01*
X99933760Y-87063580D02*
X99392740Y-86893400D01*
X99392740Y-86893400D02*
X99374960Y-86202520D01*
X99374960Y-86202520D02*
X99923600Y-85991700D01*
X99923600Y-85991700D02*
X100093780Y-85572600D01*
X100093780Y-85572600D02*
X99824540Y-85021420D01*
X99824540Y-85021420D02*
X100352860Y-84503260D01*
X100352860Y-84503260D02*
X100893880Y-84752180D01*
X100893880Y-84752180D02*
X101373940Y-84582000D01*
X101373940Y-84582000D02*
X101473000Y-84033360D01*
X101473000Y-84033360D02*
X102174040Y-84023200D01*
X102174040Y-84023200D02*
X102374700Y-84582000D01*
X102374700Y-84582000D02*
X102773480Y-84721700D01*
X102753160Y-86862920D02*
X102603300Y-87162640D01*
X102603300Y-87162640D02*
X102405180Y-87363300D01*
X102405180Y-87363300D02*
X102003860Y-87513160D01*
X102003860Y-87513160D02*
X101605080Y-87513160D01*
X101605080Y-87513160D02*
X101254560Y-87363300D01*
X101254560Y-87363300D02*
X100904040Y-86911180D01*
X100904040Y-86911180D02*
X100853240Y-86461600D01*
X100853240Y-86461600D02*
X100954840Y-86062820D01*
X100954840Y-86062820D02*
X101302820Y-85661500D01*
X101302820Y-85661500D02*
X101754940Y-85511640D01*
X101754940Y-85511640D02*
X102252780Y-85562440D01*
X102252780Y-85562440D02*
X102555040Y-85811360D01*
X102555040Y-85811360D02*
X102753160Y-86161880D01*
X102753160Y-86161880D02*
X103753920Y-85811360D01*
X102753160Y-86862920D02*
X103753920Y-87261700D01*
X116205000Y-93218000D02*
X116967000Y-94107000D01*
X117005100Y-93179900D02*
X117005100Y-96545400D01*
X117001000Y-96553999D02*
X109821000Y-96554000D01*
X109821000Y-96554000D02*
X109821000Y-93184001D01*
X109821000Y-93184001D02*
X117001000Y-93184000D01*
X246571003Y-93177000D02*
G75*
G03X246571003Y-93177000I-115003J0D01*
G01*
X247793484Y-94180300D02*
G75*
G03X247793484Y-94180300I-143684J0D01*
G01*
D15*
X247656000Y-93177000D02*
X247656000Y-92177000D01*
X247656000Y-92177000D02*
X245256000Y-92177000D01*
X245256000Y-92177000D02*
X245256000Y-94177000D01*
X245256000Y-94177000D02*
X247656000Y-94177000D01*
X247656000Y-94177000D02*
X247656000Y-93177000D01*
D16*
X246661000Y-93177000D02*
X246661000Y-92927000D01*
X246661000Y-92927000D02*
X246256000Y-92927000D01*
X246256000Y-92927000D02*
X246256000Y-93422000D01*
X246256000Y-93422000D02*
X246661000Y-93422000D01*
X246661000Y-93422000D02*
X246661000Y-93177000D01*
D15*
X246456000Y-93177000D02*
X246481000Y-93177000D01*
X246481000Y-93177000D02*
X246431000Y-93177000D01*
X246431000Y-93177000D02*
X246456000Y-93177000D01*
X246456000Y-93177000D02*
X246456000Y-93202000D01*
X246456000Y-93202000D02*
X246456000Y-93177000D01*
X246456000Y-93177000D02*
X246456000Y-93152000D01*
X246456000Y-93152000D02*
X246456000Y-93177000D01*
D14*
X61930000Y-79960000D02*
X76930000Y-79960000D01*
X76930000Y-79960000D02*
X76930000Y-108860000D01*
X76930000Y-108860000D02*
X61930000Y-108860000D01*
X61930000Y-108860000D02*
X61930000Y-79960000D01*
X97917260Y-85278126D02*
X97441070Y-84944793D01*
X97917260Y-84706698D02*
X96917260Y-84706698D01*
X96917260Y-85087650D01*
X96964880Y-85182888D01*
X97012499Y-85230507D01*
X97107737Y-85278126D01*
X97250594Y-85278126D01*
X97345832Y-85230507D01*
X97393451Y-85182888D01*
X97441070Y-85087650D01*
X97441070Y-84706698D01*
X97393451Y-85706698D02*
X97393451Y-86040031D01*
X97917260Y-86182888D02*
X97917260Y-85706698D01*
X96917260Y-85706698D01*
X96917260Y-86182888D01*
X97393451Y-86944793D02*
X97393451Y-86611460D01*
X97917260Y-86611460D02*
X96917260Y-86611460D01*
X96917260Y-87087650D01*
X96917260Y-87611460D02*
X97155356Y-87611460D01*
X97060118Y-87373364D02*
X97155356Y-87611460D01*
X97060118Y-87849555D01*
X97345832Y-87468602D02*
X97155356Y-87611460D01*
X97345832Y-87754317D01*
X96917260Y-88373364D02*
X97155356Y-88373364D01*
X97060118Y-88135269D02*
X97155356Y-88373364D01*
X97060118Y-88611460D01*
X97345832Y-88230507D02*
X97155356Y-88373364D01*
X97345832Y-88516221D01*
D10*
X118090904Y-94278523D02*
X117290904Y-94278523D01*
X117290904Y-94583285D01*
X117329000Y-94659476D01*
X117367095Y-94697571D01*
X117443285Y-94735666D01*
X117557571Y-94735666D01*
X117633761Y-94697571D01*
X117671857Y-94659476D01*
X117709952Y-94583285D01*
X117709952Y-94278523D01*
X117290904Y-95002333D02*
X117290904Y-95497571D01*
X117595666Y-95230904D01*
X117595666Y-95345190D01*
X117633761Y-95421380D01*
X117671857Y-95459476D01*
X117748047Y-95497571D01*
X117938523Y-95497571D01*
X118014714Y-95459476D01*
X118052809Y-95421380D01*
X118090904Y-95345190D01*
X118090904Y-95116619D01*
X118052809Y-95040428D01*
X118014714Y-95002333D01*
X115994571Y-92658380D02*
X115923142Y-92682190D01*
X115804095Y-92682190D01*
X115756476Y-92658380D01*
X115732666Y-92634571D01*
X115708857Y-92586952D01*
X115708857Y-92539333D01*
X115732666Y-92491714D01*
X115756476Y-92467904D01*
X115804095Y-92444095D01*
X115899333Y-92420285D01*
X115946952Y-92396476D01*
X115970761Y-92372666D01*
X115994571Y-92325047D01*
X115994571Y-92277428D01*
X115970761Y-92229809D01*
X115946952Y-92206000D01*
X115899333Y-92182190D01*
X115780285Y-92182190D01*
X115708857Y-92206000D01*
X115542190Y-92182190D02*
X115423142Y-92682190D01*
X115327904Y-92325047D01*
X115232666Y-92682190D01*
X115113619Y-92182190D01*
X114923142Y-92682190D02*
X114923142Y-92182190D01*
X114804095Y-92182190D01*
X114732666Y-92206000D01*
X114685047Y-92253619D01*
X114661238Y-92301238D01*
X114637428Y-92396476D01*
X114637428Y-92467904D01*
X114661238Y-92563142D01*
X114685047Y-92610761D01*
X114732666Y-92658380D01*
X114804095Y-92682190D01*
X114923142Y-92682190D01*
X244651952Y-92877238D02*
X244975761Y-92877238D01*
X245013857Y-92896285D01*
X245032904Y-92915333D01*
X245051952Y-92953428D01*
X245051952Y-93029619D01*
X245032904Y-93067714D01*
X245013857Y-93086761D01*
X244975761Y-93105809D01*
X244651952Y-93105809D01*
X245051952Y-93315333D02*
X245051952Y-93391523D01*
X245032904Y-93429619D01*
X245013857Y-93448666D01*
X244956714Y-93486761D01*
X244880523Y-93505809D01*
X244728142Y-93505809D01*
X244690047Y-93486761D01*
X244671000Y-93467714D01*
X244651952Y-93429619D01*
X244651952Y-93353428D01*
X244671000Y-93315333D01*
X244690047Y-93296285D01*
X244728142Y-93277238D01*
X244823380Y-93277238D01*
X244861476Y-93296285D01*
X244880523Y-93315333D01*
X244899571Y-93353428D01*
X244899571Y-93429619D01*
X244880523Y-93467714D01*
X244861476Y-93486761D01*
X244823380Y-93505809D01*
X249589952Y-91633904D02*
X249589952Y-91862476D01*
X249989952Y-91748190D02*
X249589952Y-91748190D01*
X249951857Y-92224380D02*
X249970904Y-92205333D01*
X249989952Y-92148190D01*
X249989952Y-92110095D01*
X249970904Y-92052952D01*
X249932809Y-92014857D01*
X249894714Y-91995809D01*
X249818523Y-91976761D01*
X249761380Y-91976761D01*
X249685190Y-91995809D01*
X249647095Y-92014857D01*
X249609000Y-92052952D01*
X249589952Y-92110095D01*
X249589952Y-92148190D01*
X249609000Y-92205333D01*
X249628047Y-92224380D01*
X249970904Y-92376761D02*
X249989952Y-92433904D01*
X249989952Y-92529142D01*
X249970904Y-92567238D01*
X249951857Y-92586285D01*
X249913761Y-92605333D01*
X249875666Y-92605333D01*
X249837571Y-92586285D01*
X249818523Y-92567238D01*
X249799476Y-92529142D01*
X249780428Y-92452952D01*
X249761380Y-92414857D01*
X249742333Y-92395809D01*
X249704238Y-92376761D01*
X249666142Y-92376761D01*
X249628047Y-92395809D01*
X249609000Y-92414857D01*
X249589952Y-92452952D01*
X249589952Y-92548190D01*
X249609000Y-92605333D01*
X249589952Y-92738666D02*
X249589952Y-92986285D01*
X249742333Y-92852952D01*
X249742333Y-92910095D01*
X249761380Y-92948190D01*
X249780428Y-92967238D01*
X249818523Y-92986285D01*
X249913761Y-92986285D01*
X249951857Y-92967238D01*
X249970904Y-92948190D01*
X249989952Y-92910095D01*
X249989952Y-92795809D01*
X249970904Y-92757714D01*
X249951857Y-92738666D01*
X249723285Y-93329142D02*
X249989952Y-93329142D01*
X249570904Y-93233904D02*
X249856619Y-93138666D01*
X249856619Y-93386285D01*
X249589952Y-93500571D02*
X249589952Y-93767238D01*
X249989952Y-93595809D01*
X249989952Y-94129142D02*
X249989952Y-93900571D01*
X249989952Y-94014857D02*
X249589952Y-94014857D01*
X249647095Y-93976761D01*
X249685190Y-93938666D01*
X249704238Y-93900571D01*
X249589952Y-94491047D02*
X249589952Y-94300571D01*
X249780428Y-94281523D01*
X249761380Y-94300571D01*
X249742333Y-94338666D01*
X249742333Y-94433904D01*
X249761380Y-94472000D01*
X249780428Y-94491047D01*
X249818523Y-94510095D01*
X249913761Y-94510095D01*
X249951857Y-94491047D01*
X249970904Y-94472000D01*
X249989952Y-94433904D01*
X249989952Y-94338666D01*
X249970904Y-94300571D01*
X249951857Y-94281523D01*
X249780428Y-94814857D02*
X249780428Y-94681523D01*
X249989952Y-94681523D02*
X249589952Y-94681523D01*
X249589952Y-94872000D01*
X249989952Y-95024380D02*
X249589952Y-95024380D01*
X249989952Y-95252952D01*
X249589952Y-95252952D01*
D17*
X246339280Y-93137085D02*
X246290900Y-93137085D01*
X246321138Y-93221752D02*
X246321138Y-93112895D01*
X246315090Y-93100800D01*
X246302995Y-93094752D01*
X246290900Y-93094752D01*
X246230423Y-93221752D02*
X246242519Y-93215704D01*
X246248566Y-93209657D01*
X246254614Y-93197561D01*
X246254614Y-93161276D01*
X246248566Y-93149180D01*
X246242519Y-93143133D01*
X246230423Y-93137085D01*
X246212280Y-93137085D01*
X246200185Y-93143133D01*
X246194138Y-93149180D01*
X246188090Y-93161276D01*
X246188090Y-93197561D01*
X246194138Y-93209657D01*
X246200185Y-93215704D01*
X246212280Y-93221752D01*
X246230423Y-93221752D01*
X246151804Y-93137085D02*
X246103423Y-93137085D01*
X246133661Y-93094752D02*
X246133661Y-93203609D01*
X246127614Y-93215704D01*
X246115519Y-93221752D01*
X246103423Y-93221752D01*
X246042947Y-93221752D02*
X246055042Y-93215704D01*
X246061090Y-93209657D01*
X246067138Y-93197561D01*
X246067138Y-93161276D01*
X246061090Y-93149180D01*
X246055042Y-93143133D01*
X246042947Y-93137085D01*
X246024804Y-93137085D01*
X246012709Y-93143133D01*
X246006661Y-93149180D01*
X246000614Y-93161276D01*
X246000614Y-93197561D01*
X246006661Y-93209657D01*
X246012709Y-93215704D01*
X246024804Y-93221752D01*
X246042947Y-93221752D01*
D18*
X244295071Y-92601428D02*
X244295071Y-93762571D01*
X244343452Y-93182000D02*
X244246690Y-93182000D01*
D14*
X60858304Y-92644980D02*
X60858304Y-93454504D01*
X60810685Y-93549742D01*
X60763066Y-93597361D01*
X60667828Y-93644980D01*
X60477352Y-93644980D01*
X60382114Y-93597361D01*
X60334495Y-93549742D01*
X60286876Y-93454504D01*
X60286876Y-92644980D01*
X59286876Y-93644980D02*
X59858304Y-93644980D01*
X59572590Y-93644980D02*
X59572590Y-92644980D01*
X59667828Y-92787838D01*
X59763066Y-92883076D01*
X59858304Y-92930695D01*
X61195790Y-90708171D02*
X61052933Y-90755790D01*
X61005314Y-90803409D01*
X60957695Y-90898647D01*
X60957695Y-91041504D01*
X61005314Y-91136742D01*
X61052933Y-91184361D01*
X61148171Y-91231980D01*
X61529123Y-91231980D01*
X61529123Y-90231980D01*
X61195790Y-90231980D01*
X61100552Y-90279600D01*
X61052933Y-90327219D01*
X61005314Y-90422457D01*
X61005314Y-90517695D01*
X61052933Y-90612933D01*
X61100552Y-90660552D01*
X61195790Y-90708171D01*
X61529123Y-90708171D01*
X60386266Y-91231980D02*
X60481504Y-91184361D01*
X60529123Y-91089123D01*
X60529123Y-90231980D01*
X59576742Y-90565314D02*
X59576742Y-91231980D01*
X60005314Y-90565314D02*
X60005314Y-91089123D01*
X59957695Y-91184361D01*
X59862457Y-91231980D01*
X59719600Y-91231980D01*
X59624361Y-91184361D01*
X59576742Y-91136742D01*
X58719600Y-91184361D02*
X58814838Y-91231980D01*
X59005314Y-91231980D01*
X59100552Y-91184361D01*
X59148171Y-91089123D01*
X59148171Y-90708171D01*
X59100552Y-90612933D01*
X59005314Y-90565314D01*
X58814838Y-90565314D01*
X58719600Y-90612933D01*
X58671980Y-90708171D01*
X58671980Y-90803409D01*
X59148171Y-90898647D01*
X58386266Y-90565314D02*
X58005314Y-90565314D01*
X58243409Y-90231980D02*
X58243409Y-91089123D01*
X58195790Y-91184361D01*
X58100552Y-91231980D01*
X58005314Y-91231980D01*
X57529123Y-91231980D02*
X57624361Y-91184361D01*
X57671980Y-91136742D01*
X57719600Y-91041504D01*
X57719600Y-90755790D01*
X57671980Y-90660552D01*
X57624361Y-90612933D01*
X57529123Y-90565314D01*
X57386266Y-90565314D01*
X57291028Y-90612933D01*
X57243409Y-90660552D01*
X57195790Y-90755790D01*
X57195790Y-91041504D01*
X57243409Y-91136742D01*
X57291028Y-91184361D01*
X57386266Y-91231980D01*
X57529123Y-91231980D01*
X56624361Y-91231980D02*
X56719600Y-91184361D01*
X56767219Y-91136742D01*
X56814838Y-91041504D01*
X56814838Y-90755790D01*
X56767219Y-90660552D01*
X56719600Y-90612933D01*
X56624361Y-90565314D01*
X56481504Y-90565314D01*
X56386266Y-90612933D01*
X56338647Y-90660552D01*
X56291028Y-90755790D01*
X56291028Y-91041504D01*
X56338647Y-91136742D01*
X56386266Y-91184361D01*
X56481504Y-91231980D01*
X56624361Y-91231980D01*
X56005314Y-90565314D02*
X55624361Y-90565314D01*
X55862457Y-90231980D02*
X55862457Y-91089123D01*
X55814838Y-91184361D01*
X55719600Y-91231980D01*
X55624361Y-91231980D01*
X55291028Y-91231980D02*
X55291028Y-90231980D01*
X54862457Y-91231980D02*
X54862457Y-90708171D01*
X54910076Y-90612933D01*
X55005314Y-90565314D01*
X55148171Y-90565314D01*
X55243409Y-90612933D01*
X55291028Y-90660552D01*
X53624361Y-91231980D02*
X53624361Y-90231980D01*
X53624361Y-90708171D02*
X53052933Y-90708171D01*
X53052933Y-91231980D02*
X53052933Y-90231980D01*
X52005314Y-91136742D02*
X52052933Y-91184361D01*
X52195790Y-91231980D01*
X52291028Y-91231980D01*
X52433885Y-91184361D01*
X52529123Y-91089123D01*
X52576742Y-90993885D01*
X52624361Y-90803409D01*
X52624361Y-90660552D01*
X52576742Y-90470076D01*
X52529123Y-90374838D01*
X52433885Y-90279600D01*
X52291028Y-90231980D01*
X52195790Y-90231980D01*
X52052933Y-90279600D01*
X52005314Y-90327219D01*
X51576742Y-90851028D02*
X50814838Y-90851028D01*
X50148171Y-90231980D02*
X50052933Y-90231980D01*
X49957695Y-90279600D01*
X49910076Y-90327219D01*
X49862457Y-90422457D01*
X49814838Y-90612933D01*
X49814838Y-90851028D01*
X49862457Y-91041504D01*
X49910076Y-91136742D01*
X49957695Y-91184361D01*
X50052933Y-91231980D01*
X50148171Y-91231980D01*
X50243409Y-91184361D01*
X50291028Y-91136742D01*
X50338647Y-91041504D01*
X50386266Y-90851028D01*
X50386266Y-90612933D01*
X50338647Y-90422457D01*
X50291028Y-90327219D01*
X50243409Y-90279600D01*
X50148171Y-90231980D01*
X48957695Y-90231980D02*
X49148171Y-90231980D01*
X49243409Y-90279600D01*
X49291028Y-90327219D01*
X49386266Y-90470076D01*
X49433885Y-90660552D01*
X49433885Y-91041504D01*
X49386266Y-91136742D01*
X49338647Y-91184361D01*
X49243409Y-91231980D01*
X49052933Y-91231980D01*
X48957695Y-91184361D01*
X48910076Y-91136742D01*
X48862457Y-91041504D01*
X48862457Y-90803409D01*
X48910076Y-90708171D01*
X48957695Y-90660552D01*
X49052933Y-90612933D01*
X49243409Y-90612933D01*
X49338647Y-90660552D01*
X49386266Y-90708171D01*
X49433885Y-90803409D01*
X75199523Y-77970000D02*
X75275714Y-77931904D01*
X75390000Y-77931904D01*
X75504285Y-77970000D01*
X75580476Y-78046190D01*
X75618571Y-78122380D01*
X75656666Y-78274761D01*
X75656666Y-78389047D01*
X75618571Y-78541428D01*
X75580476Y-78617619D01*
X75504285Y-78693809D01*
X75390000Y-78731904D01*
X75313809Y-78731904D01*
X75199523Y-78693809D01*
X75161428Y-78655714D01*
X75161428Y-78389047D01*
X75313809Y-78389047D01*
X74818571Y-78731904D02*
X74818571Y-77931904D01*
X74361428Y-78731904D01*
X74361428Y-77931904D01*
X73980476Y-78731904D02*
X73980476Y-77931904D01*
X73790000Y-77931904D01*
X73675714Y-77970000D01*
X73599523Y-78046190D01*
X73561428Y-78122380D01*
X73523333Y-78274761D01*
X73523333Y-78389047D01*
X73561428Y-78541428D01*
X73599523Y-78617619D01*
X73675714Y-78693809D01*
X73790000Y-78731904D01*
X73980476Y-78731904D01*
X64829523Y-77930000D02*
X64905714Y-77891904D01*
X65020000Y-77891904D01*
X65134285Y-77930000D01*
X65210476Y-78006190D01*
X65248571Y-78082380D01*
X65286666Y-78234761D01*
X65286666Y-78349047D01*
X65248571Y-78501428D01*
X65210476Y-78577619D01*
X65134285Y-78653809D01*
X65020000Y-78691904D01*
X64943809Y-78691904D01*
X64829523Y-78653809D01*
X64791428Y-78615714D01*
X64791428Y-78349047D01*
X64943809Y-78349047D01*
X64448571Y-78691904D02*
X64448571Y-77891904D01*
X63991428Y-78691904D01*
X63991428Y-77891904D01*
X63610476Y-78691904D02*
X63610476Y-77891904D01*
X63420000Y-77891904D01*
X63305714Y-77930000D01*
X63229523Y-78006190D01*
X63191428Y-78082380D01*
X63153333Y-78234761D01*
X63153333Y-78349047D01*
X63191428Y-78501428D01*
X63229523Y-78577619D01*
X63305714Y-78653809D01*
X63420000Y-78691904D01*
X63610476Y-78691904D01*
X79619523Y-82210000D02*
X79695714Y-82171904D01*
X79810000Y-82171904D01*
X79924285Y-82210000D01*
X80000476Y-82286190D01*
X80038571Y-82362380D01*
X80076666Y-82514761D01*
X80076666Y-82629047D01*
X80038571Y-82781428D01*
X80000476Y-82857619D01*
X79924285Y-82933809D01*
X79810000Y-82971904D01*
X79733809Y-82971904D01*
X79619523Y-82933809D01*
X79581428Y-82895714D01*
X79581428Y-82629047D01*
X79733809Y-82629047D01*
X79238571Y-82971904D02*
X79238571Y-82171904D01*
X78781428Y-82971904D01*
X78781428Y-82171904D01*
X78400476Y-82971904D02*
X78400476Y-82171904D01*
X78210000Y-82171904D01*
X78095714Y-82210000D01*
X78019523Y-82286190D01*
X77981428Y-82362380D01*
X77943333Y-82514761D01*
X77943333Y-82629047D01*
X77981428Y-82781428D01*
X78019523Y-82857619D01*
X78095714Y-82933809D01*
X78210000Y-82971904D01*
X78400476Y-82971904D01*
X80095238Y-96551904D02*
X80476190Y-96551904D01*
X80476190Y-95751904D01*
X79828571Y-96132857D02*
X79561904Y-96132857D01*
X79447619Y-96551904D02*
X79828571Y-96551904D01*
X79828571Y-95751904D01*
X79447619Y-95751904D01*
X79104761Y-96551904D02*
X79104761Y-95751904D01*
X78914285Y-95751904D01*
X78800000Y-95790000D01*
X78723809Y-95866190D01*
X78685714Y-95942380D01*
X78647619Y-96094761D01*
X78647619Y-96209047D01*
X78685714Y-96361428D01*
X78723809Y-96437619D01*
X78800000Y-96513809D01*
X78914285Y-96551904D01*
X79104761Y-96551904D01*
X77885714Y-96551904D02*
X78342857Y-96551904D01*
X78114285Y-96551904D02*
X78114285Y-95751904D01*
X78190476Y-95866190D01*
X78266666Y-95942380D01*
X78342857Y-95980476D01*
X80025238Y-98051904D02*
X80406190Y-98051904D01*
X80406190Y-97251904D01*
X79758571Y-97632857D02*
X79491904Y-97632857D01*
X79377619Y-98051904D02*
X79758571Y-98051904D01*
X79758571Y-97251904D01*
X79377619Y-97251904D01*
X79034761Y-98051904D02*
X79034761Y-97251904D01*
X78844285Y-97251904D01*
X78730000Y-97290000D01*
X78653809Y-97366190D01*
X78615714Y-97442380D01*
X78577619Y-97594761D01*
X78577619Y-97709047D01*
X78615714Y-97861428D01*
X78653809Y-97937619D01*
X78730000Y-98013809D01*
X78844285Y-98051904D01*
X79034761Y-98051904D01*
X78272857Y-97328095D02*
X78234761Y-97290000D01*
X78158571Y-97251904D01*
X77968095Y-97251904D01*
X77891904Y-97290000D01*
X77853809Y-97328095D01*
X77815714Y-97404285D01*
X77815714Y-97480476D01*
X77853809Y-97594761D01*
X78310952Y-98051904D01*
X77815714Y-98051904D01*
X82924285Y-101061904D02*
X82924285Y-100261904D01*
X82467142Y-101061904D02*
X82810000Y-100604761D01*
X82467142Y-100261904D02*
X82924285Y-100719047D01*
X82124285Y-100642857D02*
X81857619Y-100642857D01*
X81743333Y-101061904D02*
X82124285Y-101061904D01*
X82124285Y-100261904D01*
X81743333Y-100261904D01*
X81248095Y-100680952D02*
X81248095Y-101061904D01*
X81514761Y-100261904D02*
X81248095Y-100680952D01*
X80981428Y-100261904D01*
X79876666Y-101366666D02*
X79914761Y-101328571D01*
X79990952Y-101214285D01*
X80029047Y-101138095D01*
X80067142Y-101023809D01*
X80105238Y-100833333D01*
X80105238Y-100680952D01*
X80067142Y-100490476D01*
X80029047Y-100376190D01*
X79990952Y-100300000D01*
X79914761Y-100185714D01*
X79876666Y-100147619D01*
X79648095Y-100261904D02*
X79152857Y-100261904D01*
X79419523Y-100566666D01*
X79305238Y-100566666D01*
X79229047Y-100604761D01*
X79190952Y-100642857D01*
X79152857Y-100719047D01*
X79152857Y-100909523D01*
X79190952Y-100985714D01*
X79229047Y-101023809D01*
X79305238Y-101061904D01*
X79533809Y-101061904D01*
X79610000Y-101023809D01*
X79648095Y-100985714D01*
X78467142Y-100528571D02*
X78467142Y-101061904D01*
X78657619Y-100223809D02*
X78848095Y-100795238D01*
X78352857Y-100795238D01*
X78124285Y-101366666D02*
X78086190Y-101328571D01*
X78010000Y-101214285D01*
X77971904Y-101138095D01*
X77933809Y-101023809D01*
X77895714Y-100833333D01*
X77895714Y-100680952D01*
X77933809Y-100490476D01*
X77971904Y-100376190D01*
X78010000Y-100300000D01*
X78086190Y-100185714D01*
X78124285Y-100147619D01*
X60959523Y-100101904D02*
X60502380Y-100101904D01*
X60730952Y-100901904D02*
X60730952Y-100101904D01*
X60311904Y-100101904D02*
X59778571Y-100901904D01*
X59778571Y-100101904D02*
X60311904Y-100901904D01*
X60413333Y-99521904D02*
X60680000Y-99140952D01*
X60870476Y-99521904D02*
X60870476Y-98721904D01*
X60565714Y-98721904D01*
X60489523Y-98760000D01*
X60451428Y-98798095D01*
X60413333Y-98874285D01*
X60413333Y-98988571D01*
X60451428Y-99064761D01*
X60489523Y-99102857D01*
X60565714Y-99140952D01*
X60870476Y-99140952D01*
X60146666Y-98721904D02*
X59613333Y-99521904D01*
X59613333Y-98721904D02*
X60146666Y-99521904D01*
X61020952Y-83641904D02*
X60525714Y-83641904D01*
X60792380Y-83946666D01*
X60678095Y-83946666D01*
X60601904Y-83984761D01*
X60563809Y-84022857D01*
X60525714Y-84099047D01*
X60525714Y-84289523D01*
X60563809Y-84365714D01*
X60601904Y-84403809D01*
X60678095Y-84441904D01*
X60906666Y-84441904D01*
X60982857Y-84403809D01*
X61020952Y-84365714D01*
X60182857Y-84365714D02*
X60144761Y-84403809D01*
X60182857Y-84441904D01*
X60220952Y-84403809D01*
X60182857Y-84365714D01*
X60182857Y-84441904D01*
X59878095Y-83641904D02*
X59382857Y-83641904D01*
X59649523Y-83946666D01*
X59535238Y-83946666D01*
X59459047Y-83984761D01*
X59420952Y-84022857D01*
X59382857Y-84099047D01*
X59382857Y-84289523D01*
X59420952Y-84365714D01*
X59459047Y-84403809D01*
X59535238Y-84441904D01*
X59763809Y-84441904D01*
X59840000Y-84403809D01*
X59878095Y-84365714D01*
X59154285Y-83641904D02*
X58887619Y-84441904D01*
X58620952Y-83641904D01*
X60569523Y-82210000D02*
X60645714Y-82171904D01*
X60760000Y-82171904D01*
X60874285Y-82210000D01*
X60950476Y-82286190D01*
X60988571Y-82362380D01*
X61026666Y-82514761D01*
X61026666Y-82629047D01*
X60988571Y-82781428D01*
X60950476Y-82857619D01*
X60874285Y-82933809D01*
X60760000Y-82971904D01*
X60683809Y-82971904D01*
X60569523Y-82933809D01*
X60531428Y-82895714D01*
X60531428Y-82629047D01*
X60683809Y-82629047D01*
X60188571Y-82971904D02*
X60188571Y-82171904D01*
X59731428Y-82971904D01*
X59731428Y-82171904D01*
X59350476Y-82971904D02*
X59350476Y-82171904D01*
X59160000Y-82171904D01*
X59045714Y-82210000D01*
X58969523Y-82286190D01*
X58931428Y-82362380D01*
X58893333Y-82514761D01*
X58893333Y-82629047D01*
X58931428Y-82781428D01*
X58969523Y-82857619D01*
X59045714Y-82933809D01*
X59160000Y-82971904D01*
X59350476Y-82971904D01*
M02*
