M48
;DRILL file {KiCad (2015-11-02 BZR 6292, Git 85c3ae3)-product} date 12/7/2015 2:01:30 PM
;FORMAT={-:-/ absolute / inch / decimal}
FMAT,2
INCH,TZ
T1C0.028
%
G90
G05
M72
T1
X5.572Y-3.9456
X5.572Y-4.0164
T0
M30
