G04 #@! TF.FileFunction,Soldermask,Bot*
%FSLAX46Y46*%
G04 Gerber Fmt 4.6, Leading zero omitted, Abs format (unit mm)*
G04 Created by KiCad (PCBNEW (2015-11-02 BZR 6292, Git 85c3ae3)-product) date 12/7/2015 2:01:28 PM*
%MOMM*%
G01*
G04 APERTURE LIST*
%ADD10C,0.100000*%
%ADD11C,1.400000*%
%ADD12C,1.100000*%
G04 APERTURE END LIST*
D10*
D11*
X148463000Y-93472000D03*
X147193000Y-93472000D03*
X148463000Y-92202000D03*
X147193000Y-92202000D03*
X148463000Y-90932000D03*
X147193000Y-90932000D03*
X148463000Y-89662000D03*
X147193000Y-89662000D03*
X148463000Y-88392000D03*
X147193000Y-88392000D03*
D12*
X141528800Y-100217400D03*
X141528800Y-102017400D03*
M02*
