G04 #@! TF.FileFunction,Soldermask,Bot*
%FSLAX46Y46*%
G04 Gerber Fmt 4.6, Leading zero omitted, Abs format (unit mm)*
G04 Created by KiCad (PCBNEW 4.0.7-e2-6376~58~ubuntu14.04.1) date Wed Sep  6 17:15:42 2017*
%MOMM*%
%LPD*%
G01*
G04 APERTURE LIST*
%ADD10C,0.100000*%
%ADD11C,1.400000*%
%ADD12C,1.110000*%
G04 APERTURE END LIST*
D10*
D11*
X148463000Y-93472000D03*
X147193000Y-93472000D03*
X148463000Y-92202000D03*
X147193000Y-92202000D03*
X148463000Y-90932000D03*
X147193000Y-90932000D03*
X148463000Y-89662000D03*
X147193000Y-89662000D03*
X148463000Y-88392000D03*
X147193000Y-88392000D03*
D12*
X141478000Y-100419000D03*
X141478000Y-102019000D03*
M02*
