G04 #@! TF.FileFunction,Copper,L1,Top,Signal*
%FSLAX46Y46*%
G04 Gerber Fmt 4.6, Leading zero omitted, Abs format (unit mm)*
G04 Created by KiCad (PCBNEW 4.0.7-e2-6376~58~ubuntu14.04.1) date Wed Sep  6 17:15:42 2017*
%MOMM*%
%LPD*%
G01*
G04 APERTURE LIST*
%ADD10C,0.100000*%
%ADD11R,1.250000X1.500000*%
%ADD12C,1.000000*%
%ADD13R,1.600000X0.550000*%
%ADD14R,0.550000X1.600000*%
%ADD15R,1.400000X1.050000*%
%ADD16C,0.710000*%
%ADD17C,0.600000*%
%ADD18C,0.250000*%
%ADD19C,0.254000*%
G04 APERTURE END LIST*
D10*
D11*
X129794000Y-90825000D03*
X129794000Y-93325000D03*
D12*
X148463000Y-93472000D03*
X147193000Y-93472000D03*
X148463000Y-92202000D03*
X147193000Y-92202000D03*
X148463000Y-90932000D03*
X147193000Y-90932000D03*
X148463000Y-89662000D03*
X147193000Y-89662000D03*
X148463000Y-88392000D03*
X147193000Y-88392000D03*
D13*
X132529000Y-88513000D03*
X132529000Y-89313000D03*
X132529000Y-90113000D03*
X132529000Y-90913000D03*
X132529000Y-91713000D03*
X132529000Y-92513000D03*
X132529000Y-93313000D03*
X132529000Y-94113000D03*
D14*
X133979000Y-95563000D03*
X134779000Y-95563000D03*
X135579000Y-95563000D03*
X136379000Y-95563000D03*
X137179000Y-95563000D03*
X137979000Y-95563000D03*
X138779000Y-95563000D03*
X139579000Y-95563000D03*
D13*
X141029000Y-94113000D03*
X141029000Y-93313000D03*
X141029000Y-92513000D03*
X141029000Y-91713000D03*
X141029000Y-90913000D03*
X141029000Y-90113000D03*
X141029000Y-89313000D03*
X141029000Y-88513000D03*
D14*
X139579000Y-87063000D03*
X138779000Y-87063000D03*
X137979000Y-87063000D03*
X137179000Y-87063000D03*
X136379000Y-87063000D03*
X135579000Y-87063000D03*
X134779000Y-87063000D03*
X133979000Y-87063000D03*
D15*
X139678000Y-100494000D03*
X139678000Y-101944000D03*
X143278000Y-100494000D03*
X143278000Y-101944000D03*
D16*
X141478000Y-100419000D03*
X141478000Y-102019000D03*
D17*
X150241000Y-94488000D03*
X134366000Y-91948000D03*
X134747000Y-94234000D03*
X137922000Y-98933000D03*
X139573000Y-93726000D03*
D18*
X131699000Y-85344000D02*
X148590000Y-85344000D01*
X131064000Y-85979000D02*
X131699000Y-85344000D01*
X131134000Y-90113000D02*
X131064000Y-90043000D01*
X131064000Y-90043000D02*
X131064000Y-85979000D01*
X132529000Y-90113000D02*
X131134000Y-90113000D01*
X149606000Y-93472000D02*
X148463000Y-93472000D01*
X150622000Y-92456000D02*
X149606000Y-93472000D01*
X150622000Y-87376000D02*
X150622000Y-92456000D01*
X148590000Y-85344000D02*
X150622000Y-87376000D01*
X132529000Y-90113000D02*
X134436000Y-90113000D01*
X134131000Y-90913000D02*
X132529000Y-90913000D01*
X134620000Y-90424000D02*
X134131000Y-90913000D01*
X134747000Y-90424000D02*
X134620000Y-90424000D01*
X134436000Y-90113000D02*
X134747000Y-90424000D01*
X129794000Y-90825000D02*
X132441000Y-90825000D01*
X132441000Y-90825000D02*
X132529000Y-90913000D01*
X139728800Y-101842400D02*
X140499000Y-101842400D01*
X142036800Y-101219000D02*
X142660200Y-101842400D01*
X141122400Y-101219000D02*
X142036800Y-101219000D01*
X140499000Y-101842400D02*
X141122400Y-101219000D01*
X142660200Y-101842400D02*
X143328800Y-101842400D01*
X143328800Y-101842400D02*
X144951350Y-101842400D01*
X144951350Y-101842400D02*
X146207430Y-100586320D01*
X146207430Y-100586320D02*
X146207430Y-98521570D01*
X146207430Y-98521570D02*
X150241000Y-94488000D01*
X148463000Y-88392000D02*
X148971000Y-88392000D01*
X149352000Y-90932000D02*
X148463000Y-90932000D01*
X149606000Y-90678000D02*
X149352000Y-90932000D01*
X149606000Y-89027000D02*
X149606000Y-90678000D01*
X148971000Y-88392000D02*
X149606000Y-89027000D01*
X148463000Y-90932000D02*
X148463000Y-92202000D01*
X132529000Y-91713000D02*
X134131000Y-91713000D01*
X134131000Y-91713000D02*
X134366000Y-91948000D01*
X132529000Y-91713000D02*
X133877000Y-91713000D01*
X133547000Y-92513000D02*
X132529000Y-92513000D01*
X133985000Y-92075000D02*
X133547000Y-92513000D01*
X134239000Y-92075000D02*
X133985000Y-92075000D01*
X133877000Y-91713000D02*
X134239000Y-92075000D01*
X129794000Y-93325000D02*
X130576000Y-93325000D01*
X131388000Y-92513000D02*
X132529000Y-92513000D01*
X130576000Y-93325000D02*
X131388000Y-92513000D01*
X139579000Y-87063000D02*
X145864000Y-87063000D01*
X145864000Y-87063000D02*
X147193000Y-88392000D01*
X132529000Y-94113000D02*
X133979000Y-94113000D01*
X139579000Y-88513000D02*
X139579000Y-87063000D01*
X133979000Y-94113000D02*
X139579000Y-88513000D01*
X134779000Y-95563000D02*
X134779000Y-94266000D01*
X134779000Y-94266000D02*
X134747000Y-94234000D01*
X138779000Y-95563000D02*
X138779000Y-96996000D01*
X143764000Y-96901000D02*
X147193000Y-93472000D01*
X138874000Y-96901000D02*
X143764000Y-96901000D01*
X138779000Y-96996000D02*
X138874000Y-96901000D01*
X139579000Y-95563000D02*
X142816000Y-95563000D01*
X146177000Y-92202000D02*
X147193000Y-92202000D01*
X142816000Y-95563000D02*
X146177000Y-92202000D01*
X141029000Y-94113000D02*
X142742000Y-94113000D01*
X145796000Y-90932000D02*
X147193000Y-90932000D01*
X145542000Y-91186000D02*
X145796000Y-90932000D01*
X145542000Y-91313000D02*
X145542000Y-91186000D01*
X142742000Y-94113000D02*
X145542000Y-91313000D01*
X139728800Y-100392400D02*
X139728800Y-100199600D01*
X139728800Y-100199600D02*
X140462000Y-99466400D01*
X140462000Y-99466400D02*
X142402800Y-99466400D01*
X142402800Y-99466400D02*
X143328800Y-100392400D01*
X137002570Y-100581680D02*
X139539520Y-100581680D01*
X139539520Y-100581680D02*
X139728800Y-100392400D01*
X137002570Y-100581680D02*
X137002570Y-99852430D01*
X137002570Y-99852430D02*
X137922000Y-98933000D01*
X139573000Y-93726000D02*
X139986000Y-93313000D01*
X139986000Y-93313000D02*
X141029000Y-93313000D01*
D19*
G36*
X151236000Y-102595000D02*
X144613000Y-102595000D01*
X144613000Y-102229750D01*
X144454250Y-102071000D01*
X143405000Y-102071000D01*
X143405000Y-102091000D01*
X143151000Y-102091000D01*
X143151000Y-102071000D01*
X143131000Y-102071000D01*
X143131000Y-101817000D01*
X143151000Y-101817000D01*
X143151000Y-101797000D01*
X143405000Y-101797000D01*
X143405000Y-101817000D01*
X144454250Y-101817000D01*
X144613000Y-101658250D01*
X144613000Y-101292690D01*
X144516327Y-101059301D01*
X144337698Y-100880673D01*
X144311406Y-100869782D01*
X144311406Y-99969000D01*
X144288605Y-99847821D01*
X144216988Y-99736526D01*
X144107714Y-99661862D01*
X143978000Y-99635594D01*
X143211218Y-99635594D01*
X142722412Y-99146788D01*
X142575773Y-99048806D01*
X142402800Y-99014400D01*
X140462000Y-99014400D01*
X140289027Y-99048806D01*
X140142387Y-99146788D01*
X139653582Y-99635594D01*
X138978000Y-99635594D01*
X138856821Y-99658395D01*
X138745526Y-99730012D01*
X138670862Y-99839286D01*
X138644594Y-99969000D01*
X138644594Y-100129680D01*
X137454570Y-100129680D01*
X137454570Y-100039654D01*
X137934214Y-99560011D01*
X138046171Y-99560109D01*
X138276703Y-99464855D01*
X138453235Y-99288631D01*
X138548891Y-99058265D01*
X138549109Y-98808829D01*
X138453855Y-98578297D01*
X138277631Y-98401765D01*
X138047265Y-98306109D01*
X137797829Y-98305891D01*
X137567297Y-98401145D01*
X137390765Y-98577369D01*
X137295109Y-98807735D01*
X137295010Y-98920765D01*
X136682958Y-99532818D01*
X136584976Y-99679457D01*
X136550570Y-99852430D01*
X136550570Y-100581680D01*
X136584976Y-100754653D01*
X136682958Y-100901292D01*
X136829597Y-100999274D01*
X137002570Y-101033680D01*
X138465294Y-101033680D01*
X138439673Y-101059301D01*
X138343000Y-101292690D01*
X138343000Y-101658250D01*
X138501750Y-101817000D01*
X139551000Y-101817000D01*
X139551000Y-101797000D01*
X139805000Y-101797000D01*
X139805000Y-101817000D01*
X139825000Y-101817000D01*
X139825000Y-102071000D01*
X139805000Y-102071000D01*
X139805000Y-102091000D01*
X139551000Y-102091000D01*
X139551000Y-102071000D01*
X138501750Y-102071000D01*
X138343000Y-102229750D01*
X138343000Y-102595000D01*
X128037000Y-102595000D01*
X128037000Y-93610750D01*
X128534000Y-93610750D01*
X128534000Y-94201309D01*
X128630673Y-94434698D01*
X128809301Y-94613327D01*
X129042690Y-94710000D01*
X129508250Y-94710000D01*
X129667000Y-94551250D01*
X129667000Y-93452000D01*
X129921000Y-93452000D01*
X129921000Y-94551250D01*
X130079750Y-94710000D01*
X130545310Y-94710000D01*
X130778699Y-94613327D01*
X130957327Y-94434698D01*
X131054000Y-94201309D01*
X131054000Y-93610750D01*
X130895250Y-93452000D01*
X129921000Y-93452000D01*
X129667000Y-93452000D01*
X128692750Y-93452000D01*
X128534000Y-93610750D01*
X128037000Y-93610750D01*
X128037000Y-92448691D01*
X128534000Y-92448691D01*
X128534000Y-93039250D01*
X128692750Y-93198000D01*
X129667000Y-93198000D01*
X129667000Y-92098750D01*
X129921000Y-92098750D01*
X129921000Y-93198000D01*
X130895250Y-93198000D01*
X131054000Y-93039250D01*
X131054000Y-92448691D01*
X130957327Y-92215302D01*
X130778699Y-92036673D01*
X130687145Y-91998750D01*
X131094000Y-91998750D01*
X131094000Y-92227250D01*
X131173861Y-92307111D01*
X131190673Y-92347699D01*
X131369302Y-92526327D01*
X131602691Y-92623000D01*
X132243250Y-92623000D01*
X132402000Y-92464250D01*
X132402000Y-91761750D01*
X132656000Y-91761750D01*
X132656000Y-92464250D01*
X132814750Y-92623000D01*
X133455309Y-92623000D01*
X133688698Y-92526327D01*
X133867327Y-92347699D01*
X133884139Y-92307111D01*
X133964000Y-92227250D01*
X133964000Y-91998750D01*
X133884139Y-91918889D01*
X133867327Y-91878301D01*
X133688698Y-91699673D01*
X133455309Y-91603000D01*
X132814750Y-91603000D01*
X132656000Y-91761750D01*
X132402000Y-91761750D01*
X132243250Y-91603000D01*
X131602691Y-91603000D01*
X131369302Y-91699673D01*
X131190673Y-91878301D01*
X131173861Y-91918889D01*
X131094000Y-91998750D01*
X130687145Y-91998750D01*
X130545310Y-91940000D01*
X130079750Y-91940000D01*
X129921000Y-92098750D01*
X129667000Y-92098750D01*
X129508250Y-91940000D01*
X129042690Y-91940000D01*
X128809301Y-92036673D01*
X128630673Y-92215302D01*
X128534000Y-92448691D01*
X128037000Y-92448691D01*
X128037000Y-90075000D01*
X128835594Y-90075000D01*
X128835594Y-91575000D01*
X128858395Y-91696179D01*
X128930012Y-91807474D01*
X129039286Y-91882138D01*
X129169000Y-91908406D01*
X130419000Y-91908406D01*
X130540179Y-91885605D01*
X130651474Y-91813988D01*
X130726138Y-91704714D01*
X130752406Y-91575000D01*
X130752406Y-91277000D01*
X131108369Y-91277000D01*
X131094000Y-91311690D01*
X131094000Y-91427250D01*
X131252750Y-91586000D01*
X132402000Y-91586000D01*
X132402000Y-91566000D01*
X132656000Y-91566000D01*
X132656000Y-91586000D01*
X133805250Y-91586000D01*
X133964000Y-91427250D01*
X133964000Y-91365000D01*
X134131000Y-91365000D01*
X134303973Y-91330594D01*
X134450612Y-91232612D01*
X134822178Y-90861046D01*
X134919973Y-90841594D01*
X135066612Y-90743612D01*
X135164594Y-90596973D01*
X135199000Y-90424000D01*
X135164594Y-90251027D01*
X135150875Y-90230495D01*
X135066612Y-90104387D01*
X134755612Y-89793388D01*
X134608973Y-89695406D01*
X134436000Y-89661000D01*
X133647623Y-89661000D01*
X133662406Y-89588000D01*
X133662406Y-89038000D01*
X133639605Y-88916821D01*
X133637105Y-88912937D01*
X133662406Y-88788000D01*
X133662406Y-88238000D01*
X133652622Y-88186002D01*
X133704000Y-88196406D01*
X134254000Y-88196406D01*
X134375179Y-88173605D01*
X134379063Y-88171105D01*
X134504000Y-88196406D01*
X135054000Y-88196406D01*
X135175179Y-88173605D01*
X135179063Y-88171105D01*
X135304000Y-88196406D01*
X135854000Y-88196406D01*
X135975179Y-88173605D01*
X135979063Y-88171105D01*
X136104000Y-88196406D01*
X136654000Y-88196406D01*
X136775179Y-88173605D01*
X136779063Y-88171105D01*
X136904000Y-88196406D01*
X137454000Y-88196406D01*
X137575179Y-88173605D01*
X137579063Y-88171105D01*
X137704000Y-88196406D01*
X138254000Y-88196406D01*
X138375179Y-88173605D01*
X138379063Y-88171105D01*
X138504000Y-88196406D01*
X139054000Y-88196406D01*
X139127000Y-88182670D01*
X139127000Y-88325776D01*
X133791776Y-93661000D01*
X133647623Y-93661000D01*
X133662406Y-93588000D01*
X133662406Y-93337218D01*
X133688698Y-93326327D01*
X133867327Y-93147699D01*
X133964000Y-92914310D01*
X133964000Y-92798750D01*
X133805250Y-92640000D01*
X132656000Y-92640000D01*
X132656000Y-92660000D01*
X132402000Y-92660000D01*
X132402000Y-92640000D01*
X131252750Y-92640000D01*
X131094000Y-92798750D01*
X131094000Y-92914310D01*
X131190673Y-93147699D01*
X131369302Y-93326327D01*
X131395594Y-93337218D01*
X131395594Y-93588000D01*
X131418395Y-93709179D01*
X131420895Y-93713063D01*
X131395594Y-93838000D01*
X131395594Y-94388000D01*
X131418395Y-94509179D01*
X131490012Y-94620474D01*
X131599286Y-94695138D01*
X131729000Y-94721406D01*
X133329000Y-94721406D01*
X133380998Y-94711622D01*
X133370594Y-94763000D01*
X133370594Y-96363000D01*
X133393395Y-96484179D01*
X133465012Y-96595474D01*
X133574286Y-96670138D01*
X133704000Y-96696406D01*
X134254000Y-96696406D01*
X134375179Y-96673605D01*
X134379063Y-96671105D01*
X134504000Y-96696406D01*
X135054000Y-96696406D01*
X135175179Y-96673605D01*
X135179063Y-96671105D01*
X135304000Y-96696406D01*
X135854000Y-96696406D01*
X135975179Y-96673605D01*
X135979063Y-96671105D01*
X136104000Y-96696406D01*
X136654000Y-96696406D01*
X136775179Y-96673605D01*
X136779063Y-96671105D01*
X136904000Y-96696406D01*
X137454000Y-96696406D01*
X137575179Y-96673605D01*
X137579063Y-96671105D01*
X137704000Y-96696406D01*
X138254000Y-96696406D01*
X138327000Y-96682670D01*
X138327000Y-96996000D01*
X138361406Y-97168973D01*
X138459388Y-97315612D01*
X138606027Y-97413594D01*
X138779000Y-97448000D01*
X138951973Y-97413594D01*
X139042657Y-97353000D01*
X143764000Y-97353000D01*
X143936973Y-97318594D01*
X144083612Y-97220612D01*
X147011943Y-94292281D01*
X147027778Y-94298856D01*
X147356779Y-94299143D01*
X147660846Y-94173505D01*
X147828088Y-94006555D01*
X147993930Y-94172688D01*
X148297778Y-94298856D01*
X148626779Y-94299143D01*
X148930846Y-94173505D01*
X149163688Y-93941070D01*
X149170776Y-93924000D01*
X149606000Y-93924000D01*
X149778973Y-93889594D01*
X149925612Y-93791612D01*
X150941612Y-92775612D01*
X151039594Y-92628973D01*
X151074000Y-92456000D01*
X151074000Y-87376000D01*
X151039594Y-87203027D01*
X150941612Y-87056388D01*
X148909612Y-85024388D01*
X148762973Y-84926406D01*
X148590000Y-84892000D01*
X131699000Y-84892000D01*
X131526027Y-84926406D01*
X131379388Y-85024387D01*
X130744388Y-85659388D01*
X130646406Y-85806027D01*
X130612000Y-85979000D01*
X130612000Y-89811104D01*
X130548714Y-89767862D01*
X130419000Y-89741594D01*
X129169000Y-89741594D01*
X129047821Y-89764395D01*
X128936526Y-89836012D01*
X128861862Y-89945286D01*
X128835594Y-90075000D01*
X128037000Y-90075000D01*
X128037000Y-84603000D01*
X151236000Y-84603000D01*
X151236000Y-102595000D01*
X151236000Y-102595000D01*
G37*
X151236000Y-102595000D02*
X144613000Y-102595000D01*
X144613000Y-102229750D01*
X144454250Y-102071000D01*
X143405000Y-102071000D01*
X143405000Y-102091000D01*
X143151000Y-102091000D01*
X143151000Y-102071000D01*
X143131000Y-102071000D01*
X143131000Y-101817000D01*
X143151000Y-101817000D01*
X143151000Y-101797000D01*
X143405000Y-101797000D01*
X143405000Y-101817000D01*
X144454250Y-101817000D01*
X144613000Y-101658250D01*
X144613000Y-101292690D01*
X144516327Y-101059301D01*
X144337698Y-100880673D01*
X144311406Y-100869782D01*
X144311406Y-99969000D01*
X144288605Y-99847821D01*
X144216988Y-99736526D01*
X144107714Y-99661862D01*
X143978000Y-99635594D01*
X143211218Y-99635594D01*
X142722412Y-99146788D01*
X142575773Y-99048806D01*
X142402800Y-99014400D01*
X140462000Y-99014400D01*
X140289027Y-99048806D01*
X140142387Y-99146788D01*
X139653582Y-99635594D01*
X138978000Y-99635594D01*
X138856821Y-99658395D01*
X138745526Y-99730012D01*
X138670862Y-99839286D01*
X138644594Y-99969000D01*
X138644594Y-100129680D01*
X137454570Y-100129680D01*
X137454570Y-100039654D01*
X137934214Y-99560011D01*
X138046171Y-99560109D01*
X138276703Y-99464855D01*
X138453235Y-99288631D01*
X138548891Y-99058265D01*
X138549109Y-98808829D01*
X138453855Y-98578297D01*
X138277631Y-98401765D01*
X138047265Y-98306109D01*
X137797829Y-98305891D01*
X137567297Y-98401145D01*
X137390765Y-98577369D01*
X137295109Y-98807735D01*
X137295010Y-98920765D01*
X136682958Y-99532818D01*
X136584976Y-99679457D01*
X136550570Y-99852430D01*
X136550570Y-100581680D01*
X136584976Y-100754653D01*
X136682958Y-100901292D01*
X136829597Y-100999274D01*
X137002570Y-101033680D01*
X138465294Y-101033680D01*
X138439673Y-101059301D01*
X138343000Y-101292690D01*
X138343000Y-101658250D01*
X138501750Y-101817000D01*
X139551000Y-101817000D01*
X139551000Y-101797000D01*
X139805000Y-101797000D01*
X139805000Y-101817000D01*
X139825000Y-101817000D01*
X139825000Y-102071000D01*
X139805000Y-102071000D01*
X139805000Y-102091000D01*
X139551000Y-102091000D01*
X139551000Y-102071000D01*
X138501750Y-102071000D01*
X138343000Y-102229750D01*
X138343000Y-102595000D01*
X128037000Y-102595000D01*
X128037000Y-93610750D01*
X128534000Y-93610750D01*
X128534000Y-94201309D01*
X128630673Y-94434698D01*
X128809301Y-94613327D01*
X129042690Y-94710000D01*
X129508250Y-94710000D01*
X129667000Y-94551250D01*
X129667000Y-93452000D01*
X129921000Y-93452000D01*
X129921000Y-94551250D01*
X130079750Y-94710000D01*
X130545310Y-94710000D01*
X130778699Y-94613327D01*
X130957327Y-94434698D01*
X131054000Y-94201309D01*
X131054000Y-93610750D01*
X130895250Y-93452000D01*
X129921000Y-93452000D01*
X129667000Y-93452000D01*
X128692750Y-93452000D01*
X128534000Y-93610750D01*
X128037000Y-93610750D01*
X128037000Y-92448691D01*
X128534000Y-92448691D01*
X128534000Y-93039250D01*
X128692750Y-93198000D01*
X129667000Y-93198000D01*
X129667000Y-92098750D01*
X129921000Y-92098750D01*
X129921000Y-93198000D01*
X130895250Y-93198000D01*
X131054000Y-93039250D01*
X131054000Y-92448691D01*
X130957327Y-92215302D01*
X130778699Y-92036673D01*
X130687145Y-91998750D01*
X131094000Y-91998750D01*
X131094000Y-92227250D01*
X131173861Y-92307111D01*
X131190673Y-92347699D01*
X131369302Y-92526327D01*
X131602691Y-92623000D01*
X132243250Y-92623000D01*
X132402000Y-92464250D01*
X132402000Y-91761750D01*
X132656000Y-91761750D01*
X132656000Y-92464250D01*
X132814750Y-92623000D01*
X133455309Y-92623000D01*
X133688698Y-92526327D01*
X133867327Y-92347699D01*
X133884139Y-92307111D01*
X133964000Y-92227250D01*
X133964000Y-91998750D01*
X133884139Y-91918889D01*
X133867327Y-91878301D01*
X133688698Y-91699673D01*
X133455309Y-91603000D01*
X132814750Y-91603000D01*
X132656000Y-91761750D01*
X132402000Y-91761750D01*
X132243250Y-91603000D01*
X131602691Y-91603000D01*
X131369302Y-91699673D01*
X131190673Y-91878301D01*
X131173861Y-91918889D01*
X131094000Y-91998750D01*
X130687145Y-91998750D01*
X130545310Y-91940000D01*
X130079750Y-91940000D01*
X129921000Y-92098750D01*
X129667000Y-92098750D01*
X129508250Y-91940000D01*
X129042690Y-91940000D01*
X128809301Y-92036673D01*
X128630673Y-92215302D01*
X128534000Y-92448691D01*
X128037000Y-92448691D01*
X128037000Y-90075000D01*
X128835594Y-90075000D01*
X128835594Y-91575000D01*
X128858395Y-91696179D01*
X128930012Y-91807474D01*
X129039286Y-91882138D01*
X129169000Y-91908406D01*
X130419000Y-91908406D01*
X130540179Y-91885605D01*
X130651474Y-91813988D01*
X130726138Y-91704714D01*
X130752406Y-91575000D01*
X130752406Y-91277000D01*
X131108369Y-91277000D01*
X131094000Y-91311690D01*
X131094000Y-91427250D01*
X131252750Y-91586000D01*
X132402000Y-91586000D01*
X132402000Y-91566000D01*
X132656000Y-91566000D01*
X132656000Y-91586000D01*
X133805250Y-91586000D01*
X133964000Y-91427250D01*
X133964000Y-91365000D01*
X134131000Y-91365000D01*
X134303973Y-91330594D01*
X134450612Y-91232612D01*
X134822178Y-90861046D01*
X134919973Y-90841594D01*
X135066612Y-90743612D01*
X135164594Y-90596973D01*
X135199000Y-90424000D01*
X135164594Y-90251027D01*
X135150875Y-90230495D01*
X135066612Y-90104387D01*
X134755612Y-89793388D01*
X134608973Y-89695406D01*
X134436000Y-89661000D01*
X133647623Y-89661000D01*
X133662406Y-89588000D01*
X133662406Y-89038000D01*
X133639605Y-88916821D01*
X133637105Y-88912937D01*
X133662406Y-88788000D01*
X133662406Y-88238000D01*
X133652622Y-88186002D01*
X133704000Y-88196406D01*
X134254000Y-88196406D01*
X134375179Y-88173605D01*
X134379063Y-88171105D01*
X134504000Y-88196406D01*
X135054000Y-88196406D01*
X135175179Y-88173605D01*
X135179063Y-88171105D01*
X135304000Y-88196406D01*
X135854000Y-88196406D01*
X135975179Y-88173605D01*
X135979063Y-88171105D01*
X136104000Y-88196406D01*
X136654000Y-88196406D01*
X136775179Y-88173605D01*
X136779063Y-88171105D01*
X136904000Y-88196406D01*
X137454000Y-88196406D01*
X137575179Y-88173605D01*
X137579063Y-88171105D01*
X137704000Y-88196406D01*
X138254000Y-88196406D01*
X138375179Y-88173605D01*
X138379063Y-88171105D01*
X138504000Y-88196406D01*
X139054000Y-88196406D01*
X139127000Y-88182670D01*
X139127000Y-88325776D01*
X133791776Y-93661000D01*
X133647623Y-93661000D01*
X133662406Y-93588000D01*
X133662406Y-93337218D01*
X133688698Y-93326327D01*
X133867327Y-93147699D01*
X133964000Y-92914310D01*
X133964000Y-92798750D01*
X133805250Y-92640000D01*
X132656000Y-92640000D01*
X132656000Y-92660000D01*
X132402000Y-92660000D01*
X132402000Y-92640000D01*
X131252750Y-92640000D01*
X131094000Y-92798750D01*
X131094000Y-92914310D01*
X131190673Y-93147699D01*
X131369302Y-93326327D01*
X131395594Y-93337218D01*
X131395594Y-93588000D01*
X131418395Y-93709179D01*
X131420895Y-93713063D01*
X131395594Y-93838000D01*
X131395594Y-94388000D01*
X131418395Y-94509179D01*
X131490012Y-94620474D01*
X131599286Y-94695138D01*
X131729000Y-94721406D01*
X133329000Y-94721406D01*
X133380998Y-94711622D01*
X133370594Y-94763000D01*
X133370594Y-96363000D01*
X133393395Y-96484179D01*
X133465012Y-96595474D01*
X133574286Y-96670138D01*
X133704000Y-96696406D01*
X134254000Y-96696406D01*
X134375179Y-96673605D01*
X134379063Y-96671105D01*
X134504000Y-96696406D01*
X135054000Y-96696406D01*
X135175179Y-96673605D01*
X135179063Y-96671105D01*
X135304000Y-96696406D01*
X135854000Y-96696406D01*
X135975179Y-96673605D01*
X135979063Y-96671105D01*
X136104000Y-96696406D01*
X136654000Y-96696406D01*
X136775179Y-96673605D01*
X136779063Y-96671105D01*
X136904000Y-96696406D01*
X137454000Y-96696406D01*
X137575179Y-96673605D01*
X137579063Y-96671105D01*
X137704000Y-96696406D01*
X138254000Y-96696406D01*
X138327000Y-96682670D01*
X138327000Y-96996000D01*
X138361406Y-97168973D01*
X138459388Y-97315612D01*
X138606027Y-97413594D01*
X138779000Y-97448000D01*
X138951973Y-97413594D01*
X139042657Y-97353000D01*
X143764000Y-97353000D01*
X143936973Y-97318594D01*
X144083612Y-97220612D01*
X147011943Y-94292281D01*
X147027778Y-94298856D01*
X147356779Y-94299143D01*
X147660846Y-94173505D01*
X147828088Y-94006555D01*
X147993930Y-94172688D01*
X148297778Y-94298856D01*
X148626779Y-94299143D01*
X148930846Y-94173505D01*
X149163688Y-93941070D01*
X149170776Y-93924000D01*
X149606000Y-93924000D01*
X149778973Y-93889594D01*
X149925612Y-93791612D01*
X150941612Y-92775612D01*
X151039594Y-92628973D01*
X151074000Y-92456000D01*
X151074000Y-87376000D01*
X151039594Y-87203027D01*
X150941612Y-87056388D01*
X148909612Y-85024388D01*
X148762973Y-84926406D01*
X148590000Y-84892000D01*
X131699000Y-84892000D01*
X131526027Y-84926406D01*
X131379388Y-85024387D01*
X130744388Y-85659388D01*
X130646406Y-85806027D01*
X130612000Y-85979000D01*
X130612000Y-89811104D01*
X130548714Y-89767862D01*
X130419000Y-89741594D01*
X129169000Y-89741594D01*
X129047821Y-89764395D01*
X128936526Y-89836012D01*
X128861862Y-89945286D01*
X128835594Y-90075000D01*
X128037000Y-90075000D01*
X128037000Y-84603000D01*
X151236000Y-84603000D01*
X151236000Y-102595000D01*
G36*
X150170000Y-87563224D02*
X150170000Y-92268776D01*
X149418776Y-93020000D01*
X149171052Y-93020000D01*
X149164505Y-93004154D01*
X148932070Y-92771312D01*
X148796352Y-92714957D01*
X148463000Y-92381605D01*
X148448858Y-92395748D01*
X148269253Y-92216143D01*
X148283395Y-92202000D01*
X148269253Y-92187858D01*
X148381496Y-92075614D01*
X148533724Y-92064834D01*
X148656748Y-92187858D01*
X148642605Y-92202000D01*
X149253104Y-92812499D01*
X149468217Y-92775352D01*
X149611112Y-92347028D01*
X149579217Y-91896625D01*
X149468217Y-91628648D01*
X149312338Y-91601730D01*
X149277608Y-91567000D01*
X149312338Y-91532270D01*
X149468217Y-91505352D01*
X149611112Y-91077028D01*
X149579217Y-90626625D01*
X149468217Y-90358648D01*
X149253104Y-90321501D01*
X148642605Y-90932000D01*
X148656748Y-90946143D01*
X148544504Y-91058386D01*
X148392276Y-91069166D01*
X148269253Y-90946143D01*
X148283395Y-90932000D01*
X148269253Y-90917858D01*
X148448858Y-90738253D01*
X148463000Y-90752395D01*
X148796294Y-90419101D01*
X148930846Y-90363505D01*
X149163688Y-90131070D01*
X149289856Y-89827222D01*
X149290143Y-89498221D01*
X149164505Y-89194154D01*
X148932070Y-88961312D01*
X148796352Y-88904957D01*
X148463000Y-88571605D01*
X148448858Y-88585748D01*
X148269253Y-88406143D01*
X148283395Y-88392000D01*
X148642605Y-88392000D01*
X149253104Y-89002499D01*
X149468217Y-88965352D01*
X149611112Y-88537028D01*
X149579217Y-88086625D01*
X149468217Y-87818648D01*
X149253104Y-87781501D01*
X148642605Y-88392000D01*
X148283395Y-88392000D01*
X147950101Y-88058706D01*
X147894505Y-87924154D01*
X147662070Y-87691312D01*
X147446732Y-87601896D01*
X147852501Y-87601896D01*
X148463000Y-88212395D01*
X149073499Y-87601896D01*
X149036352Y-87386783D01*
X148608028Y-87243888D01*
X148157625Y-87275783D01*
X147889648Y-87386783D01*
X147852501Y-87601896D01*
X147446732Y-87601896D01*
X147358222Y-87565144D01*
X147029221Y-87564857D01*
X147012139Y-87571915D01*
X146183612Y-86743388D01*
X146036973Y-86645406D01*
X145864000Y-86611000D01*
X140187406Y-86611000D01*
X140187406Y-86263000D01*
X140164605Y-86141821D01*
X140092988Y-86030526D01*
X139983714Y-85955862D01*
X139854000Y-85929594D01*
X139304000Y-85929594D01*
X139182821Y-85952395D01*
X139178937Y-85954895D01*
X139054000Y-85929594D01*
X138504000Y-85929594D01*
X138382821Y-85952395D01*
X138378937Y-85954895D01*
X138254000Y-85929594D01*
X137704000Y-85929594D01*
X137582821Y-85952395D01*
X137578937Y-85954895D01*
X137454000Y-85929594D01*
X136904000Y-85929594D01*
X136782821Y-85952395D01*
X136778937Y-85954895D01*
X136654000Y-85929594D01*
X136104000Y-85929594D01*
X135982821Y-85952395D01*
X135978937Y-85954895D01*
X135854000Y-85929594D01*
X135304000Y-85929594D01*
X135182821Y-85952395D01*
X135178937Y-85954895D01*
X135054000Y-85929594D01*
X134504000Y-85929594D01*
X134382821Y-85952395D01*
X134378937Y-85954895D01*
X134254000Y-85929594D01*
X133704000Y-85929594D01*
X133582821Y-85952395D01*
X133471526Y-86024012D01*
X133396862Y-86133286D01*
X133370594Y-86263000D01*
X133370594Y-87863000D01*
X133380378Y-87914998D01*
X133329000Y-87904594D01*
X131729000Y-87904594D01*
X131607821Y-87927395D01*
X131516000Y-87986481D01*
X131516000Y-86166224D01*
X131886225Y-85796000D01*
X148402776Y-85796000D01*
X150170000Y-87563224D01*
X150170000Y-87563224D01*
G37*
X150170000Y-87563224D02*
X150170000Y-92268776D01*
X149418776Y-93020000D01*
X149171052Y-93020000D01*
X149164505Y-93004154D01*
X148932070Y-92771312D01*
X148796352Y-92714957D01*
X148463000Y-92381605D01*
X148448858Y-92395748D01*
X148269253Y-92216143D01*
X148283395Y-92202000D01*
X148269253Y-92187858D01*
X148381496Y-92075614D01*
X148533724Y-92064834D01*
X148656748Y-92187858D01*
X148642605Y-92202000D01*
X149253104Y-92812499D01*
X149468217Y-92775352D01*
X149611112Y-92347028D01*
X149579217Y-91896625D01*
X149468217Y-91628648D01*
X149312338Y-91601730D01*
X149277608Y-91567000D01*
X149312338Y-91532270D01*
X149468217Y-91505352D01*
X149611112Y-91077028D01*
X149579217Y-90626625D01*
X149468217Y-90358648D01*
X149253104Y-90321501D01*
X148642605Y-90932000D01*
X148656748Y-90946143D01*
X148544504Y-91058386D01*
X148392276Y-91069166D01*
X148269253Y-90946143D01*
X148283395Y-90932000D01*
X148269253Y-90917858D01*
X148448858Y-90738253D01*
X148463000Y-90752395D01*
X148796294Y-90419101D01*
X148930846Y-90363505D01*
X149163688Y-90131070D01*
X149289856Y-89827222D01*
X149290143Y-89498221D01*
X149164505Y-89194154D01*
X148932070Y-88961312D01*
X148796352Y-88904957D01*
X148463000Y-88571605D01*
X148448858Y-88585748D01*
X148269253Y-88406143D01*
X148283395Y-88392000D01*
X148642605Y-88392000D01*
X149253104Y-89002499D01*
X149468217Y-88965352D01*
X149611112Y-88537028D01*
X149579217Y-88086625D01*
X149468217Y-87818648D01*
X149253104Y-87781501D01*
X148642605Y-88392000D01*
X148283395Y-88392000D01*
X147950101Y-88058706D01*
X147894505Y-87924154D01*
X147662070Y-87691312D01*
X147446732Y-87601896D01*
X147852501Y-87601896D01*
X148463000Y-88212395D01*
X149073499Y-87601896D01*
X149036352Y-87386783D01*
X148608028Y-87243888D01*
X148157625Y-87275783D01*
X147889648Y-87386783D01*
X147852501Y-87601896D01*
X147446732Y-87601896D01*
X147358222Y-87565144D01*
X147029221Y-87564857D01*
X147012139Y-87571915D01*
X146183612Y-86743388D01*
X146036973Y-86645406D01*
X145864000Y-86611000D01*
X140187406Y-86611000D01*
X140187406Y-86263000D01*
X140164605Y-86141821D01*
X140092988Y-86030526D01*
X139983714Y-85955862D01*
X139854000Y-85929594D01*
X139304000Y-85929594D01*
X139182821Y-85952395D01*
X139178937Y-85954895D01*
X139054000Y-85929594D01*
X138504000Y-85929594D01*
X138382821Y-85952395D01*
X138378937Y-85954895D01*
X138254000Y-85929594D01*
X137704000Y-85929594D01*
X137582821Y-85952395D01*
X137578937Y-85954895D01*
X137454000Y-85929594D01*
X136904000Y-85929594D01*
X136782821Y-85952395D01*
X136778937Y-85954895D01*
X136654000Y-85929594D01*
X136104000Y-85929594D01*
X135982821Y-85952395D01*
X135978937Y-85954895D01*
X135854000Y-85929594D01*
X135304000Y-85929594D01*
X135182821Y-85952395D01*
X135178937Y-85954895D01*
X135054000Y-85929594D01*
X134504000Y-85929594D01*
X134382821Y-85952395D01*
X134378937Y-85954895D01*
X134254000Y-85929594D01*
X133704000Y-85929594D01*
X133582821Y-85952395D01*
X133471526Y-86024012D01*
X133396862Y-86133286D01*
X133370594Y-86263000D01*
X133370594Y-87863000D01*
X133380378Y-87914998D01*
X133329000Y-87904594D01*
X131729000Y-87904594D01*
X131607821Y-87927395D01*
X131516000Y-87986481D01*
X131516000Y-86166224D01*
X131886225Y-85796000D01*
X148402776Y-85796000D01*
X150170000Y-87563224D01*
G36*
X140900166Y-100032174D02*
X140796119Y-100282747D01*
X140795882Y-100554063D01*
X140899492Y-100804817D01*
X141091174Y-100996834D01*
X141341747Y-101100881D01*
X141613063Y-101101118D01*
X141863817Y-100997508D01*
X142055834Y-100805826D01*
X142159881Y-100555253D01*
X142160118Y-100283937D01*
X142056508Y-100033183D01*
X141941925Y-99918400D01*
X142215576Y-99918400D01*
X142248228Y-99951052D01*
X142244594Y-99969000D01*
X142244594Y-100869782D01*
X142218302Y-100880673D01*
X142039673Y-101059301D01*
X141943000Y-101292690D01*
X141943000Y-101519477D01*
X141864826Y-101441166D01*
X141614253Y-101337119D01*
X141342937Y-101336882D01*
X141092183Y-101440492D01*
X141013000Y-101519537D01*
X141013000Y-101292690D01*
X140916327Y-101059301D01*
X140737698Y-100880673D01*
X140711406Y-100869782D01*
X140711406Y-99969000D01*
X140701885Y-99918400D01*
X141014139Y-99918400D01*
X140900166Y-100032174D01*
X140900166Y-100032174D01*
G37*
X140900166Y-100032174D02*
X140796119Y-100282747D01*
X140795882Y-100554063D01*
X140899492Y-100804817D01*
X141091174Y-100996834D01*
X141341747Y-101100881D01*
X141613063Y-101101118D01*
X141863817Y-100997508D01*
X142055834Y-100805826D01*
X142159881Y-100555253D01*
X142160118Y-100283937D01*
X142056508Y-100033183D01*
X141941925Y-99918400D01*
X142215576Y-99918400D01*
X142248228Y-99951052D01*
X142244594Y-99969000D01*
X142244594Y-100869782D01*
X142218302Y-100880673D01*
X142039673Y-101059301D01*
X141943000Y-101292690D01*
X141943000Y-101519477D01*
X141864826Y-101441166D01*
X141614253Y-101337119D01*
X141342937Y-101336882D01*
X141092183Y-101440492D01*
X141013000Y-101519537D01*
X141013000Y-101292690D01*
X140916327Y-101059301D01*
X140737698Y-100880673D01*
X140711406Y-100869782D01*
X140711406Y-99969000D01*
X140701885Y-99918400D01*
X141014139Y-99918400D01*
X140900166Y-100032174D01*
M02*
