G04 #@! TF.FileFunction,Legend,Top*
%FSLAX46Y46*%
G04 Gerber Fmt 4.6, Leading zero omitted, Abs format (unit mm)*
G04 Created by KiCad (PCBNEW 4.0.7-e2-6376~58~ubuntu14.04.1) date Wed Sep  6 17:15:42 2017*
%MOMM*%
%LPD*%
G01*
G04 APERTURE LIST*
%ADD10C,0.100000*%
%ADD11C,0.150000*%
%ADD12C,0.125000*%
G04 APERTURE END LIST*
D10*
D11*
X130644000Y-92575000D02*
X130644000Y-91575000D01*
X128944000Y-91575000D02*
X128944000Y-92575000D01*
X133154000Y-87688000D02*
X133154000Y-88013000D01*
X140404000Y-87688000D02*
X140404000Y-88013000D01*
X140404000Y-94938000D02*
X140404000Y-94613000D01*
X133154000Y-94938000D02*
X133154000Y-94613000D01*
X133154000Y-87688000D02*
X133479000Y-87688000D01*
X133154000Y-94938000D02*
X133479000Y-94938000D01*
X140404000Y-94938000D02*
X140079000Y-94938000D01*
X140404000Y-87688000D02*
X140079000Y-87688000D01*
X133154000Y-88013000D02*
X131729000Y-88013000D01*
D10*
X141178000Y-102869000D02*
X141828000Y-102869000D01*
X141178000Y-102869000D02*
X141178000Y-103069000D01*
X141178000Y-103069000D02*
X141828000Y-103069000D01*
X141828000Y-103069000D02*
X141828000Y-102869000D01*
X140628000Y-102669000D02*
X140628000Y-103319000D01*
X140628000Y-103319000D02*
X142328000Y-103319000D01*
X142328000Y-103319000D02*
X142328000Y-102669000D01*
X139528000Y-99769000D02*
X143428000Y-99769000D01*
X143428000Y-99769000D02*
X143428000Y-102669000D01*
X143428000Y-102669000D02*
X139528000Y-102669000D01*
X139528000Y-102669000D02*
X139528000Y-99769000D01*
D11*
X129500334Y-95861143D02*
X129452715Y-95908762D01*
X129309858Y-95956381D01*
X129214620Y-95956381D01*
X129071762Y-95908762D01*
X128976524Y-95813524D01*
X128928905Y-95718286D01*
X128881286Y-95527810D01*
X128881286Y-95384952D01*
X128928905Y-95194476D01*
X128976524Y-95099238D01*
X129071762Y-95004000D01*
X129214620Y-94956381D01*
X129309858Y-94956381D01*
X129452715Y-95004000D01*
X129500334Y-95051619D01*
X130452715Y-95956381D02*
X129881286Y-95956381D01*
X130167000Y-95956381D02*
X130167000Y-94956381D01*
X130071762Y-95099238D01*
X129976524Y-95194476D01*
X129881286Y-95242095D01*
X146708905Y-86812381D02*
X146708905Y-85812381D01*
X147089858Y-85812381D01*
X147185096Y-85860000D01*
X147232715Y-85907619D01*
X147280334Y-86002857D01*
X147280334Y-86145714D01*
X147232715Y-86240952D01*
X147185096Y-86288571D01*
X147089858Y-86336190D01*
X146708905Y-86336190D01*
X148232715Y-86812381D02*
X147661286Y-86812381D01*
X147947000Y-86812381D02*
X147947000Y-85812381D01*
X147851762Y-85955238D01*
X147756524Y-86050476D01*
X147661286Y-86098095D01*
X148915381Y-94456285D02*
X148915381Y-95027714D01*
X148915381Y-94742000D02*
X147915381Y-94742000D01*
X148058238Y-94837238D01*
X148153476Y-94932476D01*
X148201095Y-95027714D01*
X134151810Y-89479381D02*
X134151810Y-88479381D01*
X135199429Y-89384143D02*
X135151810Y-89431762D01*
X135008953Y-89479381D01*
X134913715Y-89479381D01*
X134770857Y-89431762D01*
X134675619Y-89336524D01*
X134628000Y-89241286D01*
X134580381Y-89050810D01*
X134580381Y-88907952D01*
X134628000Y-88717476D01*
X134675619Y-88622238D01*
X134770857Y-88527000D01*
X134913715Y-88479381D01*
X135008953Y-88479381D01*
X135151810Y-88527000D01*
X135199429Y-88574619D01*
X136151810Y-89479381D02*
X135580381Y-89479381D01*
X135866095Y-89479381D02*
X135866095Y-88479381D01*
X135770857Y-88622238D01*
X135675619Y-88717476D01*
X135580381Y-88765095D01*
D12*
X138880334Y-99786381D02*
X138951763Y-99810190D01*
X139070810Y-99810190D01*
X139118429Y-99786381D01*
X139142239Y-99762571D01*
X139166048Y-99714952D01*
X139166048Y-99667333D01*
X139142239Y-99619714D01*
X139118429Y-99595905D01*
X139070810Y-99572095D01*
X138975572Y-99548286D01*
X138927953Y-99524476D01*
X138904144Y-99500667D01*
X138880334Y-99453048D01*
X138880334Y-99405429D01*
X138904144Y-99357810D01*
X138927953Y-99334000D01*
X138975572Y-99310190D01*
X139094620Y-99310190D01*
X139166048Y-99334000D01*
X139332715Y-99310190D02*
X139451762Y-99810190D01*
X139547000Y-99453048D01*
X139642238Y-99810190D01*
X139761286Y-99310190D01*
X140213667Y-99810190D02*
X139927953Y-99810190D01*
X140070810Y-99810190D02*
X140070810Y-99310190D01*
X140023191Y-99381619D01*
X139975572Y-99429238D01*
X139927953Y-99453048D01*
X141472048Y-99786381D02*
X141543477Y-99810190D01*
X141662524Y-99810190D01*
X141710143Y-99786381D01*
X141733953Y-99762571D01*
X141757762Y-99714952D01*
X141757762Y-99667333D01*
X141733953Y-99619714D01*
X141710143Y-99595905D01*
X141662524Y-99572095D01*
X141567286Y-99548286D01*
X141519667Y-99524476D01*
X141495858Y-99500667D01*
X141472048Y-99453048D01*
X141472048Y-99405429D01*
X141495858Y-99357810D01*
X141519667Y-99334000D01*
X141567286Y-99310190D01*
X141686334Y-99310190D01*
X141757762Y-99334000D01*
X141924429Y-99310190D02*
X142043476Y-99810190D01*
X142138714Y-99453048D01*
X142233952Y-99810190D01*
X142353000Y-99310190D01*
X142424429Y-99857810D02*
X142805381Y-99857810D01*
X142924429Y-99810190D02*
X142924429Y-99310190D01*
X143114905Y-99310190D01*
X143162524Y-99334000D01*
X143186333Y-99357810D01*
X143210143Y-99405429D01*
X143210143Y-99476857D01*
X143186333Y-99524476D01*
X143162524Y-99548286D01*
X143114905Y-99572095D01*
X142924429Y-99572095D01*
X143424429Y-99310190D02*
X143424429Y-99714952D01*
X143448238Y-99762571D01*
X143472048Y-99786381D01*
X143519667Y-99810190D01*
X143614905Y-99810190D01*
X143662524Y-99786381D01*
X143686333Y-99762571D01*
X143710143Y-99714952D01*
X143710143Y-99310190D01*
X143924429Y-99786381D02*
X143995858Y-99810190D01*
X144114905Y-99810190D01*
X144162524Y-99786381D01*
X144186334Y-99762571D01*
X144210143Y-99714952D01*
X144210143Y-99667333D01*
X144186334Y-99619714D01*
X144162524Y-99595905D01*
X144114905Y-99572095D01*
X144019667Y-99548286D01*
X143972048Y-99524476D01*
X143948239Y-99500667D01*
X143924429Y-99453048D01*
X143924429Y-99405429D01*
X143948239Y-99357810D01*
X143972048Y-99334000D01*
X144019667Y-99310190D01*
X144138715Y-99310190D01*
X144210143Y-99334000D01*
X144424429Y-99810190D02*
X144424429Y-99310190D01*
X144424429Y-99548286D02*
X144710143Y-99548286D01*
X144710143Y-99810190D02*
X144710143Y-99310190D01*
M02*
