(export (version D)
  (design
    (source /Users/georgealbercook/Documents/reflectance-spec-PCB/soil-respiration-beta/soil-respiration-beta.sch)
    (date "Saturday, May 08, 2021 at 07:11:16 PM")
    (tool "Eeschema (5.0.0-rc2-dev-310-g1cd6477)")
    (sheet (number 1) (name /) (tstamps /)
      (title_block
        (title)
        (company)
        (rev)
        (date)
        (source soil-respiration-beta.sch)
        (comment (number 1) (value ""))
        (comment (number 2) (value ""))
        (comment (number 3) (value ""))
        (comment (number 4) (value "")))))
  (components
    (comp (ref U1)
      (value HC-06)
      (footprint multispeq:HC_05_Bluetooth)
      (libsource (lib multispec) (part ITEAD_HC-05))
      (sheetpath (names /) (tstamps /))
      (tstamp 5D6D5EF0))
    (comp (ref J2)
      (value "teensy bottom row")
      (footprint Connector_PinSocket_2.54mm:PinSocket_1x14_P2.54mm_Vertical)
      (libsource (lib soil-respiration-beta-rescue) (part Conn_01x14_Female-Connector))
      (sheetpath (names /) (tstamps /))
      (tstamp 5D6D9AB0))
    (comp (ref J4)
      (value "teensy side row")
      (footprint Connector_PinSocket_2.54mm:PinSocket_1x05_P2.54mm_Vertical)
      (libsource (lib soil-respiration-beta-rescue) (part Conn_01x05_Female-Connector))
      (sheetpath (names /) (tstamps /))
      (tstamp 5D6D9C89))
    (comp (ref J3)
      (value "teensy top row")
      (footprint Connector_PinSocket_2.54mm:PinSocket_1x14_P2.54mm_Vertical)
      (libsource (lib soil-respiration-beta-rescue) (part Conn_01x14_Female-Connector))
      (sheetpath (names /) (tstamps /))
      (tstamp 5D6D9F61))
    (comp (ref J1)
      (value "K30 co2 sensor UART Conn")
      (footprint multispeq:K30_co2_sensor)
      (libsource (lib soil-respiration-beta-rescue) (part Conn_01x04_Female-Connector))
      (sheetpath (names /) (tstamps /))
      (tstamp 5D6DA2E0))
    (comp (ref U3)
      (value SparkFunMotorDriver_Dual_TB6612FNG)
      (footprint multispeq:SparkFunMotorDriver_Dual_TB6612FNG)
      (libsource (lib multispec) (part SparkFunMotorDriver_Dual_TB6612FNG))
      (sheetpath (names /) (tstamps /))
      (tstamp 6096F22B))
    (comp (ref U4)
      (value SparkFunMotorDriver_Dual_TB6612FNG)
      (footprint multispeq:SparkFunMotorDriver_Dual_TB6612FNG)
      (libsource (lib multispec) (part SparkFunMotorDriver_Dual_TB6612FNG))
      (sheetpath (names /) (tstamps /))
      (tstamp 6096F279))
    (comp (ref U5)
      (value SparkFun_Qwiik_Scale_PCB)
      (footprint multispeq:SparkFun_Qwiic_Scale)
      (libsource (lib multispec) (part SparkFun_Qwiik_Scale_PCB))
      (sheetpath (names /) (tstamps /))
      (tstamp 6096FFAD))
    (comp (ref U2)
      (value Pololu_Stepper_Driver_A4988)
      (footprint multispeq:Pololu_Stepper_Driver_PCB)
      (libsource (lib multispec) (part Pololu_Stepper_Driver_A4988))
      (sheetpath (names /) (tstamps /))
      (tstamp 609706FB))
    (comp (ref M1)
      (value Stepper_Motor_bipolar)
      (footprint TerminalBlock_4UCON:TerminalBlock_4UCON_19963_04x3.5mm_Straight)
      (datasheet http://www.infineon.com/dgdl/Application-Note-TLE8110EE_driving_UniPolarStepperMotor_V1.1.pdf?fileId=db3a30431be39b97011be5d0aa0a00b0)
      (libsource (lib Motor) (part Stepper_Motor_bipolar))
      (sheetpath (names /) (tstamps /))
      (tstamp 60970858))
    (comp (ref M2)
      (value Motor_DC)
      (footprint TerminalBlock_4UCON:TerminalBlock_4UCON_19963_02x3.5mm_Straight)
      (libsource (lib Motor) (part Motor_DC))
      (sheetpath (names /) (tstamps /))
      (tstamp 60970A38))
    (comp (ref M3)
      (value Motor_DC)
      (footprint TerminalBlock_4UCON:TerminalBlock_4UCON_19963_02x3.5mm_Straight)
      (libsource (lib Motor) (part Motor_DC))
      (sheetpath (names /) (tstamps /))
      (tstamp 60970AA0))
    (comp (ref M4)
      (value Motor_DC)
      (footprint TerminalBlock_4UCON:TerminalBlock_4UCON_19963_02x3.5mm_Straight)
      (libsource (lib Motor) (part Motor_DC))
      (sheetpath (names /) (tstamps /))
      (tstamp 60970AF7))
    (comp (ref U6)
      (value LF80_TO252)
      (footprint TO_SOT_Packages_SMD:TO-252-2)
      (datasheet http://www.st.com/content/ccc/resource/technical/document/datasheet/c4/0e/7e/2a/be/bc/4c/bd/CD00000546.pdf/files/CD00000546.pdf/jcr:content/translations/en.CD00000546.pdf)
      (libsource (lib regul) (part LF80_TO252))
      (sheetpath (names /) (tstamps /))
      (tstamp 60974A11))
    (comp (ref C2)
      (value CAP_CERAMIC_0805)
      (footprint Capacitors_SMD:C_0805_HandSoldering)
      (libsource (lib Adafruit-DotStar-Wing-eagle-import) (part CAP_CERAMIC_0805))
      (sheetpath (names /) (tstamps /))
      (tstamp 60974FC4))
    (comp (ref C1)
      (value CAP_CERAMIC_0805)
      (footprint Capacitors_SMD:C_0805_HandSoldering)
      (libsource (lib Adafruit-DotStar-Wing-eagle-import) (part CAP_CERAMIC_0805))
      (sheetpath (names /) (tstamps /))
      (tstamp 6097501C))
    (comp (ref J5)
      (value Barrel_Jack)
      (footprint TerminalBlock_4UCON:TerminalBlock_4UCON_19963_02x3.5mm_Straight)
      (libsource (lib Connector) (part Barrel_Jack))
      (sheetpath (names /) (tstamps /))
      (tstamp 609758AC)))
  (libparts
    (libpart (lib Connector) (part Barrel_Jack)
      (aliases
        (alias Jack-DC))
      (description "DC Barrel Jack")
      (docs ~)
      (footprints
        (fp Barrel*Jack*)
        (fp BARREL*JACK*))
      (fields
        (field (name Reference) J)
        (field (name Value) Barrel_Jack))
      (pins
        (pin (num 1) (name ~) (type passive))
        (pin (num 2) (name ~) (type passive))))
    (libpart (lib Adafruit-DotStar-Wing-eagle-import) (part CAP_CERAMIC_0805)
      (fields
        (field (name Reference) C)
        (field (name Value) CAP_CERAMIC_0805))
      (pins
        (pin (num 1) (name 1) (type passive))
        (pin (num 2) (name 2) (type passive))))
    (libpart (lib soil-respiration-beta-rescue) (part Conn_01x04_Female-Connector)
      (footprints
        (fp Connector*:*_1x??_*))
      (fields
        (field (name Reference) J)
        (field (name Value) Conn_01x04_Female-Connector))
      (pins
        (pin (num 1) (name Pin_1) (type passive))
        (pin (num 2) (name Pin_2) (type passive))
        (pin (num 3) (name Pin_3) (type passive))
        (pin (num 4) (name Pin_4) (type passive))))
    (libpart (lib soil-respiration-beta-rescue) (part Conn_01x05_Female-Connector)
      (footprints
        (fp Connector*:*_1x??_*))
      (fields
        (field (name Reference) J)
        (field (name Value) Conn_01x05_Female-Connector))
      (pins
        (pin (num 1) (name Pin_1) (type passive))
        (pin (num 2) (name Pin_2) (type passive))
        (pin (num 3) (name Pin_3) (type passive))
        (pin (num 4) (name Pin_4) (type passive))
        (pin (num 5) (name Pin_5) (type passive))))
    (libpart (lib soil-respiration-beta-rescue) (part Conn_01x14_Female-Connector)
      (footprints
        (fp Connector*:*_1x??_*))
      (fields
        (field (name Reference) J)
        (field (name Value) Conn_01x14_Female-Connector))
      (pins
        (pin (num 1) (name Pin_1) (type passive))
        (pin (num 2) (name Pin_2) (type passive))
        (pin (num 3) (name Pin_3) (type passive))
        (pin (num 4) (name Pin_4) (type passive))
        (pin (num 5) (name Pin_5) (type passive))
        (pin (num 6) (name Pin_6) (type passive))
        (pin (num 7) (name Pin_7) (type passive))
        (pin (num 8) (name Pin_8) (type passive))
        (pin (num 9) (name Pin_9) (type passive))
        (pin (num 10) (name Pin_10) (type passive))
        (pin (num 11) (name Pin_11) (type passive))
        (pin (num 12) (name Pin_12) (type passive))
        (pin (num 13) (name Pin_13) (type passive))
        (pin (num 14) (name Pin_14) (type passive))))
    (libpart (lib multispec) (part ITEAD_HC-05)
      (aliases
        (alias HC-05))
      (description HC-05)
      (footprints
        (fp ITEAD_HC-05))
      (fields
        (field (name Reference) U)
        (field (name Value) ITEAD_HC-05))
      (pins
        (pin (num 1) (name UART_TX) (type output))
        (pin (num 2) (name UART_RX) (type input))
        (pin (num 3) (name ~UART_CTS) (type passive))
        (pin (num 4) (name ~UART_RTS) (type passive))
        (pin (num 5) (name PCM_CLK) (type passive))
        (pin (num 6) (name PCM_OUT) (type passive))
        (pin (num 7) (name PCM_IN) (type passive))
        (pin (num 8) (name PCM_SYNC) (type passive))
        (pin (num 9) (name AIO0) (type passive))
        (pin (num 10) (name AIO1) (type passive))
        (pin (num 11) (name ~RESET) (type passive))
        (pin (num 12) (name VCC) (type power_in))
        (pin (num 13) (name GND) (type power_in))
        (pin (num 15) (name USB_D-) (type passive))
        (pin (num 16) (name ~SPI_CS) (type NotConnected))
        (pin (num 17) (name SPI_MOSI) (type NotConnected))
        (pin (num 18) (name SPI_MISO) (type NotConnected))
        (pin (num 19) (name SPI_CLK) (type NotConnected))
        (pin (num 20) (name USB_D+) (type passive))
        (pin (num 21) (name GND) (type power_in))
        (pin (num 22) (name GND) (type power_in))
        (pin (num 23) (name PIO0) (type passive))
        (pin (num 24) (name PIO1) (type passive))
        (pin (num 25) (name PIO2) (type passive))
        (pin (num 26) (name PIO3) (type passive))
        (pin (num 27) (name PIO4) (type passive))
        (pin (num 28) (name PIO5) (type passive))
        (pin (num 29) (name PIO6) (type passive))
        (pin (num 30) (name PIO7) (type passive))
        (pin (num 31) (name PIO8) (type passive))
        (pin (num 32) (name PIO9) (type passive))
        (pin (num 33) (name PIO10) (type passive))
        (pin (num 34) (name KEY) (type passive))))
    (libpart (lib regul) (part LM78M05_TO252)
      (aliases
        (alias MC78M05_TO252)
        (alias KA78M05_TO252)
        (alias LF15_TO252)
        (alias LF18_TO252)
        (alias LF25_TO252)
        (alias LF33_TO252)
        (alias LF50_TO252)
        (alias LF60_TO252)
        (alias LF80_TO252)
        (alias LF85_TO252)
        (alias LF120_TO252)
        (alias LP2950-3.0_TO252)
        (alias LP2950-3.3_TO252)
        (alias LP2950-5.0_TO252)
        (alias LF47_TO252)
        (alias LF90_TO252))
      (description "Positive 500mA 35V Linear Regulator, Fixed Output 5V, TO-252 (D-PAK)")
      (docs http://www.fairchildsemi.com/ds/LM/LM78M05.pdf)
      (footprints
        (fp TO?252*))
      (fields
        (field (name Reference) U)
        (field (name Value) LM78M05_TO252)
        (field (name Footprint) TO_SOT_Packages_THT:TO-252-2))
      (pins
        (pin (num 1) (name VI) (type power_in))
        (pin (num 2) (name GND) (type power_in))
        (pin (num 3) (name VO) (type power_out))))
    (libpart (lib Motor) (part Motor_DC)
      (description "DC Motor")
      (footprints
        (fp Pin_Headers:Pin_Header_Straight_1x02)
        (fp Connect:bornier2)
        (fp TerminalBlock*2pol))
      (fields
        (field (name Reference) M)
        (field (name Value) Motor_DC))
      (pins
        (pin (num 1) (name +) (type passive))
        (pin (num 2) (name -) (type passive))))
    (libpart (lib multispec) (part Pololu_Stepper_Driver_A4988)
      (aliases
        (alias HC-05_0_1))
      (description HC-05)
      (footprints
        (fp ITEAD_HC-05))
      (fields
        (field (name Reference) U)
        (field (name Value) Pololu_Stepper_Driver_A4988))
      (pins
        (pin (num 1) (name GND) (type power_in))
        (pin (num 2) (name VDD) (type power_in))
        (pin (num 3) (name 1B) (type output))
        (pin (num 4) (name 1A) (type output))
        (pin (num 5) (name 2A) (type output))
        (pin (num 6) (name 2B) (type output))
        (pin (num 7) (name GND) (type power_in))
        (pin (num 8) (name VMOT) (type power_in))
        (pin (num 9) (name NOT_ENABLE) (type input))
        (pin (num 10) (name MS1) (type input))
        (pin (num 11) (name MS2) (type input))
        (pin (num 12) (name MS3) (type input))
        (pin (num 13) (name NOT_RESET) (type input))
        (pin (num 14) (name NOT_SLEEP) (type input))
        (pin (num 15) (name STEP) (type input))
        (pin (num 16) (name DIR) (type input))))
    (libpart (lib multispec) (part SparkFunMotorDriver_Dual_TB6612FNG)
      (aliases
        (alias HC-05_0))
      (description HC-05)
      (footprints
        (fp ITEAD_HC-05))
      (fields
        (field (name Reference) U)
        (field (name Value) SparkFunMotorDriver_Dual_TB6612FNG))
      (pins
        (pin (num 1) (name VM) (type power_in))
        (pin (num 2) (name VCC) (type power_in))
        (pin (num 3) (name GND) (type input))
        (pin (num 4) (name A01) (type output))
        (pin (num 5) (name A02) (type output))
        (pin (num 6) (name B02) (type output))
        (pin (num 7) (name B01) (type output))
        (pin (num 8) (name GND) (type power_in))
        (pin (num 9) (name GND) (type input))
        (pin (num 10) (name PWMB) (type input))
        (pin (num 11) (name BI2) (type input))
        (pin (num 12) (name BI1) (type output))
        (pin (num 13) (name STBY) (type input))
        (pin (num 14) (name AI1) (type input))
        (pin (num 15) (name AI2) (type input))
        (pin (num 16) (name PWMA) (type input))))
    (libpart (lib multispec) (part SparkFun_Qwiik_Scale_PCB)
      (aliases
        (alias HC-05_0_0))
      (description HC-05)
      (footprints
        (fp ITEAD_HC-05))
      (fields
        (field (name Reference) U)
        (field (name Value) SparkFun_Qwiik_Scale_PCB))
      (pins
        (pin (num 1) (name SCL) (type BiDi))
        (pin (num 2) (name SDA) (type BiDi))
        (pin (num 3) (name 3V3) (type power_in))
        (pin (num 4) (name GND) (type power_in))
        (pin (num 5) (name AVDD) (type NotConnected))
        (pin (num 6) (name INT) (type NotConnected))
        (pin (num 7) (name RED/E+) (type NotConnected))
        (pin (num 8) (name BLK/E+) (type NotConnected))
        (pin (num 9) (name WHT/A-) (type NotConnected))
        (pin (num 10) (name GRN/A+) (type NotConnected))
        (pin (num 11) (name YLW/SD) (type NotConnected))
        (pin (num 12) (name B-) (type NotConnected))
        (pin (num 13) (name B+) (type NotConnected))
        (pin (num 14) (name Red) (type NotConnected))
        (pin (num 15) (name Black) (type NotConnected))
        (pin (num 16) (name White) (type NotConnected))
        (pin (num 17) (name Green) (type NotConnected))))
    (libpart (lib Motor) (part Stepper_Motor_bipolar)
      (description "4-wire bipolar stepper motor")
      (docs http://www.infineon.com/dgdl/Application-Note-TLE8110EE_driving_UniPolarStepperMotor_V1.1.pdf?fileId=db3a30431be39b97011be5d0aa0a00b0)
      (footprints
        (fp Pin_Headers:Pin_Header_Straight_1x04)
        (fp Connect:bornier4)
        (fp TerminalBlock*4pol))
      (fields
        (field (name Reference) M)
        (field (name Value) Stepper_Motor_bipolar))
      (pins
        (pin (num 1) (name ~) (type passive))
        (pin (num 2) (name -) (type passive))
        (pin (num 3) (name ~) (type passive))
        (pin (num 4) (name ~) (type passive)))))
  (libraries
    (library (logical Adafruit-DotStar-Wing-eagle-import)
      (uri "/Users/georgealbercook/Downloads/Adafruit-DotStar-FeatherWing-PCB-master/Adafruit DotStar Wing-eagle-import.lib"))
    (library (logical Connector)
      (uri "/Library/Application Support/kicad/library/Connector.lib"))
    (library (logical Motor)
      (uri "/Library/Application Support/kicad/library/Motor.lib"))
    (library (logical multispec)
      (uri /Users/georgealbercook/Documents/reflectance-spec-PCB/sch_sym/multispec.lib))
    (library (logical regul)
      (uri "/Library/Application Support/kicad/library/regul.lib"))
    (library (logical soil-respiration-beta-rescue)
      (uri /Users/georgealbercook/Documents/reflectance-spec-PCB/soil-respiration-beta/soil-respiration-beta-rescue.lib)))
  (nets
    (net (code 1) (name "Net-(J2-Pad2)")
      (node (ref U1) (pin 1))
      (node (ref J2) (pin 2)))
    (net (code 2) (name "Net-(U1-Pad10)")
      (node (ref U1) (pin 10)))
    (net (code 3) (name "Net-(U1-Pad11)")
      (node (ref U1) (pin 11)))
    (net (code 4) (name /3.3V)
      (node (ref J4) (pin 2))
      (node (ref U1) (pin 12)))
    (net (code 5) (name "Net-(U1-Pad15)")
      (node (ref U1) (pin 15)))
    (net (code 6) (name "Net-(U1-Pad16)")
      (node (ref U1) (pin 16)))
    (net (code 7) (name "Net-(U1-Pad17)")
      (node (ref U1) (pin 17)))
    (net (code 8) (name "Net-(U1-Pad18)")
      (node (ref U1) (pin 18)))
    (net (code 9) (name "Net-(U1-Pad19)")
      (node (ref U1) (pin 19)))
    (net (code 10) (name "Net-(J2-Pad3)")
      (node (ref U1) (pin 2))
      (node (ref J2) (pin 3)))
    (net (code 11) (name "Net-(U1-Pad20)")
      (node (ref U1) (pin 20)))
    (net (code 12) (name "Net-(U1-Pad23)")
      (node (ref U1) (pin 23)))
    (net (code 13) (name "Net-(U1-Pad24)")
      (node (ref U1) (pin 24)))
    (net (code 14) (name "Net-(U1-Pad25)")
      (node (ref U1) (pin 25)))
    (net (code 15) (name "Net-(U1-Pad26)")
      (node (ref U1) (pin 26)))
    (net (code 16) (name "Net-(U1-Pad27)")
      (node (ref U1) (pin 27)))
    (net (code 17) (name "Net-(U1-Pad28)")
      (node (ref U1) (pin 28)))
    (net (code 18) (name "Net-(U1-Pad29)")
      (node (ref U1) (pin 29)))
    (net (code 19) (name "Net-(U1-Pad3)")
      (node (ref U1) (pin 3)))
    (net (code 20) (name "Net-(U1-Pad30)")
      (node (ref U1) (pin 30)))
    (net (code 21) (name "Net-(U1-Pad31)")
      (node (ref U1) (pin 31)))
    (net (code 22) (name "Net-(U1-Pad32)")
      (node (ref U1) (pin 32)))
    (net (code 23) (name "Net-(U1-Pad33)")
      (node (ref U1) (pin 33)))
    (net (code 24) (name "Net-(U1-Pad34)")
      (node (ref U1) (pin 34)))
    (net (code 25) (name "Net-(U1-Pad4)")
      (node (ref U1) (pin 4)))
    (net (code 26) (name "Net-(U1-Pad5)")
      (node (ref U1) (pin 5)))
    (net (code 27) (name "Net-(U1-Pad6)")
      (node (ref U1) (pin 6)))
    (net (code 28) (name "Net-(U1-Pad7)")
      (node (ref U1) (pin 7)))
    (net (code 29) (name "Net-(U1-Pad8)")
      (node (ref U1) (pin 8)))
    (net (code 30) (name "Net-(U1-Pad9)")
      (node (ref U1) (pin 9)))
    (net (code 31) (name "Net-(J2-Pad10)")
      (node (ref J2) (pin 10)))
    (net (code 32) (name "Net-(J2-Pad13)")
      (node (ref J2) (pin 13)))
    (net (code 33) (name "Net-(J2-Pad14)")
      (node (ref J2) (pin 14)))
    (net (code 34) (name "Net-(J2-Pad4)")
      (node (ref J2) (pin 4)))
    (net (code 35) (name "Net-(J2-Pad5)")
      (node (ref J2) (pin 5)))
    (net (code 36) (name "Net-(J2-Pad6)")
      (node (ref J2) (pin 6)))
    (net (code 37) (name "Net-(J2-Pad7)")
      (node (ref J2) (pin 7)))
    (net (code 38) (name "Net-(J2-Pad8)")
      (node (ref J2) (pin 8)))
    (net (code 39) (name "Net-(J2-Pad9)")
      (node (ref J2) (pin 9)))
    (net (code 40) (name "Net-(J4-Pad1)")
      (node (ref J4) (pin 1)))
    (net (code 41) (name "Net-(J4-Pad4)")
      (node (ref J4) (pin 4)))
    (net (code 42) (name "Net-(J4-Pad5)")
      (node (ref J4) (pin 5)))
    (net (code 43) (name "Net-(J3-Pad1)")
      (node (ref J3) (pin 1)))
    (net (code 44) (name "Net-(J3-Pad10)")
      (node (ref J3) (pin 10)))
    (net (code 45) (name "Net-(J3-Pad11)")
      (node (ref J3) (pin 11)))
    (net (code 46) (name "Net-(J3-Pad12)")
      (node (ref J3) (pin 12)))
    (net (code 47) (name "Net-(J3-Pad13)")
      (node (ref J3) (pin 13)))
    (net (code 48) (name "Net-(J3-Pad2)")
      (node (ref J3) (pin 2)))
    (net (code 49) (name "Net-(J3-Pad3)")
      (node (ref J3) (pin 3)))
    (net (code 50) (name "Net-(J3-Pad4)")
      (node (ref J3) (pin 4)))
    (net (code 51) (name "Net-(J3-Pad5)")
      (node (ref J3) (pin 5)))
    (net (code 52) (name "Net-(J3-Pad6)")
      (node (ref J3) (pin 6)))
    (net (code 53) (name "Net-(J3-Pad7)")
      (node (ref J3) (pin 7)))
    (net (code 54) (name "Net-(J3-Pad8)")
      (node (ref J3) (pin 8)))
    (net (code 55) (name "Net-(J3-Pad9)")
      (node (ref J3) (pin 9)))
    (net (code 56) (name "Net-(J1-Pad1)")
      (node (ref J2) (pin 11))
      (node (ref J1) (pin 1)))
    (net (code 57) (name "Net-(J1-Pad2)")
      (node (ref J2) (pin 12))
      (node (ref J1) (pin 2)))
    (net (code 58) (name GND)
      (node (ref J4) (pin 3))
      (node (ref J2) (pin 1))
      (node (ref J1) (pin 4))
      (node (ref U1) (pin 13))
      (node (ref U1) (pin 21))
      (node (ref U1) (pin 22)))
    (net (code 59) (name /Vin_3.3v)
      (node (ref J1) (pin 3))
      (node (ref J3) (pin 14)))
    (net (code 60) (name "Net-(U3-Pad1)")
      (node (ref U3) (pin 1)))
    (net (code 61) (name "Net-(U3-Pad10)")
      (node (ref U3) (pin 10)))
    (net (code 62) (name "Net-(U3-Pad11)")
      (node (ref U3) (pin 11)))
    (net (code 63) (name "Net-(U3-Pad12)")
      (node (ref U3) (pin 12)))
    (net (code 64) (name "Net-(U3-Pad13)")
      (node (ref U3) (pin 13)))
    (net (code 65) (name "Net-(U3-Pad14)")
      (node (ref U3) (pin 14)))
    (net (code 66) (name "Net-(U3-Pad15)")
      (node (ref U3) (pin 15)))
    (net (code 67) (name "Net-(U3-Pad16)")
      (node (ref U3) (pin 16)))
    (net (code 68) (name "Net-(U3-Pad2)")
      (node (ref U3) (pin 2)))
    (net (code 69) (name "Net-(U3-Pad3)")
      (node (ref U3) (pin 3)))
    (net (code 70) (name "Net-(U3-Pad4)")
      (node (ref U3) (pin 4)))
    (net (code 71) (name "Net-(U3-Pad5)")
      (node (ref U3) (pin 5)))
    (net (code 72) (name "Net-(U3-Pad6)")
      (node (ref U3) (pin 6)))
    (net (code 73) (name "Net-(U3-Pad7)")
      (node (ref U3) (pin 7)))
    (net (code 74) (name "Net-(U3-Pad8)")
      (node (ref U3) (pin 8)))
    (net (code 75) (name "Net-(U3-Pad9)")
      (node (ref U3) (pin 9)))
    (net (code 76) (name "Net-(U4-Pad1)")
      (node (ref U4) (pin 1)))
    (net (code 77) (name "Net-(U4-Pad10)")
      (node (ref U4) (pin 10)))
    (net (code 78) (name "Net-(U4-Pad11)")
      (node (ref U4) (pin 11)))
    (net (code 79) (name "Net-(U4-Pad12)")
      (node (ref U4) (pin 12)))
    (net (code 80) (name "Net-(U4-Pad13)")
      (node (ref U4) (pin 13)))
    (net (code 81) (name "Net-(U4-Pad14)")
      (node (ref U4) (pin 14)))
    (net (code 82) (name "Net-(U4-Pad15)")
      (node (ref U4) (pin 15)))
    (net (code 83) (name "Net-(U4-Pad16)")
      (node (ref U4) (pin 16)))
    (net (code 84) (name "Net-(U4-Pad2)")
      (node (ref U4) (pin 2)))
    (net (code 85) (name "Net-(U4-Pad3)")
      (node (ref U4) (pin 3)))
    (net (code 86) (name "Net-(U4-Pad4)")
      (node (ref U4) (pin 4)))
    (net (code 87) (name "Net-(U4-Pad5)")
      (node (ref U4) (pin 5)))
    (net (code 88) (name "Net-(U4-Pad6)")
      (node (ref U4) (pin 6)))
    (net (code 89) (name "Net-(U4-Pad7)")
      (node (ref U4) (pin 7)))
    (net (code 90) (name "Net-(U4-Pad8)")
      (node (ref U4) (pin 8)))
    (net (code 91) (name "Net-(U4-Pad9)")
      (node (ref U4) (pin 9)))
    (net (code 92) (name "Net-(U5-Pad1)")
      (node (ref U5) (pin 1)))
    (net (code 93) (name "Net-(U5-Pad10)")
      (node (ref U5) (pin 10)))
    (net (code 94) (name "Net-(U5-Pad11)")
      (node (ref U5) (pin 11)))
    (net (code 95) (name "Net-(U5-Pad12)")
      (node (ref U5) (pin 12)))
    (net (code 96) (name "Net-(U5-Pad13)")
      (node (ref U5) (pin 13)))
    (net (code 97) (name "Net-(U5-Pad14)")
      (node (ref U5) (pin 14)))
    (net (code 98) (name "Net-(U5-Pad15)")
      (node (ref U5) (pin 15)))
    (net (code 99) (name "Net-(U5-Pad16)")
      (node (ref U5) (pin 16)))
    (net (code 100) (name "Net-(U5-Pad17)")
      (node (ref U5) (pin 17)))
    (net (code 101) (name "Net-(U5-Pad2)")
      (node (ref U5) (pin 2)))
    (net (code 102) (name "Net-(U5-Pad3)")
      (node (ref U5) (pin 3)))
    (net (code 103) (name "Net-(U5-Pad4)")
      (node (ref U5) (pin 4)))
    (net (code 104) (name "Net-(U5-Pad5)")
      (node (ref U5) (pin 5)))
    (net (code 105) (name "Net-(U5-Pad6)")
      (node (ref U5) (pin 6)))
    (net (code 106) (name "Net-(U5-Pad7)")
      (node (ref U5) (pin 7)))
    (net (code 107) (name "Net-(U5-Pad8)")
      (node (ref U5) (pin 8)))
    (net (code 108) (name "Net-(U5-Pad9)")
      (node (ref U5) (pin 9)))
    (net (code 109) (name "Net-(U2-Pad1)")
      (node (ref U2) (pin 1)))
    (net (code 110) (name "Net-(U2-Pad10)")
      (node (ref U2) (pin 10)))
    (net (code 111) (name "Net-(U2-Pad11)")
      (node (ref U2) (pin 11)))
    (net (code 112) (name "Net-(U2-Pad12)")
      (node (ref U2) (pin 12)))
    (net (code 113) (name "Net-(U2-Pad13)")
      (node (ref U2) (pin 13)))
    (net (code 114) (name "Net-(U2-Pad14)")
      (node (ref U2) (pin 14)))
    (net (code 115) (name "Net-(U2-Pad15)")
      (node (ref U2) (pin 15)))
    (net (code 116) (name "Net-(U2-Pad16)")
      (node (ref U2) (pin 16)))
    (net (code 117) (name "Net-(U2-Pad2)")
      (node (ref U2) (pin 2)))
    (net (code 118) (name "Net-(U2-Pad3)")
      (node (ref U2) (pin 3)))
    (net (code 119) (name "Net-(U2-Pad4)")
      (node (ref U2) (pin 4)))
    (net (code 120) (name "Net-(U2-Pad5)")
      (node (ref U2) (pin 5)))
    (net (code 121) (name "Net-(U2-Pad6)")
      (node (ref U2) (pin 6)))
    (net (code 122) (name "Net-(U2-Pad7)")
      (node (ref U2) (pin 7)))
    (net (code 123) (name "Net-(U2-Pad8)")
      (node (ref U2) (pin 8)))
    (net (code 124) (name "Net-(U2-Pad9)")
      (node (ref U2) (pin 9)))
    (net (code 125) (name "Net-(M1-Pad1)")
      (node (ref M1) (pin 1)))
    (net (code 126) (name "Net-(M1-Pad2)")
      (node (ref M1) (pin 2)))
    (net (code 127) (name "Net-(M1-Pad3)")
      (node (ref M1) (pin 3)))
    (net (code 128) (name "Net-(M1-Pad4)")
      (node (ref M1) (pin 4)))
    (net (code 129) (name "Net-(M2-Pad1)")
      (node (ref M2) (pin 1)))
    (net (code 130) (name "Net-(M2-Pad2)")
      (node (ref M2) (pin 2)))
    (net (code 131) (name "Net-(M3-Pad1)")
      (node (ref M3) (pin 1)))
    (net (code 132) (name "Net-(M3-Pad2)")
      (node (ref M3) (pin 2)))
    (net (code 133) (name "Net-(M4-Pad1)")
      (node (ref M4) (pin 1)))
    (net (code 134) (name "Net-(M4-Pad2)")
      (node (ref M4) (pin 2)))
    (net (code 135) (name "Net-(U6-Pad1)")
      (node (ref U6) (pin 1)))
    (net (code 136) (name "Net-(U6-Pad2)")
      (node (ref U6) (pin 2)))
    (net (code 137) (name "Net-(U6-Pad3)")
      (node (ref U6) (pin 3)))
    (net (code 138) (name "Net-(C2-Pad1)")
      (node (ref C2) (pin 1)))
    (net (code 139) (name "Net-(C2-Pad2)")
      (node (ref C2) (pin 2)))
    (net (code 140) (name "Net-(C1-Pad1)")
      (node (ref C1) (pin 1)))
    (net (code 141) (name "Net-(C1-Pad2)")
      (node (ref C1) (pin 2)))
    (net (code 142) (name "Net-(J5-Pad1)")
      (node (ref J5) (pin 1)))
    (net (code 143) (name "Net-(J5-Pad2)")
      (node (ref J5) (pin 2)))))