(export (version D)
  (design
    (source "/u4/jzeeff/Dropbox/photosynq project (1)/Hardware/prototypes/programmer/programmer.sch")
    (date "Thu 19 Nov 2015 04:03:46 PM EST")
    (tool "Eeschema 4.0.0-1rc2.201511182116+6189~38~ubuntu14.04.1-stable")
    (sheet (number 1) (name /) (tstamps /)
      (title_block
        (title Programmer)
        (company Photosynq)
        (rev)
        (date)
        (source programmer.sch)
        (comment (number 1) (value "teensy type programmer"))
        (comment (number 2) (value http://www.pjrc.com/store/ic_mkl02.html))
        (comment (number 3) (value "Jon Zeeff"))
        (comment (number 4) (value "")))))
  (components
    (comp (ref P1)
      (value CONN_02X05)
      (footprint photosynq:header_2x5_.050)
      (fields
        (field (name manf#) Value))
      (libsource (lib programmer-cache) (part CONN_02X05))
      (sheetpath (names /) (tstamps /))
      (tstamp 562679E0))
    (comp (ref IC1)
      (value MKL04Z32_TQFP32)
      (footprint Housings_QFP:TQFP-32_7x7mm_Pitch0.8mm)
      (fields
        (field (name manf#) Value))
      (libsource (lib programmer) (part MKL04Z32_TQFP32))
      (sheetpath (names /) (tstamps /))
      (tstamp 56268BFB))
    (comp (ref SW1)
      (value SW_PUSH)
      (footprint Buttons_Switches_SMD:SW_SPST_FSMSM)
      (fields
        (field (name manf#) Value))
      (libsource (lib programmer-cache) (part SW_PUSH))
      (sheetpath (names /) (tstamps /))
      (tstamp 562698DD))
    (comp (ref C1)
      (value "10 uF")
      (footprint Capacitors_SMD:C_0805_HandSoldering)
      (fields
        (field (name manf#) Value))
      (libsource (lib programmer-cache) (part C_Small))
      (sheetpath (names /) (tstamps /))
      (tstamp 56269A96)))
  (libparts
    (libpart (lib programmer-cache) (part CONN_02X05)
      (footprints
        (fp Pin_Header_Straight_2X05)
        (fp Pin_Header_Angled_2X05)
        (fp Socket_Strip_Straight_2X05)
        (fp Socket_Strip_Angled_2X05))
      (fields
        (field (name Reference) P)
        (field (name Value) CONN_02X05))
      (pins
        (pin (num 1) (name P1) (type passive))
        (pin (num 2) (name P2) (type passive))
        (pin (num 3) (name P3) (type passive))
        (pin (num 4) (name P4) (type passive))
        (pin (num 5) (name P5) (type passive))
        (pin (num 6) (name P6) (type passive))
        (pin (num 7) (name P7) (type passive))
        (pin (num 8) (name P8) (type passive))
        (pin (num 9) (name P9) (type passive))
        (pin (num 10) (name P10) (type passive))))
    (libpart (lib programmer-cache) (part C_Small)
      (footprints
        (fp C?)
        (fp C_????_*)
        (fp C_????)
        (fp SMD*_c)
        (fp Capacitor*))
      (fields
        (field (name Reference) C)
        (field (name Value) C_Small))
      (pins
        (pin (num 1) (name ~) (type passive))
        (pin (num 2) (name ~) (type passive))))
    (libpart (lib programmer) (part MKL04Z32_TQFP32)
      (description "AT90S4433, TQFP32, 2k Flash, 128B SRAM, 256B EEPROM")
      (docs http://www.atmel.com/Images/doc1042.pdf)
      (fields
        (field (name Reference) IC)
        (field (name Value) MKL04Z32_TQFP32)
        (field (name Footprint) TQFP32))
      (pins
        (pin (num 3) (name VDD) (type power_in))
        (pin (num 4) (name AVDD) (type power_in))
        (pin (num 5) (name AVSS) (type power_in))
        (pin (num 6) (name VSS) (type power_in))
        (pin (num 7) (name PTA3) (type input))
        (pin (num 8) (name PTA4) (type output))
        (pin (num 10) (name PTA6) (type BiDi))
        (pin (num 15) (name PTA7) (type BiDi))
        (pin (num 16) (name PTB0) (type BiDi))
        (pin (num 17) (name PTB1) (type BiDi))
        (pin (num 18) (name PTB2) (type passive))
        (pin (num 25) (name PTB5) (type BiDi))))
    (libpart (lib programmer-cache) (part SW_PUSH)
      (fields
        (field (name Reference) SW)
        (field (name Value) SW_PUSH))
      (pins
        (pin (num 1) (name 1) (type passive))
        (pin (num 2) (name 2) (type passive)))))
  (libraries
    (library (logical programmer)
      (uri "/u4/jzeeff/Dropbox/photosynq project (1)/Hardware/prototypes/programmer/programmer.lib"))
    (library (logical programmer-cache)
      (uri "/u4/jzeeff/Dropbox/photosynq project (1)/Hardware/prototypes/programmer/programmer-cache.lib")))
  (nets
    (net (code 1) (name "Net-(IC1-Pad18)")
      (node (ref SW1) (pin 1))
      (node (ref IC1) (pin 18)))
    (net (code 2) (name "Net-(IC1-Pad25)")
      (node (ref P1) (pin 10))
      (node (ref IC1) (pin 8))
      (node (ref IC1) (pin 25)))
    (net (code 3) (name "Net-(IC1-Pad7)")
      (node (ref IC1) (pin 7)))
    (net (code 4) (name GND)
      (node (ref IC1) (pin 6))
      (node (ref IC1) (pin 5))
      (node (ref P1) (pin 3))
      (node (ref P1) (pin 9))
      (node (ref P1) (pin 5))
      (node (ref C1) (pin 2))
      (node (ref SW1) (pin 2)))
    (net (code 5) (name "Net-(IC1-Pad10)")
      (node (ref P1) (pin 8))
      (node (ref IC1) (pin 10)))
    (net (code 6) (name "Net-(IC1-Pad17)")
      (node (ref P1) (pin 6))
      (node (ref IC1) (pin 17)))
    (net (code 7) (name "Net-(IC1-Pad16)")
      (node (ref P1) (pin 4))
      (node (ref IC1) (pin 16)))
    (net (code 8) (name "Net-(IC1-Pad15)")
      (node (ref P1) (pin 2))
      (node (ref IC1) (pin 15)))
    (net (code 9) (name "Net-(C1-Pad1)")
      (node (ref C1) (pin 1))
      (node (ref P1) (pin 1))
      (node (ref IC1) (pin 4))
      (node (ref IC1) (pin 3)))
    (net (code 10) (name "Net-(P1-Pad7)")
      (node (ref P1) (pin 7)))))