M48
;DRILL file {Pcbnew (2013-07-07 BZR 4022)-stable} date 11/26/2014 4:39:18 PM
;FORMAT={-:-/ absolute / inch / decimal}
FMAT,2
INCH,TZ
T1C0.015
T2C0.043
%
G90
G05
M72
T1
X7.4178Y-4.2951
X7.423Y-4.754
X7.426Y-4.5256
X7.434Y-3.478
X7.4409Y-4.2161
X7.4602Y-4.082
X7.4717Y-3.9272
X7.499Y-4.061
X7.506Y-4.488
X7.528Y-4.836
X7.552Y-4.131
X7.5522Y-4.4442
X7.568Y-3.962
X7.571Y-4.284
X7.5784Y-3.5902
X7.5804Y-3.6748
X7.584Y-4.58
X7.589Y-4.679
X7.595Y-4.7425
X7.6078Y-3.704
X7.6202Y-3.5906
X7.632Y-4.16
X7.642Y-4.504
X7.67Y-4.27
X7.674Y-3.798
X7.682Y-3.93
X7.702Y-3.617
X7.7025Y-4.58
X7.735Y-4.32
X7.736Y-3.913
X7.745Y-3.966
X7.757Y-3.47
X7.765Y-3.646
X7.793Y-4.5175
X7.8075Y-4.7425
X7.824Y-4.624
X7.825Y-4.315
X7.8435Y-4.867
X7.9035Y-5.093
X7.914Y-4.715
X7.9452Y-5.1408
X7.95Y-4.175
X7.958Y-4.821
X8.Y-4.865
X8.04Y-4.89
X8.073Y-4.831
X8.083Y-4.7395
X8.1628Y-4.3544
X8.165Y-4.025
X8.166Y-4.879
X8.185Y-3.6478
X8.1868Y-3.7642
X8.1872Y-3.698
X8.215Y-3.5322
X8.2178Y-3.577
X8.2226Y-3.839
X8.2228Y-3.6298
X8.2236Y-3.7132
X8.2244Y-3.7782
X8.2328Y-4.3464
X8.2344Y-3.8862
X8.2348Y-4.709
X8.259Y-3.5326
X8.2594Y-3.579
X8.275Y-3.9165
X8.2898Y-4.3664
X8.29Y-4.1697
X8.3258Y-4.4434
X8.3282Y-3.5032
X8.3392Y-4.7608
X8.3684Y-3.5094
X8.3745Y-4.3197
X8.4148Y-3.4866
X8.428Y-4.4122
X8.434Y-4.699
X8.4442Y-3.511
X8.4725Y-4.2957
X8.48Y-4.4597
X8.5046Y-3.5102
X8.522Y-4.4592
X8.551Y-3.5616
X8.5525Y-4.0972
X8.5708Y-4.1639
T2
X8.3567Y-3.9602G85X8.3567Y-4.0168
G05
X8.5567Y-3.9602G85X8.5567Y-4.0168
G05
T0
M30
