(export (version D)
  (design
    (source "C:\\Users\\zagaracr\\Dropbox\\photosynq project\\Hardware\\handheld board\\Handheld board.sch")
    (date "10/3/2014 3:55:37 PM")
    (tool "eeschema (2013-07-07 BZR 4022)-stable"))
  (components
    (comp (ref R112)
      (value 1K)
      (datasheet RC0402JR-071KL)
      (libsource (lib device) (part R))
      (sheetpath (names /) (tstamps /))
      (tstamp 516F06E3))
    (comp (ref C114)
      (value 1n)
      (datasheet C0402C102J5GACTU)
      (libsource (lib device) (part C))
      (sheetpath (names /) (tstamps /))
      (tstamp 516F06F6))
    (comp (ref D105)
      (value DETA)
      (footprint PIN)
      (datasheet S6775-01)
      (libsource (lib opto) (part SMALL_DIODE_PHOTODIODE))
      (sheetpath (names /) (tstamps /))
      (tstamp 516F0A66))
    (comp (ref C112)
      (value 10u)
      (datasheet C0805C106M4PACTU)
      (libsource (lib device) (part C))
      (sheetpath (names /) (tstamps /))
      (tstamp 517FDA64))
    (comp (ref C110)
      (value 10u)
      (datasheet C0805C106M4PACTU)
      (libsource (lib device) (part C))
      (sheetpath (names /) (tstamps /))
      (tstamp 517FDEB9))
    (comp (ref L104)
      (value 10uH)
      (datasheet MLZ2012N100L)
      (libsource (lib device) (part INDUCTOR_SMALL))
      (sheetpath (names /) (tstamps /))
      (tstamp 517FDFA5))
    (comp (ref U103)
      (value OPA2180)
      (datasheet OPA2180IDR)
      (libsource (lib linear) (part LM358))
      (sheetpath (names /) (tstamps /))
      (tstamp 51801A7B))
    (comp (ref R110)
      (value 22)
      (datasheet RC0805JR-0722RL)
      (libsource (lib device) (part R))
      (sheetpath (names /) (tstamps /))
      (tstamp 51801A92))
    (comp (ref R113)
      (value 3.3)
      (datasheet RC0805JR-073R3L)
      (libsource (lib device) (part R))
      (sheetpath (names /) (tstamps /))
      (tstamp 51801AF6))
    (comp (ref L102)
      (value 10uH)
      (datasheet MLZ2012N100L)
      (libsource (lib device) (part INDUCTOR_SMALL))
      (sheetpath (names /) (tstamps /))
      (tstamp 51801BD0))
    (comp (ref C111)
      (value 10u)
      (datasheet C0805C106M4PACTU)
      (libsource (lib device) (part C))
      (sheetpath (names /) (tstamps /))
      (tstamp 51801C27))
    (comp (ref C113)
      (value 68p)
      (datasheet CC0402JRNPO9BN680)
      (libsource (lib device) (part C))
      (sheetpath (names /) (tstamps /))
      (tstamp 51801CF0))
    (comp (ref R108)
      (value 2K)
      (datasheet RC0805JR-072KL)
      (libsource (lib device) (part R))
      (sheetpath (names /) (tstamps /))
      (tstamp 5182B0C8))
    (comp (ref C109)
      (value 10u)
      (datasheet C0805C106M4PACTU)
      (libsource (lib device) (part C))
      (sheetpath (names /) (tstamps /))
      (tstamp 5182B33D))
    (comp (ref U106)
      (value TL431)
      (datasheet TL431BSDT,215)
      (libsource (lib special) (part TL431LP))
      (sheetpath (names /) (tstamps /))
      (tstamp 5182B46F))
    (comp (ref R107)
      (value 3.3K)
      (datasheet RC0805JR-073K3L)
      (libsource (lib device) (part R))
      (sheetpath (names /) (tstamps /))
      (tstamp 5182CE98))
    (comp (ref C101)
      (value 10u)
      (datasheet C0805C106M4PACTU)
      (libsource (lib device) (part C))
      (sheetpath (names /) (tstamps /))
      (tstamp 5182CEA4))
    (comp (ref C108)
      (value 68p)
      (datasheet CC0402JRNPO9BN680)
      (libsource (lib device) (part C))
      (sheetpath (names /) (tstamps /))
      (tstamp 5182CEAA))
    (comp (ref D104)
      (value SATA)
      (datasheet LXZ1-PA01)
      (libsource (lib device) (part LED))
      (sheetpath (names /) (tstamps /))
      (tstamp 5182DAE5))
    (comp (ref D102)
      (value IRCALA)
      (datasheet "SFH 4441")
      (libsource (lib device) (part LED))
      (sheetpath (names /) (tstamps /))
      (tstamp 5182DAF2))
    (comp (ref D101)
      (value MEAS2A)
      (datasheet LXZ1-PM01)
      (libsource (lib device) (part LED))
      (sheetpath (names /) (tstamps /))
      (tstamp 5182E95A))
    (comp (ref R101)
      (value 2)
      (datasheet MCR25JZHJ2R0)
      (libsource (lib device) (part R))
      (sheetpath (names /) (tstamps /))
      (tstamp 5182E98C))
    (comp (ref C102)
      (value 10u)
      (datasheet C0805C106M4PACTU)
      (libsource (lib device) (part C))
      (sheetpath (names /) (tstamps /))
      (tstamp 5182E9AA))
    (comp (ref D103)
      (value MEAS1A)
      (datasheet LXZ1-PL01)
      (libsource (lib device) (part LED))
      (sheetpath (names /) (tstamps /))
      (tstamp 5182EBC9))
    (comp (ref R109)
      (value 2)
      (datasheet MCR25JZHJ2R0)
      (libsource (lib device) (part R))
      (sheetpath (names /) (tstamps /))
      (tstamp 5182EBD5))
    (comp (ref R111)
      (value 22)
      (datasheet RC0805JR-0722RL)
      (libsource (lib device) (part R))
      (sheetpath (names /) (tstamps /))
      (tstamp 5183EE6F))
    (comp (ref R106)
      (value 22)
      (datasheet RC0805JR-0722RL)
      (libsource (lib device) (part R))
      (sheetpath (names /) (tstamps /))
      (tstamp 5183EE8B))
    (comp (ref C135)
      (value 10u)
      (datasheet C0805C106M4PACTU)
      (libsource (lib device) (part C))
      (sheetpath (names /) (tstamps /))
      (tstamp 51841C74))
    (comp (ref L105)
      (value 10uH)
      (datasheet MLZ2012N100L)
      (libsource (lib device) (part INDUCTOR))
      (sheetpath (names /) (tstamps /))
      (tstamp 51841C83))
    (comp (ref U102)
      (value DG4157)
      (datasheet DG4157DL-T1-E3)
      (libsource (lib analog_switches) (part DG4157DL-T1-E3))
      (sheetpath (names /) (tstamps /))
      (tstamp 51CCA405))
    (comp (ref U108)
      (value DG4157)
      (datasheet DG4157DL-T1-E3)
      (libsource (lib analog_switches) (part DG4157DL-T1-E3))
      (sheetpath (names /) (tstamps /))
      (tstamp 51CCBF2F))
    (comp (ref U109)
      (value TL1963)
      (datasheet TL1963ADCQR)
      (libsource (lib regul) (part TL1963))
      (sheetpath (names /) (tstamps /))
      (tstamp 51CDDD61))
    (comp (ref R135)
      (value 2.7K)
      (datasheet RC0805JR-072K7L)
      (libsource (lib device) (part R))
      (sheetpath (names /) (tstamps /))
      (tstamp 51CDE815))
    (comp (ref R136)
      (value 1K)
      (datasheet RC0805JR-071KL)
      (libsource (lib device) (part R))
      (sheetpath (names /) (tstamps /))
      (tstamp 51CDE824))
    (comp (ref Q103)
      (value MOSN)
      (datasheet IRLTS6342TRPBF)
      (libsource (lib "Handheld board-cache") (part MOSN-TSOP6))
      (sheetpath (names /) (tstamps /))
      (tstamp 51D461CD))
    (comp (ref Q101)
      (value MOSN)
      (datasheet IRLTS6342TRPBF)
      (libsource (lib "Handheld board-cache") (part MOSN-TSOP6))
      (sheetpath (names /) (tstamps /))
      (tstamp 51D46788))
    (comp (ref Q102)
      (value MOSN)
      (datasheet IRLTS6342TRPBF)
      (libsource (lib "Handheld board-cache") (part MOSN-TSOP6))
      (sheetpath (names /) (tstamps /))
      (tstamp 51D4652C))
    (comp (ref U111)
      (value HTU21D)
      (datasheet HPP828E031)
      (libsource (lib "Handheld board-cache") (part HTU21D))
      (sheetpath (names /) (tstamps /))
      (tstamp 51E06B99))
    (comp (ref C116)
      (value 10u)
      (datasheet C0805C106M4PACTU)
      (libsource (lib device) (part C))
      (sheetpath (names /) (tstamps /))
      (tstamp 51E06ED1))
    (comp (ref U105)
      (value LMH6601)
      (datasheet LMH6601MG/NOPB)
      (libsource (lib linear) (part LMH6601))
      (sheetpath (names /) (tstamps /))
      (tstamp 51E446D8))
    (comp (ref S101)
      (value CO2_S8)
      (footprint c116)
      (datasheet SE-0031)
      (libsource (lib contrib) (part CO2S8))
      (sheetpath (names /) (tstamps /))
      (tstamp 51E459C6))
    (comp (ref C123)
      (value 10u)
      (datasheet C0805C106M4PACTU)
      (libsource (lib device) (part C))
      (sheetpath (names /) (tstamps /))
      (tstamp 51E80F92))
    (comp (ref U104)
      (value LM5111)
      (datasheet LM5111-1MY/NOPB)
      (libsource (lib "Handheld board-cache") (part LM5551))
      (sheetpath (names /) (tstamps /))
      (tstamp 521F678B))
    (comp (ref R114)
      (value 1K)
      (datasheet RC0402JR-071KL)
      (libsource (lib device) (part R))
      (sheetpath (names /) (tstamps /))
      (tstamp 517FDF22))
    (comp (ref C115)
      (value 0.1u)
      (datasheet C2012JB2A104K125AA)
      (libsource (lib device) (part C))
      (sheetpath (names /) (tstamps /))
      (tstamp 521F7EBE))
    (comp (ref R141)
      (value 1K)
      (datasheet RC0805JR-071KL)
      (libsource (lib device) (part R))
      (sheetpath (names /) (tstamps /))
      (tstamp 5220AA5F))
    (comp (ref R142)
      (value 3.3K)
      (datasheet RC0805JR-073K3L)
      (libsource (lib device) (part R))
      (sheetpath (names /) (tstamps /))
      (tstamp 5220AA6E))
    (comp (ref R143)
      (value 2K)
      (datasheet RC0805JR-072KL)
      (libsource (lib device) (part R))
      (sheetpath (names /) (tstamps /))
      (tstamp 522F80E9))
    (comp (ref U113)
      (value TMP006)
      (datasheet TMP006AIYZFR)
      (libsource (lib contrib) (part TMP006))
      (sheetpath (names /) (tstamps /))
      (tstamp 522F8928))
    (comp (ref K102)
      (value PWR_CONN)
      (footprint "POWER IN")
      (datasheet PJ-028-SMT-TR)
      (libsource (lib conn) (part CONN_3))
      (sheetpath (names /) (tstamps /))
      (tstamp 523082DE))
    (comp (ref U112)
      (value TL1963)
      (datasheet TL1963ADCQR)
      (libsource (lib regul) (part TL1963))
      (sheetpath (names /) (tstamps /))
      (tstamp 521FAC6E))
    (comp (ref U110)
      (value TCS34715FN)
      (datasheet TCS34715FN)
      (libsource (lib "Handheld board-cache") (part TCS3471))
      (sheetpath (names /) (tstamps /))
      (tstamp 521F87A5))
    (comp (ref C136)
      (value 10u)
      (datasheet C0805C106M4PACTU)
      (libsource (lib device) (part C))
      (sheetpath (names /) (tstamps /))
      (tstamp 525D9719))
    (comp (ref P2)
      (value CONN_16)
      (datasheet HFW16R-1STE1LF)
      (libsource (lib conn) (part CONN_16))
      (sheetpath (names /) (tstamps /))
      (tstamp 5304E389))
    (comp (ref R144)
      (value 10K)
      (datasheet RC0805JR-0710KL)
      (libsource (lib device) (part R))
      (sheetpath (names /) (tstamps /))
      (tstamp 523CA8E2))
    (comp (ref C1)
      (value 10u)
      (datasheet C0805C106M4PACTU)
      (libsource (lib device) (part C))
      (sheetpath (names /) (tstamps /))
      (tstamp 52D49BEC))
    (comp (ref R1)
      (value 10K)
      (datasheet RC0805JR-0710KL)
      (libsource (lib device) (part R))
      (sheetpath (names /) (tstamps /))
      (tstamp 5305270E))
    (comp (ref U115)
      (value LMH6601)
      (datasheet LMH6601MG/NOPB)
      (libsource (lib linear) (part LMH6601))
      (sheetpath (names /) (tstamps /))
      (tstamp 53113170))
    (comp (ref D107)
      (value DIODE)
      (datasheet 1N4148WS)
      (libsource (lib device) (part DIODE))
      (sheetpath (names /) (tstamps /))
      (tstamp 531150A6))
    (comp (ref D106)
      (value DIODE)
      (datasheet 1N4148WS)
      (libsource (lib device) (part DIODE))
      (sheetpath (names /) (tstamps /))
      (tstamp 531150B3))
    (comp (ref U116)
      (value SPST)
      (datasheet ADG701BRTZ-REEL7)
      (libsource (lib analog_switches) (part SPST_SW_ADG701))
      (sheetpath (names /) (tstamps /))
      (tstamp 531150E9))
    (comp (ref C134)
      (value 10u)
      (datasheet C0805C106M4PACTU)
      (libsource (lib device) (part C))
      (sheetpath (names /) (tstamps /))
      (tstamp 5311963A))
    (comp (ref U114)
      (value TSV911)
      (footprint sot23-6)
      (datasheet TSV911ILT)
      (libsource (lib "Handheld board-cache") (part TSV911))
      (sheetpath (names /) (tstamps /))
      (tstamp 5311F474))
    (comp (ref D108)
      (value pwr_LED)
      (footprint 0603)
      (datasheet LTST-S270KGKT)
      (libsource (lib device) (part LED))
      (sheetpath (names /) (tstamps /))
      (tstamp 53322A27))
    (comp (ref R149)
      (value 3.3K)
      (datasheet RC0402JR-073K3L)
      (libsource (lib device) (part R))
      (sheetpath (names /) (tstamps /))
      (tstamp 53322FD6))
    (comp (ref U7)
      (value MCP4728)
      (footprint MSOP10-0.5)
      (libsource (lib adc-dac) (part MCP4728))
      (sheetpath (names /) (tstamps /))
      (tstamp 5342CE99))
    (comp (ref U107)
      (value DG4157)
      (datasheet DG4157DL-T1-E3)
      (libsource (lib analog_switches) (part DG4157DL-T1-E3))
      (sheetpath (names /) (tstamps /))
      (tstamp 51CCB591))
    (comp (ref P3)
      (value CONN_1)
      (libsource (lib conn) (part CONN_1))
      (sheetpath (names /) (tstamps /))
      (tstamp 5345B469))
    (comp (ref P1)
      (value CONN_1)
      (libsource (lib conn) (part CONN_1))
      (sheetpath (names /) (tstamps /))
      (tstamp 5345B46F))
    (comp (ref U8)
      (value BU4S11G2-TR)
      (footprint SSOP5)
      (libsource (lib "Handheld board-cache") (part BU4S11G2-TR))
      (sheetpath (names /) (tstamps /))
      (tstamp 5356D025))
    (comp (ref R6)
      (value 100K)
      (footprint SM0805)
      (libsource (lib device) (part R))
      (sheetpath (names /) (tstamps /))
      (tstamp 5356EB80))
    (comp (ref R5)
      (value 100K)
      (libsource (lib device) (part R))
      (sheetpath (names /) (tstamps /))
      (tstamp 5356EB92))
    (comp (ref C5)
      (value 0.1u)
      (footprint SM0805)
      (libsource (lib device) (part C))
      (sheetpath (names /) (tstamps /))
      (tstamp 5356F1FC))
    (comp (ref C4)
      (value 1u)
      (libsource (lib device) (part C))
      (sheetpath (names /) (tstamps /))
      (tstamp 5356F209))
    (comp (ref C6)
      (value 0.1u)
      (footprint SM0805)
      (libsource (lib device) (part C))
      (sheetpath (names /) (tstamps /))
      (tstamp 5356F20F))
    (comp (ref C7)
      (value 10n)
      (libsource (lib device) (part C))
      (sheetpath (names /) (tstamps /))
      (tstamp 5356F215))
    (comp (ref R3)
      (value 100K)
      (footprint SM0805)
      (libsource (lib device) (part R))
      (sheetpath (names /) (tstamps /))
      (tstamp 5356F21D))
    (comp (ref R4)
      (value 100K)
      (footprint SM0805)
      (libsource (lib device) (part R))
      (sheetpath (names /) (tstamps /))
      (tstamp 5356F22A))
    (comp (ref SW101)
      (value SW_PUSH)
      (libsource (lib device) (part SW_PUSH))
      (sheetpath (names /) (tstamps /))
      (tstamp 5356F232))
    (comp (ref U5)
      (value BU4S11G2-TR)
      (footprint SSOP5)
      (libsource (lib "Handheld board-cache") (part BU4S11G2-TR))
      (sheetpath (names /) (tstamps /))
      (tstamp 53580D2C))
    (comp (ref R8)
      (value 10M)
      (footprint SM0805)
      (libsource (lib device) (part R))
      (sheetpath (names /) (tstamps /))
      (tstamp 5358156D))
    (comp (ref R7)
      (value 1M)
      (footprint SM0805)
      (libsource (lib device) (part R))
      (sheetpath (names /) (tstamps /))
      (tstamp 53581573))
    (comp (ref C3)
      (value 1n)
      (datasheet C0402C102J5GACTU)
      (libsource (lib device) (part C))
      (sheetpath (names /) (tstamps /))
      (tstamp 53582099))
    (comp (ref P5)
      (value CONN_1)
      (libsource (lib conn) (part CONN_1))
      (sheetpath (names /) (tstamps /))
      (tstamp 5359705C))
    (comp (ref P7)
      (value CONN_1)
      (libsource (lib conn) (part CONN_1))
      (sheetpath (names /) (tstamps /))
      (tstamp 53597062))
    (comp (ref P8)
      (value CONN_1)
      (libsource (lib conn) (part CONN_1))
      (sheetpath (names /) (tstamps /))
      (tstamp 53597068))
    (comp (ref U6)
      (value TEENSY3.1)
      (libsource (lib contrib) (part TEENSY3.1))
      (sheetpath (names /) (tstamps /))
      (tstamp 5343FED9))
    (comp (ref P9)
      (value CONN_1)
      (libsource (lib conn) (part CONN_1))
      (sheetpath (names /) (tstamps /))
      (tstamp 53597C27))
    (comp (ref P10)
      (value CONN_1)
      (libsource (lib conn) (part CONN_1))
      (sheetpath (names /) (tstamps /))
      (tstamp 53597C2D))
    (comp (ref Q105)
      (value NPN_BCE)
      (libsource (lib "Handheld board-cache") (part NPN_BCE))
      (sheetpath (names /) (tstamps /))
      (tstamp 5361317B))
    (comp (ref P13)
      (value CONN_1)
      (libsource (lib conn) (part CONN_1))
      (sheetpath (names /) (tstamps /))
      (tstamp 53890C24))
    (comp (ref P12)
      (value CONN_1)
      (libsource (lib conn) (part CONN_1))
      (sheetpath (names /) (tstamps /))
      (tstamp 5389107C))
    (comp (ref P11)
      (value CONN_1)
      (libsource (lib conn) (part CONN_1))
      (sheetpath (names /) (tstamps /))
      (tstamp 538912B0))
    (comp (ref C2)
      (value 10u)
      (libsource (lib device) (part C))
      (sheetpath (names /) (tstamps /))
      (tstamp 54176C4D))
    (comp (ref R2)
      (value 0)
      (libsource (lib device) (part R))
      (sheetpath (names /) (tstamps /))
      (tstamp 53F758E0))
    (comp (ref C9)
      (value 10u)
      (datasheet C0805C106M4PACTU)
      (libsource (lib device) (part C))
      (sheetpath (names /) (tstamps /))
      (tstamp 541B4A3C))
    (comp (ref C8)
      (value 10u)
      (datasheet C0805C106M4PACTU)
      (libsource (lib device) (part C))
      (sheetpath (names /) (tstamps /))
      (tstamp 541B4A47))
    (comp (ref Q1)
      (value SiA461DJ)
      (footprint SC-70-6L)
      (datasheet http://www.vishay.com/docs/63838/sia461dj.pdf)
      (libsource (lib "Handheld board-cache") (part MOSN-TSOP6))
      (sheetpath (names /) (tstamps /))
      (tstamp 541B513B))
    (comp (ref R9)
      (value 10K)
      (datasheet RC0805JR-0710KL)
      (libsource (lib device) (part R))
      (sheetpath (names /) (tstamps /))
      (tstamp 542D6B38))
    (comp (ref R10)
      (value 10K)
      (datasheet RC0805JR-0710KL)
      (libsource (lib device) (part R))
      (sheetpath (names /) (tstamps /))
      (tstamp 542D6ED5))
    (comp (ref R11)
      (value 20)
      (datasheet RMCF0805JT20R0)
      (libsource (lib device) (part R))
      (sheetpath (names /) (tstamps /))
      (tstamp 542EFDEE))
    (comp (ref R12)
      (value 1K)
      (datasheet RMCF0805JT20R0)
      (libsource (lib device) (part R))
      (sheetpath (names /) (tstamps /))
      (tstamp 542F04B2)))
  (libparts
    (libpart (lib device) (part INDUCTOR)
      (fields
        (field (name Reference) L)
        (field (name Value) INDUCTOR)
        (field (name Footprint) ~)
        (field (name Datasheet) ~))
      (pins
        (pin (num 1) (name 1) (type passive))
        (pin (num 2) (name 2) (type passive))))
    (libpart (lib device) (part LED)
      (footprints
        (fp LED-3MM)
        (fp LED-5MM)
        (fp LED-10MM)
        (fp LED-0603)
        (fp LED-0805)
        (fp LED-1206)
        (fp LEDV))
      (fields
        (field (name Reference) D)
        (field (name Value) LED)
        (field (name Footprint) ~)
        (field (name Datasheet) ~))
      (pins
        (pin (num 1) (name A) (type passive))
        (pin (num 2) (name K) (type passive))))
    (libpart (lib device) (part DIODE)
      (description "Diode simple")
      (footprints
        (fp D?)
        (fp S*))
      (fields
        (field (name Reference) D)
        (field (name Value) DIODE)
        (field (name Footprint) ~)
        (field (name Datasheet) ~))
      (pins
        (pin (num 1) (name A) (type passive))
        (pin (num 2) (name K) (type passive))))
    (libpart (lib device) (part INDUCTOR_SMALL)
      (fields
        (field (name Reference) L)
        (field (name Value) INDUCTOR_SMALL)
        (field (name Footprint) ~)
        (field (name Datasheet) ~))
      (pins
        (pin (num 1) (name 1) (type input))
        (pin (num 2) (name 2) (type input))))
    (libpart (lib device) (part C)
      (description "Condensateur non polarise")
      (footprints
        (fp SM*)
        (fp C?)
        (fp C1-1))
      (fields
        (field (name Reference) C)
        (field (name Value) C)
        (field (name Footprint) ~)
        (field (name Datasheet) ~))
      (pins
        (pin (num 1) (name ~) (type passive))
        (pin (num 2) (name ~) (type passive))))
    (libpart (lib device) (part SW_PUSH)
      (description "Push Button")
      (fields
        (field (name Reference) SW)
        (field (name Value) SW_PUSH)
        (field (name Footprint) ~)
        (field (name Datasheet) ~))
      (pins
        (pin (num 1) (name 1) (type passive))
        (pin (num 2) (name 2) (type passive))))
    (libpart (lib device) (part R)
      (description Resistance)
      (footprints
        (fp R?)
        (fp SM0603)
        (fp SM0805)
        (fp R?-*)
        (fp SM1206))
      (fields
        (field (name Reference) R)
        (field (name Value) R)
        (field (name Footprint) ~)
        (field (name Datasheet) ~))
      (pins
        (pin (num 1) (name ~) (type passive))
        (pin (num 2) (name ~) (type passive))))
    (libpart (lib conn) (part CONN_1)
      (fields
        (field (name Reference) P)
        (field (name Value) CONN_1)
        (field (name Footprint) ~)
        (field (name Datasheet) ~))
      (pins
        (pin (num 1) (name 1) (type passive))))
    (libpart (lib conn) (part CONN_16)
      (description "CONN_16, connector, 16 pins")
      (fields
        (field (name Reference) P)
        (field (name Value) CONN_16)
        (field (name Footprint) ~)
        (field (name Datasheet) ~))
      (pins
        (pin (num 1) (name P1) (type passive))
        (pin (num 2) (name P2) (type passive))
        (pin (num 3) (name P3) (type passive))
        (pin (num 4) (name P4) (type passive))
        (pin (num 5) (name P5) (type passive))
        (pin (num 6) (name P6) (type passive))
        (pin (num 7) (name P7) (type passive))
        (pin (num 8) (name P8) (type passive))
        (pin (num 9) (name P9) (type passive))
        (pin (num 10) (name P10) (type passive))
        (pin (num 11) (name P11) (type passive))
        (pin (num 12) (name P12) (type passive))
        (pin (num 13) (name P13) (type passive))
        (pin (num 14) (name P14) (type passive))
        (pin (num 15) (name P15) (type passive))
        (pin (num 16) (name P16) (type passive))))
    (libpart (lib conn) (part CONN_3)
      (fields
        (field (name Reference) K)
        (field (name Value) CONN_3)
        (field (name Footprint) ~)
        (field (name Datasheet) ~))
      (pins
        (pin (num 1) (name P1) (type passive))
        (pin (num 2) (name PM) (type passive))
        (pin (num 3) (name P3) (type passive))))
    (libpart (lib linear) (part LM358)
      (fields
        (field (name Reference) U)
        (field (name Value) LM358)
        (field (name Footprint) ~)
        (field (name Datasheet) ~))
      (pins
        (pin (num 1) (name ~) (type output))
        (pin (num 2) (name -) (type input))
        (pin (num 3) (name +) (type input))
        (pin (num 4) (name V-) (type power_in))
        (pin (num 5) (name +) (type input))
        (pin (num 6) (name -) (type input))
        (pin (num 7) (name ~) (type output))
        (pin (num 8) (name V+) (type power_in))))
    (libpart (lib linear) (part LMH6601)
      (description "LMH 6601, opamp, SMD")
      (footprints
        (fp sc70-6))
      (fields
        (field (name Reference) U)
        (field (name Value) LMH6601)
        (field (name Footprint) ~)
        (field (name Datasheet) ~))
      (pins
        (pin (num 1) (name out) (type output))
        (pin (num 2) (name V-) (type passive))
        (pin (num 3) (name +) (type input))
        (pin (num 4) (name -) (type input))
        (pin (num 5) (name SD) (type passive))
        (pin (num 6) (name V+) (type passive))))
    (libpart (lib regul) (part TL1963)
      (description "TL1963, LOW DROP, VOLTAGE REGULATOR, 1.5A, SMD")
      (docs http://www.ti.com/lit/ds/symlink/tl1963a.pdf)
      (footprints
        (fp DCQ))
      (fields
        (field (name Reference) U)
        (field (name Value) TL1963)
        (field (name Footprint) ~)
        (field (name Datasheet) ~))
      (pins
        (pin (num 1) (name shdn) (type input))
        (pin (num 2) (name in) (type input))
        (pin (num 3) (name gnd) (type input))
        (pin (num 4) (name out) (type input))
        (pin (num 5) (name sense) (type input))))
    (libpart (lib adc-dac) (part MCP4728)
      (description "MCP4728, Quad Micropower 12-bit DAC, MSOP10")
      (docs http://ww1.microchip.com/downloads/en/DeviceDoc/22187a.pdf)
      (footprints
        (fp MSOIC-10))
      (fields
        (field (name Reference) U)
        (field (name Value) MCP4728)
        (field (name Footprint) MSOP-10)
        (field (name Datasheet) ~))
      (pins
        (pin (num 1) (name Vdd) (type power_in))
        (pin (num 2) (name SCL) (type input))
        (pin (num 3) (name SDA) (type output))
        (pin (num 4) (name ~LDAC) (type input))
        (pin (num 5) (name RDY/~BSY) (type input))
        (pin (num 6) (name OUTA) (type output))
        (pin (num 7) (name OUTB) (type output))
        (pin (num 8) (name OUTC) (type output))
        (pin (num 9) (name OUTD) (type output))
        (pin (num 10) (name GND) (type power_in))))
    (libpart (lib special) (part TL431LP)
      (fields
        (field (name Reference) U)
        (field (name Value) TL431LP)
        (field (name Footprint) SOT23))
      (pins
        (pin (num 1) (name K) (type input))
        (pin (num 2) (name R) (type input))
        (pin (num 3) (name A) (type input))))
    (libpart (lib analog_switches) (part DG4157DL-T1-E3)
      (description "SPDT switch DG4157")
      (footprints
        (fp SOT23-6))
      (fields
        (field (name Reference) U)
        (field (name Value) DG4157DL-T1-E3)
        (field (name Footprint) ~)
        (field (name Datasheet) ~))
      (pins
        (pin (num 1) (name B1) (type passive))
        (pin (num 2) (name GND) (type power_in))
        (pin (num 3) (name B0) (type passive))
        (pin (num 4) (name A) (type passive))
        (pin (num 5) (name VCC) (type input))
        (pin (num 6) (name S) (type input))))
    (libpart (lib analog_switches) (part SPST_SW_ADG701)
      (description "ADG701 analog switch")
      (footprints
        (fp sot23-6))
      (fields
        (field (name Reference) U)
        (field (name Value) SPST_SW_ADG701)
        (field (name Footprint) ~)
        (field (name Datasheet) ~))
      (pins
        (pin (num 1) (name i/o) (type passive))
        (pin (num 2) (name i/o) (type passive))
        (pin (num 3) (name GND) (type power_in))
        (pin (num 4) (name S) (type input))
        (pin (num 6) (name V+) (type input))))
    (libpart (lib contrib) (part CO2S8)
      (description "CO2, sensor, IRGAS, ")
      (docs http://www.senseair.se/wp-content/uploads/2014/01/PSP108.pdf)
      (footprints
        (fp CO2S8))
      (fields
        (field (name Reference) S)
        (field (name Value) CO2S8)
        (field (name Footprint) ~)
        (field (name Datasheet) ~))
      (pins
        (pin (num 1) (name +Vcc) (type passive))
        (pin (num 2) (name Gnd) (type passive))
        (pin (num 3) (name Alarm) (type passive))
        (pin (num 4) (name PWM_out) (type passive))
        (pin (num 5) (name Cal) (type passive))
        (pin (num 6) (name R/T) (type passive))
        (pin (num 7) (name TxD) (type passive))
        (pin (num 8) (name RxD) (type passive))
        (pin (num 9) (name Dvcc_out) (type passive))))
    (libpart (lib contrib) (part TMP006)
      (description "TMP006, contactless, infrared")
      (docs http://www.ti.com/lit/ds/symlink/tmp006.pdf)
      (footprints
        (fp WCSP9))
      (fields
        (field (name Reference) U)
        (field (name Value) TMP006)
        (field (name Footprint) ~)
        (field (name Datasheet) ~))
      (pins
        (pin (num a1) (name Dgnd) (type input))
        (pin (num a2) (name Agnd) (type input))
        (pin (num a3) (name V+) (type input))
        (pin (num b1) (name Addr1) (type input))
        (pin (num b3) (name SCL) (type input))
        (pin (num c1) (name Addr0) (type input))
        (pin (num c2) (name DRDY) (type input))
        (pin (num c3) (name SDA) (type input))))
    (libpart (lib contrib) (part TEENSY3.1)
      (description "Teensy 3.1, PJRC ")
      (docs http://www.pjrc.com/teensy/card5a_rev5.pdf)
      (footprints
        (fp DIL28))
      (fields
        (field (name Reference) U)
        (field (name Value) TEENSY3.1)
        (field (name Footprint) ~)
        (field (name Datasheet) ~))
      (pins
        (pin (num 1) (name GND) (type power_in))
        (pin (num 2) (name 0) (type BiDi))
        (pin (num 3) (name 1) (type BiDi))
        (pin (num 4) (name 2) (type BiDi))
        (pin (num 5) (name 3) (type BiDi))
        (pin (num 6) (name 4) (type BiDi))
        (pin (num 7) (name 5) (type BiDi))
        (pin (num 8) (name 6) (type BiDi))
        (pin (num 9) (name 7) (type BiDi))
        (pin (num 10) (name 8) (type BiDi))
        (pin (num 11) (name 9) (type BiDi))
        (pin (num 12) (name 10) (type BiDi))
        (pin (num 13) (name 11) (type BiDi))
        (pin (num 14) (name 12) (type BiDi))
        (pin (num 15) (name 13) (type BiDi))
        (pin (num 16) (name 14) (type BiDi))
        (pin (num 17) (name 15) (type BiDi))
        (pin (num 18) (name 16) (type BiDi))
        (pin (num 19) (name 17) (type BiDi))
        (pin (num 20) (name 18) (type BiDi))
        (pin (num 21) (name 19) (type BiDi))
        (pin (num 22) (name 20) (type BiDi))
        (pin (num 23) (name 21) (type BiDi))
        (pin (num 24) (name 22) (type BiDi))
        (pin (num 25) (name 23) (type BiDi))
        (pin (num 26) (name 3.3V) (type output))
        (pin (num 27) (name AGND) (type output))
        (pin (num 28) (name Vin) (type power_in))
        (pin (num a1) (name Vref) (type input))
        (pin (num a2) (name A10) (type input))
        (pin (num a3) (name A11) (type input))))
    (libpart (lib "Handheld board-cache") (part BU4S11G2-TR)
      (footprints
        (fp SSOP5))
      (fields
        (field (name Reference) U)
        (field (name Value) BU4S11G2-TR)
        (field (name Footprint) ~)
        (field (name Datasheet) ~))
      (pins
        (pin (num 1) (name ~) (type input))
        (pin (num 2) (name ~) (type input))
        (pin (num 3) (name Vss) (type power_in))
        (pin (num 4) (name ~) (type output))
        (pin (num 5) (name Vdd) (type power_in))))
    (libpart (lib opto) (part Small_DIODE_PHOTODIODE)
      (description "PIN photodiode")
      (fields
        (field (name Reference) D)
        (field (name Value) Small_DIODE_PHOTODIODE)
        (field (name Footprint) ~)
        (field (name Datasheet) ~))
      (pins
        (pin (num 1) (name A) (type passive))
        (pin (num 2) (name K) (type passive))))
    (libpart (lib "Handheld board-cache") (part LM5551)
      (fields
        (field (name Reference) U)
        (field (name Value) LM5551)
        (field (name Footprint) ~)
        (field (name Datasheet) ~))
      (pins
        (pin (num 1) (name NC) (type input))
        (pin (num 2) (name IN_A) (type input))
        (pin (num 3) (name GND) (type input))
        (pin (num 4) (name IN_B) (type input))
        (pin (num 5) (name OUT_B) (type input))
        (pin (num 6) (name Vcc) (type input))
        (pin (num 7) (name OUT_A) (type input))
        (pin (num 8) (name NC) (type input))))
    (libpart (lib "Handheld board-cache") (part HTU21D)
      (footprints
        (fp DFN6))
      (fields
        (field (name Reference) U)
        (field (name Value) HTU21D)
        (field (name Footprint) ~)
        (field (name Datasheet) ~))
      (pins
        (pin (num 1) (name Data) (type BiDi))
        (pin (num 2) (name GND) (type power_in))
        (pin (num 3) (name NC) (type NotConnected))
        (pin (num 4) (name NC) (type NotConnected))
        (pin (num 5) (name Vdd) (type power_in))
        (pin (num 6) (name SCK) (type input))))
    (libpart (lib "Handheld board-cache") (part MOSN-TSOP6)
      (footprints
        (fp TSOP-6))
      (fields
        (field (name Reference) Q)
        (field (name Value) MOSN-TSOP6)
        (field (name Footprint) TSOP-6)
        (field (name Datasheet) ~))
      (pins
        (pin (num 1) (name D) (type passive))
        (pin (num 2) (name D) (type passive))
        (pin (num 3) (name G) (type input))
        (pin (num 4) (name S) (type passive))
        (pin (num 5) (name D) (type passive))
        (pin (num 6) (name D) (type passive))))
    (libpart (lib "Handheld board-cache") (part NPN_BCE)
      (fields
        (field (name Reference) Q)
        (field (name Value) NPN_BCE)
        (field (name Footprint) ~)
        (field (name Datasheet) ~))
      (pins
        (pin (num 1) (name B) (type input))
        (pin (num 2) (name C) (type passive))
        (pin (num 3) (name E) (type passive))))
    (libpart (lib "Handheld board-cache") (part TCS3471)
      (footprints
        (fp dfn6))
      (fields
        (field (name Reference) U)
        (field (name Value) TCS3471)
        (field (name Footprint) ~)
        (field (name Datasheet) ~))
      (pins
        (pin (num 1) (name Vdd) (type power_in))
        (pin (num 2) (name SCL) (type BiDi))
        (pin (num 3) (name GND) (type power_in))
        (pin (num 4) (name NC) (type power_in))
        (pin (num 5) (name INT) (type power_in))
        (pin (num 6) (name SDA) (type BiDi))))
    (libpart (lib "Handheld board-cache") (part TSV911)
      (footprints
        (fp sot23-6))
      (fields
        (field (name Reference) U)
        (field (name Value) TSV911)
        (field (name Footprint) ~)
        (field (name Datasheet) ~))
      (pins
        (pin (num 1) (name ~) (type output))
        (pin (num 2) (name -) (type power_in))
        (pin (num 3) (name +) (type input))
        (pin (num 4) (name -) (type input))
        (pin (num 5) (name +) (type power_in)))))
  (libraries
    (library (logical device)
      (uri D:\Robert\KICAD\share\library\device.lib))
    (library (logical conn)
      (uri D:\Robert\KICAD\share\library\conn.lib))
    (library (logical linear)
      (uri D:\Robert\KICAD\share\library\linear.lib))
    (library (logical regul)
      (uri D:\Robert\KICAD\share\library\regul.lib))
    (library (logical special)
      (uri D:\Robert\KICAD\share\library\special.lib))
    (library (logical adc-dac)
      (uri D:\Robert\KICAD\share\library\adc-dac.lib))
    (library (logical analog_switches)
      (uri D:\Robert\KICAD\share\library\analog_switches.lib))
    (library (logical opto)
      (uri D:\Robert\KICAD\share\library\opto.lib))
    (library (logical contrib)
      (uri D:\Robert\KICAD\share\library\contrib.lib))
    (library (logical "Handheld board-cache")
      (uri "C:\\Users\\zagaracr\\Dropbox\\photosynq project\\Hardware\\handheld board\\Handheld board-cache.lib")))
  (nets
    (net (code 1) (name ACTB_PIN2)
      (node (ref U6) (pin 4))
      (node (ref P2) (pin 4)))
    (net (code 2) (name Aref)
      (node (ref C109) (pin 1))
      (node (ref R108) (pin 1))
      (node (ref U106) (pin 3))
      (node (ref U6) (pin a1))
      (node (ref U106) (pin 2)))
    (net (code 3) (name "IR CAL toggle")
      (node (ref U6) (pin 16))
      (node (ref U102) (pin 6)))
    (net (code 4) (name "")
      (node (ref R12) (pin 1))
      (node (ref U116) (pin 4)))
    (net (code 5) (name Vbatt_meas)
      (node (ref C3) (pin 2))
      (node (ref U6) (pin 19))
      (node (ref R8) (pin 1))
      (node (ref R7) (pin 2)))
    (net (code 6) (name "toggle act ON/OFF")
      (node (ref U6) (pin 22))
      (node (ref U108) (pin 6)))
    (net (code 7) (name sleep)
      (node (ref U6) (pin 24))
      (node (ref U109) (pin 1)))
    (net (code 8) (name Txd_CO2)
      (node (ref U6) (pin 10))
      (node (ref S101) (pin 8)))
    (net (code 9) (name "Meas intensity")
      (node (ref U114) (pin 4))
      (node (ref U7) (pin 9)))
    (net (code 10) (name actinic_preset2)
      (node (ref U7) (pin 7))
      (node (ref U107) (pin 3)))
    (net (code 11) (name actinic_preset1)
      (node (ref U7) (pin 6))
      (node (ref U107) (pin 1)))
    (net (code 12) (name GND)
      (node (ref U6) (pin 1))
      (node (ref C116) (pin 1))
      (node (ref U111) (pin 2))
      (node (ref C111) (pin 2))
      (node (ref R113) (pin 2))
      (node (ref U103) (pin 4))
      (node (ref C101) (pin 2))
      (node (ref R107) (pin 2))
      (node (ref U113) (pin a1))
      (node (ref R2) (pin 1))
      (node (ref U113) (pin b1))
      (node (ref U110) (pin 3))
      (node (ref C1) (pin 1))
      (node (ref P2) (pin 8))
      (node (ref R149) (pin 2))
      (node (ref S101) (pin 2))
      (node (ref C136) (pin 2))
      (node (ref U112) (pin 3))
      (node (ref R141) (pin 2))
      (node (ref K102) (pin 3))
      (node (ref K102) (pin 2))
      (node (ref U113) (pin a2))
      (node (ref U107) (pin 2))
      (node (ref R7) (pin 1))
      (node (ref U5) (pin 3))
      (node (ref U108) (pin 3))
      (node (ref U108) (pin 2))
      (node (ref U102) (pin 2))
      (node (ref U102) (pin 3))
      (node (ref Q105) (pin 3))
      (node (ref P11) (pin 1))
      (node (ref C7) (pin 1))
      (node (ref C4) (pin 2))
      (node (ref U8) (pin 3))
      (node (ref C3) (pin 1)))
    (net (code 13) (name 3.3Vdd)
      (node (ref U6) (pin 26))
      (node (ref P12) (pin 1))
      (node (ref C116) (pin 2))
      (node (ref U111) (pin 5))
      (node (ref C1) (pin 2))
      (node (ref R144) (pin 2))
      (node (ref U110) (pin 1))
      (node (ref U113) (pin a3)))
    (net (code 14) (name "")
      (node (ref U113) (pin c2))
      (node (ref R144) (pin 1)))
    (net (code 15) (name MEAS2B_PIN12)
      (node (ref P2) (pin 6))
      (node (ref U6) (pin 14)))
    (net (code 16) (name MEASB_PIN11)
      (node (ref P2) (pin 5))
      (node (ref U6) (pin 13)))
    (net (code 17) (name IRCALB_PIN10)
      (node (ref U6) (pin 12))
      (node (ref P2) (pin 1)))
    (net (code 18) (name ~LDAC)
      (node (ref U7) (pin 4))
      (node (ref U6) (pin 25)))
    (net (code 19) (name Ain10)
      (node (ref U6) (pin a2))
      (node (ref R9) (pin 1))
      (node (ref R11) (pin 2)))
    (net (code 20) (name SDA)
      (node (ref U110) (pin 6))
      (node (ref U7) (pin 3))
      (node (ref U111) (pin 1))
      (node (ref U6) (pin 20))
      (node (ref U113) (pin c1))
      (node (ref P10) (pin 1))
      (node (ref U113) (pin c3)))
    (net (code 21) (name SCL)
      (node (ref U113) (pin b3))
      (node (ref U7) (pin 2))
      (node (ref U111) (pin 6))
      (node (ref P9) (pin 1))
      (node (ref U110) (pin 2))
      (node (ref U6) (pin 21)))
    (net (code 22) (name "")
      (node (ref U6) (pin 5))
      (node (ref P5) (pin 1)))
    (net (code 23) (name "")
      (node (ref P7) (pin 1))
      (node (ref U6) (pin 6)))
    (net (code 24) (name "")
      (node (ref U6) (pin 11))
      (node (ref P8) (pin 1)))
    (net (code 25) (name "preselected ACT")
      (node (ref U107) (pin 4))
      (node (ref P2) (pin 3))
      (node (ref U108) (pin 1)))
    (net (code 26) (name "")
      (node (ref U5) (pin 4))
      (node (ref U112) (pin 1))
      (node (ref R6) (pin 2))
      (node (ref D108) (pin 1)))
    (net (code 27) (name TXd_BT)
      (node (ref U6) (pin 2))
      (node (ref P3) (pin 1)))
    (net (code 28) (name RXd_BT)
      (node (ref P1) (pin 1))
      (node (ref U6) (pin 3)))
    (net (code 29) (name "")
      (node (ref R149) (pin 1))
      (node (ref D108) (pin 2)))
    (net (code 30) (name +Vbatt)
      (node (ref U112) (pin 2))
      (node (ref K102) (pin 1))
      (node (ref U5) (pin 5))
      (node (ref C136) (pin 1))
      (node (ref U8) (pin 5))
      (node (ref R8) (pin 2)))
    (net (code 31) (name "")
      (node (ref R5) (pin 1))
      (node (ref C4) (pin 1))
      (node (ref SW101) (pin 1)))
    (net (code 32) (name Rxd_CO2)
      (node (ref S101) (pin 7))
      (node (ref U6) (pin 9)))
    (net (code 33) (name "")
      (node (ref C6) (pin 1))
      (node (ref R4) (pin 1))
      (node (ref SW101) (pin 2)))
    (net (code 34) (name "")
      (node (ref C6) (pin 2))
      (node (ref U8) (pin 1))
      (node (ref U8) (pin 2))
      (node (ref R6) (pin 1))
      (node (ref Q105) (pin 2))
      (node (ref C7) (pin 2))
      (node (ref R4) (pin 2)))
    (net (code 35) (name "")
      (node (ref C5) (pin 2))
      (node (ref R3) (pin 2))
      (node (ref Q105) (pin 1)))
    (net (code 36) (name ACTC-)
      (node (ref D104) (pin 2))
      (node (ref Q102) (pin 2))
      (node (ref Q102) (pin 1))
      (node (ref R143) (pin 2))
      (node (ref Q102) (pin 6))
      (node (ref Q102) (pin 5)))
    (net (code 37) (name "")
      (node (ref U104) (pin 5))
      (node (ref R106) (pin 2)))
    (net (code 38) (name "")
      (node (ref U104) (pin 7))
      (node (ref R111) (pin 2)))
    (net (code 39) (name "")
      (node (ref R142) (pin 1))
      (node (ref U112) (pin 5))
      (node (ref R141) (pin 1)))
    (net (code 40) (name GNDA)
      (node (ref C9) (pin 1))
      (node (ref U104) (pin 3))
      (node (ref C2) (pin 1))
      (node (ref U7) (pin 10))
      (node (ref Q101) (pin 4))
      (node (ref R2) (pin 2))
      (node (ref Q103) (pin 4))
      (node (ref C123) (pin 2))
      (node (ref U114) (pin 2))
      (node (ref C135) (pin 2))
      (node (ref C102) (pin 2))
      (node (ref C8) (pin 1))
      (node (ref P2) (pin 11))
      (node (ref P2) (pin 12)))
    (net (code 41) (name "")
      (node (ref U103) (pin 5))
      (node (ref U102) (pin 4)))
    (net (code 42) (name /actinic_switched)
      (node (ref U103) (pin 3))
      (node (ref U108) (pin 4)))
    (net (code 43) (name /MEAS1A-)
      (node (ref D103) (pin 2))
      (node (ref Q103) (pin 5))
      (node (ref Q103) (pin 6))
      (node (ref Q103) (pin 1))
      (node (ref Q103) (pin 2)))
    (net (code 44) (name /MEAS2A-)
      (node (ref Q101) (pin 6))
      (node (ref Q101) (pin 1))
      (node (ref Q101) (pin 2))
      (node (ref Q101) (pin 5))
      (node (ref D101) (pin 2)))
    (net (code 45) (name AGND)
      (node (ref C110) (pin 2))
      (node (ref U109) (pin 3))
      (node (ref R9) (pin 2))
      (node (ref U106) (pin 1))
      (node (ref R112) (pin 1))
      (node (ref U115) (pin 2))
      (node (ref U6) (pin 27))
      (node (ref C109) (pin 2))
      (node (ref D105) (pin 1))
      (node (ref P2) (pin 13))
      (node (ref U105) (pin 3))
      (node (ref C112) (pin 1))
      (node (ref R10) (pin 2))
      (node (ref R114) (pin 1))
      (node (ref U116) (pin 3))
      (node (ref U105) (pin 2))
      (node (ref R136) (pin 1))
      (node (ref C134) (pin 1)))
    (net (code 46) (name DETB_A11_ADDON)
      (node (ref U6) (pin a3))
      (node (ref R10) (pin 1))
      (node (ref P2) (pin 14)))
    (net (code 47) (name "")
      (node (ref U115) (pin 1))
      (node (ref U115) (pin 4))
      (node (ref R11) (pin 1)))
    (net (code 48) (name +V_meas_regulated)
      (node (ref P2) (pin 9))
      (node (ref R101) (pin 2))
      (node (ref C102) (pin 1))
      (node (ref R109) (pin 2))
      (node (ref U114) (pin 3))
      (node (ref Q1) (pin 6))
      (node (ref Q1) (pin 5))
      (node (ref P2) (pin 10))
      (node (ref C8) (pin 2))
      (node (ref Q1) (pin 2))
      (node (ref C9) (pin 2))
      (node (ref Q1) (pin 1)))
    (net (code 49) (name HOLD)
      (node (ref P2) (pin 16))
      (node (ref U6) (pin 8))
      (node (ref R12) (pin 2)))
    (net (code 50) (name IR_CAL)
      (node (ref P2) (pin 2))
      (node (ref U7) (pin 8))
      (node (ref U102) (pin 1)))
    (net (code 51) (name "")
      (node (ref Q1) (pin 3))
      (node (ref U114) (pin 1)))
    (net (code 52) (name /MEAS2A+)
      (node (ref D101) (pin 1))
      (node (ref R101) (pin 1)))
    (net (code 53) (name "")
      (node (ref U114) (pin 5))
      (node (ref C135) (pin 1))
      (node (ref L105) (pin 1))
      (node (ref Q1) (pin 4)))
    (net (code 54) (name "")
      (node (ref D106) (pin 2))
      (node (ref D107) (pin 1))
      (node (ref U105) (pin 1)))
    (net (code 55) (name "toggle act1/act2")
      (node (ref U107) (pin 6))
      (node (ref U6) (pin 7)))
    (net (code 56) (name +5V)
      (node (ref P13) (pin 1))
      (node (ref U6) (pin 28))
      (node (ref C2) (pin 2))
      (node (ref L102) (pin 1))
      (node (ref U112) (pin 4))
      (node (ref L104) (pin 2))
      (node (ref R142) (pin 2))
      (node (ref C123) (pin 1))
      (node (ref L105) (pin 2))
      (node (ref S101) (pin 1))
      (node (ref U102) (pin 5))
      (node (ref U104) (pin 6))
      (node (ref C101) (pin 1))
      (node (ref U7) (pin 1))
      (node (ref P2) (pin 7)))
    (net (code 57) (name Umeas2)
      (node (ref U6) (pin 18))
      (node (ref U104) (pin 4)))
    (net (code 58) (name Umeas1)
      (node (ref U104) (pin 2))
      (node (ref U6) (pin 17)))
    (net (code 59) (name "")
      (node (ref R110) (pin 2))
      (node (ref U103) (pin 1))
      (node (ref C113) (pin 1)))
    (net (code 60) (name /calibration_LED)
      (node (ref R1) (pin 2))
      (node (ref U103) (pin 7))
      (node (ref D102) (pin 1))
      (node (ref C108) (pin 1)))
    (net (code 61) (name "")
      (node (ref R111) (pin 1))
      (node (ref Q103) (pin 3)))
    (net (code 62) (name /MEAS1A+)
      (node (ref D103) (pin 1))
      (node (ref R109) (pin 1)))
    (net (code 63) (name "")
      (node (ref Q101) (pin 3))
      (node (ref R106) (pin 1)))
    (net (code 64) (name "")
      (node (ref R110) (pin 1))
      (node (ref Q102) (pin 3)))
    (net (code 65) (name "")
      (node (ref U110) (pin 4)))
    (net (code 66) (name "")
      (node (ref U110) (pin 5)))
    (net (code 67) (name DetVcc)
      (node (ref U116) (pin 6))
      (node (ref P2) (pin 15))
      (node (ref C134) (pin 2))
      (node (ref U105) (pin 5))
      (node (ref U105) (pin 6))
      (node (ref R135) (pin 1))
      (node (ref U115) (pin 5))
      (node (ref R108) (pin 2))
      (node (ref U115) (pin 6))
      (node (ref C112) (pin 2))
      (node (ref U109) (pin 4)))
    (net (code 68) (name "")
      (node (ref S101) (pin 3)))
    (net (code 69) (name "")
      (node (ref S101) (pin 4)))
    (net (code 70) (name "")
      (node (ref S101) (pin 5)))
    (net (code 71) (name "")
      (node (ref S101) (pin 6)))
    (net (code 72) (name "")
      (node (ref S101) (pin 9)))
    (net (code 73) (name "")
      (node (ref U104) (pin 1)))
    (net (code 74) (name "")
      (node (ref U104) (pin 8)))
    (net (code 75) (name /pinK)
      (node (ref D105) (pin 2))
      (node (ref C115) (pin 1))
      (node (ref R114) (pin 2)))
    (net (code 76) (name "")
      (node (ref U7) (pin 5)))
    (net (code 77) (name /signal)
      (node (ref D107) (pin 2))
      (node (ref C114) (pin 2))
      (node (ref U115) (pin 3))
      (node (ref U116) (pin 2)))
    (net (code 78) (name /cal-)
      (node (ref C108) (pin 2))
      (node (ref U103) (pin 6))
      (node (ref R107) (pin 1))
      (node (ref R1) (pin 1))
      (node (ref D102) (pin 2)))
    (net (code 79) (name /ACT_SAT_FB)
      (node (ref Q102) (pin 4))
      (node (ref C113) (pin 2))
      (node (ref U103) (pin 2))
      (node (ref R113) (pin 1)))
    (net (code 80) (name "")
      (node (ref U116) (pin 1))
      (node (ref C115) (pin 2))
      (node (ref U105) (pin 4))
      (node (ref R112) (pin 2))
      (node (ref C114) (pin 1))
      (node (ref D106) (pin 1)))
    (net (code 81) (name "")
      (node (ref L104) (pin 1))
      (node (ref U109) (pin 2))
      (node (ref C110) (pin 1)))
    (net (code 82) (name "")
      (node (ref R136) (pin 2))
      (node (ref R135) (pin 2))
      (node (ref U109) (pin 5)))
    (net (code 83) (name "")
      (node (ref U111) (pin 3)))
    (net (code 84) (name "")
      (node (ref U111) (pin 4)))
    (net (code 86) (name "")
      (node (ref R5) (pin 2))
      (node (ref U8) (pin 4))
      (node (ref U5) (pin 2))
      (node (ref U5) (pin 1)))
    (net (code 87) (name "AUTO POWER OFF")
      (node (ref R3) (pin 1))
      (node (ref U6) (pin 23))
      (node (ref C5) (pin 1)))
    (net (code 88) (name "")
      (node (ref U6) (pin 15)))
    (net (code 89) (name /ACT_comm)
      (node (ref D104) (pin 1))
      (node (ref U107) (pin 5))
      (node (ref U103) (pin 8))
      (node (ref L102) (pin 2))
      (node (ref C111) (pin 1))
      (node (ref U108) (pin 5))
      (node (ref R143) (pin 1)))))