M48
;DRILL file {KiCad 4.0.2+dfsg1-stable} date Fri 15 Jul 2016 01:05:02 PM EDT
;FORMAT={-:-/ absolute / inch / decimal}
FMAT,2
INCH,TZ
T1C0.026
T2C0.030
T3C0.039
%
G90
G05
M72
T1
X2.0546Y-3.7452
T2
X1.7329Y-3.517
X1.8391Y-3.517
T3
X9.5906Y-3.5378
X9.5909Y-3.7949
T1
X2.0546Y-4.0227G85X2.0546Y-4.0345
G05
T0
M30
