G04 #@! TF.FileFunction,Legend,Bot*
%FSLAX46Y46*%
G04 Gerber Fmt 4.6, Leading zero omitted, Abs format (unit mm)*
G04 Created by KiCad (PCBNEW 4.0.2+dfsg1-stable) date Thu 11 Aug 2016 05:32:09 PM EDT*
%MOMM*%
G01*
G04 APERTURE LIST*
%ADD10C,0.100000*%
%ADD11C,0.200000*%
%ADD12C,0.508000*%
%ADD13C,0.300000*%
%ADD14C,0.150000*%
%ADD15C,0.005000*%
%ADD16C,0.010000*%
%ADD17C,0.020000*%
%ADD18C,0.031750*%
G04 APERTURE END LIST*
D10*
D11*
X83968095Y-90082381D02*
X83968095Y-89082381D01*
X83968095Y-89558571D02*
X83396666Y-89558571D01*
X83396666Y-90082381D02*
X83396666Y-89082381D01*
X82349047Y-89987143D02*
X82396666Y-90034762D01*
X82539523Y-90082381D01*
X82634761Y-90082381D01*
X82777619Y-90034762D01*
X82872857Y-89939524D01*
X82920476Y-89844286D01*
X82968095Y-89653810D01*
X82968095Y-89510952D01*
X82920476Y-89320476D01*
X82872857Y-89225238D01*
X82777619Y-89130000D01*
X82634761Y-89082381D01*
X82539523Y-89082381D01*
X82396666Y-89130000D01*
X82349047Y-89177619D01*
X81730000Y-89082381D02*
X81634761Y-89082381D01*
X81539523Y-89130000D01*
X81491904Y-89177619D01*
X81444285Y-89272857D01*
X81396666Y-89463333D01*
X81396666Y-89701429D01*
X81444285Y-89891905D01*
X81491904Y-89987143D01*
X81539523Y-90034762D01*
X81634761Y-90082381D01*
X81730000Y-90082381D01*
X81825238Y-90034762D01*
X81872857Y-89987143D01*
X81920476Y-89891905D01*
X81968095Y-89701429D01*
X81968095Y-89463333D01*
X81920476Y-89272857D01*
X81872857Y-89177619D01*
X81825238Y-89130000D01*
X81730000Y-89082381D01*
X80539523Y-89082381D02*
X80730000Y-89082381D01*
X80825238Y-89130000D01*
X80872857Y-89177619D01*
X80968095Y-89320476D01*
X81015714Y-89510952D01*
X81015714Y-89891905D01*
X80968095Y-89987143D01*
X80920476Y-90034762D01*
X80825238Y-90082381D01*
X80634761Y-90082381D01*
X80539523Y-90034762D01*
X80491904Y-89987143D01*
X80444285Y-89891905D01*
X80444285Y-89653810D01*
X80491904Y-89558571D01*
X80539523Y-89510952D01*
X80634761Y-89463333D01*
X80825238Y-89463333D01*
X80920476Y-89510952D01*
X80968095Y-89558571D01*
X81015714Y-89653810D01*
X247745285Y-94559381D02*
X248316714Y-94559381D01*
X248031000Y-94559381D02*
X248031000Y-93559381D01*
X248126238Y-93702238D01*
X248221476Y-93797476D01*
X248316714Y-93845095D01*
X244824285Y-81097381D02*
X245395714Y-81097381D01*
X245110000Y-81097381D02*
X245110000Y-80097381D01*
X245205238Y-80240238D01*
X245300476Y-80335476D01*
X245395714Y-80383095D01*
X116554285Y-97988381D02*
X117125714Y-97988381D01*
X116840000Y-97988381D02*
X116840000Y-96988381D01*
X116935238Y-97131238D01*
X117030476Y-97226476D01*
X117125714Y-97274095D01*
D12*
X132910000Y-78790000D02*
X126560000Y-78790000D01*
X126560000Y-97840000D02*
X126560000Y-78790000D01*
X126560000Y-97840000D02*
X132910000Y-97840000D01*
X132910000Y-78790000D02*
X132910000Y-97840000D01*
D13*
X91608095Y-80054763D02*
X90308095Y-80054763D01*
X91236667Y-80488096D01*
X90308095Y-80921429D01*
X91608095Y-80921429D01*
X90741429Y-82097620D02*
X91608095Y-82097620D01*
X90741429Y-81540477D02*
X91422381Y-81540477D01*
X91546190Y-81602382D01*
X91608095Y-81726191D01*
X91608095Y-81911905D01*
X91546190Y-82035715D01*
X91484286Y-82097620D01*
X91608095Y-82902381D02*
X91546190Y-82778572D01*
X91422381Y-82716667D01*
X90308095Y-82716667D01*
X90741429Y-83211905D02*
X90741429Y-83707143D01*
X90308095Y-83397619D02*
X91422381Y-83397619D01*
X91546190Y-83459524D01*
X91608095Y-83583333D01*
X91608095Y-83707143D01*
X91608095Y-84140476D02*
X90741429Y-84140476D01*
X90308095Y-84140476D02*
X90370000Y-84078571D01*
X90431905Y-84140476D01*
X90370000Y-84202381D01*
X90308095Y-84140476D01*
X90431905Y-84140476D01*
X91546190Y-84697619D02*
X91608095Y-84821429D01*
X91608095Y-85069048D01*
X91546190Y-85192857D01*
X91422381Y-85254762D01*
X91360476Y-85254762D01*
X91236667Y-85192857D01*
X91174762Y-85069048D01*
X91174762Y-84883333D01*
X91112857Y-84759524D01*
X90989048Y-84697619D01*
X90927143Y-84697619D01*
X90803333Y-84759524D01*
X90741429Y-84883333D01*
X90741429Y-85069048D01*
X90803333Y-85192857D01*
X90741429Y-85811905D02*
X92041429Y-85811905D01*
X90803333Y-85811905D02*
X90741429Y-85935714D01*
X90741429Y-86183333D01*
X90803333Y-86307143D01*
X90865238Y-86369048D01*
X90989048Y-86430952D01*
X91360476Y-86430952D01*
X91484286Y-86369048D01*
X91546190Y-86307143D01*
X91608095Y-86183333D01*
X91608095Y-85935714D01*
X91546190Y-85811905D01*
X91546190Y-87483333D02*
X91608095Y-87359523D01*
X91608095Y-87111904D01*
X91546190Y-86988095D01*
X91422381Y-86926190D01*
X90927143Y-86926190D01*
X90803333Y-86988095D01*
X90741429Y-87111904D01*
X90741429Y-87359523D01*
X90803333Y-87483333D01*
X90927143Y-87545238D01*
X91050952Y-87545238D01*
X91174762Y-86926190D01*
X91731905Y-88969047D02*
X91670000Y-88845238D01*
X91546190Y-88721428D01*
X91360476Y-88535714D01*
X91298571Y-88411905D01*
X91298571Y-88288095D01*
X91608095Y-88350000D02*
X91546190Y-88226190D01*
X91422381Y-88102381D01*
X91174762Y-88040476D01*
X90741429Y-88040476D01*
X90493810Y-88102381D01*
X90370000Y-88226190D01*
X90308095Y-88350000D01*
X90308095Y-88597619D01*
X90370000Y-88721428D01*
X90493810Y-88845238D01*
X90741429Y-88907143D01*
X91174762Y-88907143D01*
X91422381Y-88845238D01*
X91546190Y-88721428D01*
X91608095Y-88597619D01*
X91608095Y-88350000D01*
X90308095Y-90269048D02*
X91608095Y-90702381D01*
X90308095Y-91135714D01*
X91608095Y-92250000D02*
X91608095Y-91507143D01*
X91608095Y-91878572D02*
X90308095Y-91878572D01*
X90493810Y-91754762D01*
X90617619Y-91630953D01*
X90679524Y-91507143D01*
X91484286Y-92807143D02*
X91546190Y-92869048D01*
X91608095Y-92807143D01*
X91546190Y-92745238D01*
X91484286Y-92807143D01*
X91608095Y-92807143D01*
X90308095Y-93673810D02*
X90308095Y-93797619D01*
X90370000Y-93921429D01*
X90431905Y-93983334D01*
X90555714Y-94045238D01*
X90803333Y-94107143D01*
X91112857Y-94107143D01*
X91360476Y-94045238D01*
X91484286Y-93983334D01*
X91546190Y-93921429D01*
X91608095Y-93797619D01*
X91608095Y-93673810D01*
X91546190Y-93550000D01*
X91484286Y-93488096D01*
X91360476Y-93426191D01*
X91112857Y-93364286D01*
X90803333Y-93364286D01*
X90555714Y-93426191D01*
X90431905Y-93488096D01*
X90370000Y-93550000D01*
X90308095Y-93673810D01*
X93047143Y-82376191D02*
X93109048Y-82561905D01*
X93170952Y-82623810D01*
X93294762Y-82685715D01*
X93480476Y-82685715D01*
X93604286Y-82623810D01*
X93666190Y-82561905D01*
X93728095Y-82438096D01*
X93728095Y-81942858D01*
X92428095Y-81942858D01*
X92428095Y-82376191D01*
X92490000Y-82500001D01*
X92551905Y-82561905D01*
X92675714Y-82623810D01*
X92799524Y-82623810D01*
X92923333Y-82561905D01*
X92985238Y-82500001D01*
X93047143Y-82376191D01*
X93047143Y-81942858D01*
X93728095Y-83428572D02*
X93666190Y-83304763D01*
X93604286Y-83242858D01*
X93480476Y-83180953D01*
X93109048Y-83180953D01*
X92985238Y-83242858D01*
X92923333Y-83304763D01*
X92861429Y-83428572D01*
X92861429Y-83614286D01*
X92923333Y-83738096D01*
X92985238Y-83800001D01*
X93109048Y-83861905D01*
X93480476Y-83861905D01*
X93604286Y-83800001D01*
X93666190Y-83738096D01*
X93728095Y-83614286D01*
X93728095Y-83428572D01*
X93728095Y-84976191D02*
X93047143Y-84976191D01*
X92923333Y-84914286D01*
X92861429Y-84790476D01*
X92861429Y-84542857D01*
X92923333Y-84419048D01*
X93666190Y-84976191D02*
X93728095Y-84852381D01*
X93728095Y-84542857D01*
X93666190Y-84419048D01*
X93542381Y-84357143D01*
X93418571Y-84357143D01*
X93294762Y-84419048D01*
X93232857Y-84542857D01*
X93232857Y-84852381D01*
X93170952Y-84976191D01*
X93728095Y-85595238D02*
X92861429Y-85595238D01*
X93109048Y-85595238D02*
X92985238Y-85657143D01*
X92923333Y-85719047D01*
X92861429Y-85842857D01*
X92861429Y-85966666D01*
X93728095Y-86957143D02*
X92428095Y-86957143D01*
X93666190Y-86957143D02*
X93728095Y-86833333D01*
X93728095Y-86585714D01*
X93666190Y-86461905D01*
X93604286Y-86400000D01*
X93480476Y-86338095D01*
X93109048Y-86338095D01*
X92985238Y-86400000D01*
X92923333Y-86461905D01*
X92861429Y-86585714D01*
X92861429Y-86833333D01*
X92923333Y-86957143D01*
X92428095Y-88380952D02*
X93728095Y-88814285D01*
X92428095Y-89247618D01*
X92428095Y-89928571D02*
X92428095Y-90052380D01*
X92490000Y-90176190D01*
X92551905Y-90238095D01*
X92675714Y-90299999D01*
X92923333Y-90361904D01*
X93232857Y-90361904D01*
X93480476Y-90299999D01*
X93604286Y-90238095D01*
X93666190Y-90176190D01*
X93728095Y-90052380D01*
X93728095Y-89928571D01*
X93666190Y-89804761D01*
X93604286Y-89742857D01*
X93480476Y-89680952D01*
X93232857Y-89619047D01*
X92923333Y-89619047D01*
X92675714Y-89680952D01*
X92551905Y-89742857D01*
X92490000Y-89804761D01*
X92428095Y-89928571D01*
X93604286Y-90919047D02*
X93666190Y-90980952D01*
X93728095Y-90919047D01*
X93666190Y-90857142D01*
X93604286Y-90919047D01*
X93728095Y-90919047D01*
X92428095Y-92095238D02*
X92428095Y-91847619D01*
X92490000Y-91723809D01*
X92551905Y-91661904D01*
X92737619Y-91538095D01*
X92985238Y-91476190D01*
X93480476Y-91476190D01*
X93604286Y-91538095D01*
X93666190Y-91600000D01*
X93728095Y-91723809D01*
X93728095Y-91971428D01*
X93666190Y-92095238D01*
X93604286Y-92157142D01*
X93480476Y-92219047D01*
X93170952Y-92219047D01*
X93047143Y-92157142D01*
X92985238Y-92095238D01*
X92923333Y-91971428D01*
X92923333Y-91723809D01*
X92985238Y-91600000D01*
X93047143Y-91538095D01*
X93170952Y-91476190D01*
X94548095Y-80209525D02*
X94548095Y-80457144D01*
X94610000Y-80580953D01*
X94733810Y-80704763D01*
X94981429Y-80766668D01*
X95414762Y-80766668D01*
X95662381Y-80704763D01*
X95786190Y-80580953D01*
X95848095Y-80457144D01*
X95848095Y-80209525D01*
X95786190Y-80085715D01*
X95662381Y-79961906D01*
X95414762Y-79900001D01*
X94981429Y-79900001D01*
X94733810Y-79961906D01*
X94610000Y-80085715D01*
X94548095Y-80209525D01*
X94981429Y-81323811D02*
X96281429Y-81323811D01*
X95043333Y-81323811D02*
X94981429Y-81447620D01*
X94981429Y-81695239D01*
X95043333Y-81819049D01*
X95105238Y-81880954D01*
X95229048Y-81942858D01*
X95600476Y-81942858D01*
X95724286Y-81880954D01*
X95786190Y-81819049D01*
X95848095Y-81695239D01*
X95848095Y-81447620D01*
X95786190Y-81323811D01*
X95786190Y-82995239D02*
X95848095Y-82871429D01*
X95848095Y-82623810D01*
X95786190Y-82500001D01*
X95662381Y-82438096D01*
X95167143Y-82438096D01*
X95043333Y-82500001D01*
X94981429Y-82623810D01*
X94981429Y-82871429D01*
X95043333Y-82995239D01*
X95167143Y-83057144D01*
X95290952Y-83057144D01*
X95414762Y-82438096D01*
X94981429Y-83614287D02*
X95848095Y-83614287D01*
X95105238Y-83614287D02*
X95043333Y-83676192D01*
X94981429Y-83800001D01*
X94981429Y-83985715D01*
X95043333Y-84109525D01*
X95167143Y-84171430D01*
X95848095Y-84171430D01*
X95848095Y-85780953D02*
X94548095Y-85780953D01*
X95167143Y-85780953D02*
X95167143Y-86523810D01*
X95848095Y-86523810D02*
X94548095Y-86523810D01*
X95848095Y-87700001D02*
X95167143Y-87700001D01*
X95043333Y-87638096D01*
X94981429Y-87514286D01*
X94981429Y-87266667D01*
X95043333Y-87142858D01*
X95786190Y-87700001D02*
X95848095Y-87576191D01*
X95848095Y-87266667D01*
X95786190Y-87142858D01*
X95662381Y-87080953D01*
X95538571Y-87080953D01*
X95414762Y-87142858D01*
X95352857Y-87266667D01*
X95352857Y-87576191D01*
X95290952Y-87700001D01*
X95848095Y-88319048D02*
X94981429Y-88319048D01*
X95229048Y-88319048D02*
X95105238Y-88380953D01*
X95043333Y-88442857D01*
X94981429Y-88566667D01*
X94981429Y-88690476D01*
X95848095Y-89680953D02*
X94548095Y-89680953D01*
X95786190Y-89680953D02*
X95848095Y-89557143D01*
X95848095Y-89309524D01*
X95786190Y-89185715D01*
X95724286Y-89123810D01*
X95600476Y-89061905D01*
X95229048Y-89061905D01*
X95105238Y-89123810D01*
X95043333Y-89185715D01*
X94981429Y-89309524D01*
X94981429Y-89557143D01*
X95043333Y-89680953D01*
X94981429Y-90176190D02*
X95848095Y-90423809D01*
X95229048Y-90671428D01*
X95848095Y-90919047D01*
X94981429Y-91166666D01*
X95848095Y-92219048D02*
X95167143Y-92219048D01*
X95043333Y-92157143D01*
X94981429Y-92033333D01*
X94981429Y-91785714D01*
X95043333Y-91661905D01*
X95786190Y-92219048D02*
X95848095Y-92095238D01*
X95848095Y-91785714D01*
X95786190Y-91661905D01*
X95662381Y-91600000D01*
X95538571Y-91600000D01*
X95414762Y-91661905D01*
X95352857Y-91785714D01*
X95352857Y-92095238D01*
X95290952Y-92219048D01*
X95848095Y-92838095D02*
X94981429Y-92838095D01*
X95229048Y-92838095D02*
X95105238Y-92900000D01*
X95043333Y-92961904D01*
X94981429Y-93085714D01*
X94981429Y-93209523D01*
X95786190Y-94138095D02*
X95848095Y-94014285D01*
X95848095Y-93766666D01*
X95786190Y-93642857D01*
X95662381Y-93580952D01*
X95167143Y-93580952D01*
X95043333Y-93642857D01*
X94981429Y-93766666D01*
X94981429Y-94014285D01*
X95043333Y-94138095D01*
X95167143Y-94200000D01*
X95290952Y-94200000D01*
X95414762Y-93580952D01*
X96730000Y-80580953D02*
X96668095Y-80457144D01*
X96668095Y-80271429D01*
X96730000Y-80085715D01*
X96853810Y-79961906D01*
X96977619Y-79900001D01*
X97225238Y-79838096D01*
X97410952Y-79838096D01*
X97658571Y-79900001D01*
X97782381Y-79961906D01*
X97906190Y-80085715D01*
X97968095Y-80271429D01*
X97968095Y-80395239D01*
X97906190Y-80580953D01*
X97844286Y-80642858D01*
X97410952Y-80642858D01*
X97410952Y-80395239D01*
X97968095Y-81200001D02*
X96668095Y-81200001D01*
X96668095Y-81695239D01*
X96730000Y-81819048D01*
X96791905Y-81880953D01*
X96915714Y-81942858D01*
X97101429Y-81942858D01*
X97225238Y-81880953D01*
X97287143Y-81819048D01*
X97349048Y-81695239D01*
X97349048Y-81200001D01*
X97968095Y-83119048D02*
X97968095Y-82500001D01*
X96668095Y-82500001D01*
X97101429Y-83428572D02*
X97968095Y-83738096D01*
X97101429Y-84047620D01*
X96668095Y-84419048D02*
X96668095Y-85223810D01*
X97163333Y-84790477D01*
X97163333Y-84976191D01*
X97225238Y-85100001D01*
X97287143Y-85161905D01*
X97410952Y-85223810D01*
X97720476Y-85223810D01*
X97844286Y-85161905D01*
X97906190Y-85100001D01*
X97968095Y-84976191D01*
X97968095Y-84604763D01*
X97906190Y-84480953D01*
X97844286Y-84419048D01*
X97968095Y-86957143D02*
X97906190Y-86833334D01*
X97782381Y-86771429D01*
X96668095Y-86771429D01*
X97968095Y-87452381D02*
X97101429Y-87452381D01*
X96668095Y-87452381D02*
X96730000Y-87390476D01*
X96791905Y-87452381D01*
X96730000Y-87514286D01*
X96668095Y-87452381D01*
X96791905Y-87452381D01*
X97906190Y-88628572D02*
X97968095Y-88504762D01*
X97968095Y-88257143D01*
X97906190Y-88133334D01*
X97844286Y-88071429D01*
X97720476Y-88009524D01*
X97349048Y-88009524D01*
X97225238Y-88071429D01*
X97163333Y-88133334D01*
X97101429Y-88257143D01*
X97101429Y-88504762D01*
X97163333Y-88628572D01*
X97906190Y-89680953D02*
X97968095Y-89557143D01*
X97968095Y-89309524D01*
X97906190Y-89185715D01*
X97782381Y-89123810D01*
X97287143Y-89123810D01*
X97163333Y-89185715D01*
X97101429Y-89309524D01*
X97101429Y-89557143D01*
X97163333Y-89680953D01*
X97287143Y-89742858D01*
X97410952Y-89742858D01*
X97534762Y-89123810D01*
X97101429Y-90300001D02*
X97968095Y-90300001D01*
X97225238Y-90300001D02*
X97163333Y-90361906D01*
X97101429Y-90485715D01*
X97101429Y-90671429D01*
X97163333Y-90795239D01*
X97287143Y-90857144D01*
X97968095Y-90857144D01*
X97906190Y-91414286D02*
X97968095Y-91538096D01*
X97968095Y-91785715D01*
X97906190Y-91909524D01*
X97782381Y-91971429D01*
X97720476Y-91971429D01*
X97596667Y-91909524D01*
X97534762Y-91785715D01*
X97534762Y-91600000D01*
X97472857Y-91476191D01*
X97349048Y-91414286D01*
X97287143Y-91414286D01*
X97163333Y-91476191D01*
X97101429Y-91600000D01*
X97101429Y-91785715D01*
X97163333Y-91909524D01*
X97906190Y-93023810D02*
X97968095Y-92900000D01*
X97968095Y-92652381D01*
X97906190Y-92528572D01*
X97782381Y-92466667D01*
X97287143Y-92466667D01*
X97163333Y-92528572D01*
X97101429Y-92652381D01*
X97101429Y-92900000D01*
X97163333Y-93023810D01*
X97287143Y-93085715D01*
X97410952Y-93085715D01*
X97534762Y-92466667D01*
X97968095Y-94200001D02*
X96668095Y-94200001D01*
X97906190Y-94200001D02*
X97968095Y-94076191D01*
X97968095Y-93828572D01*
X97906190Y-93704763D01*
X97844286Y-93642858D01*
X97720476Y-93580953D01*
X97349048Y-93580953D01*
X97225238Y-93642858D01*
X97163333Y-93704763D01*
X97101429Y-93828572D01*
X97101429Y-94076191D01*
X97163333Y-94200001D01*
D14*
X104543860Y-88181180D02*
X106014520Y-88541860D01*
X106014520Y-88541860D02*
X104952800Y-88821260D01*
X104952800Y-88821260D02*
X106024680Y-89131140D01*
X106024680Y-89131140D02*
X104574340Y-89471500D01*
X105234740Y-86761320D02*
X105224580Y-87551260D01*
X105224580Y-87551260D02*
X105234740Y-87561420D01*
X105234740Y-87561420D02*
X105224580Y-87561420D01*
X104513380Y-87602060D02*
X106055160Y-87602060D01*
X104503220Y-86713060D02*
X106072940Y-86713060D01*
X106072940Y-86713060D02*
X106062780Y-86723220D01*
X104604820Y-86161880D02*
X104523540Y-85811360D01*
X104523540Y-85811360D02*
X104513380Y-85491320D01*
X104513380Y-85491320D02*
X104714040Y-85252560D01*
X104714040Y-85252560D02*
X104983280Y-85222080D01*
X104983280Y-85222080D02*
X105224580Y-85463380D01*
X105224580Y-85463380D02*
X105354120Y-85852000D01*
X105354120Y-85852000D02*
X105514140Y-86032340D01*
X105514140Y-86032340D02*
X105813860Y-86072980D01*
X105813860Y-86072980D02*
X106034840Y-85841840D01*
X106034840Y-85841840D02*
X106062780Y-85521800D01*
X106062780Y-85521800D02*
X105953560Y-85171280D01*
X104503220Y-84132420D02*
X104523540Y-83883500D01*
X104523540Y-83883500D02*
X104764840Y-83642200D01*
X104764840Y-83642200D02*
X105255060Y-83553300D01*
X105255060Y-83553300D02*
X105603040Y-83581240D01*
X105603040Y-83581240D02*
X105923080Y-83781900D01*
X105923080Y-83781900D02*
X106045000Y-84033360D01*
X106045000Y-84033360D02*
X105973880Y-84343240D01*
X105973880Y-84343240D02*
X105793540Y-84561680D01*
X105793540Y-84561680D02*
X105333800Y-84632800D01*
X105333800Y-84632800D02*
X104924860Y-84582000D01*
X104924860Y-84582000D02*
X104642920Y-84472780D01*
X104642920Y-84472780D02*
X104513380Y-84112100D01*
X102783640Y-84731860D02*
X103344980Y-84472780D01*
X103344980Y-84472780D02*
X103863140Y-85011260D01*
X103863140Y-85011260D02*
X103593900Y-85531960D01*
X103593900Y-85531960D02*
X103753920Y-85811360D01*
X103733600Y-87251540D02*
X103543100Y-87581740D01*
X103543100Y-87581740D02*
X103873300Y-88021160D01*
X103873300Y-88021160D02*
X103383080Y-88493600D01*
X103383080Y-88493600D02*
X102903020Y-88211660D01*
X102903020Y-88211660D02*
X102433120Y-88402160D01*
X102433120Y-88402160D02*
X102245160Y-89011760D01*
X102245160Y-89011760D02*
X101564440Y-89011760D01*
X101564440Y-89011760D02*
X101424740Y-88452960D01*
X101424740Y-88452960D02*
X100853240Y-88252300D01*
X100853240Y-88252300D02*
X100383340Y-88521540D01*
X100383340Y-88521540D02*
X99872800Y-88051640D01*
X99872800Y-88051640D02*
X100134420Y-87533480D01*
X100134420Y-87533480D02*
X99933760Y-87063580D01*
X99933760Y-87063580D02*
X99392740Y-86893400D01*
X99392740Y-86893400D02*
X99374960Y-86202520D01*
X99374960Y-86202520D02*
X99923600Y-85991700D01*
X99923600Y-85991700D02*
X100093780Y-85572600D01*
X100093780Y-85572600D02*
X99824540Y-85021420D01*
X99824540Y-85021420D02*
X100352860Y-84503260D01*
X100352860Y-84503260D02*
X100893880Y-84752180D01*
X100893880Y-84752180D02*
X101373940Y-84582000D01*
X101373940Y-84582000D02*
X101473000Y-84033360D01*
X101473000Y-84033360D02*
X102174040Y-84023200D01*
X102174040Y-84023200D02*
X102374700Y-84582000D01*
X102374700Y-84582000D02*
X102773480Y-84721700D01*
X102753160Y-86862920D02*
X102603300Y-87162640D01*
X102603300Y-87162640D02*
X102405180Y-87363300D01*
X102405180Y-87363300D02*
X102003860Y-87513160D01*
X102003860Y-87513160D02*
X101605080Y-87513160D01*
X101605080Y-87513160D02*
X101254560Y-87363300D01*
X101254560Y-87363300D02*
X100904040Y-86911180D01*
X100904040Y-86911180D02*
X100853240Y-86461600D01*
X100853240Y-86461600D02*
X100954840Y-86062820D01*
X100954840Y-86062820D02*
X101302820Y-85661500D01*
X101302820Y-85661500D02*
X101754940Y-85511640D01*
X101754940Y-85511640D02*
X102252780Y-85562440D01*
X102252780Y-85562440D02*
X102555040Y-85811360D01*
X102555040Y-85811360D02*
X102753160Y-86161880D01*
X102753160Y-86161880D02*
X103753920Y-85811360D01*
X102753160Y-86862920D02*
X103753920Y-87261700D01*
X116205000Y-93218000D02*
X116967000Y-94107000D01*
X117005100Y-93179900D02*
X117005100Y-96545400D01*
X117001000Y-96553999D02*
X109821000Y-96554000D01*
X109821000Y-96554000D02*
X109821000Y-93184001D01*
X109821000Y-93184001D02*
X117001000Y-93184000D01*
X246571003Y-93177000D02*
G75*
G03X246571003Y-93177000I-115003J0D01*
G01*
X247793484Y-94180300D02*
G75*
G03X247793484Y-94180300I-143684J0D01*
G01*
D15*
X247656000Y-93177000D02*
X247656000Y-92177000D01*
X247656000Y-92177000D02*
X245256000Y-92177000D01*
X245256000Y-92177000D02*
X245256000Y-94177000D01*
X245256000Y-94177000D02*
X247656000Y-94177000D01*
X247656000Y-94177000D02*
X247656000Y-93177000D01*
D16*
X246661000Y-93177000D02*
X246661000Y-92927000D01*
X246661000Y-92927000D02*
X246256000Y-92927000D01*
X246256000Y-92927000D02*
X246256000Y-93422000D01*
X246256000Y-93422000D02*
X246661000Y-93422000D01*
X246661000Y-93422000D02*
X246661000Y-93177000D01*
D15*
X246456000Y-93177000D02*
X246481000Y-93177000D01*
X246481000Y-93177000D02*
X246431000Y-93177000D01*
X246431000Y-93177000D02*
X246456000Y-93177000D01*
X246456000Y-93177000D02*
X246456000Y-93202000D01*
X246456000Y-93202000D02*
X246456000Y-93177000D01*
X246456000Y-93177000D02*
X246456000Y-93152000D01*
X246456000Y-93152000D02*
X246456000Y-93177000D01*
D14*
X61930000Y-79960000D02*
X76930000Y-79960000D01*
X76930000Y-79960000D02*
X76930000Y-108860000D01*
X76930000Y-108860000D02*
X61930000Y-108860000D01*
X61930000Y-108860000D02*
X61930000Y-79960000D01*
X97917261Y-85278127D02*
X97441070Y-84944793D01*
X97917261Y-84706698D02*
X96917261Y-84706698D01*
X96917261Y-85087651D01*
X96964880Y-85182889D01*
X97012499Y-85230508D01*
X97107737Y-85278127D01*
X97250594Y-85278127D01*
X97345832Y-85230508D01*
X97393451Y-85182889D01*
X97441070Y-85087651D01*
X97441070Y-84706698D01*
X97393451Y-85706698D02*
X97393451Y-86040032D01*
X97917261Y-86182889D02*
X97917261Y-85706698D01*
X96917261Y-85706698D01*
X96917261Y-86182889D01*
X97393451Y-86944794D02*
X97393451Y-86611460D01*
X97917261Y-86611460D02*
X96917261Y-86611460D01*
X96917261Y-87087651D01*
X96917261Y-87611460D02*
X97155356Y-87611460D01*
X97060118Y-87373365D02*
X97155356Y-87611460D01*
X97060118Y-87849556D01*
X97345832Y-87468603D02*
X97155356Y-87611460D01*
X97345832Y-87754318D01*
X96917261Y-88373365D02*
X97155356Y-88373365D01*
X97060118Y-88135270D02*
X97155356Y-88373365D01*
X97060118Y-88611461D01*
X97345832Y-88230508D02*
X97155356Y-88373365D01*
X97345832Y-88516223D01*
D10*
X118090905Y-94278524D02*
X117290905Y-94278524D01*
X117290905Y-94583286D01*
X117329000Y-94659477D01*
X117367095Y-94697572D01*
X117443286Y-94735667D01*
X117557571Y-94735667D01*
X117633762Y-94697572D01*
X117671857Y-94659477D01*
X117709952Y-94583286D01*
X117709952Y-94278524D01*
X117290905Y-95002334D02*
X117290905Y-95497572D01*
X117595667Y-95230905D01*
X117595667Y-95345191D01*
X117633762Y-95421381D01*
X117671857Y-95459477D01*
X117748048Y-95497572D01*
X117938524Y-95497572D01*
X118014714Y-95459477D01*
X118052810Y-95421381D01*
X118090905Y-95345191D01*
X118090905Y-95116619D01*
X118052810Y-95040429D01*
X118014714Y-95002334D01*
X115994571Y-92658381D02*
X115923142Y-92682190D01*
X115804095Y-92682190D01*
X115756476Y-92658381D01*
X115732666Y-92634571D01*
X115708857Y-92586952D01*
X115708857Y-92539333D01*
X115732666Y-92491714D01*
X115756476Y-92467905D01*
X115804095Y-92444095D01*
X115899333Y-92420286D01*
X115946952Y-92396476D01*
X115970761Y-92372667D01*
X115994571Y-92325048D01*
X115994571Y-92277429D01*
X115970761Y-92229810D01*
X115946952Y-92206000D01*
X115899333Y-92182190D01*
X115780285Y-92182190D01*
X115708857Y-92206000D01*
X115542190Y-92182190D02*
X115423143Y-92682190D01*
X115327905Y-92325048D01*
X115232667Y-92682190D01*
X115113619Y-92182190D01*
X114923142Y-92682190D02*
X114923142Y-92182190D01*
X114804095Y-92182190D01*
X114732666Y-92206000D01*
X114685047Y-92253619D01*
X114661238Y-92301238D01*
X114637428Y-92396476D01*
X114637428Y-92467905D01*
X114661238Y-92563143D01*
X114685047Y-92610762D01*
X114732666Y-92658381D01*
X114804095Y-92682190D01*
X114923142Y-92682190D01*
X244651952Y-92877238D02*
X244975762Y-92877238D01*
X245013857Y-92896286D01*
X245032905Y-92915333D01*
X245051952Y-92953429D01*
X245051952Y-93029619D01*
X245032905Y-93067714D01*
X245013857Y-93086762D01*
X244975762Y-93105810D01*
X244651952Y-93105810D01*
X245051952Y-93315334D02*
X245051952Y-93391524D01*
X245032905Y-93429619D01*
X245013857Y-93448667D01*
X244956714Y-93486762D01*
X244880524Y-93505810D01*
X244728143Y-93505810D01*
X244690048Y-93486762D01*
X244671000Y-93467715D01*
X244651952Y-93429619D01*
X244651952Y-93353429D01*
X244671000Y-93315334D01*
X244690048Y-93296286D01*
X244728143Y-93277238D01*
X244823381Y-93277238D01*
X244861476Y-93296286D01*
X244880524Y-93315334D01*
X244899571Y-93353429D01*
X244899571Y-93429619D01*
X244880524Y-93467715D01*
X244861476Y-93486762D01*
X244823381Y-93505810D01*
X249589952Y-91633906D02*
X249589952Y-91862478D01*
X249989952Y-91748192D02*
X249589952Y-91748192D01*
X249951857Y-92224383D02*
X249970905Y-92205335D01*
X249989952Y-92148192D01*
X249989952Y-92110097D01*
X249970905Y-92052954D01*
X249932810Y-92014859D01*
X249894714Y-91995811D01*
X249818524Y-91976763D01*
X249761381Y-91976763D01*
X249685190Y-91995811D01*
X249647095Y-92014859D01*
X249609000Y-92052954D01*
X249589952Y-92110097D01*
X249589952Y-92148192D01*
X249609000Y-92205335D01*
X249628048Y-92224383D01*
X249970905Y-92376763D02*
X249989952Y-92433906D01*
X249989952Y-92529144D01*
X249970905Y-92567240D01*
X249951857Y-92586287D01*
X249913762Y-92605335D01*
X249875667Y-92605335D01*
X249837571Y-92586287D01*
X249818524Y-92567240D01*
X249799476Y-92529144D01*
X249780429Y-92452954D01*
X249761381Y-92414859D01*
X249742333Y-92395811D01*
X249704238Y-92376763D01*
X249666143Y-92376763D01*
X249628048Y-92395811D01*
X249609000Y-92414859D01*
X249589952Y-92452954D01*
X249589952Y-92548192D01*
X249609000Y-92605335D01*
X249589952Y-92738668D02*
X249589952Y-92986287D01*
X249742333Y-92852954D01*
X249742333Y-92910096D01*
X249761381Y-92948192D01*
X249780429Y-92967239D01*
X249818524Y-92986287D01*
X249913762Y-92986287D01*
X249951857Y-92967239D01*
X249970905Y-92948192D01*
X249989952Y-92910096D01*
X249989952Y-92795811D01*
X249970905Y-92757715D01*
X249951857Y-92738668D01*
X249723286Y-93329144D02*
X249989952Y-93329144D01*
X249570905Y-93233906D02*
X249856619Y-93138667D01*
X249856619Y-93386287D01*
X249589952Y-93500572D02*
X249589952Y-93767239D01*
X249989952Y-93595810D01*
X249989952Y-94129143D02*
X249989952Y-93900571D01*
X249989952Y-94014857D02*
X249589952Y-94014857D01*
X249647095Y-93976762D01*
X249685190Y-93938667D01*
X249704238Y-93900571D01*
X249589952Y-94491047D02*
X249589952Y-94300571D01*
X249780429Y-94281523D01*
X249761381Y-94300571D01*
X249742333Y-94338666D01*
X249742333Y-94433904D01*
X249761381Y-94472000D01*
X249780429Y-94491047D01*
X249818524Y-94510095D01*
X249913762Y-94510095D01*
X249951857Y-94491047D01*
X249970905Y-94472000D01*
X249989952Y-94433904D01*
X249989952Y-94338666D01*
X249970905Y-94300571D01*
X249951857Y-94281523D01*
X249780429Y-94814856D02*
X249780429Y-94681523D01*
X249989952Y-94681523D02*
X249589952Y-94681523D01*
X249589952Y-94871999D01*
X249989952Y-95024380D02*
X249589952Y-95024380D01*
X249989952Y-95252952D01*
X249589952Y-95252952D01*
D17*
X246339281Y-93137086D02*
X246290900Y-93137086D01*
X246321138Y-93221752D02*
X246321138Y-93112895D01*
X246315090Y-93100800D01*
X246302995Y-93094752D01*
X246290900Y-93094752D01*
X246230424Y-93221752D02*
X246242519Y-93215705D01*
X246248567Y-93209657D01*
X246254615Y-93197562D01*
X246254615Y-93161276D01*
X246248567Y-93149181D01*
X246242519Y-93143133D01*
X246230424Y-93137086D01*
X246212281Y-93137086D01*
X246200186Y-93143133D01*
X246194138Y-93149181D01*
X246188091Y-93161276D01*
X246188091Y-93197562D01*
X246194138Y-93209657D01*
X246200186Y-93215705D01*
X246212281Y-93221752D01*
X246230424Y-93221752D01*
X246151805Y-93137086D02*
X246103424Y-93137086D01*
X246133662Y-93094752D02*
X246133662Y-93203610D01*
X246127614Y-93215705D01*
X246115519Y-93221752D01*
X246103424Y-93221752D01*
X246042948Y-93221752D02*
X246055043Y-93215705D01*
X246061091Y-93209657D01*
X246067139Y-93197562D01*
X246067139Y-93161276D01*
X246061091Y-93149181D01*
X246055043Y-93143133D01*
X246042948Y-93137086D01*
X246024805Y-93137086D01*
X246012710Y-93143133D01*
X246006662Y-93149181D01*
X246000615Y-93161276D01*
X246000615Y-93197562D01*
X246006662Y-93209657D01*
X246012710Y-93215705D01*
X246024805Y-93221752D01*
X246042948Y-93221752D01*
D18*
X244295071Y-92601429D02*
X244295071Y-93762572D01*
X244343452Y-93182001D02*
X244246690Y-93182001D01*
D14*
X60858305Y-92644981D02*
X60858305Y-93454505D01*
X60810686Y-93549743D01*
X60763067Y-93597362D01*
X60667829Y-93644981D01*
X60477352Y-93644981D01*
X60382114Y-93597362D01*
X60334495Y-93549743D01*
X60286876Y-93454505D01*
X60286876Y-92644981D01*
X59286876Y-93644981D02*
X59858305Y-93644981D01*
X59572591Y-93644981D02*
X59572591Y-92644981D01*
X59667829Y-92787838D01*
X59763067Y-92883076D01*
X59858305Y-92930695D01*
X61195791Y-90708171D02*
X61052934Y-90755790D01*
X61005315Y-90803410D01*
X60957696Y-90898648D01*
X60957696Y-91041505D01*
X61005315Y-91136743D01*
X61052934Y-91184362D01*
X61148172Y-91231981D01*
X61529125Y-91231981D01*
X61529125Y-90231981D01*
X61195791Y-90231981D01*
X61100553Y-90279600D01*
X61052934Y-90327219D01*
X61005315Y-90422457D01*
X61005315Y-90517695D01*
X61052934Y-90612933D01*
X61100553Y-90660552D01*
X61195791Y-90708171D01*
X61529125Y-90708171D01*
X60386268Y-91231981D02*
X60481506Y-91184362D01*
X60529125Y-91089124D01*
X60529125Y-90231981D01*
X59576743Y-90565314D02*
X59576743Y-91231981D01*
X60005315Y-90565314D02*
X60005315Y-91089124D01*
X59957696Y-91184362D01*
X59862458Y-91231981D01*
X59719600Y-91231981D01*
X59624362Y-91184362D01*
X59576743Y-91136743D01*
X58719600Y-91184362D02*
X58814838Y-91231981D01*
X59005315Y-91231981D01*
X59100553Y-91184362D01*
X59148172Y-91089124D01*
X59148172Y-90708171D01*
X59100553Y-90612933D01*
X59005315Y-90565314D01*
X58814838Y-90565314D01*
X58719600Y-90612933D01*
X58671981Y-90708171D01*
X58671981Y-90803410D01*
X59148172Y-90898648D01*
X58386267Y-90565314D02*
X58005315Y-90565314D01*
X58243410Y-90231981D02*
X58243410Y-91089124D01*
X58195791Y-91184362D01*
X58100553Y-91231981D01*
X58005315Y-91231981D01*
X57529124Y-91231981D02*
X57624362Y-91184362D01*
X57671981Y-91136743D01*
X57719600Y-91041505D01*
X57719600Y-90755790D01*
X57671981Y-90660552D01*
X57624362Y-90612933D01*
X57529124Y-90565314D01*
X57386266Y-90565314D01*
X57291028Y-90612933D01*
X57243409Y-90660552D01*
X57195790Y-90755790D01*
X57195790Y-91041505D01*
X57243409Y-91136743D01*
X57291028Y-91184362D01*
X57386266Y-91231981D01*
X57529124Y-91231981D01*
X56624362Y-91231981D02*
X56719600Y-91184362D01*
X56767219Y-91136743D01*
X56814838Y-91041505D01*
X56814838Y-90755790D01*
X56767219Y-90660552D01*
X56719600Y-90612933D01*
X56624362Y-90565314D01*
X56481504Y-90565314D01*
X56386266Y-90612933D01*
X56338647Y-90660552D01*
X56291028Y-90755790D01*
X56291028Y-91041505D01*
X56338647Y-91136743D01*
X56386266Y-91184362D01*
X56481504Y-91231981D01*
X56624362Y-91231981D01*
X56005314Y-90565314D02*
X55624362Y-90565314D01*
X55862457Y-90231981D02*
X55862457Y-91089124D01*
X55814838Y-91184362D01*
X55719600Y-91231981D01*
X55624362Y-91231981D01*
X55291028Y-91231981D02*
X55291028Y-90231981D01*
X54862456Y-91231981D02*
X54862456Y-90708171D01*
X54910075Y-90612933D01*
X55005313Y-90565314D01*
X55148171Y-90565314D01*
X55243409Y-90612933D01*
X55291028Y-90660552D01*
X53624361Y-91231981D02*
X53624361Y-90231981D01*
X53624361Y-90708171D02*
X53052932Y-90708171D01*
X53052932Y-91231981D02*
X53052932Y-90231981D01*
X52005313Y-91136743D02*
X52052932Y-91184362D01*
X52195789Y-91231981D01*
X52291027Y-91231981D01*
X52433885Y-91184362D01*
X52529123Y-91089124D01*
X52576742Y-90993886D01*
X52624361Y-90803410D01*
X52624361Y-90660552D01*
X52576742Y-90470076D01*
X52529123Y-90374838D01*
X52433885Y-90279600D01*
X52291027Y-90231981D01*
X52195789Y-90231981D01*
X52052932Y-90279600D01*
X52005313Y-90327219D01*
X51576742Y-90851029D02*
X50814837Y-90851029D01*
X50148171Y-90231981D02*
X50052932Y-90231981D01*
X49957694Y-90279600D01*
X49910075Y-90327219D01*
X49862456Y-90422457D01*
X49814837Y-90612933D01*
X49814837Y-90851029D01*
X49862456Y-91041505D01*
X49910075Y-91136743D01*
X49957694Y-91184362D01*
X50052932Y-91231981D01*
X50148171Y-91231981D01*
X50243409Y-91184362D01*
X50291028Y-91136743D01*
X50338647Y-91041505D01*
X50386266Y-90851029D01*
X50386266Y-90612933D01*
X50338647Y-90422457D01*
X50291028Y-90327219D01*
X50243409Y-90279600D01*
X50148171Y-90231981D01*
X48957694Y-90231981D02*
X49148171Y-90231981D01*
X49243409Y-90279600D01*
X49291028Y-90327219D01*
X49386266Y-90470076D01*
X49433885Y-90660552D01*
X49433885Y-91041505D01*
X49386266Y-91136743D01*
X49338647Y-91184362D01*
X49243409Y-91231981D01*
X49052932Y-91231981D01*
X48957694Y-91184362D01*
X48910075Y-91136743D01*
X48862456Y-91041505D01*
X48862456Y-90803410D01*
X48910075Y-90708171D01*
X48957694Y-90660552D01*
X49052932Y-90612933D01*
X49243409Y-90612933D01*
X49338647Y-90660552D01*
X49386266Y-90708171D01*
X49433885Y-90803410D01*
X75199523Y-77970000D02*
X75275714Y-77931905D01*
X75389999Y-77931905D01*
X75504285Y-77970000D01*
X75580476Y-78046190D01*
X75618571Y-78122381D01*
X75656666Y-78274762D01*
X75656666Y-78389048D01*
X75618571Y-78541429D01*
X75580476Y-78617619D01*
X75504285Y-78693810D01*
X75389999Y-78731905D01*
X75313809Y-78731905D01*
X75199523Y-78693810D01*
X75161428Y-78655714D01*
X75161428Y-78389048D01*
X75313809Y-78389048D01*
X74818571Y-78731905D02*
X74818571Y-77931905D01*
X74361428Y-78731905D01*
X74361428Y-77931905D01*
X73980476Y-78731905D02*
X73980476Y-77931905D01*
X73790000Y-77931905D01*
X73675714Y-77970000D01*
X73599523Y-78046190D01*
X73561428Y-78122381D01*
X73523333Y-78274762D01*
X73523333Y-78389048D01*
X73561428Y-78541429D01*
X73599523Y-78617619D01*
X73675714Y-78693810D01*
X73790000Y-78731905D01*
X73980476Y-78731905D01*
X64829523Y-77930000D02*
X64905714Y-77891905D01*
X65019999Y-77891905D01*
X65134285Y-77930000D01*
X65210476Y-78006190D01*
X65248571Y-78082381D01*
X65286666Y-78234762D01*
X65286666Y-78349048D01*
X65248571Y-78501429D01*
X65210476Y-78577619D01*
X65134285Y-78653810D01*
X65019999Y-78691905D01*
X64943809Y-78691905D01*
X64829523Y-78653810D01*
X64791428Y-78615714D01*
X64791428Y-78349048D01*
X64943809Y-78349048D01*
X64448571Y-78691905D02*
X64448571Y-77891905D01*
X63991428Y-78691905D01*
X63991428Y-77891905D01*
X63610476Y-78691905D02*
X63610476Y-77891905D01*
X63420000Y-77891905D01*
X63305714Y-77930000D01*
X63229523Y-78006190D01*
X63191428Y-78082381D01*
X63153333Y-78234762D01*
X63153333Y-78349048D01*
X63191428Y-78501429D01*
X63229523Y-78577619D01*
X63305714Y-78653810D01*
X63420000Y-78691905D01*
X63610476Y-78691905D01*
X79619523Y-82210000D02*
X79695714Y-82171905D01*
X79809999Y-82171905D01*
X79924285Y-82210000D01*
X80000476Y-82286190D01*
X80038571Y-82362381D01*
X80076666Y-82514762D01*
X80076666Y-82629048D01*
X80038571Y-82781429D01*
X80000476Y-82857619D01*
X79924285Y-82933810D01*
X79809999Y-82971905D01*
X79733809Y-82971905D01*
X79619523Y-82933810D01*
X79581428Y-82895714D01*
X79581428Y-82629048D01*
X79733809Y-82629048D01*
X79238571Y-82971905D02*
X79238571Y-82171905D01*
X78781428Y-82971905D01*
X78781428Y-82171905D01*
X78400476Y-82971905D02*
X78400476Y-82171905D01*
X78210000Y-82171905D01*
X78095714Y-82210000D01*
X78019523Y-82286190D01*
X77981428Y-82362381D01*
X77943333Y-82514762D01*
X77943333Y-82629048D01*
X77981428Y-82781429D01*
X78019523Y-82857619D01*
X78095714Y-82933810D01*
X78210000Y-82971905D01*
X78400476Y-82971905D01*
X80095238Y-96551905D02*
X80476191Y-96551905D01*
X80476191Y-95751905D01*
X79828572Y-96132857D02*
X79561905Y-96132857D01*
X79447619Y-96551905D02*
X79828572Y-96551905D01*
X79828572Y-95751905D01*
X79447619Y-95751905D01*
X79104762Y-96551905D02*
X79104762Y-95751905D01*
X78914286Y-95751905D01*
X78800000Y-95790000D01*
X78723809Y-95866190D01*
X78685714Y-95942381D01*
X78647619Y-96094762D01*
X78647619Y-96209048D01*
X78685714Y-96361429D01*
X78723809Y-96437619D01*
X78800000Y-96513810D01*
X78914286Y-96551905D01*
X79104762Y-96551905D01*
X77885714Y-96551905D02*
X78342857Y-96551905D01*
X78114286Y-96551905D02*
X78114286Y-95751905D01*
X78190476Y-95866190D01*
X78266667Y-95942381D01*
X78342857Y-95980476D01*
X80025238Y-98051905D02*
X80406191Y-98051905D01*
X80406191Y-97251905D01*
X79758572Y-97632857D02*
X79491905Y-97632857D01*
X79377619Y-98051905D02*
X79758572Y-98051905D01*
X79758572Y-97251905D01*
X79377619Y-97251905D01*
X79034762Y-98051905D02*
X79034762Y-97251905D01*
X78844286Y-97251905D01*
X78730000Y-97290000D01*
X78653809Y-97366190D01*
X78615714Y-97442381D01*
X78577619Y-97594762D01*
X78577619Y-97709048D01*
X78615714Y-97861429D01*
X78653809Y-97937619D01*
X78730000Y-98013810D01*
X78844286Y-98051905D01*
X79034762Y-98051905D01*
X78272857Y-97328095D02*
X78234762Y-97290000D01*
X78158571Y-97251905D01*
X77968095Y-97251905D01*
X77891905Y-97290000D01*
X77853809Y-97328095D01*
X77815714Y-97404286D01*
X77815714Y-97480476D01*
X77853809Y-97594762D01*
X78310952Y-98051905D01*
X77815714Y-98051905D01*
X82924286Y-101061905D02*
X82924286Y-100261905D01*
X82467143Y-101061905D02*
X82810000Y-100604762D01*
X82467143Y-100261905D02*
X82924286Y-100719048D01*
X82124286Y-100642857D02*
X81857619Y-100642857D01*
X81743333Y-101061905D02*
X82124286Y-101061905D01*
X82124286Y-100261905D01*
X81743333Y-100261905D01*
X81248095Y-100680952D02*
X81248095Y-101061905D01*
X81514762Y-100261905D02*
X81248095Y-100680952D01*
X80981428Y-100261905D01*
X79876666Y-101366667D02*
X79914762Y-101328571D01*
X79990952Y-101214286D01*
X80029047Y-101138095D01*
X80067143Y-101023810D01*
X80105238Y-100833333D01*
X80105238Y-100680952D01*
X80067143Y-100490476D01*
X80029047Y-100376190D01*
X79990952Y-100300000D01*
X79914762Y-100185714D01*
X79876666Y-100147619D01*
X79648095Y-100261905D02*
X79152857Y-100261905D01*
X79419524Y-100566667D01*
X79305238Y-100566667D01*
X79229048Y-100604762D01*
X79190952Y-100642857D01*
X79152857Y-100719048D01*
X79152857Y-100909524D01*
X79190952Y-100985714D01*
X79229048Y-101023810D01*
X79305238Y-101061905D01*
X79533810Y-101061905D01*
X79610000Y-101023810D01*
X79648095Y-100985714D01*
X78467143Y-100528571D02*
X78467143Y-101061905D01*
X78657619Y-100223810D02*
X78848095Y-100795238D01*
X78352857Y-100795238D01*
X78124285Y-101366667D02*
X78086190Y-101328571D01*
X78010000Y-101214286D01*
X77971904Y-101138095D01*
X77933809Y-101023810D01*
X77895714Y-100833333D01*
X77895714Y-100680952D01*
X77933809Y-100490476D01*
X77971904Y-100376190D01*
X78010000Y-100300000D01*
X78086190Y-100185714D01*
X78124285Y-100147619D01*
X60959524Y-100101905D02*
X60502381Y-100101905D01*
X60730952Y-100901905D02*
X60730952Y-100101905D01*
X60311904Y-100101905D02*
X59778571Y-100901905D01*
X59778571Y-100101905D02*
X60311904Y-100901905D01*
X60413333Y-99521905D02*
X60680000Y-99140952D01*
X60870476Y-99521905D02*
X60870476Y-98721905D01*
X60565714Y-98721905D01*
X60489523Y-98760000D01*
X60451428Y-98798095D01*
X60413333Y-98874286D01*
X60413333Y-98988571D01*
X60451428Y-99064762D01*
X60489523Y-99102857D01*
X60565714Y-99140952D01*
X60870476Y-99140952D01*
X60146666Y-98721905D02*
X59613333Y-99521905D01*
X59613333Y-98721905D02*
X60146666Y-99521905D01*
X61020952Y-83641905D02*
X60525714Y-83641905D01*
X60792381Y-83946667D01*
X60678095Y-83946667D01*
X60601905Y-83984762D01*
X60563809Y-84022857D01*
X60525714Y-84099048D01*
X60525714Y-84289524D01*
X60563809Y-84365714D01*
X60601905Y-84403810D01*
X60678095Y-84441905D01*
X60906667Y-84441905D01*
X60982857Y-84403810D01*
X61020952Y-84365714D01*
X60182857Y-84365714D02*
X60144762Y-84403810D01*
X60182857Y-84441905D01*
X60220952Y-84403810D01*
X60182857Y-84365714D01*
X60182857Y-84441905D01*
X59878095Y-83641905D02*
X59382857Y-83641905D01*
X59649524Y-83946667D01*
X59535238Y-83946667D01*
X59459048Y-83984762D01*
X59420952Y-84022857D01*
X59382857Y-84099048D01*
X59382857Y-84289524D01*
X59420952Y-84365714D01*
X59459048Y-84403810D01*
X59535238Y-84441905D01*
X59763810Y-84441905D01*
X59840000Y-84403810D01*
X59878095Y-84365714D01*
X59154286Y-83641905D02*
X58887619Y-84441905D01*
X58620952Y-83641905D01*
X60569523Y-82210000D02*
X60645714Y-82171905D01*
X60759999Y-82171905D01*
X60874285Y-82210000D01*
X60950476Y-82286190D01*
X60988571Y-82362381D01*
X61026666Y-82514762D01*
X61026666Y-82629048D01*
X60988571Y-82781429D01*
X60950476Y-82857619D01*
X60874285Y-82933810D01*
X60759999Y-82971905D01*
X60683809Y-82971905D01*
X60569523Y-82933810D01*
X60531428Y-82895714D01*
X60531428Y-82629048D01*
X60683809Y-82629048D01*
X60188571Y-82971905D02*
X60188571Y-82171905D01*
X59731428Y-82971905D01*
X59731428Y-82171905D01*
X59350476Y-82971905D02*
X59350476Y-82171905D01*
X59160000Y-82171905D01*
X59045714Y-82210000D01*
X58969523Y-82286190D01*
X58931428Y-82362381D01*
X58893333Y-82514762D01*
X58893333Y-82629048D01*
X58931428Y-82781429D01*
X58969523Y-82857619D01*
X59045714Y-82933810D01*
X59160000Y-82971905D01*
X59350476Y-82971905D01*
M02*
