EESchema Schematic File Version 4
LIBS:main-cache
EELAYER 26 0
EELAYER END
$Descr A3 16535 11693
encoding utf-8
Sheet 8 9
Title "Reflectance 1.0"
Date "2017-04-24"
Rev "1.0"
Comp "OurSci"
Comment1 "Zegarac Robert"
Comment2 "Jon Zeeff"
Comment3 ""
Comment4 ""
$EndDescr
Text Notes 7890 3965 0    118  ~ 0
Detector TIA
$Comp
L main-rescue:C_Small-RESCUE-main C9
U 1 1 563BA59A
P 7660 4965
AR Path="/563D36D0/563BA59A" Ref="C9"  Part="1" 
AR Path="/5948C701/563BA59A" Ref="C59"  Part="1" 
AR Path="/5A981327/5A993CA6/563BA59A" Ref="C9"  Part="1" 
F 0 "C9" H 7715 5025 30  0000 L CNN
F 1 "10u" H 7550 5020 30  0000 L CNN
F 2 "multispeq:c_0603" H 7660 4965 60  0001 C CNN
F 3 "GRM188R61A106KE69D" H 7660 4965 10  0001 C CNN
F 4 "GRM188R61A106KE69D" H 7660 4965 60  0001 C CNN "manf#"
	1    7660 4965
	-1   0    0    1   
$EndComp
$Comp
L main-rescue:C-RESCUE-main C14
U 1 1 5662C918
P 10455 4635
AR Path="/563D36D0/5662C918" Ref="C14"  Part="1" 
AR Path="/5948C701/5662C918" Ref="C64"  Part="1" 
AR Path="/5A981327/5A993CA6/5662C918" Ref="C14"  Part="1" 
F 0 "C14" H 10480 4710 30  0000 L CNN
F 1 "10u" H 10480 4560 30  0000 L CNN
F 2 "multispeq:c_0603" H 10455 4635 60  0001 C CNN
F 3 "GRM188R61A106KE69D" H 10455 4635 10  0001 C CNN
F 4 "GRM188R61A106KE69D" H 10455 4635 60  0001 C CNN "manf#"
	1    10455 4635
	-1   0    0    1   
$EndComp
Text HLabel 11610 5515 2    40   Output ~ 0
AnaOut_P
Text HLabel 11605 6730 2    40   Output ~ 0
AnaOut_N
Text HLabel 7295 5615 0    40   Output ~ 0
det_out
Text HLabel 7525 6730 0    40   Output ~ 0
det_return
$Comp
L main-rescue:GND-RESCUE-main #PWR056
U 1 1 597C0073
P 7795 7080
AR Path="/563D36D0/597C0073" Ref="#PWR056"  Part="1" 
AR Path="/5948C701/597C0073" Ref="#PWR062"  Part="1" 
AR Path="/5A981327/5A993CA6/597C0073" Ref="#PWR056"  Part="1" 
F 0 "#PWR062" H 7795 6830 50  0001 C CNN
F 1 "GND" H 7845 6930 50  0000 C CNN
F 2 "" H 7795 7080 60  0000 C CNN
F 3 "" H 7795 7080 60  0000 C CNN
	1    7795 7080
	1    0    0    -1  
$EndComp
$Comp
L main-rescue:GND-RESCUE-main #PWR057
U 1 1 597D0D53
P 8425 6040
AR Path="/563D36D0/597D0D53" Ref="#PWR057"  Part="1" 
AR Path="/5948C701/597D0D53" Ref="#PWR063"  Part="1" 
AR Path="/5A981327/5A993CA6/597D0D53" Ref="#PWR057"  Part="1" 
F 0 "#PWR063" H 8425 5790 50  0001 C CNN
F 1 "GND" H 8500 5940 20  0000 C CNN
F 2 "" H 8425 6040 60  0000 C CNN
F 3 "" H 8425 6040 60  0000 C CNN
	1    8425 6040
	1    0    0    -1  
$EndComp
Text Notes 10970 6140 0    60   ~ 0
differential pair from detector to\nADC/filter - for noise reduction\n
$Comp
L main-rescue:R-RESCUE-main R79
U 1 1 597CC466
P 10810 4485
AR Path="/5948C701/597CC466" Ref="R79"  Part="1" 
AR Path="/563D36D0/597CC466" Ref="R78"  Part="1" 
AR Path="/5A981327/5A993CA6/597CC466" Ref="R78"  Part="1" 
F 0 "R78" V 10720 4485 30  0000 C CNN
F 1 "10" V 10810 4485 50  0000 C CNN
F 2 "multispeq:r_0603" H 10810 4485 60  0001 C CNN
F 3 "RC0603FR-0710RL" H 10810 4485 10  0001 C CNN
F 4 "RC0603FR-0710RL" H 10810 4485 60  0001 C CNN "manf#"
	1    10810 4485
	0    -1   -1   0   
$EndComp
$Comp
L main-rescue:PWR_FLAG-RESCUE-main #FLG059
U 1 1 597FEDA4
P 10455 4480
AR Path="/563D36D0/597FEDA4" Ref="#FLG059"  Part="1" 
AR Path="/5948C701/597FEDA4" Ref="#FLG065"  Part="1" 
AR Path="/5A981327/5A993CA6/597FEDA4" Ref="#FLG059"  Part="1" 
F 0 "#FLG065" H 10455 4575 50  0001 C CNN
F 1 "PWR_FLAG" H 10455 4660 50  0000 C CNN
F 2 "" H 10455 4480 60  0000 C CNN
F 3 "" H 10455 4480 60  0000 C CNN
	1    10455 4480
	1    0    0    -1  
$EndComp
Text Notes 6485 6160 0    60   ~ 0
photodiode here
$Comp
L main-rescue:R-RESCUE-main R27
U 1 1 59E247B6
P 7925 4715
AR Path="/563D36D0/59E247B6" Ref="R27"  Part="1" 
AR Path="/5948C701/59E247B6" Ref="R30"  Part="1" 
AR Path="/5A981327/5A993CA6/59E247B6" Ref="R27"  Part="1" 
F 0 "R27" V 7835 4715 30  0000 C CNN
F 1 "10K" V 7925 4715 50  0000 C CNN
F 2 "multispeq:r_0603" H 7925 4715 60  0001 C CNN
F 3 "RT0603FRE0710KL" H 7925 4715 10  0001 C CNN
F 4 "RT0603FRE0710KL" H 7925 4715 60  0001 C CNN "manf#"
	1    7925 4715
	-1   0    0    1   
$EndComp
$Comp
L main-rescue:R-RESCUE-main R28
U 1 1 59E24BED
P 7925 5015
AR Path="/563D36D0/59E24BED" Ref="R28"  Part="1" 
AR Path="/5948C701/59E24BED" Ref="R55"  Part="1" 
AR Path="/5A981327/5A993CA6/59E24BED" Ref="R28"  Part="1" 
F 0 "R28" V 7835 5015 30  0000 C CNN
F 1 "240" V 7925 5015 50  0000 C CNN
F 2 "multispeq:r_0603" H 7925 5015 60  0001 C CNN
F 3 "RT0603DRE07240RL" H 7925 5015 10  0001 C CNN
F 4 "RT0603DRE07240RL" H 7925 5015 60  0001 C CNN "manf#"
	1    7925 5015
	1    0    0    -1  
$EndComp
$Comp
L main-rescue:GND-RESCUE-main #PWR060
U 1 1 59E24CDE
P 7925 5165
AR Path="/563D36D0/59E24CDE" Ref="#PWR060"  Part="1" 
AR Path="/5948C701/59E24CDE" Ref="#PWR066"  Part="1" 
AR Path="/5A981327/5A993CA6/59E24CDE" Ref="#PWR060"  Part="1" 
F 0 "#PWR066" H 7925 4915 50  0001 C CNN
F 1 "GND" H 8000 5065 20  0000 C CNN
F 2 "" H 7925 5165 60  0000 C CNN
F 3 "" H 7925 5165 60  0000 C CNN
	1    7925 5165
	1    0    0    -1  
$EndComp
Text Label 9865 4365 0    60   ~ 0
Power
Text Label 7925 4565 2    60   ~ 0
Power
Text Label 8425 5215 0    60   ~ 0
Power
$Comp
L main-rescue:INDUCTOR_SMALL-RESCUE-main L4
U 1 1 59D7A110
P 11210 4485
AR Path="/563D36D0/59D7A110" Ref="L4"  Part="1" 
AR Path="/5948C701/59D7A110" Ref="L10"  Part="1" 
AR Path="/5A981327/5A993CA6/59D7A110" Ref="L4"  Part="1" 
F 0 "L4" H 11210 4585 50  0000 C CNN
F 1 "ferrite" H 11210 4435 50  0000 C CNN
F 2 "multispeq:r_0805" H 11210 4485 60  0001 C CNN
F 3 "MI0805K601R-10" H 11210 4485 60  0001 C CNN
F 4 "MI0805K601R-10" H 11210 4485 60  0001 C CNN "manf#"
	1    11210 4485
	1    0    0    -1  
$EndComp
Text Notes 7415 4740 0    60   ~ 0
thin films
$Comp
L main-rescue:OPA333D-RESCUE-main U8
U 1 1 5A42346C
P 8525 5515
AR Path="/563D36D0/5A42346C" Ref="U8"  Part="1" 
AR Path="/5948C701/5A42346C" Ref="U21"  Part="1" 
AR Path="/5A981327/5A993CA6/5A42346C" Ref="U8"  Part="1" 
F 0 "U8" H 8866 5561 50  0000 L CNN
F 1 "AD8655 maybe" H 8866 5470 50  0000 L CNN
F 2 "multispeq:so-8" H 8525 5365 50  0001 L CNN
F 3 "" H 8675 5665 50  0001 C CNN
F 4 "Value" H 8525 5515 50  0001 C CNN "manf#"
F 5 "AD8655 maybe" H 8525 5515 50  0001 C CNN "Desc"
	1    8525 5515
	1    0    0    -1  
$EndComp
$Comp
L main-rescue:R-RESCUE-main R21
U 1 1 5A4651EF
P 10145 6730
AR Path="/563D36D0/5A4651EF" Ref="R21"  Part="1" 
AR Path="/5948C701/5A4651EF" Ref="R33"  Part="1" 
AR Path="/5A981327/5A993CA6/5A4651EF" Ref="R21"  Part="1" 
F 0 "R21" V 10055 6730 30  0000 C CNN
F 1 "0" V 10145 6730 50  0000 C CNN
F 2 "multispeq:r_0603" H 10145 6730 60  0001 C CNN
F 3 "RC0603JR-070RL" H 10145 6730 10  0001 C CNN
F 4 "RC0603JR-070RL" H 10145 6730 60  0001 C CNN "manf#"
F 5 "RC0603JR-070RL" H 10145 6730 50  0001 C CNN "Desc"
	1    10145 6730
	0    -1   -1   0   
$EndComp
Wire Wire Line
	7795 6730 7795 7080
Wire Wire Line
	7525 6730 7795 6730
Wire Wire Line
	10295 6730 11605 6730
Wire Wire Line
	10455 4480 10455 4485
Wire Wire Line
	9865 4485 10455 4485
Connection ~ 10455 4485
Connection ~ 7795 6730
Wire Wire Line
	7660 4865 7925 4865
Wire Wire Line
	7660 5065 7660 5165
Wire Wire Line
	7660 5165 7925 5165
Wire Wire Line
	9865 4365 9865 4485
Wire Wire Line
	10455 4485 10460 4485
Connection ~ 7925 4865
Wire Wire Line
	7295 5615 8225 5615
Wire Wire Line
	8825 5515 11610 5515
Wire Wire Line
	8425 5815 8425 6040
Wire Wire Line
	8225 4865 8225 5415
Wire Wire Line
	10455 4485 10455 4490
Wire Wire Line
	10455 4485 10660 4485
Wire Wire Line
	7795 6730 9995 6730
Wire Wire Line
	7925 4865 8225 4865
Text Notes 8130 4725 0    60   ~ 0
offset voltage
Text Notes 10700 4750 0    60   ~ 0
noise filter
Text GLabel 11460 4485 2    60   Input ~ 0
+5V
$Comp
L main-rescue:GND-RESCUE-main #PWR036
U 1 1 5AECF32B
P 10455 4785
AR Path="/563D36D0/5AECF32B" Ref="#PWR036"  Part="1" 
AR Path="/5948C701/5AECF32B" Ref="#PWR055"  Part="1" 
F 0 "#PWR055" H 10455 4535 50  0001 C CNN
F 1 "GND" H 10530 4685 20  0000 C CNN
F 2 "" H 10455 4785 60  0000 C CNN
F 3 "" H 10455 4785 60  0000 C CNN
	1    10455 4785
	1    0    0    -1  
$EndComp
$EndSCHEMATC
