EESchema Schematic File Version 4
LIBS:main-cache
EELAYER 26 0
EELAYER END
$Descr USLegal 14000 8500
encoding utf-8
Sheet 1 9
Title "Reflectance"
Date "2017-04-24"
Rev "1.0"
Comp "OurSci"
Comment1 "Robert Zegarac"
Comment2 "Greg Austic"
Comment3 "Jon Zeeff"
Comment4 ""
$EndDescr
Text GLabel 10535 5610 2    40   BiDi ~ 0
SDA
Text GLabel 9710 5610 0    40   Input ~ 0
SCL
Text GLabel 10535 5260 2    40   Input ~ 0
+3.3V_SW
$Comp
L main-rescue:GND-RESCUE-main #PWR02
U 1 1 563D36C6
P 10135 5985
F 0 "#PWR02" H 10135 5985 30  0001 C CNN
F 1 "GND" H 10135 5915 30  0001 C CNN
F 2 "" H 10135 5985 60  0000 C CNN
F 3 "" H 10135 5985 60  0000 C CNN
	1    10135 5985
	-1   0    0    -1  
$EndComp
Text Notes 10150 5095 0    60   ~ 0
IR temperature
Text GLabel 8100 6475 2    40   Output ~ 0
Intensity
Text GLabel 3070 980  2    39   Input ~ 0
+5V
$Sheet
S 2270 880  750  500 
U 563D36C9
F0 "ACToPULSer" 60
F1 "ACToPULSer.sch" 60
F2 "+5v" I R 3020 980 39 
F3 "PULSE" I R 3020 1180 39 
F4 "ACT" I R 3020 1080 39 
F5 "AGND" I R 3020 1280 60 
F6 "ACTO_Out" O L 2270 980 60 
$EndSheet
Text GLabel 3070 1080 2    40   Input ~ 0
Intensity
Text GLabel 3070 1180 2    40   Input ~ 0
PULSEOFF
Text GLabel 2980 2780 2    39   Output ~ 0
A1_N
$Comp
L multispec:MLX90615 U2
U 1 1 563D36D5
P 10135 5610
F 0 "U2" V 9860 5760 60  0000 C CNN
F 1 "MLX90615" V 10385 5785 40  0000 C CNN
F 2 "multispeq:TO-72_4Pin" H 10135 5610 60  0001 C CNN
F 3 "OPTIONAL-IR-TEMP" H 10135 5610 60  0001 C CNN
F 4 "MLX90615SSG-DAG-000-TU" H 10135 5610 60  0001 C CNN "manf#"
	1    10135 5610
	0    1    1    0   
$EndComp
$Comp
L main-rescue:GND-RESCUE-main #PWR03
U 1 1 563D36D6
P 9760 5360
F 0 "#PWR03" H 9760 5360 30  0001 C CNN
F 1 "GND" H 9760 5290 30  0001 C CNN
F 2 "" H 9760 5360 60  0000 C CNN
F 3 "" H 9760 5360 60  0000 C CNN
	1    9760 5360
	-1   0    0    -1  
$EndComp
Text GLabel 6300 5875 0    40   Output ~ 0
PULSE7
Text GLabel 6300 6075 0    40   Output ~ 0
PULSE8
Text GLabel 6300 5575 0    40   Output ~ 0
PULSE9
Text GLabel 6300 5275 0    40   Output ~ 0
PULSE6
Text GLabel 6300 5675 0    40   Output ~ 0
PULSE10
Text GLabel 6300 5475 0    40   Output ~ 0
PULSE3
Text GLabel 6300 6925 0    40   Output ~ 0
SCL
Text GLabel 6300 6825 0    40   BiDi ~ 0
SDA
Text GLabel 6300 5175 0    40   Output ~ 0
PULSE5
Text GLabel 6300 5975 0    40   Output ~ 0
PULSE1
Text GLabel 6300 5375 0    40   Output ~ 0
PULSE2
Text GLabel 6300 5775 0    40   Output ~ 0
PULSE4
Text GLabel 8100 6600 2    40   Input ~ 0
BLE_TXd
Text GLabel 8100 6700 2    40   Output ~ 0
BLE_RXd
$Sheet
S 6350 4475 1700 2925
U 563D36EF
F0 "Teensy31" 60
F1 "Teensy31.sch" 60
F2 "23/A9" O L 6350 5675 40 
F3 "22/A8" I R 8050 7030 40 
F4 "21/A7" O L 6350 6600 40 
F5 "20/A6" O L 6350 5475 40 
F6 "19/A5" O L 6350 6925 40 
F7 "18/A4" B L 6350 6825 40 
F8 "17/A3" O L 6350 6475 40 
F9 "16/A2" O L 6350 6375 40 
F10 "15/A1" O L 6350 6275 40 
F11 "13(LED)" O L 6350 7310 40 
F12 "12" I L 6350 7040 40 
F13 "11" O L 6350 7130 40 
F14 "10" O L 6350 7220 39 
F15 "9" B R 8050 7150 40 
F16 "8" I R 8050 7250 40 
F17 "7" O R 8050 7350 40 
F18 "6" O L 6350 6700 40 
F19 "5" O L 6350 5375 40 
F20 "3" O L 6350 5175 40 
F21 "2" O R 8050 5850 40 
F22 "28" O L 6350 5575 40 
F23 "27" O L 6350 6075 40 
F24 "A11" I R 8050 5625 39 
F25 "AREF" O R 8050 4950 40 
F26 "A10" I R 8050 5725 40 
F27 "4" O L 6350 5275 40 
F28 "1" O R 8050 6700 40 
F29 "0" I R 8050 6600 40 
F30 "33" O R 8050 5325 40 
F31 "32" B R 8050 6375 40 
F32 "31" O R 8050 5975 39 
F33 "30" B R 8050 6825 40 
F34 "29" O R 8050 6925 40 
F35 "26" O L 6350 5975 40 
F36 "25" O L 6350 5875 40 
F37 "24" O L 6350 5775 40 
F38 "+5V" I L 6350 4575 40 
F39 "RESET" I R 8050 5025 40 
F40 "14/A0" B R 8050 6275 40 
F41 "D+" B L 6350 4850 60 
F42 "D-" B L 6350 4950 60 
F43 "DAC/A14" O R 8050 6475 40 
F44 "A12" I R 8050 5525 39 
F45 "A13" I R 8050 5425 39 
F46 "+3.3V" O L 6350 4650 39 
F47 "3.3Vperm" I L 6350 4725 39 
F48 "AGND" O R 8050 4850 40 
$EndSheet
$Sheet
S 9390 1130 700  650 
U 563D36F5
F0 "BMS" 40
F1 "BMS.sch" 40
F2 "D+" I L 9390 1430 60 
F3 "D-" B L 9390 1330 60 
F4 "Iset" O R 10090 1280 60 
F5 "Vbatt" O R 10090 1180 60 
F6 "Vusb" O L 9390 1180 60 
F7 "NTC" I R 10090 1655 60 
$EndSheet
Text GLabel 6300 4650 0    39   Output ~ 0
+3.3V
Text GLabel 9340 1430 0    39   Output ~ 0
D+
Text GLabel 9340 1330 0    39   Output ~ 0
D-
Text GLabel 6300 4850 0    39   BiDi ~ 0
D+
Text GLabel 6300 4950 0    39   BiDi ~ 0
D-
Text GLabel 6300 4725 0    39   Input ~ 0
+3.3V
Text GLabel 6300 6375 0    40   Input ~ 0
Bat_test
Text GLabel 4550 2050 0    40   Output ~ 0
Bat_test
$Comp
L main-rescue:R-RESCUE-main R4
U 1 1 563D3713
P 4775 1875
F 0 "R4" V 4855 1875 50  0000 C CNN
F 1 "2K" V 4775 1875 50  0000 C CNN
F 2 "multispeq:r_0603" V 4705 1875 30  0001 C CNN
F 3 "RC0603JR-072KL" H 4775 1875 30  0001 C CNN
F 4 "RC0603JR-072KL" H 4775 1875 60  0001 C CNN "manf#"
	1    4775 1875
	1    0    0    -1  
$EndComp
$Comp
L main-rescue:R-RESCUE-main R5
U 1 1 563D3714
P 4775 2225
F 0 "R5" V 4700 2150 50  0000 C CNN
F 1 "680" V 4775 2225 50  0000 C CNN
F 2 "multispeq:r_0603" V 4705 2225 30  0001 C CNN
F 3 "RC0603JR-07680RL" H 4775 2225 30  0001 C CNN
F 4 "RC0603JR-07680RL" H 4775 2225 60  0001 C CNN "manf#"
	1    4775 2225
	-1   0    0    1   
$EndComp
$Comp
L main-rescue:GND-RESCUE-main #PWR07
U 1 1 563D3715
P 4775 2425
F 0 "#PWR07" H 4775 2425 30  0001 C CNN
F 1 "GND" H 4775 2355 30  0001 C CNN
F 2 "" H 4775 2425 60  0000 C CNN
F 3 "" H 4775 2425 60  0000 C CNN
	1    4775 2425
	-1   0    0    -1  
$EndComp
Text GLabel 10265 980  0    39   Output ~ 0
Vbatt
Text GLabel 5075 1225 2    39   Input ~ 0
Vbatt
Text GLabel 8125 5325 2    39   Output ~ 0
~Bat_meas
Text GLabel 4275 1475 0    39   Input ~ 0
~Bat_meas
$Comp
L main-rescue:Q_PMOS_GDS-RESCUE-main Q1
U 1 1 563D3718
P 4675 1475
F 0 "Q1" H 4975 1525 50  0000 R CNN
F 1 "Q_PMOS_GSD" H 5325 1425 50  0000 R CNN
F 2 "multispeq:sot23" H 4875 1575 29  0001 C CNN
F 3 "DMG2305UX-7" H 4675 1475 60  0001 C CNN
F 4 "DMG2305UX-7" H 4675 1475 60  0001 C CNN "manf#"
	1    4675 1475
	1    0    0    1   
$EndComp
Text Notes 3725 1890 0    60   ~ 0
Battery level\nvoltage measurement\nswitch 
$Comp
L main-rescue:C_Small-RESCUE-main C1
U 1 1 563D371C
P 4650 2250
F 0 "C1" H 4720 2310 50  0000 L CNN
F 1 "0.1u" H 4660 2185 50  0000 L CNN
F 2 "multispeq:c_0603" H 4650 2250 10  0001 C CNN
F 3 "C0603C104M5RACTU" H 4650 2250 10  0001 C CNN
F 4 "C0603C104M5RACTU" H 4650 2250 60  0001 C CNN "manf#"
	1    4650 2250
	-1   0    0    1   
$EndComp
$Comp
L main-rescue:R-RESCUE-main R3
U 1 1 565885AE
P 4575 1225
F 0 "R3" V 4500 1150 50  0000 C CNN
F 1 "130K" V 4575 1225 50  0000 C CNN
F 2 "multispeq:r_0603" V 4505 1225 30  0001 C CNN
F 3 "RC0603JR-07130KL" H 4575 1225 30  0001 C CNN
F 4 "RC0603JR-07130KL" H 4575 1225 60  0001 C CNN "manf#"
	1    4575 1225
	0    -1   -1   0   
$EndComp
$Comp
L main-rescue:C_Small-RESCUE-main C2
U 1 1 56624548
P 9910 5260
F 0 "C2" V 9830 5115 50  0000 L CNN
F 1 "10u" V 9840 5330 50  0000 L CNN
F 2 "multispeq:c_0603" H 9910 5260 10  0000 C CNN
F 3 "DNI - GRM188R61A106KE69D" H 9910 5260 10  0001 C CNN
F 4 "DNI - GRM188R61A106KE69D" H 9910 5260 60  0001 C CNN "manf#"
	1    9910 5260
	0    1    1    0   
$EndComp
$Comp
L main-rescue:R-RESCUE-main R10
U 1 1 566077B7
P 10390 1930
F 0 "R10" V 10470 1930 50  0000 C CNN
F 1 "10K" V 10390 1930 50  0000 C CNN
F 2 "multispeq:r_0603" V 10320 1930 30  0001 C CNN
F 3 "RC1608J103CS" H 10390 1930 30  0001 C CNN
F 4 "RC1608J103CS" H 10390 1930 60  0001 C CNN "manf#"
	1    10390 1930
	1    0    0    -1  
$EndComp
$Comp
L main-rescue:SW_PUSH-RESCUE-main SW1
U 1 1 56611EC2
P 6530 2455
F 0 "SW1" H 6680 2565 50  0000 C CNN
F 1 "RESET" H 6530 2375 50  0000 C CNN
F 2 "multispeq:SW_PB_RA" H 6530 2455 60  0001 C CNN
F 3 "APTCLGTVTR" H 6530 2455 60  0001 C CNN
F 4 "APTCLGTVTR" H 6530 2455 60  0001 C CNN "manf#"
	1    6530 2455
	1    0    0    -1  
$EndComp
$Comp
L main-rescue:GND-RESCUE-main #PWR08
U 1 1 56F15E70
P 10190 1280
F 0 "#PWR08" H 10190 1280 30  0001 C CNN
F 1 "GND" H 10190 1210 30  0001 C CNN
F 2 "" H 10190 1280 60  0000 C CNN
F 3 "" H 10190 1280 60  0000 C CNN
	1    10190 1280
	-1   0    0    -1  
$EndComp
Text GLabel 8100 7030 2    40   Input ~ 0
5V_USB_meas
Text GLabel 8410 3530 2    40   Input ~ 0
SDA
Text GLabel 8410 3630 2    40   Input ~ 0
SCL
$Comp
L main-rescue:R-RESCUE-main R1
U 1 1 57463752
P 8260 3530
F 0 "R1" V 8185 3455 50  0000 C CNN
F 1 "2K" V 8260 3530 50  0000 C CNN
F 2 "multispeq:r_0603" V 8190 3530 30  0001 C CNN
F 3 "RT0603DRD072KL" H 8260 3530 30  0001 C CNN
F 4 "RT0603DRD072KL" H 8260 3530 60  0001 C CNN "manf#"
	1    8260 3530
	0    1    1    0   
$EndComp
$Comp
L main-rescue:R-RESCUE-main R2
U 1 1 57466A80
P 8260 3630
F 0 "R2" V 8335 3555 50  0000 C CNN
F 1 "2K" V 8260 3630 50  0000 C CNN
F 2 "multispeq:r_0603" V 8190 3630 30  0001 C CNN
F 3 "RC0603JR-072KL" H 8260 3630 30  0001 C CNN
F 4 "RC0603JR-072KL" H 8260 3630 60  0001 C CNN "manf#"
	1    8260 3630
	0    1    1    0   
$EndComp
Text GLabel 8035 3580 0    39   Input ~ 0
+3.3V_SW
Text Notes 7935 3405 0    60   ~ 0
I2C pull-up's\n(DNI)
Text GLabel 10340 2205 0    40   Input ~ 0
wake_DC/DC
$Comp
L main-rescue:Q_PMOS_GDS-RESCUE-main Q3
U 1 1 574EAF4F
P 6880 2205
F 0 "Q3" V 6805 2430 50  0000 R CNN
F 1 "Q_PMOS_GSD" V 7080 2430 50  0000 R CNN
F 2 "multispeq:sot23" H 7080 2305 29  0001 C CNN
F 3 "DMG2305UX-7" H 6880 2205 60  0001 C TNN
F 4 "DMG2305UX-7" H 6880 2205 60  0001 C CNN "manf#"
	1    6880 2205
	0    1    -1   0   
$EndComp
Text GLabel 6180 2105 0    39   Input ~ 0
Vbatt
$Comp
L main-rescue:R-RESCUE-main R7
U 1 1 574F7FDE
P 6880 2655
F 0 "R7" H 6705 2630 50  0000 C CNN
F 1 "10K" V 6880 2655 50  0000 C CNN
F 2 "multispeq:r_0603" V 6810 2655 30  0001 C CNN
F 3 "RC1608J103CS" H 6880 2655 30  0001 C CNN
F 4 "RC1608J103CS" H 6880 2655 60  0001 C CNN "manf#"
	1    6880 2655
	-1   0    0    1   
$EndComp
$Comp
L main-rescue:GND-RESCUE-main #PWR010
U 1 1 574FE6B9
P 6880 2805
F 0 "#PWR010" H 6880 2805 30  0001 C CNN
F 1 "GND" H 6880 2735 30  0001 C CNN
F 2 "" H 6880 2805 60  0000 C CNN
F 3 "" H 6880 2805 60  0000 C CNN
	1    6880 2805
	-1   0    0    -1  
$EndComp
Text GLabel 7380 2105 2    39   Output ~ 0
Vbatt/SW
Text GLabel 6300 4575 0    39   Input ~ 0
Vbatt/SW
Text GLabel 6755 1430 2    39   Input ~ 0
~3.3V_ON
$Comp
L main-rescue:Q_PMOS_GDS-RESCUE-main Q2
U 1 1 57539CDF
P 6705 1130
F 0 "Q2" V 6655 1380 50  0000 R CNN
F 1 "Q_PMOS_GSD" V 6905 1355 50  0000 R CNN
F 2 "multispeq:sot23" H 6905 1230 29  0001 C CNN
F 3 "DMG2305UX-7" H 6705 1130 60  0001 C CNN
F 4 "DMG2305UX-7" H 6705 1130 60  0001 C CNN "manf#"
	1    6705 1130
	0    1    -1   0   
$EndComp
$Comp
L main-rescue:R-RESCUE-main R6
U 1 1 5754AA77
P 6455 1430
F 0 "R6" V 6355 1405 50  0000 C CNN
F 1 "130K" V 6455 1430 50  0000 C CNN
F 2 "multispeq:r_0603" V 6385 1430 30  0001 C CNN
F 3 "RC0603JR-07130KL" H 6455 1430 30  0001 C CNN
F 4 "RC0603JR-07130KL" H 6455 1430 60  0001 C CNN "manf#"
	1    6455 1430
	0    -1   -1   0   
$EndComp
Text GLabel 6255 1030 0    39   Input ~ 0
+3.3V
Text GLabel 7205 1030 2    39   Output ~ 0
+3.3V_SW
Text GLabel 8125 5850 2    40   Output ~ 0
wake_DC/DC
Text Notes 7180 2405 0    60   ~ 0
main SW RESET \ncircuit
Text Notes 7030 1305 0    60   ~ 0
3.3V switched \ncircuit
Text GLabel 8125 5975 2    39   Output ~ 0
~3.3V_ON
Text Notes 8625 6750 1    24   ~ 0
BLE_DATA
Text Notes 8625 6825 3    16   ~ 0
External I2C
Text Label 6905 2455 0    39   ~ 0
reset
$Comp
L main-rescue:PWR_FLAG-RESCUE-main #FLG011
U 1 1 574301CA
P 7050 1030
F 0 "#FLG011" H 7050 1125 30  0001 C CNN
F 1 "PWR_FLAG" H 7050 1210 30  0000 C CNN
F 2 "" H 7050 1030 60  0000 C CNN
F 3 "" H 7050 1030 60  0000 C CNN
	1    7050 1030
	-1   0    0    -1  
$EndComp
Text GLabel 8990 1530 0    40   Output ~ 0
5V_USB_meas
$Comp
L main-rescue:GND-RESCUE-main #PWR012
U 1 1 574A52F4
P 9040 1855
F 0 "#PWR012" H 9040 1855 30  0001 C CNN
F 1 "GND" H 9040 1785 30  0001 C CNN
F 2 "" H 9040 1855 60  0000 C CNN
F 3 "" H 9040 1855 60  0000 C CNN
	1    9040 1855
	-1   0    0    -1  
$EndComp
$Comp
L main-rescue:R-RESCUE-main R9
U 1 1 5749F1E0
P 9040 1705
F 0 "R9" V 9120 1705 50  0000 C CNN
F 1 "2K" V 9040 1705 50  0000 C CNN
F 2 "multispeq:r_0603" V 8970 1705 30  0001 C CNN
F 3 "RC0603JR-072KL" H 9040 1705 30  0001 C CNN
F 4 "RC0603JR-072KL" H 9040 1705 60  0001 C CNN "manf#"
	1    9040 1705
	1    0    0    -1  
$EndComp
$Comp
L main-rescue:R-RESCUE-main R8
U 1 1 574F0D17
P 9040 1330
F 0 "R8" V 9120 1330 50  0000 C CNN
F 1 "10K" V 9040 1330 50  0000 C CNN
F 2 "multispeq:r_0603" V 8970 1330 30  0001 C CNN
F 3 "RC1608J103CS" H 9040 1330 30  0001 C CNN
F 4 "RC1608J103CS" H 9040 1330 60  0001 C CNN "manf#"
	1    9040 1330
	1    0    0    -1  
$EndComp
$Sheet
S 10490 1030 700  750 
U 563D371A
F0 "SMPS" 40
F1 "SMPS.sch" 40
F2 "+6V" O R 11190 1340 60 
F3 "Vbatt" I L 10490 1180 60 
F4 "DC/DC_on" I L 10490 1680 60 
$EndSheet
$Comp
L multispec:ITEAD_HC-05 U1
U 1 1 5760CD0B
P 4500 6700
F 0 "U1" H 4500 6675 60  0000 C CNN
F 1 "Bluetooth HC-06" H 4500 5500 60  0000 C CNN
F 2 "multispeq:HC_05_Bluetooth" H 4500 6700 60  0001 C CNN
F 3 "Bluetooth HC-06" H 4500 6700 60  0001 C CNN
F 4 "Bluetooth HC-06" H 4500 6700 60  0001 C CNN "manf#"
	1    4500 6700
	1    0    0    -1  
$EndComp
NoConn ~ 5100 6000
NoConn ~ 5100 6100
NoConn ~ 5100 6300
NoConn ~ 5100 6400
NoConn ~ 5100 6500
NoConn ~ 5100 6600
NoConn ~ 5100 6700
NoConn ~ 5100 6800
NoConn ~ 5100 6900
NoConn ~ 5100 7000
NoConn ~ 5100 7100
NoConn ~ 5100 7200
NoConn ~ 5100 7300
NoConn ~ 5100 7400
NoConn ~ 3900 6050
NoConn ~ 3900 6150
NoConn ~ 3900 6500
NoConn ~ 3900 6600
NoConn ~ 3900 6700
NoConn ~ 3900 6800
NoConn ~ 3900 6950
NoConn ~ 3900 7050
NoConn ~ 3900 7200
NoConn ~ 3900 7300
NoConn ~ 3900 7400
NoConn ~ 3900 7500
NoConn ~ 3900 5900
Text GLabel 3625 5750 0    39   Input ~ 0
+3.3V_SW
Text GLabel 3625 6250 0    40   Input ~ 0
BLE_RXd
Text GLabel 3625 6350 0    40   Output ~ 0
BLE_TXd
Text Notes 3850 5525 0    60   ~ 0
Bluetooth Classic Module
Text GLabel 12905 5560 2    40   Input ~ 0
+3.3V_SW
$Comp
L main-rescue:GND-RESCUE-main #PWR013
U 1 1 59021FCF
P 11430 5560
F 0 "#PWR013" H 11430 5560 30  0001 C CNN
F 1 "GND" H 11430 5490 30  0001 C CNN
F 2 "" H 11430 5560 60  0000 C CNN
F 3 "" H 11430 5560 60  0000 C CNN
	1    11430 5560
	-1   0    0    -1  
$EndComp
$Comp
L main-rescue:C_Small-RESCUE-main C4
U 1 1 590222D7
P 12730 5460
F 0 "C4" H 12530 5510 50  0000 L CNN
F 1 "10u" H 12580 5410 50  0000 L CNN
F 2 "multispeq:c_0603" H 12730 5460 10  0000 C CNN
F 3 "GRM188R61A106KE69D" H 12730 5460 10  0000 C CNN
F 4 "GRM188R61A106KE69D" H 12730 5460 60  0001 C CNN "manf#"
	1    12730 5460
	-1   0    0    1   
$EndComp
$Comp
L main-rescue:GND-RESCUE-main #PWR014
U 1 1 5902288A
P 13080 5660
F 0 "#PWR014" H 13080 5660 30  0001 C CNN
F 1 "GND" H 13080 5590 30  0001 C CNN
F 2 "" H 13080 5660 60  0000 C CNN
F 3 "" H 13080 5660 60  0000 C CNN
	1    13080 5660
	-1   0    0    -1  
$EndComp
$Comp
L main-rescue:GND-RESCUE-main #PWR015
U 1 1 59042BA2
P 12630 5860
F 0 "#PWR015" H 12630 5860 30  0001 C CNN
F 1 "GND" H 12630 5790 30  0001 C CNN
F 2 "" H 12630 5860 60  0000 C CNN
F 3 "" H 12630 5860 60  0000 C CNN
	1    12630 5860
	-1   0    0    -1  
$EndComp
Text GLabel 11830 5860 0    40   Input ~ 0
SCL
Text GLabel 11830 5760 0    40   BiDi ~ 0
SDA
Text GLabel 11830 5660 0    40   Input ~ 0
+3.3V_SW
Text GLabel 2195 980  0    40   Input ~ 0
LED_Drive
$Sheet
S 4425 3495 725  1400
U 590FF6D9
F0 "LEDS" 60
F1 "LEDS.sch" 60
F2 "PULSE1" I L 4425 3895 60 
F3 "PULSE2" I L 4425 3985 60 
F4 "+5" I L 4425 3720 60 
F5 "PULSE3" I L 4425 4075 60 
F6 "PULSE9" I L 4425 4615 60 
F7 "PULSE7" I L 4425 4435 60 
F8 "PULSE8" I L 4425 4525 60 
F9 "PULSE6" I L 4425 4345 60 
F10 "PULSE4" I L 4425 4165 60 
F11 "PULSE5" I L 4425 4255 60 
F12 "PULSE10" I L 4425 4705 60 
F13 "Acto_drive" I L 4425 3595 60 
$EndSheet
Text GLabel 4350 3595 0    40   Input ~ 0
LED_Drive
Text GLabel 4375 4705 0    40   Input ~ 0
PULSE10
Text GLabel 4375 4525 0    40   Input ~ 0
PULSE8
Text GLabel 4375 4435 0    40   Input ~ 0
PULSE7
Text GLabel 4375 4345 0    40   Input ~ 0
PULSE6
Text GLabel 4375 3895 0    40   Input ~ 0
PULSE1
Text GLabel 4375 3985 0    40   Input ~ 0
PULSE2
Text GLabel 4375 4075 0    40   Input ~ 0
PULSE3
Text GLabel 4375 4165 0    40   Input ~ 0
PULSE4
Text GLabel 4375 4255 0    40   Input ~ 0
PULSE5
Text GLabel 4350 3720 0    39   Input ~ 0
+5V
Text Notes 11955 5285 0    60   ~ 0
Humidity Sensor
Text GLabel 8125 5625 2    39   Input ~ 0
A1_N
NoConn ~ 6300 6600
NoConn ~ 8100 6825
NoConn ~ 8100 6925
Text GLabel 8125 5725 2    39   Input ~ 0
A1_P
Text Notes 8450 5650 0    40   ~ 0
Differential inputs\nParallel traces\nall the way to detector GND
Text GLabel 3020 4260 2    39   Output ~ 0
A2_N
Text GLabel 8125 5425 2    39   Input ~ 0
A2_N
Text GLabel 8125 5525 2    39   Input ~ 0
A2_P
$Comp
L multispec:OHS3150U U22
U 1 1 5949D58A
P 12330 3555
F 0 "U22" H 12102 3623 40  0000 R CNN
F 1 "OHS3150U" H 12102 3547 40  0000 R CNN
F 2 "multispeq:TO-92_Inline_Narrow_Oval" H 12102 3494 12  0000 R CNN
F 3 "OPTIONAL-HALL" H 12102 3464 12  0000 R CNN
F 4 "OHS3150U" H 12330 3555 60  0001 C CNN "manf#"
	1    12330 3555
	1    0    0    -1  
$EndComp
Text GLabel 12405 3230 2    40   Input ~ 0
+5V
$Comp
L main-rescue:C_Small-RESCUE-main C66
U 1 1 594A5A0B
P 12155 3230
F 0 "C66" V 12215 3310 50  0000 L CNN
F 1 "10u" V 12225 3055 50  0000 L CNN
F 2 "multispeq:c_0603" H 12155 3230 10  0001 C CNN
F 3 "OPTIONAL-HALL" H 12155 3230 10  0001 C CNN
F 4 "GRM188R61A106KE69D" H 12155 3230 60  0001 C CNN "manf#"
	1    12155 3230
	0    -1   -1   0   
$EndComp
$Comp
L main-rescue:R-RESCUE-main R88
U 1 1 594A5F94
P 12655 3755
F 0 "R88" V 12735 3755 50  0000 C CNN
F 1 "10K" V 12655 3755 50  0000 C CNN
F 2 "multispeq:r_0603" V 12585 3755 30  0001 C CNN
F 3 "OPTIONAL-HALL" H 12655 3755 30  0001 C CNN
F 4 "RC1608J103CS" H 12655 3755 60  0001 C CNN "manf#"
	1    12655 3755
	1    0    0    -1  
$EndComp
$Comp
L main-rescue:R-RESCUE-main R89
U 1 1 594A74CC
P 12655 4155
F 0 "R89" V 12735 4155 50  0000 C CNN
F 1 "27K" V 12655 4155 50  0000 C CNN
F 2 "multispeq:r_0603" V 12585 4155 30  0001 C CNN
F 3 "OPTIONAL-HALL" H 12655 4155 30  0001 C CNN
F 4 "RC0603JR-0727KL" H 12655 4155 60  0001 C CNN "manf#"
	1    12655 4155
	1    0    0    -1  
$EndComp
$Comp
L main-rescue:GND-RESCUE-main #PWR016
U 1 1 594AEB5C
P 11880 3280
F 0 "#PWR016" H 11880 3280 30  0001 C CNN
F 1 "GND" H 11880 3210 30  0001 C CNN
F 2 "" H 11880 3280 60  0000 C CNN
F 3 "" H 11880 3280 60  0000 C CNN
	1    11880 3280
	-1   0    0    -1  
$EndComp
$Comp
L main-rescue:GND-RESCUE-main #PWR017
U 1 1 594AF57C
P 12330 3905
F 0 "#PWR017" H 12330 3905 30  0001 C CNN
F 1 "GND" H 12330 3835 30  0001 C CNN
F 2 "" H 12330 3905 60  0000 C CNN
F 3 "" H 12330 3905 60  0000 C CNN
	1    12330 3905
	-1   0    0    -1  
$EndComp
$Comp
L main-rescue:GND-RESCUE-main #PWR018
U 1 1 594AFA7B
P 12655 4305
F 0 "#PWR018" H 12655 4305 30  0001 C CNN
F 1 "GND" H 12655 4235 30  0001 C CNN
F 2 "" H 12655 4305 60  0000 C CNN
F 3 "" H 12655 4305 60  0000 C CNN
	1    12655 4305
	-1   0    0    -1  
$EndComp
Text GLabel 12780 3955 2    40   Output ~ 0
Hall_out
Text GLabel 6300 6475 0    40   Input ~ 0
Hall_out
Text GLabel 4375 4615 0    40   Input ~ 0
PULSE9
Text GLabel 8100 6375 2    40   Output ~ 0
PULSEOFF
$Sheet
S 1010 2080 745  700 
U 563D36D0
F0 "detector1" 60
F1 "detector_m.sch" 60
F2 "AnaOut_N" O R 1755 2660 39 
F3 "AnaOut_P" O R 1755 2455 39 
F4 "det_out" O L 1010 2435 39 
F5 "det_return" O L 1010 2735 39 
$EndSheet
$Sheet
S 1015 3585 740  675 
U 5948C701
F0 "detector2" 60
F1 "detector_m.sch" 60
F2 "AnaOut_N" O R 1755 4130 39 
F3 "AnaOut_P" O R 1755 3960 39 
F4 "det_out" O L 1015 3875 39 
F5 "det_return" O L 1015 4175 39 
$EndSheet
NoConn ~ 6300 6275
Text GLabel 3010 3960 2    39   Output ~ 0
A2_P
Text GLabel 2970 2455 2    39   Output ~ 0
A1_P
Text Notes 8090 4805 0    39   ~ 0
Use for analog out (via audio jack)
$Comp
L main-rescue:GND-RESCUE-main #PWR019
U 1 1 5973FBD2
P 4500 7650
F 0 "#PWR019" H 4500 7400 50  0001 C CNN
F 1 "GND" H 4500 7500 50  0000 C CNN
F 2 "" H 4500 7650 60  0000 C CNN
F 3 "" H 4500 7650 60  0000 C CNN
	1    4500 7650
	1    0    0    -1  
$EndComp
$Comp
L main-rescue:GNDA-RESCUE-main #PWR021
U 1 1 597A5AE7
P 8400 4850
F 0 "#PWR021" H 8400 4600 50  0001 C CNN
F 1 "GNDA" H 8400 4700 50  0000 C CNN
F 2 "" H 8400 4850 60  0000 C CNN
F 3 "" H 8400 4850 60  0000 C CNN
	1    8400 4850
	1    0    0    -1  
$EndComp
$Comp
L main-rescue:R-RESCUE-main R32
U 1 1 59603333
P 2350 2630
F 0 "R32" V 2425 2640 30  0000 C CNN
F 1 "360" V 2350 2630 50  0000 C CNN
F 2 "multispeq:r_0603" H 2350 2630 60  0001 C CNN
F 3 "RT0603DRE07360RL" V 2350 2630 10  0001 C CNN
F 4 "RT0603DRE07360RL" H 2350 2630 60  0001 C CNN "manf#"
	1    2350 2630
	-1   0    0    1   
$EndComp
$Comp
L main-rescue:R-RESCUE-main R15
U 1 1 59603348
P 2200 2455
F 0 "R15" V 2275 2445 30  0000 C CNN
F 1 "1K" V 2200 2455 50  0000 C CNN
F 2 "multispeq:r_0603" H 2200 2455 60  0001 C CNN
F 3 "RT0603DRD071KL" V 2200 2455 10  0001 C CNN
F 4 "RT0603DRD071KL" H 2200 2455 60  0001 C CNN "manf#"
	1    2200 2455
	0    1    1    0   
$EndComp
$Comp
L main-rescue:C-RESCUE-main C3
U 1 1 59603350
P 2500 2630
F 0 "C3" V 2525 2680 30  0000 L CNN
F 1 "22p" V 2525 2505 30  0000 L CNN
F 2 "multispeq:c_0603" H 2500 2630 60  0001 C CNN
F 3 "06035A220JAT2A" H 2500 2630 10  0001 C CNN
F 4 "06035A220JAT2A" H 2500 2630 60  0001 C CNN "manf#"
	1    2500 2630
	1    0    0    -1  
$EndComp
$Comp
L main-rescue:R-RESCUE-main R31
U 1 1 59612DEC
P 2205 3960
F 0 "R31" V 2280 3965 30  0000 C CNN
F 1 "1K" V 2205 3960 50  0000 C CNN
F 2 "multispeq:r_0603" H 2205 3960 60  0001 C CNN
F 3 "RT0603DRD071KL" V 2205 3960 10  0001 C CNN
F 4 "RT0603DRD071KL" H 2205 3960 60  0001 C CNN "manf#"
	1    2205 3960
	0    1    1    0   
$EndComp
$Comp
L main-rescue:R-RESCUE-main R77
U 1 1 59615188
P 2430 4110
F 0 "R77" V 2505 4115 30  0000 C CNN
F 1 "360" V 2430 4110 50  0000 C CNN
F 2 "multispeq:r_0603" H 2430 4110 60  0001 C CNN
F 3 "RT0603DRE07360RL" V 2430 4110 10  0001 C CNN
F 4 "RT0603DRE07360RL" H 2430 4110 60  0001 C CNN "manf#"
	1    2430 4110
	-1   0    0    1   
$EndComp
$Comp
L main-rescue:C-RESCUE-main C15
U 1 1 59616150
P 2585 4110
F 0 "C15" V 2610 4160 30  0000 L CNN
F 1 "22p" V 2610 3985 30  0000 L CNN
F 2 "multispeq:c_0603" H 2585 4110 60  0001 C CNN
F 3 "06035A220JAT2A" H 2585 4110 10  0001 C CNN
F 4 "06035A220JAT2A" H 2585 4110 60  0001 C CNN "manf#"
	1    2585 4110
	1    0    0    -1  
$EndComp
Text Notes 2445 2250 0    39   ~ 0
place filter near MK20
Text Notes 2470 3775 0    39   ~ 0
place filter near MK20
$Comp
L main-rescue:Audio-Jack-3_2Switches-RESCUE-main J1
U 1 1 5966635A
P 10175 3860
F 0 "J1" H 10151 4285 50  0000 C CNN
F 1 "Audio-Jack-3_2Switches" H 10151 4194 50  0000 C CNN
F 2 "multispeq:SJ1-3523N" H 10425 3960 50  0001 C CNN
F 3 "SJ1-3523N" H 10425 3960 50  0001 C CNN
F 4 "SJ1-3523N" H 10175 3860 60  0001 C CNN "manf#"
	1    10175 3860
	1    0    0    -1  
$EndComp
Text GLabel 10615 3760 2    40   Input ~ 0
+3.3V_SW
NoConn ~ 10375 3660
NoConn ~ 10375 3960
Text Notes 9425 3345 0    60   ~ 0
SDI-12 or Analog input via audio jack
Text GLabel 8100 6275 2    40   Input ~ 0
Analog_out
Text GLabel 9915 4085 0    40   Input ~ 0
Analog_out
$Comp
L main-rescue:PhotoD-RESCUE-main D1
U 1 1 59689400
P 875 2585
F 0 "D1" V 940 2470 50  0000 R CNN
F 1 "DET1" V 1020 2520 50  0000 R CNN
F 2 "multispeq:Pin_diode_SIPS_down" V 880 2625 12  0000 R CNN
F 3 "S6775 Hamamatsu" H 935 2585 10  0000 C CNN
F 4 "S6775 Hamamatsu" V 875 2585 60  0001 C CNN "manf#"
	1    875  2585
	0    1    1    0   
$EndComp
$Comp
L main-rescue:PhotoD-RESCUE-main D17
U 1 1 5968E318
P 915 4025
F 0 "D17" V 980 3935 50  0000 R CNN
F 1 "DET2" V 1055 3955 50  0000 R CNN
F 2 "multispeq:Pin_diode_SIPS_down" V 915 4065 12  0000 R CNN
F 3 "S6775-01 Hamamatsu" H 975 4025 10  0000 C CNN
F 4 "S6775-01 Hamamatsu" V 915 4025 60  0001 C CNN "manf#"
	1    915  4025
	0    1    1    0   
$EndComp
$Comp
L main-rescue:GNDA-RESCUE-main #PWR022
U 1 1 5969D9A9
P 10615 3890
F 0 "#PWR022" H 10615 3640 50  0001 C CNN
F 1 "GNDA" H 10615 3740 50  0000 C CNN
F 2 "" H 10615 3890 60  0000 C CNN
F 3 "" H 10615 3890 60  0000 C CNN
	1    10615 3890
	1    0    0    -1  
$EndComp
Text Notes 12745 3405 0    60   ~ 0
Hall effect
Text Notes 2105 2395 0    60   ~ 0
thin film
Text Notes 2110 3900 0    60   ~ 0
thin film
Text Notes 2650 2645 0    60   ~ 0
C0G
Text Notes 2705 4135 0    60   ~ 0
C0G
$Comp
L multispec:BME680 U4
U 1 1 5A3692C9
P 12230 5710
F 0 "U4" H 12430 5410 60  0000 C CNN
F 1 "BME680" H 12030 6010 40  0000 C CNN
F 2 "multispeq:BME680" H 12230 5710 60  0001 C CNN
F 3 "BME680" H 12235 5295 60  0000 C CNN
F 4 "BME680" H 12230 5710 60  0001 C CNN "manf#"
F 5 "BME680" H 12230 5710 50  0001 C CNN "Desc"
	1    12230 5710
	1    0    0    -1  
$EndComp
$Comp
L main-rescue:C-RESCUE-main C12
U 1 1 5A3DCE40
P 1125 1675
F 0 "C12" V 1150 1725 30  0000 L CNN
F 1 "150p" V 1150 1550 30  0000 L CNN
F 2 "multispeq:c_0603" H 1125 1675 60  0001 C CNN
F 3 "GRM1885C1H151JA01D" H 1125 1675 10  0001 C CNN
F 4 "GRM1885C1H151JA01D" H 1125 1675 60  0001 C CNN "manf#"
	1    1125 1675
	0    1    1    0   
$EndComp
$Comp
L main-rescue:R-RESCUE-main R29
U 1 1 5A3DDB46
P 1125 1905
F 0 "R29" V 1200 1915 30  0000 C CNN
F 1 "13K" V 1125 1905 50  0000 C CNN
F 2 "multispeq:r_0603" H 1125 1905 60  0001 C CNN
F 3 "RT0603DRD0713KL" V 1125 1905 10  0001 C CNN
F 4 "RT0603DRD0713KL" H 1125 1905 60  0001 C CNN "manf#"
	1    1125 1905
	0    -1   -1   0   
$EndComp
$Comp
L main-rescue:C-RESCUE-main C62
U 1 1 5A3DECD3
P 1130 3150
F 0 "C62" V 1155 3200 30  0000 L CNN
F 1 "560p" V 1155 3025 30  0000 L CNN
F 2 "multispeq:c_0603" H 1130 3150 60  0001 C CNN
F 3 "GRM1885C1H561JA01D " H 1130 3150 10  0001 C CNN
F 4 "GRM1885C1H561JA01D " H 1130 3150 60  0001 C CNN "manf#"
	1    1130 3150
	0    -1   -1   0   
$EndComp
$Comp
L main-rescue:R-RESCUE-main R59
U 1 1 5A3DEFE9
P 1130 3390
F 0 "R59" V 1205 3400 30  0000 C CNN
F 1 "2K" V 1130 3390 50  0000 C CNN
F 2 "multispeq:r_0603" H 1130 3390 60  0001 C CNN
F 3 "RT0603DRD072KL" V 1130 3390 10  0001 C CNN
F 4 "RT0603DRD072KL" H 1130 3390 60  0001 C CNN "manf#"
	1    1130 3390
	0    -1   -1   0   
$EndComp
Text Notes 4925 800  0    60   ~ 0
USE ONLY 5MILS GRID
Text Notes 540  3195 0    40   ~ 0
NP0/C0G
Text Notes 610  3445 0    39   ~ 0
low ppm\nthin film
Text Notes 550  1710 0    40   ~ 0
NP0/C0G
Text Notes 580  1970 0    39   ~ 0
low ppm\nthin film
Text Notes 1310 3290 0    39   ~ 0
place near op amp
Text Notes 1295 1810 0    39   ~ 0
place near op amp
Wire Wire Line
	8050 5725 8125 5725
Wire Wire Line
	6350 4950 6300 4950
Wire Wire Line
	6350 4850 6300 4850
Wire Wire Line
	9340 1430 9390 1430
Wire Wire Line
	9340 1330 9390 1330
Wire Wire Line
	10090 1180 10290 1180
Wire Wire Line
	6350 4725 6300 4725
Wire Wire Line
	6300 4650 6350 4650
Wire Wire Line
	8050 5850 8125 5850
Wire Wire Line
	8050 6700 8100 6700
Wire Wire Line
	8050 6600 8100 6600
Wire Wire Line
	6350 6475 6300 6475
Wire Wire Line
	6350 6375 6300 6375
Wire Wire Line
	6350 6275 6300 6275
Wire Wire Line
	6350 6700 6300 6700
Wire Wire Line
	6350 6600 6300 6600
Wire Wire Line
	8100 7150 8050 7150
Wire Wire Line
	8050 7350 8100 7350
Wire Wire Line
	8050 7250 8100 7250
Wire Wire Line
	8050 6925 8100 6925
Wire Wire Line
	8050 6825 8100 6825
Wire Wire Line
	8050 5625 8125 5625
Wire Wire Line
	8050 6475 8100 6475
Wire Wire Line
	8050 6375 8100 6375
Wire Wire Line
	8050 6275 8100 6275
Wire Wire Line
	8050 5325 8125 5325
Wire Wire Line
	6350 6925 6300 6925
Wire Wire Line
	6350 6825 6300 6825
Wire Wire Line
	6300 4575 6350 4575
Wire Wire Line
	6300 6075 6350 6075
Wire Wire Line
	6300 5975 6350 5975
Wire Wire Line
	6300 5875 6350 5875
Wire Wire Line
	6300 5775 6350 5775
Wire Wire Line
	6300 5675 6350 5675
Wire Wire Line
	6300 5575 6350 5575
Wire Wire Line
	6300 5475 6350 5475
Wire Wire Line
	6300 5375 6350 5375
Wire Wire Line
	6300 5275 6350 5275
Wire Wire Line
	6300 5175 6350 5175
Wire Wire Line
	9760 5260 9810 5260
Connection ~ 10135 5260
Wire Wire Line
	9760 5360 9760 5260
Wire Wire Line
	10010 5260 10135 5260
Wire Wire Line
	9785 5610 9710 5610
Wire Wire Line
	10135 5960 10135 5985
Wire Wire Line
	10535 5610 10485 5610
Wire Wire Line
	3020 1180 3070 1180
Wire Wire Line
	3020 1080 3070 1080
Wire Wire Line
	3070 980  3020 980 
Wire Wire Line
	10290 980  10290 1180
Connection ~ 10290 1180
Connection ~ 4775 2050
Wire Wire Line
	10265 980  10290 980 
Wire Wire Line
	4275 1475 4425 1475
Connection ~ 4425 1475
Wire Wire Line
	4425 1475 4425 1225
Wire Wire Line
	4725 1225 4775 1225
Wire Wire Line
	4775 1225 4775 1275
Connection ~ 4775 1225
Wire Wire Line
	4775 1675 4775 1725
Wire Wire Line
	4775 2025 4775 2050
Wire Wire Line
	4650 2150 4650 2050
Wire Wire Line
	4650 2350 4650 2375
Wire Wire Line
	4650 2375 4775 2375
Wire Wire Line
	4775 2375 4775 2425
Connection ~ 4650 2050
Wire Wire Line
	4550 2050 4650 2050
Wire Wire Line
	8050 5525 8125 5525
Wire Wire Line
	8050 5425 8125 5425
Wire Wire Line
	10390 1780 10390 1680
Wire Wire Line
	10390 1680 10490 1680
Wire Wire Line
	10090 1280 10190 1280
Wire Wire Line
	10390 2080 10390 2205
Wire Wire Line
	8035 3580 8110 3580
Wire Wire Line
	8110 3530 8110 3580
Connection ~ 8110 3580
Wire Wire Line
	10390 2205 10340 2205
Wire Wire Line
	6880 2405 6880 2455
Wire Wire Line
	6830 2455 6880 2455
Connection ~ 6880 2455
Wire Wire Line
	6230 2455 6230 2105
Connection ~ 6230 2105
Wire Wire Line
	7080 2105 7255 2105
Wire Wire Line
	6255 1030 6305 1030
Wire Wire Line
	6705 1430 6705 1330
Wire Wire Line
	6905 1030 7050 1030
Wire Wire Line
	6305 1430 6305 1030
Connection ~ 6305 1030
Wire Wire Line
	6605 1430 6705 1430
Connection ~ 6705 1430
Wire Wire Line
	8125 5975 8050 5975
Wire Bus Line
	8500 6575 8575 6575
Wire Bus Line
	8575 6575 8575 6750
Wire Bus Line
	8575 6750 8500 6750
Wire Bus Line
	8500 6800 8575 6800
Wire Bus Line
	8575 6800 8575 6975
Wire Bus Line
	8575 6975 8500 6975
Wire Bus Line
	8425 6900 8500 6900
Wire Wire Line
	9040 1180 9390 1180
Wire Wire Line
	9040 1480 9040 1530
Wire Wire Line
	8990 1530 9040 1530
Connection ~ 9040 1530
Wire Wire Line
	3625 5750 4500 5750
Wire Wire Line
	3625 6250 3900 6250
Wire Wire Line
	3625 6350 3900 6350
Wire Wire Line
	12630 5560 12730 5560
Wire Wire Line
	11430 5560 11830 5560
Wire Wire Line
	12730 5360 11430 5360
Wire Wire Line
	11430 5360 11430 5560
Connection ~ 11430 5560
Wire Wire Line
	12630 5660 13080 5660
Connection ~ 12730 5560
Wire Wire Line
	12730 5560 12730 5760
Wire Wire Line
	12730 5760 12630 5760
Wire Wire Line
	6180 2105 6230 2105
Wire Wire Line
	2195 980  2270 980 
Wire Wire Line
	4350 3595 4425 3595
Wire Wire Line
	4375 4705 4425 4705
Wire Wire Line
	4375 4525 4425 4525
Wire Wire Line
	4375 4435 4425 4435
Wire Wire Line
	4375 4345 4425 4345
Wire Wire Line
	4375 4255 4425 4255
Wire Wire Line
	4375 4165 4425 4165
Wire Wire Line
	4375 4075 4425 4075
Wire Wire Line
	4375 3985 4425 3985
Wire Wire Line
	4375 3895 4425 3895
Wire Wire Line
	4400 7650 4500 7650
Connection ~ 4500 7650
Wire Wire Line
	4350 3720 4425 3720
Wire Wire Line
	8100 7030 8050 7030
Wire Wire Line
	12655 3905 12655 3955
Wire Wire Line
	12580 3555 12655 3555
Wire Wire Line
	12655 3555 12655 3605
Wire Wire Line
	12330 3305 12330 3230
Wire Wire Line
	12255 3230 12330 3230
Connection ~ 12330 3230
Wire Wire Line
	12055 3230 11880 3230
Wire Wire Line
	11880 3230 11880 3280
Wire Wire Line
	12330 3805 12330 3905
Wire Wire Line
	12655 3955 12780 3955
Connection ~ 12655 3955
Wire Wire Line
	4375 4615 4425 4615
Wire Wire Line
	8050 5225 8110 5225
Wire Wire Line
	1755 2455 2050 2455
Wire Wire Line
	1755 3960 2055 3960
Wire Wire Line
	8050 4850 8400 4850
Connection ~ 2500 2455
Wire Wire Line
	2350 2455 2500 2455
Wire Wire Line
	2500 2455 2500 2480
Wire Wire Line
	2350 2480 2350 2455
Connection ~ 2500 2780
Connection ~ 2350 2780
Connection ~ 2350 2455
Wire Wire Line
	2355 3960 2430 3960
Connection ~ 2430 3960
Connection ~ 2585 3960
Wire Wire Line
	1855 4260 2430 4260
Connection ~ 2585 4260
Connection ~ 2430 4260
Wire Wire Line
	10375 3860 10615 3860
Wire Wire Line
	10615 3860 10615 3890
Wire Wire Line
	10375 3760 10615 3760
Wire Wire Line
	9975 4060 9975 4085
Wire Wire Line
	9975 4085 9915 4085
Wire Wire Line
	875  2435 920  2435
Wire Wire Line
	1010 2735 875  2735
Wire Wire Line
	1015 4175 915  4175
Wire Wire Line
	915  3875 945  3875
Wire Wire Line
	1755 2660 1880 2660
Wire Wire Line
	1755 4130 1855 4130
Wire Wire Line
	1855 4130 1855 4260
Wire Wire Line
	2350 2780 2350 2775
Wire Wire Line
	2500 2780 2500 2785
Wire Wire Line
	1880 2780 2350 2780
Wire Wire Line
	1275 1675 1275 1905
Wire Wire Line
	1280 3150 1280 3390
Wire Wire Line
	1275 1905 2050 1905
Wire Wire Line
	2050 1905 2050 2455
Wire Wire Line
	1280 3390 2055 3390
Wire Wire Line
	2055 3390 2055 3960
Connection ~ 2050 2455
Connection ~ 2055 3960
Wire Wire Line
	975  1675 920  1675
Wire Wire Line
	920  1675 920  1905
Connection ~ 920  2435
Wire Wire Line
	975  1905 920  1905
Connection ~ 920  1905
Wire Wire Line
	945  3150 945  3390
Wire Wire Line
	945  3150 980  3150
Connection ~ 945  3875
Wire Wire Line
	980  3390 945  3390
Connection ~ 945  3390
Wire Wire Line
	1880 2660 1880 2780
Text Label 1835 2455 0    30   ~ 0
DET1_P
Text Label 1840 3960 0    30   ~ 0
DET2_P
Wire Wire Line
	10135 5260 10535 5260
Wire Wire Line
	10290 1180 10490 1180
Wire Wire Line
	4775 2050 4775 2075
Wire Wire Line
	4425 1475 4475 1475
Wire Wire Line
	4775 1225 5075 1225
Wire Wire Line
	4650 2050 4775 2050
Wire Wire Line
	8110 3580 8110 3630
Wire Wire Line
	6880 2455 6880 2505
Wire Wire Line
	6880 2455 6905 2455
Wire Wire Line
	6230 2105 6680 2105
Wire Wire Line
	6305 1030 6505 1030
Wire Wire Line
	6705 1430 6755 1430
Wire Wire Line
	9040 1530 9040 1555
Wire Wire Line
	12730 5560 12905 5560
Wire Wire Line
	4500 7650 4600 7650
Wire Wire Line
	12330 3230 12405 3230
Wire Wire Line
	12655 3955 12655 4005
Wire Wire Line
	2500 2455 2970 2455
Wire Wire Line
	2350 2780 2500 2780
Wire Wire Line
	2430 3960 2585 3960
Wire Wire Line
	2585 3960 3010 3960
Wire Wire Line
	2430 4260 2585 4260
Wire Wire Line
	920  2435 1010 2435
Wire Wire Line
	920  1905 920  2435
Wire Wire Line
	945  3875 1015 3875
Wire Wire Line
	945  3390 945  3875
Text Label 2030 2780 0    30   ~ 0
DET1_N
Text Label 2060 4260 0    30   ~ 0
DET2_N
Wire Wire Line
	2585 4260 2670 4260
Wire Wire Line
	2500 2780 2595 2780
$Sheet
S 1320 6380 680  1070
U 5A981327
F0 "Ham-Det" 40
F1 "Ham-Det.sch" 40
F2 "AD2N" I L 1320 6810 60 
F3 "AD2P" I L 1320 6920 60 
F4 "AD1N" I L 1320 7020 60 
F5 "AD1P" I L 1320 7130 60 
$EndSheet
Text Notes 1115 6210 0    60   ~ 0
Hammamatsu Detectors
$Comp
L main-rescue:R-RESCUE-main R35
U 1 1 5A997BFA
P 2820 4260
F 0 "R35" V 2895 4265 30  0000 C CNN
F 1 "0" V 2820 4260 50  0000 C CNN
F 2 "multispeq:r_0603" H 2820 4260 60  0001 C CNN
F 3 "RC0603JR-070RL" V 2820 4260 10  0001 C CNN
F 4 "RC0603JR-070RL" H 2820 4260 60  0001 C CNN "manf#"
F 5 "RC0603JR-070RL" H 2820 4260 50  0001 C CNN "Desc"
	1    2820 4260
	0    1    1    0   
$EndComp
Wire Wire Line
	2970 4260 3020 4260
$Comp
L main-rescue:R-RESCUE-main R34
U 1 1 5A9980A2
P 2745 2780
F 0 "R34" V 2820 2785 30  0000 C CNN
F 1 "0" V 2745 2780 50  0000 C CNN
F 2 "multispeq:r_0603" H 2745 2780 60  0001 C CNN
F 3 "RC0603JR-070RL" V 2745 2780 10  0001 C CNN
F 4 "RC0603JR-070RL" H 2745 2780 60  0001 C CNN "manf#"
F 5 "RC0603JR-070RL" H 2745 2780 50  0001 C CNN "Desc"
	1    2745 2780
	0    1    1    0   
$EndComp
Wire Wire Line
	2895 2780 2980 2780
Text GLabel 980  7050 0    39   Output ~ 0
A1_N
Text GLabel 980  6840 0    39   Output ~ 0
A2_N
Text GLabel 980  6950 0    39   Output ~ 0
A2_P
Text GLabel 980  7160 0    39   Input ~ 0
A1_P
$Comp
L main-rescue:+5V-power #PWR04
U 1 1 5AA43BAC
P 12800 1340
F 0 "#PWR04" H 12800 1190 50  0001 C CNN
F 1 "+5V" H 12815 1513 50  0000 C CNN
F 2 "" H 12800 1340 50  0001 C CNN
F 3 "" H 12800 1340 50  0001 C CNN
	1    12800 1340
	1    0    0    -1  
$EndComp
$Comp
L main-rescue:C_Small-RESCUE-main C8
U 1 1 5AA99242
P 11680 1540
F 0 "C8" H 11705 1465 50  0000 L CNN
F 1 "10u" H 11705 1615 50  0000 L CNN
F 2 "multispeq:c_0603" H 11680 1540 10  0001 C CNN
F 3 "GRM188R61A106KE69D" H 11680 1540 10  0001 C CNN
F 4 "GRM188R61A106KE69D" H 11680 1540 60  0001 C CNN "manf#"
	1    11680 1540
	-1   0    0    1   
$EndComp
$Comp
L main-rescue:C_Small-RESCUE-main C10
U 1 1 5AA9924A
P 12685 1535
F 0 "C10" H 12710 1460 50  0000 L CNN
F 1 "10u" H 12710 1610 50  0000 L CNN
F 2 "multispeq:c_0603" H 12685 1535 10  0001 C CNN
F 3 "GRM188R61A106KE69D" H 12685 1535 10  0001 C CNN
F 4 "GRM188R61A106KE69D" H 12685 1535 60  0001 C CNN "manf#"
	1    12685 1535
	-1   0    0    1   
$EndComp
$Comp
L main-rescue:AP1117-50-RESCUE-main U3
U 1 1 5AA99252
P 12120 1340
F 0 "U3" H 12090 1355 50  0000 C CNN
F 1 "5V Linear Reg" H 11815 1495 50  0000 L CNN
F 2 "TO_SOT_Packages_SMD:SOT-223-3Lead_TabPin2" H 12120 1540 50  0001 C CNN
F 3 "LDL1117S50R" H 12220 1090 50  0001 C CNN
F 4 "LDL1117S50R" H 12120 1340 60  0001 C CNN "manf#"
	1    12120 1340
	1    0    0    -1  
$EndComp
Wire Wire Line
	12120 1640 12120 1760
Wire Wire Line
	11680 1760 12120 1760
Connection ~ 12685 1760
Connection ~ 12120 1760
Wire Wire Line
	12685 1760 12940 1760
Wire Wire Line
	12120 1760 12685 1760
Wire Wire Line
	12685 1635 12685 1760
Wire Wire Line
	11680 1640 11680 1760
Wire Wire Line
	12685 1435 12685 1340
Wire Wire Line
	12420 1340 12685 1340
Connection ~ 12685 1340
Wire Wire Line
	12685 1340 12800 1340
Wire Wire Line
	11680 1440 11680 1340
Connection ~ 11680 1340
Wire Wire Line
	11680 1340 11820 1340
Wire Wire Line
	11190 1340 11680 1340
$Comp
L main-rescue:GND-RESCUE-main #PWR06
U 1 1 5ABB5F27
P 12940 1760
F 0 "#PWR06" H 12940 1760 30  0001 C CNN
F 1 "GND" H 12940 1690 30  0001 C CNN
F 2 "" H 12940 1760 60  0000 C CNN
F 3 "" H 12940 1760 60  0000 C CNN
	1    12940 1760
	-1   0    0    -1  
$EndComp
Text GLabel 12850 1340 2    40   Input ~ 0
+5V
Wire Wire Line
	12800 1340 12850 1340
Connection ~ 12800 1340
$Comp
L main-rescue:GND-RESCUE-main #PWR020
U 1 1 5AC122AB
P 3250 1280
F 0 "#PWR020" H 3250 1280 30  0001 C CNN
F 1 "GND" H 3250 1210 30  0001 C CNN
F 2 "" H 3250 1280 60  0000 C CNN
F 3 "" H 3250 1280 60  0000 C CNN
	1    3250 1280
	-1   0    0    -1  
$EndComp
Wire Wire Line
	3020 1280 3250 1280
Connection ~ 7050 1030
Wire Wire Line
	7050 1030 7205 1030
$Comp
L main-rescue:PWR_FLAG-RESCUE-main #FLG02
U 1 1 5ACE8D01
P 7255 2105
F 0 "#FLG02" H 7255 2200 30  0001 C CNN
F 1 "PWR_FLAG" H 7255 2285 30  0000 C CNN
F 2 "" H 7255 2105 60  0000 C CNN
F 3 "" H 7255 2105 60  0000 C CNN
	1    7255 2105
	-1   0    0    -1  
$EndComp
Connection ~ 7255 2105
Wire Wire Line
	7255 2105 7380 2105
Text GLabel 6300 6700 0    40   Output ~ 0
~LDAC
Text GLabel 6350 7310 0    40   Output ~ 0
CLK
Text GLabel 6350 7040 0    40   Input ~ 0
MISO
Text GLabel 6350 7130 0    40   Output ~ 0
MOSI
Text Notes 6510 7150 0    40   ~ 0
SPI
Wire Notes Line
	6510 7040 6620 7040
Text Notes 6610 6900 0    40   ~ 0
I2C
Wire Notes Line
	6630 7040 6680 7040
Wire Notes Line
	6680 7040 6680 7380
Wire Notes Line
	6680 7380 6530 7380
Text GLabel 6350 7220 0    40   Output ~ 0
CNV
$Comp
L main-rescue:PWR_FLAG-RESCUE-main #FLG05
U 1 1 5AED48DF
P 12940 1760
F 0 "#FLG05" H 12940 1855 30  0001 C CNN
F 1 "PWR_FLAG" H 12940 1940 30  0000 C CNN
F 2 "" H 12940 1760 60  0000 C CNN
F 3 "" H 12940 1760 60  0000 C CNN
	1    12940 1760
	-1   0    0    -1  
$EndComp
Connection ~ 12940 1760
NoConn ~ 1320 6810
NoConn ~ 1320 6920
NoConn ~ 1320 7020
NoConn ~ 1320 7130
$Comp
L main-rescue:Conn_01x01-Connector_Generic J5
U 1 1 5AA211BA
P 8300 7250
F 0 "J5" H 8380 7246 50  0000 L CNN
F 1 "Conn_01x01" H 8380 7201 50  0001 L CNN
F 2 "PINTST" H 8300 7250 50  0001 C CNN
F 3 "" H 8300 7250 50  0001 C CNN
F 4 "DNI" H 8300 7250 50  0001 C CNN "manf#"
	1    8300 7250
	1    0    0    -1  
$EndComp
$Comp
L main-rescue:Conn_01x01-Connector_Generic J6
U 1 1 5AA3F5D1
P 8300 7350
F 0 "J6" H 8380 7346 50  0000 L CNN
F 1 "Conn_01x01" H 8380 7301 50  0001 L CNN
F 2 "PINTST" H 8300 7350 50  0001 C CNN
F 3 "" H 8300 7350 50  0001 C CNN
F 4 "DNI" H 8300 7350 50  0001 C CNN "manf#"
	1    8300 7350
	1    0    0    -1  
$EndComp
Text Notes 8120 7490 0    60   ~ 0
Serial Port
Text Notes 9300 5195 0    31   ~ 0
DNI - another 10u is right next \nto it from the BME
$EndSCHEMATC
