EESchema Schematic File Version 2
LIBS:power
LIBS:device
LIBS:transistors
LIBS:conn
LIBS:linear
LIBS:regul
LIBS:74xx
LIBS:cmos4000
LIBS:adc-dac
LIBS:memory
LIBS:xilinx
LIBS:special
LIBS:microcontrollers
LIBS:dsp
LIBS:microchip
LIBS:analog_switches
LIBS:motorola
LIBS:texas
LIBS:intel
LIBS:audio
LIBS:interface
LIBS:digital-audio
LIBS:philips
LIBS:display
LIBS:cypress
LIBS:siliconi
LIBS:opto
LIBS:atmel
LIBS:contrib
LIBS:valves
EELAYER 27 0
EELAYER END
$Descr A3 16535 11693
encoding utf-8
Sheet 1 1
Title "Multispec_Handheld_unit"
Date "18 sep 2014"
Rev "1"
Comp "Photosynq"
Comment1 "Zegarac Robert"
Comment2 ""
Comment3 ""
Comment4 ""
$EndDescr
$Comp
L R R112
U 1 1 516F06E3
P 1150 -5125
F 0 "R112" V 1225 -5025 30  0000 C CNN
F 1 "1K" V 1150 -5125 50  0000 C CNN
F 2 "" H 1150 -5125 60  0000 C CNN
F 3 "RC0402JR-071KL" V 1150 -5125 10  0000 C CNN
	1    1150 -5125
	-1   0    0    1   
$EndComp
$Comp
L C C114
U 1 1 516F06F6
P 1500 -5025
F 0 "C114" V 1525 -4975 30  0000 L CNN
F 1 "1n" V 1525 -5150 30  0000 L CNN
F 2 "" H 1500 -5025 60  0000 C CNN
F 3 "C0402C102J5GACTU" H 1500 -5025 10  0000 C CNN
	1    1500 -5025
	0    -1   -1   0   
$EndComp
$Comp
L SMALL_DIODE_PHOTODIODE D105
U 1 1 516F0A66
P 500 -5175
F 0 "D105" H 625 -5125 30  0000 C CNN
F 1 "DETA" H 300 -5125 30  0000 C CNN
F 2 "PIN" H 400 -5150 36  0000 C CNN
F 3 "S6775-01" H 500 -5175 10  0000 C CNN
	1    500  -5175
	0    -1   -1   0   
$EndComp
$Comp
L C C112
U 1 1 517FDA64
P 1225 -5775
F 0 "C112" V 1250 -5725 30  0000 L CNN
F 1 "10u" V 1250 -5900 30  0000 L CNN
F 2 "" H 1225 -5775 60  0000 C CNN
F 3 "C0805C106M4PACTU" H 1225 -5775 10  0000 C CNN
	1    1225 -5775
	0    -1   -1   0   
$EndComp
$Comp
L C C110
U 1 1 517FDEB9
P 10500 -11500
F 0 "C110" H 10550 -11400 50  0000 L CNN
F 1 "10u" H 10550 -11600 50  0000 L CNN
F 2 "" H 10500 -11500 60  0000 C CNN
F 3 "C0805C106M4PACTU" H 10500 -11500 10  0000 C CNN
	1    10500 -11500
	1    0    0    -1  
$EndComp
$Comp
L INDUCTOR_SMALL L104
U 1 1 517FDFA5
P 10200 -11600
F 0 "L104" H 10350 -11650 30  0000 C CNN
F 1 "10uH" H 10050 -11650 30  0000 C CNN
F 2 "~" H 10200 -11600 60  0000 C CNN
F 3 "MLZ2012N100L" H 10200 -11600 20  0000 C CNN
	1    10200 -11600
	-1   0    0    1   
$EndComp
$Comp
L LM358 U103
U 1 1 51801A7B
P 5950 -7450
F 0 "U103" H 5900 -7250 60  0000 L CNN
F 1 "OPA2180" H 5975 -7575 40  0000 L CNN
F 2 "" H 5950 -7450 60  0000 C CNN
F 3 "OPA2180IDR" H 5900 -7450 20  0000 C CNN
	1    5950 -7450
	1    0    0    -1  
$EndComp
$Comp
L R R110
U 1 1 51801A92
P 6750 -7450
F 0 "R110" V 6830 -7450 50  0000 C CNN
F 1 "22" V 6750 -7450 50  0000 C CNN
F 2 "" H 6750 -7450 60  0000 C CNN
F 3 "RC0805JR-0722RL" V 6750 -7450 20  0000 C CNN
	1    6750 -7450
	0    1    -1   0   
$EndComp
$Comp
L R R113
U 1 1 51801AF6
P 7350 -6950
F 0 "R113" V 7430 -6950 50  0000 C CNN
F 1 "3.3" V 7350 -6950 50  0000 C CNN
F 2 "" H 7350 -6950 60  0000 C CNN
F 3 "RC0805JR-073R3L" V 7350 -6950 20  0000 C CNN
	1    7350 -6950
	-1   0    0    -1  
$EndComp
$Comp
L INDUCTOR_SMALL L102
U 1 1 51801BD0
P 4900 -7950
F 0 "L102" H 5200 -7750 30  0000 C CNN
F 1 "10uH" H 5200 -7900 30  0000 C CNN
F 2 "~" H 4900 -7950 60  0000 C CNN
F 3 "MLZ2012N100L" H 5200 -7850 20  0000 C CNN
	1    4900 -7950
	1    0    0    -1  
$EndComp
$Comp
L C C111
U 1 1 51801C27
P 6200 -8050
F 0 "C111" H 6250 -7950 50  0000 L CNN
F 1 "10u" H 6250 -8150 50  0000 L CNN
F 2 "" H 6200 -8050 60  0000 C CNN
F 3 "C0805C106M4PACTU" H 6200 -8050 10  0000 C CNN
	1    6200 -8050
	-1   0    0    -1  
$EndComp
$Comp
L C C113
U 1 1 51801CF0
P 6300 -7050
F 0 "C113" V 6250 -7000 40  0000 L CNN
F 1 "68p" V 6350 -7250 50  0000 L CNN
F 2 "" H 6300 -7050 60  0000 C CNN
F 3 "CC0402JRNPO9BN680" H 6300 -7050 10  0000 C CNN
	1    6300 -7050
	0    1    -1   0   
$EndComp
$Comp
L R R108
U 1 1 5182B0C8
P 3650 -4600
F 0 "R108" V 3575 -4600 50  0000 C CNN
F 1 "2K" V 3650 -4600 50  0000 C CNN
F 2 "" H 3650 -4600 60  0000 C CNN
F 3 "RC0805JR-072KL" V 3650 -4600 10  0000 C CNN
	1    3650 -4600
	-1   0    0    1   
$EndComp
$Comp
L C C109
U 1 1 5182B33D
P 4000 -3800
F 0 "C109" H 4050 -3700 50  0000 L CNN
F 1 "10u" H 4050 -3900 50  0000 L CNN
F 2 "" H 4000 -3800 60  0000 C CNN
F 3 "C0805C106M4PACTU" H 4000 -3800 10  0000 C CNN
	1    4000 -3800
	1    0    0    -1  
$EndComp
$Comp
L TL431LP U106
U 1 1 5182B46F
P 3650 -3950
F 0 "U106" H 3450 -4125 50  0000 C CNN
F 1 "TL431" H 3475 -4200 50  0000 C CNN
F 2 "~" H 3400 -3800 60  0000 C CNN
F 3 "TL431BSDT,215" H 3625 -3775 10  0000 C CNN
	1    3650 -3950
	1    0    0    1   
$EndComp
Text Label 675  -4500 2    30   ~ 0
signal
Text Label 500  -5375 0    60   ~ 0
pinK
$Comp
L LM358 U103
U 2 1 5182CE86
P 5600 -9350
F 0 "U103" H 5550 -9150 60  0000 L CNN
F 1 "OPA2180" H 5650 -9475 60  0000 L CNN
F 2 "" H 5600 -9350 60  0000 C CNN
F 3 "OPA2180IDR" H 5550 -9350 20  0000 C CNN
	2    5600 -9350
	1    0    0    -1  
$EndComp
$Comp
L R R107
U 1 1 5182CE98
P 6650 -8850
F 0 "R107" V 6730 -8850 50  0000 C CNN
F 1 "3.3K" V 6650 -8850 50  0000 C CNN
F 2 "" H 6650 -8850 60  0000 C CNN
F 3 "RC0805JR-073K3L" V 6650 -8850 20  0000 C CNN
	1    6650 -8850
	-1   0    0    -1  
$EndComp
$Comp
L C C101
U 1 1 5182CEA4
P 5750 -9750
F 0 "C101" H 5800 -9650 50  0000 L CNN
F 1 "10u" H 5800 -9850 50  0000 L CNN
F 2 "" H 5750 -9750 60  0000 C CNN
F 3 "C0805C106M4PACTU" H 5750 -9750 10  0000 C CNN
	1    5750 -9750
	0    -1   1    0   
$EndComp
$Comp
L C C108
U 1 1 5182CEAA
P 5950 -8950
F 0 "C108" V 5900 -8900 50  0000 L CNN
F 1 "68p" V 5900 -9150 50  0000 L CNN
F 2 "" H 5950 -8950 60  0000 C CNN
F 3 "CC0402JRNPO9BN680" H 5950 -8950 10  0000 C CNN
	1    5950 -8950
	0    1    -1   0   
$EndComp
$Comp
L LED D104
U 1 1 5182DAE5
P 7350 -8000
F 0 "D104" H 7350 -7900 50  0000 C CNN
F 1 "SATA" V 7250 -7850 30  0000 C CNN
F 2 "" V 7425 -7650 60  0000 C CNN
F 3 "LXZ1-PA01" H 7350 -8000 20  0000 C CNN
	1    7350 -8000
	0    -1   1    0   
$EndComp
$Comp
L LED D102
U 1 1 5182DAF2
P 6450 -9350
F 0 "D102" H 6450 -9250 50  0000 C CNN
F 1 "IRCALA" H 6450 -9450 50  0000 C CNN
F 2 "" H 6450 -9150 60  0000 C CNN
F 3 "SFH 4441" H 6450 -9150 20  0000 C CNN
	1    6450 -9350
	1    0    0    1   
$EndComp
Text Label 6250 -9350 2    20   ~ 0
calibration_LED
Text Label 6800 -7200 0    40   Italic 0
ACT_SAT_FB
Text Label 6800 -6700 0    40   Italic 0
ACT_GND
$Comp
L LED D101
U 1 1 5182E95A
P 1400 -9250
F 0 "D101" H 1400 -9150 50  0000 C CNN
F 1 "MEAS2A" H 1400 -9350 50  0000 C CNN
F 2 "" V 1425 -8950 60  0000 C CNN
F 3 "LXZ1-PM01" H 1400 -9250 20  0000 C CNN
	1    1400 -9250
	0    1    1    0   
$EndComp
$Comp
L R R101
U 1 1 5182E98C
P 1750 -9550
F 0 "R101" V 1830 -9550 50  0000 C CNN
F 1 "2" V 1750 -9550 50  0000 C CNN
F 2 "" H 1750 -9550 60  0000 C CNN
F 3 "MCR25JZHJ2R0" V 1750 -9550 20  0000 C CNN
	1    1750 -9550
	0    -1   -1   0   
$EndComp
$Comp
L C C102
U 1 1 5182E9AA
P 8100 -11550
F 0 "C102" H 8150 -11450 50  0000 L CNN
F 1 "10u" H 8150 -11650 50  0000 L CNN
F 2 "" H 8100 -11550 60  0000 C CNN
F 3 "C0805C106M4PACTU" H 8100 -11550 20  0000 C CNN
	1    8100 -11550
	-1   0    0    -1  
$EndComp
$Comp
L LED D103
U 1 1 5182EBC9
P 1400 -7700
F 0 "D103" H 1400 -7600 50  0000 C CNN
F 1 "MEAS1A" H 1400 -7800 50  0000 C CNN
F 2 "" V 1400 -7375 60  0000 C CNN
F 3 "LXZ1-PL01" H 1400 -7700 20  0000 C CNN
	1    1400 -7700
	0    1    1    0   
$EndComp
$Comp
L R R109
U 1 1 5182EBD5
P 1800 -8050
F 0 "R109" V 1880 -8050 50  0000 C CNN
F 1 "2" V 1800 -8050 50  0000 C CNN
F 2 "" H 1800 -8050 60  0000 C CNN
F 3 "MCR25JZHJ2R0" V 1800 -8050 20  0000 C CNN
	1    1800 -8050
	0    -1   -1   0   
$EndComp
$Comp
L R R111
U 1 1 5183EE6F
P 2100 -6750
F 0 "R111" V 2180 -6750 50  0000 C CNN
F 1 "22" V 2100 -6750 50  0000 C CNN
F 2 "" H 2100 -6750 60  0000 C CNN
F 3 "RC0805JR-0722RL" V 2100 -6750 20  0000 C CNN
	1    2100 -6750
	0    -1   -1   0   
$EndComp
$Comp
L R R106
U 1 1 5183EE8B
P 2100 -8450
F 0 "R106" V 2180 -8450 50  0000 C CNN
F 1 "22" V 2100 -8450 50  0000 C CNN
F 2 "" H 2100 -8450 60  0000 C CNN
F 3 "RC0805JR-0722RL" V 2100 -8450 20  0000 C CNN
	1    2100 -8450
	0    -1   -1   0   
$EndComp
$Comp
L C C135
U 1 1 51841C74
P 7000 -11450
F 0 "C135" H 7050 -11350 50  0000 L CNN
F 1 "10u" H 7050 -11550 50  0000 L CNN
F 2 "" H 7000 -11450 60  0000 C CNN
F 3 "C0805C106M4PACTU" H 7000 -11450 10  0000 C CNN
	1    7000 -11450
	-1   0    0    -1  
$EndComp
$Comp
L INDUCTOR L105
U 1 1 51841C83
P 6300 -11750
F 0 "L105" V 6250 -11750 40  0000 C CNN
F 1 "10uH" V 6400 -11750 40  0000 C CNN
F 2 "" H 6300 -11750 60  0000 C CNN
F 3 "MLZ2012N100L" V 6300 -11750 20  0000 C CNN
	1    6300 -11750
	0    1    1    0   
$EndComp
$Comp
L TL1963 U101
U 1 1 5187FC9E
P 7450 -11800
F 0 "U101" H 7450 -11600 60  0000 C CNN
F 1 "TL1963" H 7450 -11700 60  0000 C CNN
F 2 "" H 7450 -11800 60  0000 C CNN
F 3 "TL1963ADCQR" H 7450 -11800 20  0000 C CNN
	1    7450 -11800
	1    0    0    -1  
$EndComp
$Comp
L R R132
U 1 1 51880D33
P 7150 -11150
F 0 "R132" V 7230 -11150 50  0000 C CNN
F 1 "330" V 7150 -11150 50  0000 C CNN
F 2 "" H 7150 -11150 60  0000 C CNN
F 3 "RC0805JR-07330RL" V 7150 -11150 20  0000 C CNN
	1    7150 -11150
	0    1    -1   0   
$EndComp
NoConn ~ 14450 -7625
$Comp
L PWR_FLAG #FLG01
U 1 1 51CC90EA
P 12950 -12200
F 0 "#FLG01" H 12950 -12105 30  0001 C CNN
F 1 "PWR_FLAG" H 12950 -12020 30  0000 C CNN
F 2 "" H 12950 -12200 60  0000 C CNN
F 3 "" H 12950 -12200 60  0000 C CNN
	1    12950 -12200
	-1   0    0    -1  
$EndComp
$Comp
L DG4157DL-T1-E3 U102
U 1 1 51CCA405
P 4800 -9450
F 0 "U102" H 4900 -9550 30  0000 L CNN
F 1 "DG4157" H 4900 -9350 30  0000 L CNN
F 2 "" H 4800 -9450 60  0000 C CNN
F 3 "DG4157DL-T1-E3" H 4800 -9450 20  0000 C CNN
	1    4800 -9450
	-1   0    0    -1  
$EndComp
$Comp
L DG4157DL-T1-E3 U108
U 1 1 51CCBF2F
P 5200 -7550
F 0 "U108" H 5300 -7650 30  0000 L CNN
F 1 "DG4157" H 5050 -7450 30  0000 L CNN
F 2 "" H 5200 -7550 60  0000 C CNN
F 3 "DG4157DL-T1-E3" H 5150 -7500 10  0000 C CNN
	1    5200 -7550
	-1   0    0    -1  
$EndComp
$Comp
L TL1963 U109
U 1 1 51CDDD61
P 10800 -11950
F 0 "U109" H 11200 -11900 60  0000 C CNN
F 1 "TL1963" H 10800 -11850 40  0000 C CNN
F 2 "" H 10800 -11950 60  0000 C CNN
F 3 "TL1963ADCQR" H 10800 -11950 10  0000 C CNN
	1    10800 -11950
	1    0    0    -1  
$EndComp
$Comp
L R R135
U 1 1 51CDE815
P 11250 -11650
F 0 "R135" V 11330 -11650 50  0000 C CNN
F 1 "2.7K" V 11250 -11650 50  0000 C CNN
F 2 "" H 11250 -11650 60  0000 C CNN
F 3 "RC0805JR-072K7L" V 11250 -11650 10  0000 C CNN
	1    11250 -11650
	0    1    -1   0   
$EndComp
$Comp
L R R136
U 1 1 51CDE824
P 11250 -11550
F 0 "R136" V 11175 -11550 50  0000 C CNN
F 1 "1K" V 11250 -11550 50  0000 C CNN
F 2 "" H 11250 -11550 60  0000 C CNN
F 3 "RC0805JR-071KL" V 11250 -11550 10  0000 C CNN
	1    11250 -11550
	0    1    -1   0   
$EndComp
$Comp
L MOSN-TSOP6 Q103
U 1 1 51D461CD
P 1600 -6750
F 0 "Q103" H 1850 -6800 40  0000 C CNN
F 1 "MOSN" H 1950 -6700 60  0000 C CNN
F 2 "" H 1900 -6900 60  0000 C CNN
F 3 "IRLTS6342TRPBF" H 1700 -6700 10  0000 C CNN
	1    1600 -6750
	-1   0    0    -1  
$EndComp
$Comp
L MOSN-TSOP6 Q101
U 1 1 51D46788
P 1600 -8450
F 0 "Q101" H 1850 -8500 40  0000 C CNN
F 1 "MOSN" H 1950 -8400 60  0000 C CNN
F 2 "" H 1900 -8600 60  0000 C CNN
F 3 "IRLTS6342TRPBF" H 1700 -8400 10  0000 C CNN
	1    1600 -8450
	-1   0    0    -1  
$EndComp
$Comp
L MOSN-TSOP6 Q102
U 1 1 51D4652C
P 7250 -7450
F 0 "Q102" H 7500 -7500 40  0000 C CNN
F 1 "MOSN" H 7600 -7400 40  0000 C CNN
F 2 "" H 7550 -7600 60  0000 C CNN
F 3 "IRLTS6342TRPBF" H 7250 -7450 20  0000 C CNN
	1    7250 -7450
	1    0    0    -1  
$EndComp
$Comp
L HTU21D U111
U 1 1 51E06B99
P 13400 -5875
F 0 "U111" H 13400 -6125 60  0000 C CNN
F 1 "HTU21D" H 13400 -5675 60  0000 C CNN
F 2 "" H 13400 -5875 60  0000 C CNN
F 3 "HPP828E031" H 13400 -6025 20  0000 C CNN
	1    13400 -5875
	1    0    0    -1  
$EndComp
$Comp
L C C116
U 1 1 51E06ED1
P 13400 -5475
F 0 "C116" V 13450 -5425 50  0000 L CNN
F 1 "10u" V 13450 -5675 50  0000 L CNN
F 2 "" H 13400 -5475 60  0000 C CNN
F 3 "C0805C106M4PACTU" H 13400 -5475 12  0000 C CNN
	1    13400 -5475
	0    -1   -1   0   
$EndComp
$Comp
L LMH6601 U105
U 1 1 51E446D8
P 1550 -5475
F 0 "U105" H 1725 -5275 50  0000 C CNN
F 1 "LMH6601" H 1850 -5375 50  0000 C CNN
F 2 "" H 1550 -5475 60  0000 C CNN
F 3 "LMH6601MG/NOPB" H 1550 -5475 20  0000 C CNN
	1    1550 -5475
	1    0    0    -1  
$EndComp
$Comp
L CO2S8 S101
U 1 1 51E459C6
P 13200 -9600
F 0 "S101" H 13200 -9650 60  0000 C CNN
F 1 "CO2_S8" H 13250 -9550 60  0000 C CNN
F 2 "c116" H 13200 -9600 60  0000 C CNN
F 3 "SE-0031" H 13250 -9700 20  0000 C CNN
	1    13200 -9600
	1    0    0    -1  
$EndComp
$Comp
L C C123
U 1 1 51E80F92
P 2750 -7350
F 0 "C123" H 2800 -7250 50  0000 L CNN
F 1 "10u" H 2800 -7450 50  0000 L CNN
F 2 "" H 2750 -7350 60  0000 C CNN
F 3 "C0805C106M4PACTU" H 2750 -7350 10  0000 C CNN
	1    2750 -7350
	0    -1   -1   0   
$EndComp
$Comp
L LM5551 U104
U 1 1 521F678B
P 2750 -6800
F 0 "U104" H 2750 -7050 60  0000 C CNN
F 1 "LM5111" H 2750 -6550 60  0000 C CNN
F 2 "~" H 2750 -6800 60  0000 C CNN
F 3 "LM5111-1MY/NOPB" H 2750 -6800 20  0000 C CNN
	1    2750 -6800
	-1   0    0    1   
$EndComp
$Comp
L R R114
U 1 1 517FDF22
P 650 -5125
F 0 "R114" V 725 -5025 30  0000 C CNN
F 1 "1K" V 650 -5125 50  0000 C CNN
F 2 "" H 650 -5125 60  0000 C CNN
F 3 "RC0402JR-071KL" V 650 -5125 10  0000 C CNN
	1    650  -5125
	-1   0    0    1   
$EndComp
$Comp
L C C115
U 1 1 521F7EBE
P 900 -5375
F 0 "C115" V 925 -5325 30  0000 L CNN
F 1 "0.1u" V 1025 -5450 30  0000 L CNN
F 2 "~" H 938 -5525 30  0000 C CNN
F 3 "C2012JB2A104K125AA" H 900 -5375 10  0000 C CNN
	1    900  -5375
	0    -1   -1   0   
$EndComp
$Comp
L R R139
U 1 1 521F93E5
P 13750 -7650
F 0 "R139" V 13830 -7650 40  0000 C CNN
F 1 "3.3K" V 13757 -7649 40  0000 C CNN
F 2 "~" V 13680 -7650 30  0000 C CNN
F 3 "RC0402JR-073K3L" V 13750 -7650 20  0000 C CNN
	1    13750 -7650
	0    -1   -1   0   
$EndComp
$Comp
L R R140
U 1 1 521F93F4
P 13750 -7500
F 0 "R140" V 13830 -7500 40  0000 C CNN
F 1 "3.3K" V 13757 -7499 40  0000 C CNN
F 2 "~" V 13680 -7500 30  0000 C CNN
F 3 "RC0402JR-073K3L" V 13750 -7500 20  0000 C CNN
	1    13750 -7500
	0    -1   1    0   
$EndComp
Text Notes 12800 -8950 0    60   ~ 0
Light sensor \nbottom of the board
$Comp
L R R141
U 1 1 5220AA5F
P 3900 -11350
F 0 "R141" V 3980 -11350 40  0000 C CNN
F 1 "1K" V 3907 -11349 40  0000 C CNN
F 2 "~" V 3830 -11350 30  0000 C CNN
F 3 "RC0805JR-071KL" V 3900 -11350 20  0000 C CNN
	1    3900 -11350
	-1   0    0    -1  
$EndComp
$Comp
L R R142
U 1 1 5220AA6E
P 3750 -11350
F 0 "R142" V 3830 -11350 40  0000 C CNN
F 1 "3.3K" V 3757 -11349 40  0000 C CNN
F 2 "~" V 3680 -11350 30  0000 C CNN
F 3 "RC0805JR-073K3L" V 3750 -11350 20  0000 C CNN
	1    3750 -11350
	-1   0    0    -1  
$EndComp
$Comp
L R R143
U 1 1 522F80E9
P 7550 -7950
F 0 "R143" V 7630 -7950 40  0000 C CNN
F 1 "2K" V 7557 -7949 40  0000 C CNN
F 2 "~" V 7480 -7950 30  0000 C CNN
F 3 "RC0805JR-072KL" V 7550 -7950 10  0000 C CNN
	1    7550 -7950
	-1   0    0    -1  
$EndComp
$Comp
L TMP006 U113
U 1 1 522F8928
P 13475 -4525
F 0 "U113" H 13275 -4875 60  0000 C CNN
F 1 "TMP006" H 13225 -4225 40  0000 C CNN
F 2 "" H 13475 -4525 40  0000 C CNN
F 3 "TMP006AIYZFR" H 13475 -4525 20  0000 C CNN
	1    13475 -4525
	1    0    0    -1  
$EndComp
$Comp
L CONN_3 K102
U 1 1 523082DE
P -550 -11550
F 0 "K102" V -600 -11550 50  0000 C CNN
F 1 "PWR_CONN" V -500 -11550 40  0000 C CNN
F 2 "POWER IN" H -175 -11550 60  0000 C CNN
F 3 "PJ-028-SMT-TR" V -550 -11550 20  0000 C CNN
	1    -550 -11550
	-1   0    0    -1  
$EndComp
$Comp
L PWR_FLAG #FLG02
U 1 1 524D892F
P 12700 -12200
F 0 "#FLG02" H 12700 -12105 30  0001 C CNN
F 1 "PWR_FLAG" H 12700 -12020 30  0000 C CNN
F 2 "" H 12700 -12200 60  0000 C CNN
F 3 "" H 12700 -12200 60  0000 C CNN
	1    12700 -12200
	-1   0    0    -1  
$EndComp
$Comp
L TL1963 U112
U 1 1 521FAC6E
P 3550 -11900
F 0 "U112" H 3550 -11700 60  0000 C CNN
F 1 "TL1963" H 3550 -11800 60  0000 C CNN
F 2 "" H 3550 -11900 60  0000 C CNN
F 3 "TL1963ADCQR" H 3550 -11900 20  0000 C CNN
	1    3550 -11900
	1    0    0    -1  
$EndComp
$Comp
L TCS3471 U110
U 1 1 521F87A5
P 13300 -8550
F 0 "U110" H 13300 -8800 60  0000 C CNN
F 1 "TCS34715FN" H 13300 -8950 60  0000 C CNN
F 2 "~" H 13300 -8550 60  0000 C CNN
F 3 "TCS34715FN" H 13300 -8650 20  0000 C CNN
	1    13300 -8550
	1    0    0    -1  
$EndComp
$Comp
L C C136
U 1 1 525D9719
P 3450 -11400
F 0 "C136" H 3450 -11325 50  0000 L CNN
F 1 "10u" H 3450 -11500 50  0000 L CNN
F 2 "" H 3450 -11400 60  0000 C CNN
F 3 "C0805C106M4PACTU" H 3450 -11400 20  0000 C CNN
	1    3450 -11400
	-1   0    0    -1  
$EndComp
$Comp
L I2C-IO_PCA9536 IC1
U 1 1 527A9E7A
P 13400 -7100
F 0 "IC1" H 13200 -6850 40  0000 C CNN
F 1 "I2C-IO_PCA9536" H 13750 -7350 40  0000 C CNN
F 2 "SSOP8" H 13400 -7100 35  0000 C CIN
F 3 "PCA9536DGKR" H 13400 -7150 20  0000 C CNN
F 4 "optional" H 13400 -7100 60  0001 C CNN "Field4"
	1    13400 -7100
	1    0    0    -1  
$EndComp
$Comp
L DPST_ANALOG_SWITCH U2
U 1 1 527C0D7F
P 550 -7750
F 0 "U2" H 650 -7850 30  0000 L CNN
F 1 "DPST_ANALOG_SWITCH" H 650 -7650 30  0000 L CNN
F 2 "SOT363" H 550 -7750 20  0000 C CNN
F 3 "NX3L1G3157GW" H 550 -7825 20  0000 C CNN
F 4 "optional" H 550 -7750 60  0001 C CNN "Field4"
	1    550  -7750
	0    1    1    0   
$EndComp
$Comp
L DPST_ANALOG_SWITCH U1
U 1 1 527C0D8F
P 550 -9250
F 0 "U1" H 650 -9350 30  0000 L CNN
F 1 "DPST_A_S" V 500 -9150 30  0000 L CNN
F 2 "SOT363" V 425 -9200 10  0000 C CNN
F 3 "NX3L1G3157GW" V 525 -9250 10  0000 C CNN
F 4 "optional" H 550 -9250 60  0001 C CNN "Field4"
	1    550  -9250
	0    1    1    0   
$EndComp
$Comp
L DPST_ANALOG_SWITCH U4
U 1 1 527C0D9F
P 6750 -7900
F 0 "U4" H 6850 -8000 30  0000 L CNN
F 1 "DPST_ANALOG_SWITCH" H 6300 -7775 30  0000 L CNN
F 2 "SOT363" H 6750 -7900 20  0000 C CNN
F 3 "NX3L1G3157GW" H 6750 -7975 20  0000 C CNN
F 4 "optional" H 6750 -7900 60  0001 C CNN "Field4"
	1    6750 -7900
	1    0    0    1   
$EndComp
$Comp
L CONN_16 P2
U 1 1 5304E389
P 8900 -5550
F 0 "P2" V 8850 -5150 60  0000 C CNN
F 1 "CONN_16" V 8950 -5550 60  0000 C CNN
F 2 "~" H 8900 -5550 60  0000 C CNN
F 3 "HFW16R-1STE1LF" V 8850 -5550 20  0000 C CNN
	1    8900 -5550
	1    0    0    -1  
$EndComp
$Comp
L R R144
U 1 1 523CA8E2
P 13775 -4125
F 0 "R144" V 13850 -4100 40  0000 C CNN
F 1 "10K" V 13782 -4124 40  0000 C CNN
F 2 "~" V 13705 -4125 30  0000 C CNN
F 3 "RC0805JR-0710KL" V 13775 -4125 20  0000 C CNN
	1    13775 -4125
	0    -1   -1   0   
$EndComp
$Comp
L C C1
U 1 1 52D49BEC
P 13675 -4925
F 0 "C1" V 13725 -4850 50  0000 L CNN
F 1 "10u" V 13725 -5100 50  0000 L CNN
F 2 "" H 13675 -4925 60  0000 C CNN
F 3 "C0805C106M4PACTU" H 13675 -4925 10  0000 C CNN
	1    13675 -4925
	0    -1   -1   0   
$EndComp
$Comp
L R R1
U 1 1 5305270E
P 6400 -9550
F 0 "R1" V 6480 -9550 50  0000 C CNN
F 1 "10K" V 6400 -9550 50  0000 C CNN
F 2 "" H 6400 -9550 60  0000 C CNN
F 3 "RC0805JR-0710KL" V 6400 -9550 20  0000 C CNN
	1    6400 -9550
	0    1    -1   0   
$EndComp
$Comp
L R R131
U 1 1 51880611
P 7800 -11450
F 0 "R131" V 7900 -11450 50  0000 C CNN
F 1 "1K" V 7800 -11450 50  0000 C CNN
F 2 "" H 7800 -11450 60  0000 C CNN
F 3 "RC0805JR-071KL" V 7800 -11450 20  0000 C CNN
	1    7800 -11450
	-1   0    0    -1  
$EndComp
$Comp
L LMH6601 U115
U 1 1 53113170
P 875 -4125
F 0 "U115" H 1025 -3825 70  0000 C CNN
F 1 "LMH6601" H 1025 -3925 70  0000 C CNN
F 2 "" H 875 -4125 60  0000 C CNN
F 3 "LMH6601MG/NOPB" H 875 -4125 20  0000 C CNN
	1    875  -4125
	1    0    0    -1  
$EndComp
$Comp
L DIODE D107
U 1 1 531150A6
P 1925 -5025
F 0 "D107" H 1925 -4950 40  0000 C CNN
F 1 "DIODE" H 1800 -5000 30  0000 C CNN
F 2 "~" H 1925 -5025 60  0000 C CNN
F 3 "1N4148WS" H 1925 -5025 10  0000 C CNN
	1    1925 -5025
	-1   0    0    1   
$EndComp
$Comp
L DIODE D106
U 1 1 531150B3
P 1725 -5150
F 0 "D106" H 1725 -5075 40  0000 C CNN
F 1 "DIODE" H 1850 -5125 30  0000 C CNN
F 2 "~" H 1725 -5150 60  0000 C CNN
F 3 "1N4148WS" H 1725 -5150 10  0000 C CNN
	1    1725 -5150
	1    0    0    -1  
$EndComp
$Comp
L SPST_SW_ADG701 U116
U 1 1 531150E9
P 1500 -4725
F 0 "U116" H 1600 -4825 30  0000 L CNN
F 1 "SPST" H 1525 -4650 30  0000 L CNN
F 2 "~" H 1500 -4725 60  0000 C CNN
F 3 "ADG701BRTZ-REEL7" H 1500 -4700 10  0000 C CNN
	1    1500 -4725
	1    0    0    -1  
$EndComp
$Comp
L C C134
U 1 1 5311963A
P 1325 -4025
F 0 "C134" H 1250 -3950 30  0000 L CNN
F 1 "10u" H 1225 -4100 30  0000 L CNN
F 2 "" H 1325 -4025 60  0000 C CNN
F 3 "C0805C106M4PACTU" H 1325 -4025 10  0000 C CNN
	1    1325 -4025
	-1   0    0    1   
$EndComp
$Comp
L PWR_FLAG #FLG03
U 1 1 5311CC9A
P 6650 -11750
F 0 "#FLG03" H 6650 -11655 30  0001 C CNN
F 1 "PWR_FLAG" H 6650 -11570 30  0000 C CNN
F 2 "" H 6650 -11750 60  0000 C CNN
F 3 "" H 6650 -11750 60  0000 C CNN
	1    6650 -11750
	-1   0    0    -1  
$EndComp
$Comp
L TSV911 U114
U 1 1 5311F474
P 6750 -11100
F 0 "U114" H 6700 -11000 40  0000 L CNN
F 1 "TSV911" H 6700 -11200 30  0000 L CNN
F 2 "sot23-6" H 6650 -11100 10  0000 C CNN
F 3 "TSV911ILT" H 6750 -11100 10  0000 C CNN
	1    6750 -11100
	1    0    0    -1  
$EndComp
$Comp
L LED D108
U 1 1 53322A27
P 4050 -11400
F 0 "D108" V 4100 -11250 50  0000 C CNN
F 1 "pwr_LED" V 4200 -11200 50  0000 C CNN
F 2 "0603" H 3975 -11375 10  0000 C CNN
F 3 "LTST-S270KGKT" H 4175 -11375 10  0000 C CNN
	1    4050 -11400
	0    1    1    0   
$EndComp
$Comp
L R R149
U 1 1 53322FD6
P 4150 -11000
F 0 "R149" V 4230 -11000 50  0000 C CNN
F 1 "3.3K" V 4150 -11000 50  0000 C CNN
F 2 "" H 4150 -11000 60  0000 C CNN
F 3 "RC0402JR-073K3L" V 4150 -11000 10  0000 C CNN
	1    4150 -11000
	0    1    1    0   
$EndComp
Text Label 1400 -8000 0    10   ~ 0
short
Text Label 1400 -9500 0    10   ~ 0
short1
$Comp
L MCP4728 U7
U 1 1 5342CE99
P 13200 -10700
F 0 "U7" H 12900 -10400 40  0000 C CNN
F 1 "MCP4728" H 13500 -10400 40  0000 C CNN
F 2 "MSOP10-0.5" H 13200 -10800 30  0000 C CIN
F 3 "" H 13200 -10800 60  0000 C CNN
	1    13200 -10700
	1    0    0    -1  
$EndComp
Text GLabel -300 -12000 0    60   Input ~ 0
+Vbatt
Text GLabel 4250 -11700 2    60   Output ~ 0
+5v
$Comp
L GND #PWR04
U 1 1 53444F4A
P 3550 -10850
F 0 "#PWR04" H 3550 -10850 30  0001 C CNN
F 1 "GND" H 3550 -10920 30  0001 C CNN
F 2 "" H 3550 -10850 60  0000 C CNN
F 3 "" H 3550 -10850 60  0000 C CNN
	1    3550 -10850
	-1   0    0    -1  
$EndComp
Text GLabel 200  -9550 0    60   Input ~ 0
MEAS1C_switch
Text GLabel 200  -8050 0    60   Input ~ 0
MEAS2C_switch
Text Notes 3900 -12250 2    60   ~ 0
Main input regulator&auto power off&pushbutton on/off
Text Notes 350  -9625 0    60   ~ 0
Measurement lights
Text GLabel 200  -8550 0    60   Input ~ 0
+5V
Text GLabel 2500 -8850 2    40   Output ~ 0
MEAS2C-
Text GLabel 2550 -7850 2    40   Output ~ 0
MEAS1C-
Text GLabel 3300 -6950 2    60   Input ~ 0
Umeas2
Text GLabel 3300 -6750 2    60   Input ~ 0
Umeas1
Text GLabel 8250 -11750 2    60   Output ~ 0
+V_meas_regulated
Text GLabel 5900 -11750 0    60   Input ~ 0
+5V
Text GLabel 5900 -11350 0    60   Input ~ 0
sleep
Text Notes 7250 -12100 2    40   ~ 0
Measurement pulse\n power regulator
Text GLabel 8400 -4850 0    40   Input ~ 0
HOLD
Text GLabel 6300 -11150 0    60   Input ~ 0
Meas intensity
Text GLabel 2250 -9550 2    60   Output ~ 0
+V_meas_regulated
Text GLabel 9000 -8950 0    40   Output ~ 0
HOLD
Text GLabel 10150 -9450 2    40   Output ~ 0
3.3Vdd
Text GLabel 9400 -8050 3    40   Input ~ 0
Aref
Text GLabel 9500 -8050 3    40   Input ~ 0
Ain10
Text GLabel 2250 -4125 2    40   Output ~ 0
Ain10
Text GLabel 2250 -5775 2    40   Input ~ 0
DetVcc
$Comp
L AGND #PWR1
U 1 1 5345313D
P 1325 -3750
F 0 "#PWR1" H 1325 -3750 40  0001 C CNN
F 1 "AGND" H 1325 -3820 50  0000 C CNN
F 2 "" H 1325 -3750 60  0000 C CNN
F 3 "" H 1325 -3750 60  0000 C CNN
	1    1325 -3750
	1    0    0    -1  
$EndComp
Text GLabel 2250 -4275 2    40   Input ~ 0
HOLD
Text Notes 1475 -5850 0    60   ~ 0
Detector
$Comp
L AGND #PWR4
U 1 1 53453B1A
P 4000 -3500
F 0 "#PWR4" H 4000 -3500 40  0001 C CNN
F 1 "AGND" H 4000 -3570 50  0000 C CNN
F 2 "" H 4000 -3500 60  0000 C CNN
F 3 "" H 4000 -3500 60  0000 C CNN
	1    4000 -3500
	1    0    0    -1  
$EndComp
Text GLabel 3500 -4950 0    40   Input ~ 0
DetVcc
Text Notes 3700 -5050 0    40   ~ 0
Vref\nDetector ADC 
$Comp
L GND #PWR05
U 1 1 53458E3B
P 12950 -8100
F 0 "#PWR05" H 12950 -8100 30  0001 C CNN
F 1 "GND" H 12950 -8170 30  0001 C CNN
F 2 "" H 12950 -8100 60  0000 C CNN
F 3 "" H 12950 -8100 60  0000 C CNN
	1    12950 -8100
	-1   0    0    -1  
$EndComp
$Comp
L GND #PWR06
U 1 1 53458E41
P 12650 -9300
F 0 "#PWR06" H 12650 -9300 30  0001 C CNN
F 1 "GND" H 12650 -9370 30  0001 C CNN
F 2 "" H 12650 -9300 60  0000 C CNN
F 3 "" H 12650 -9300 60  0000 C CNN
	1    12650 -9300
	-1   0    0    -1  
$EndComp
$Comp
L GND #PWR07
U 1 1 53458E47
P 13200 -5375
F 0 "#PWR07" H 13200 -5375 30  0001 C CNN
F 1 "GND" H 13200 -5445 30  0001 C CNN
F 2 "" H 13200 -5375 60  0000 C CNN
F 3 "" H 13200 -5375 60  0000 C CNN
	1    13200 -5375
	-1   0    0    -1  
$EndComp
$Comp
L GND #PWR08
U 1 1 53458E4D
P 13400 -6700
F 0 "#PWR08" H 13400 -6700 30  0001 C CNN
F 1 "GND" H 13400 -6770 30  0001 C CNN
F 2 "" H 13400 -6700 60  0000 C CNN
F 3 "" H 13400 -6700 60  0000 C CNN
	1    13400 -6700
	-1   0    0    -1  
$EndComp
Text GLabel 14100 -4425 2    40   BiDi ~ 0
SDA
Text GLabel 14100 -4525 2    40   Input ~ 0
SCL
Text GLabel 14100 -4625 2    40   Input ~ 0
3.3Vdd
$Comp
L GND #PWR09
U 1 1 5345A7FE
P 12950 -4500
F 0 "#PWR09" H 12950 -4500 30  0001 C CNN
F 1 "GND" H 12950 -4570 30  0001 C CNN
F 2 "" H 12950 -4500 60  0000 C CNN
F 3 "" H 12950 -4500 60  0000 C CNN
	1    12950 -4500
	-1   0    0    -1  
$EndComp
Text Notes 12950 -4950 0    40   ~ 0
IR temperature
Text GLabel 13075 -5775 0    40   BiDi ~ 0
SDA
Text GLabel 13725 -5775 2    40   Input ~ 0
SCL
Text GLabel 13725 -5875 2    40   Input ~ 0
3.3Vdd
Text Notes 12950 -6150 0    40   ~ 0
Temperature&Humidity\n
Text GLabel 13750 -10850 2    40   Output ~ 0
actinic_preset1
Text GLabel 13750 -10750 2    40   Output ~ 0
actinic_preset2
Text GLabel 13750 -10650 2    40   Output ~ 0
IR_CAL
Text GLabel 13750 -10550 2    40   Output ~ 0
Meas intensity
Text GLabel 12000 -10550 0    40   Output ~ 0
~LDAC
Text Notes 13250 -11150 0    40   ~ 0
ACTINIC DAC
Text GLabel 13750 -10950 2    40   Output ~ 0
+5V
$Comp
L GND #PWR010
U 1 1 53460465
P 5950 -9600
F 0 "#PWR010" H 5950 -9600 30  0001 C CNN
F 1 "GND" H 5950 -9670 30  0001 C CNN
F 2 "" H 5950 -9600 60  0000 C CNN
F 3 "" H 5950 -9600 60  0000 C CNN
	1    5950 -9600
	1    0    0    -1  
$EndComp
Text GLabel 4400 -9050 0    40   Input ~ 0
IR CAL toggle
Text GLabel 4400 -9500 0    40   Input ~ 0
IR_CAL
Text GLabel 4400 -9750 0    40   Input ~ 0
+5V
$Comp
L GND #PWR011
U 1 1 534616A2
P 5500 -8500
F 0 "#PWR011" H 5500 -8500 30  0001 C CNN
F 1 "GND" H 5500 -8570 30  0001 C CNN
F 2 "" H 5500 -8500 60  0000 C CNN
F 3 "" H 5500 -8500 60  0000 C CNN
	1    5500 -8500
	1    0    0    -1  
$EndComp
Text Notes 4600 -9800 0    40   ~ 0
Calibration/measurement light
Text GLabel 3500 -4350 0    40   Input ~ 0
Aref
$Comp
L DG4157DL-T1-E3 U107
U 1 1 51CCB591
P 4750 -7600
F 0 "U107" H 4850 -7700 30  0000 L CNN
F 1 "DG4157" H 4850 -7500 30  0000 L CNN
F 2 "" H 4750 -7600 60  0000 C CNN
F 3 "DG4157DL-T1-E3" H 4700 -7550 10  0000 C CNN
	1    4750 -7600
	-1   0    0    -1  
$EndComp
Text GLabel 8500 -6350 0    40   BiDi ~ 0
IRCALB_PIN10
Text GLabel 8500 -6250 0    40   BiDi ~ 0
IR_CAL
Text GLabel 8500 -6150 0    40   Input ~ 0
preselected ACT
Text GLabel 8500 -6050 0    40   Input ~ 0
ACTB_PIN2
Text GLabel 8500 -5950 0    40   Input ~ 0
MEASB_PIN11
Text GLabel 8500 -5850 0    40   Input ~ 0
MEAS2B_PIN12
Text GLabel 8500 -5650 0    40   Input ~ 0
+5V
$Comp
L GND #PWR012
U 1 1 53466CD0
P 8400 -5500
F 0 "#PWR012" H 8400 -5500 30  0001 C CNN
F 1 "GND" H 8400 -5570 30  0001 C CNN
F 2 "" H 8400 -5500 60  0000 C CNN
F 3 "" H 8400 -5500 60  0000 C CNN
	1    8400 -5500
	1    0    0    -1  
$EndComp
Text GLabel 8400 -5050 0    40   Input ~ 0
DetVcc
Text GLabel 8400 -5250 0    40   Input ~ 0
DETB_A11_ADDON
$Comp
L AGND #PWR14
U 1 1 53466E95
P 8100 -4900
F 0 "#PWR14" H 8100 -4900 40  0001 C CNN
F 1 "AGND" H 8100 -4970 50  0000 C CNN
F 2 "" H 8100 -4900 60  0000 C CNN
F 3 "" H 8100 -4900 60  0000 C CNN
	1    8100 -4900
	1    0    0    -1  
$EndComp
Text GLabel 12900 -7150 0    40   Input ~ 0
MEAS1C_switch
Text GLabel 12900 -7050 0    40   Input ~ 0
MEAS2C_switch
Text GLabel 9900 -11750 0    60   Input ~ 0
sleep
Text GLabel 9900 -11600 0    60   Input ~ 0
+5V
Text GLabel 11600 -11650 2    40   Output ~ 0
DetVcc
Text GLabel 13700 -8750 2    40   Input ~ 0
SDA
Text GLabel 12900 -8550 0    40   Input ~ 0
SCL
Text GLabel 12900 -8750 0    40   Input ~ 0
3.3Vdd
NoConn ~ 12700 -9500
NoConn ~ 12700 -9600
NoConn ~ 13700 -9800
NoConn ~ 13700 -9500
Text GLabel 12650 -9800 0    40   Input ~ 0
+5v
Text GLabel 9000 -8850 0    40   BiDi ~ 0
Rxd_CO2
Text GLabel 9000 -8750 0    40   BiDi ~ 0
Txd_CO2
Text GLabel 13800 -9600 2    40   BiDi ~ 0
Rxd_CO2
Text GLabel 13800 -9700 2    40   BiDi ~ 0
Txd_CO2
Text GLabel 4400 -7350 0    40   Input ~ 0
toggle act1/act2
Text GLabel 4400 -7250 0    40   Input ~ 0
toggle act ON/OFF
Text GLabel 4400 -7650 0    40   Input ~ 0
actinic_preset1
Text GLabel 4400 -7550 0    40   Input ~ 0
actinic_preset2
$Comp
L GND #PWR013
U 1 1 5346DB3A
P 7350 -6550
F 0 "#PWR013" H 7350 -6550 30  0001 C CNN
F 1 "GND" H 7350 -6620 30  0001 C CNN
F 2 "" H 7350 -6550 60  0000 C CNN
F 3 "" H 7350 -6550 60  0000 C CNN
	1    7350 -6550
	1    0    0    -1  
$EndComp
$Comp
L GND #PWR014
U 1 1 5346E035
P 6200 -7800
F 0 "#PWR014" H 6200 -7800 30  0001 C CNN
F 1 "GND" H 6200 -7870 30  0001 C CNN
F 2 "" H 6200 -7800 60  0000 C CNN
F 3 "" H 6200 -7800 60  0000 C CNN
	1    6200 -7800
	1    0    0    -1  
$EndComp
Text Notes 5300 -7900 0    40   ~ 0
ACTinic Circuit
$Comp
L GND #PWR015
U 1 1 5346E97E
P 8600 -9600
F 0 "#PWR015" H 8600 -9600 30  0001 C CNN
F 1 "GND" H 8600 -9670 30  0001 C CNN
F 2 "" H 8600 -9600 60  0000 C CNN
F 3 "" H 8600 -9600 60  0000 C CNN
	1    8600 -9600
	-1   0    0    -1  
$EndComp
Text Notes 10550 -12100 0    40   ~ 0
Detector regulator
Text GLabel 13850 -7000 2    40   BiDi ~ 0
SDA
Text GLabel 13850 -7200 2    40   Input ~ 0
SCL
Text GLabel 13800 -7850 2    40   Input ~ 0
3.3Vdd
Text Notes 12900 -7500 0    40   ~ 0
I2C I/O\nExpander
Text GLabel 10150 -8650 2    40   Output ~ 0
Umeas2
Text GLabel 10150 -8550 2    40   Output ~ 0
Umeas1
Text GLabel 10150 -8850 2    40   BiDi ~ 0
SDA
Text GLabel 10150 -8950 2    40   Output ~ 0
SCL
Text GLabel 10150 -9650 2    40   Input ~ 0
+5v
Text GLabel 10150 -9150 2    40   Output ~ 0
AUTO POWER OFF
$Comp
L AGND #PWR19
U 1 1 534711F7
P 10550 -9500
F 0 "#PWR19" H 10550 -9500 40  0001 C CNN
F 1 "AGND" H 10550 -9570 50  0000 C CNN
F 2 "" H 10550 -9500 60  0000 C CNN
F 3 "" H 10550 -9500 60  0000 C CNN
	1    10550 -9500
	1    0    0    -1  
$EndComp
Text GLabel 10150 -9250 2    40   Output ~ 0
sleep
NoConn ~ 3050 -6650
NoConn ~ 2450 -6650
Text GLabel 12950 -12100 3    40   Input ~ 0
DetVcc
Text GLabel 4400 -7950 0    60   Input ~ 0
+5v
Text GLabel 9000 -9050 0    40   Output ~ 0
toggle act1/act2
Text GLabel 10150 -9050 2    40   Output ~ 0
toggle act ON/OFF
Text GLabel 13200 -12100 3    40   Input ~ 0
+5V
$Comp
L PWR_FLAG #FLG016
U 1 1 53474327
P 13200 -12200
F 0 "#FLG016" H 13200 -12105 30  0001 C CNN
F 1 "PWR_FLAG" H 13200 -12020 30  0000 C CNN
F 2 "" H 13200 -12200 60  0000 C CNN
F 3 "" H 13200 -12200 60  0000 C CNN
	1    13200 -12200
	-1   0    0    -1  
$EndComp
Text GLabel 10150 -8450 2    40   Output ~ 0
IR CAL toggle
Text GLabel 12900 -6950 0    40   Input ~ 0
DETC_switch
Text GLabel 12900 -7250 0    40   Input ~ 0
ACTc_switch
Text GLabel 7800 -8150 2    40   Input ~ 0
ACTc_switch
$Comp
L GND #PWR017
U 1 1 5347838E
P 6950 -8150
F 0 "#PWR017" H 6950 -8150 30  0001 C CNN
F 1 "GND" H 6950 -8220 30  0001 C CNN
F 2 "" H 6950 -8150 60  0000 C CNN
F 3 "" H 6950 -8150 60  0000 C CNN
	1    6950 -8150
	1    0    0    -1  
$EndComp
Text GLabel 7800 -8300 2    40   Output ~ 0
ACTC+
Text GLabel 200  -8800 0    60   Input ~ 0
MEAS2C+
Text GLabel 7800 -7700 2    40   Output ~ 0
ACTC-
Text GLabel 9000 -9350 0    40   Output ~ 0
ACTB_PIN2
Text GLabel 200  -7350 0    60   Input ~ 0
MEAS1C+
Text Notes 12650 -9900 0    60   ~ 0
CO2 concentration sensor
$Comp
L GND #PWR018
U 1 1 5345A8BB
P 12700 -12100
F 0 "#PWR018" H 12700 -12100 30  0001 C CNN
F 1 "GND" H 12700 -12170 30  0001 C CNN
F 2 "" H 12700 -12100 60  0000 C CNN
F 3 "" H 12700 -12100 60  0000 C CNN
	1    12700 -12100
	-1   0    0    -1  
$EndComp
$Comp
L PWR_FLAG #FLG019
U 1 1 5345AD55
P 5550 -8050
F 0 "#FLG019" H 5550 -7955 30  0001 C CNN
F 1 "PWR_FLAG" H 5550 -7870 30  0000 C CNN
F 2 "" H 5550 -8050 60  0000 C CNN
F 3 "" H 5550 -8050 60  0000 C CNN
	1    5550 -8050
	-1   0    0    -1  
$EndComp
$Comp
L CONN_1 P3
U 1 1 5345B469
P 8750 -9750
F 0 "P3" H 8830 -9750 40  0000 L CNN
F 1 "CONN_1" H 8750 -9695 30  0001 C CNN
F 2 "~" H 8750 -9750 60  0000 C CNN
F 3 "~" H 8750 -9750 60  0000 C CNN
	1    8750 -9750
	-1   0    0    1   
$EndComp
$Comp
L CONN_1 P1
U 1 1 5345B46F
P 8750 -9850
F 0 "P1" H 8830 -9850 40  0000 L CNN
F 1 "CONN_1" H 8750 -9795 30  0001 C CNN
F 2 "~" H 8750 -9850 60  0000 C CNN
F 3 "~" H 8750 -9850 60  0000 C CNN
	1    8750 -9850
	-1   0    0    1   
$EndComp
Text GLabel 9000 -9550 0    40   Output ~ 0
TXd_BT
Text GLabel 9000 -9450 0    40   Output ~ 0
RXd_BT
$Comp
L BU4S11G2-TR U8
U 1 1 5356D025
P 1700 -11700
F 0 "U8" H 1800 -11650 40  0000 C CNN
F 1 "BU4S11G2-TR" H 1700 -11700 30  0000 C CNN
F 2 "SSOP5" H 1600 -11800 10  0000 C CNN
F 3 "" H 1700 -11700 60  0000 C CNN
	1    1700 -11700
	1    0    0    -1  
$EndComp
$Comp
L R R6
U 1 1 5356EB80
P 2450 -11400
F 0 "R6" V 2530 -11400 40  0000 C CNN
F 1 "100K" V 2457 -11399 40  0000 C CNN
F 2 "SM0805" V 2425 -11500 10  0000 C CNN
F 3 "~" H 2450 -11400 30  0000 C CNN
	1    2450 -11400
	0    -1   -1   0   
$EndComp
$Comp
L R R5
U 1 1 5356EB92
P 1800 -12100
F 0 "R5" V 1880 -12100 40  0000 C CNN
F 1 "100K" V 1807 -12099 40  0000 C CNN
F 2 "~" V 1730 -12100 30  0000 C CNN
F 3 "~" H 1800 -12100 30  0000 C CNN
	1    1800 -12100
	0    -1   -1   0   
$EndComp
$Comp
L C C5
U 1 1 5356F1FC
P 650 -11350
F 0 "C5" V 700 -11250 40  0000 L CNN
F 1 "0.1u" V 700 -11550 40  0000 L CNN
F 2 "SM0805" V 625 -11425 10  0000 C CNN
F 3 "~" H 650 -11350 60  0000 C CNN
	1    650  -11350
	0    -1   -1   0   
$EndComp
$Comp
L C C4
U 1 1 5356F209
P 0 -11400
F 0 "C4" H 0   -11300 40  0000 L CNN
F 1 "1u" H 6   -11485 40  0000 L CNN
F 2 "~" H 38  -11550 30  0000 C CNN
F 3 "~" H 0   -11400 60  0000 C CNN
	1    0    -11400
	1    0    0    -1  
$EndComp
$Comp
L C C6
U 1 1 5356F20F
P 900 -11750
F 0 "C6" V 950 -11650 40  0000 L CNN
F 1 "0.1u" V 950 -11950 40  0000 L CNN
F 2 "SM0805" V 875 -11825 10  0000 C CNN
F 3 "~" H 900 -11750 60  0000 C CNN
	1    900  -11750
	0    -1   -1   0   
$EndComp
$Comp
L C C7
U 1 1 5356F215
P 1400 -11200
F 0 "C7" H 1400 -11100 40  0000 L CNN
F 1 "10n" H 1406 -11285 40  0000 L CNN
F 2 "~" H 1438 -11350 30  0000 C CNN
F 3 "~" H 1400 -11200 60  0000 C CNN
	1    1400 -11200
	-1   0    0    1   
$EndComp
$Comp
L R R3
U 1 1 5356F21D
P 600 -11200
F 0 "R3" V 500 -11200 40  0000 C CNN
F 1 "100K" V 607 -11199 40  0000 C CNN
F 2 "SM0805" V 575 -11300 10  0000 C CNN
F 3 "~" H 600 -11200 30  0000 C CNN
	1    600  -11200
	0    -1   -1   0   
$EndComp
$Comp
L R R4
U 1 1 5356F22A
P 950 -11600
F 0 "R4" V 1030 -11600 40  0000 C CNN
F 1 "100K" V 957 -11599 40  0000 C CNN
F 2 "SM0805" V 925 -11700 10  0000 C CNN
F 3 "~" H 950 -11600 30  0000 C CNN
	1    950  -11600
	0    -1   -1   0   
$EndComp
$Comp
L SW_PUSH SW101
U 1 1 5356F232
P 350 -11600
F 0 "SW101" H 500 -11490 50  0000 C CNN
F 1 "SW_PUSH" H 350 -11680 50  0000 C CNN
F 2 "~" H 350 -11600 60  0000 C CNN
F 3 "~" H 350 -11600 60  0000 C CNN
	1    350  -11600
	1    0    0    -1  
$EndComp
Text GLabel -250 -11100 0    60   Input ~ 0
AUTO POWER OFF
Text GLabel 13450 -12100 3    60   Input ~ 0
+Vbatt
$Comp
L PWR_FLAG #FLG020
U 1 1 5357D5C3
P 13450 -12200
F 0 "#FLG020" H 13450 -12105 30  0001 C CNN
F 1 "PWR_FLAG" H 13450 -12020 30  0000 C CNN
F 2 "" H 13450 -12200 60  0000 C CNN
F 3 "" H 13450 -12200 60  0000 C CNN
	1    13450 -12200
	-1   0    0    -1  
$EndComp
Text GLabel 10150 -9350 2    40   Output ~ 0
~LDAC
Text GLabel 9000 -8550 0    40   Output ~ 0
IRCALB_PIN10
Text GLabel 9000 -8350 0    40   Output ~ 0
MEAS2B_PIN12
Text GLabel 9000 -8450 0    40   Output ~ 0
MEASB_PIN11
$Comp
L BU4S11G2-TR U5
U 1 1 53580D2C
P 2350 -11700
F 0 "U5" H 2450 -11650 40  0000 C CNN
F 1 "BU4S11G2-TR" H 2350 -11700 30  0000 C CNN
F 2 "SSOP5" H 2250 -11800 10  0000 C CNN
F 3 "" H 2350 -11700 60  0000 C CNN
	1    2350 -11700
	1    0    0    -1  
$EndComp
Text GLabel 10150 -8750 2    40   Output ~ 0
Vbatt_meas
Text GLabel 4250 -11500 2    40   Output ~ 0
Vbatt_meas
$Comp
L R R8
U 1 1 5358156D
P 3200 -11350
F 0 "R8" H 3250 -11525 40  0000 C CNN
F 1 "10M" V 3207 -11349 40  0000 C CNN
F 2 "SM0805" V 3175 -11450 10  0000 C CNN
F 3 "~" H 3200 -11350 30  0000 C CNN
	1    3200 -11350
	-1   0    0    1   
$EndComp
$Comp
L R R7
U 1 1 53581573
P 3000 -11350
F 0 "R7" H 3050 -11525 40  0000 C CNN
F 1 "1M" V 3007 -11349 40  0000 C CNN
F 2 "SM0805" V 2975 -11450 10  0000 C CNN
F 3 "~" H 3000 -11350 30  0000 C CNN
	1    3000 -11350
	-1   0    0    1   
$EndComp
$Comp
L C C3
U 1 1 53582099
P 2850 -11400
F 0 "C3" H 2875 -11475 30  0000 L CNN
F 1 "1n" H 2800 -11475 30  0000 L CNN
F 2 "" H 2850 -11400 60  0000 C CNN
F 3 "C0402C102J5GACTU" H 2850 -11400 10  0000 C CNN
	1    2850 -11400
	-1   0    0    1   
$EndComp
Text GLabel 12000 -10750 0    40   BiDi ~ 0
SDA
Text GLabel 12000 -10850 0    40   Input ~ 0
SCL
$Comp
L AGND #PWR18
U 1 1 53592DBF
P 10500 -11150
F 0 "#PWR18" H 10500 -11150 40  0001 C CNN
F 1 "AGND" H 10500 -11220 50  0000 C CNN
F 2 "" H 10500 -11150 60  0000 C CNN
F 3 "" H 10500 -11150 60  0000 C CNN
	1    10500 -11150
	1    0    0    -1  
$EndComp
Text Label 5400 -7550 0    10   ~ 0
actinic_switched
Text GLabel 8500 -5750 0    40   Input ~ 0
+V_meas_regulated
Text GLabel 4400 -7750 0    40   Output ~ 0
preselected ACT
$Comp
L CONN_1 P5
U 1 1 5359705C
P 8750 -9250
F 0 "P5" H 8830 -9250 40  0000 L CNN
F 1 "CONN_1" H 8750 -9195 30  0001 C CNN
F 2 "~" H 8750 -9250 60  0000 C CNN
F 3 "~" H 8750 -9250 60  0000 C CNN
	1    8750 -9250
	-1   0    0    1   
$EndComp
$Comp
L CONN_1 P7
U 1 1 53597062
P 8750 -9150
F 0 "P7" H 8830 -9150 40  0000 L CNN
F 1 "CONN_1" H 8750 -9095 30  0001 C CNN
F 2 "~" H 8750 -9150 60  0000 C CNN
F 3 "~" H 8750 -9150 60  0000 C CNN
	1    8750 -9150
	-1   0    0    1   
$EndComp
$Comp
L CONN_1 P8
U 1 1 53597068
P 8750 -8650
F 0 "P8" H 8830 -8650 40  0000 L CNN
F 1 "CONN_1" H 8750 -8595 30  0001 C CNN
F 2 "~" H 8750 -8650 60  0000 C CNN
F 3 "~" H 8750 -8650 60  0000 C CNN
	1    8750 -8650
	-1   0    0    1   
$EndComp
$Comp
L TEENSY3.1 U6
U 1 1 5343FED9
P 9600 -9000
F 0 "U6" H 9600 -9050 60  0000 C CNN
F 1 "TEENSY3.1" H 9600 -8950 60  0000 C CNN
F 2 "~" H 9600 -9000 60  0000 C CNN
F 3 "~" H 9600 -9000 60  0000 C CNN
	1    9600 -9000
	1    0    0    -1  
$EndComp
$Comp
L CONN_1 P9
U 1 1 53597C27
P 11900 -10950
F 0 "P9" H 11980 -10950 40  0000 L CNN
F 1 "CONN_1" H 11900 -10895 30  0001 C CNN
F 2 "~" H 11900 -10950 60  0000 C CNN
F 3 "~" H 11900 -10950 60  0000 C CNN
	1    11900 -10950
	-1   0    0    1   
$EndComp
$Comp
L CONN_1 P10
U 1 1 53597C2D
P 11900 -10650
F 0 "P10" H 11980 -10650 40  0000 L CNN
F 1 "CONN_1" H 11900 -10595 30  0001 C CNN
F 2 "~" H 11900 -10650 60  0000 C CNN
F 3 "~" H 11900 -10650 60  0000 C CNN
	1    11900 -10650
	-1   0    0    1   
$EndComp
$Comp
L NPN_BCE Q105
U 1 1 5361317B
P 1150 -11200
F 0 "Q105" H 1300 -11200 50  0000 C CNN
F 1 "NPN_BCE" H 1050 -11050 40  0000 C CNN
F 2 "~" H 1150 -11200 60  0000 C CNN
F 3 "~" H 1150 -11200 60  0000 C CNN
	1    1150 -11200
	1    0    0    -1  
$EndComp
NoConn ~ 12700 -10550
NoConn ~ 13700 -9400
NoConn ~ 10100 -8350
$Comp
L CONN_1 P13
U 1 1 53890C24
P 10300 -9800
F 0 "P13" H 10380 -9800 40  0000 L CNN
F 1 "CONN_1" H 10300 -9745 30  0001 C CNN
F 2 "~" H 10300 -9800 60  0000 C CNN
F 3 "~" H 10300 -9800 60  0000 C CNN
	1    10300 -9800
	1    0    0    -1  
$EndComp
Wire Wire Line
	12350 -10650 12700 -10650
Wire Wire Line
	12350 -10550 12350 -10650
Wire Wire Line
	1200 -11100 1200 -11000
Wire Wire Line
	1200 -11300 1200 -11400
Connection ~ 12050 -10750
Wire Wire Line
	12050 -10650 12050 -10750
Connection ~ 12050 -10850
Wire Wire Line
	12050 -10950 12050 -10850
Wire Wire Line
	8900 -9250 9050 -9250
Wire Wire Line
	8900 -9150 9050 -9150
Wire Wire Line
	8900 -8650 9050 -8650
Wire Wire Line
	4950 -7750 4400 -7750
Wire Wire Line
	4950 -7600 4950 -7750
Wire Wire Line
	4650 -7850 4650 -7950
Wire Wire Line
	5550 -7850 4650 -7850
Connection ~ 5150 -7800
Wire Wire Line
	5150 -7950 5150 -7750
Wire Wire Line
	4700 -7800 5150 -7800
Wire Wire Line
	5550 -7700 5550 -7850
Wire Wire Line
	6200 -7700 5550 -7700
Connection ~ 5550 -8000
Wire Wire Line
	5300 -7950 5300 -8000
Wire Wire Line
	5150 -7950 5300 -7950
Wire Wire Line
	3350 -11550 3350 -11700
Wire Wire Line
	3950 -11550 3350 -11550
Wire Wire Line
	3950 -11600 3950 -11550
Wire Wire Line
	4050 -11600 3950 -11600
Wire Wire Line
	4000 -3600 4000 -3500
Wire Wire Line
	3650 -3600 4000 -3600
Wire Wire Line
	3650 -4950 3500 -4950
Wire Wire Line
	13400 -7850 13800 -7850
Wire Wire Line
	13400 -7850 13400 -7450
Wire Wire Line
	13800 -7100 13800 -7000
Wire Wire Line
	14050 -7100 13800 -7100
Wire Wire Line
	14050 -7650 14050 -7100
Wire Wire Line
	14000 -7650 14050 -7650
Wire Wire Line
	13800 -7350 13800 -7200
Wire Wire Line
	14000 -7350 13800 -7350
Wire Wire Line
	14000 -7500 14000 -7350
Connection ~ 13400 -7500
Wire Wire Line
	13400 -7500 13500 -7500
Connection ~ 13400 -7650
Wire Wire Line
	13500 -7650 13400 -7650
Wire Wire Line
	13200 -11150 13200 -11100
Connection ~ 2850 -11000
Wire Wire Line
	2850 -11000 2850 -11200
Connection ~ 3000 -11600
Connection ~ 3100 -11100
Wire Wire Line
	4100 -11500 4250 -11500
Wire Wire Line
	4100 -11050 4100 -11500
Wire Wire Line
	3100 -11050 4100 -11050
Connection ~ 3000 -11000
Wire Wire Line
	3000 -11000 3000 -11100
Wire Wire Line
	3100 -11100 3200 -11100
Wire Wire Line
	3100 -11600 3100 -11050
Wire Wire Line
	2850 -11600 3100 -11600
Wire Wire Line
	9000 -8350 9050 -8350
Wire Wire Line
	9000 -8450 9050 -8450
Wire Wire Line
	9000 -8550 9050 -8550
Wire Wire Line
	10100 -9350 10150 -9350
Wire Wire Line
	3900 -4000 4000 -4000
Wire Wire Line
	13450 -12200 13450 -12100
Wire Wire Line
	4400 -11200 4400 -11000
Wire Wire Line
	4050 -11200 4400 -11200
Connection ~ -200 -11450
Wire Wire Line
	-200 -11200 0    -11200
Wire Wire Line
	-200 -11550 -200 -11200
Connection ~ -200 -12000
Wire Wire Line
	-200 -11650 -200 -12000
Connection ~ 3900 -11000
Wire Wire Line
	0    -12100 1550 -12100
Wire Wire Line
	0    -11600 0    -12100
Connection ~ 350  -11200
Wire Wire Line
	350  -11350 450  -11350
Wire Wire Line
	350  -11350 350  -11100
Wire Wire Line
	350  -11100 -250 -11100
Connection ~ 1200 -11000
Wire Wire Line
	0    -11200 0    -11000
Wire Wire Line
	1700 -11000 1700 -11450
Wire Wire Line
	0    -11600 50   -11600
Wire Wire Line
	700  -11600 650  -11600
Wire Wire Line
	700  -11750 700  -11600
Wire Wire Line
	1200 -11750 1200 -11600
Wire Wire Line
	1100 -11750 1200 -11750
Wire Wire Line
	1200 -11600 1400 -11600
Wire Wire Line
	850  -11350 850  -11200
Wire Wire Line
	850  -11200 1100 -11200
Connection ~ 1400 -11000
Connection ~ 1700 -11000
Connection ~ 1400 -11400
Connection ~ 1400 -11600
Wire Wire Line
	1200 -11400 2200 -11400
Wire Wire Line
	2700 -11400 2700 -11700
Connection ~ 2050 -11800
Wire Wire Line
	1400 -11800 1400 -11400
Connection ~ 2050 -11700
Wire Wire Line
	2050 -12100 2050 -11600
Connection ~ 2350 -11000
Connection ~ 3450 -11000
Wire Wire Line
	2350 -11000 2350 -11450
Connection ~ 1700 -12000
Wire Wire Line
	1700 -12000 1700 -11950
Connection ~ 2350 -12000
Wire Wire Line
	2350 -12000 2350 -11950
Wire Wire Line
	3200 -11600 3450 -11600
Wire Wire Line
	3200 -12000 3200 -11600
Wire Wire Line
	-300 -12000 3200 -12000
Wire Wire Line
	2700 -11700 3350 -11700
Wire Wire Line
	3450 -11600 3450 -11700
Wire Wire Line
	9050 -9600 9050 -9550
Wire Wire Line
	9100 -9600 9050 -9600
Wire Wire Line
	9100 -9750 9100 -9600
Wire Wire Line
	8900 -9750 9100 -9750
Wire Wire Line
	9050 -9500 9050 -9450
Wire Wire Line
	9150 -9500 9050 -9500
Wire Wire Line
	9150 -9850 9150 -9500
Wire Wire Line
	8900 -9850 9150 -9850
Wire Wire Line
	9050 -9450 9000 -9450
Wire Wire Line
	9050 -9550 9000 -9550
Connection ~ 5850 -8000
Wire Wire Line
	5300 -8000 5850 -8000
Wire Wire Line
	5550 -8050 5550 -8000
Wire Wire Line
	12700 -12100 12700 -12200
Wire Wire Line
	9900 -11600 9950 -11600
Wire Wire Line
	600  -7350 600  -7450
Wire Wire Line
	200  -7350 600  -7350
Wire Wire Line
	600  -8800 600  -8950
Wire Wire Line
	200  -8800 600  -8800
Wire Wire Line
	7750 -8300 7800 -8300
Wire Wire Line
	7750 -8400 7750 -8300
Wire Wire Line
	7100 -8400 7750 -8400
Wire Wire Line
	7100 -7850 7100 -8400
Wire Wire Line
	7050 -7850 7100 -7850
Wire Wire Line
	7650 -8150 7800 -8150
Wire Wire Line
	7650 -8350 7650 -8150
Wire Wire Line
	6450 -8350 7650 -8350
Wire Wire Line
	6450 -8050 6450 -8350
Wire Wire Line
	6950 -8200 6950 -8150
Wire Wire Line
	6800 -8200 6950 -8200
Wire Wire Line
	6800 -8150 6800 -8200
Wire Wire Line
	6200 -7650 6200 -7700
Wire Wire Line
	6800 -7650 6200 -7650
Wire Wire Line
	12900 -7250 13000 -7250
Wire Wire Line
	12900 -6950 13000 -6950
Connection ~ 6200 -8300
Wire Wire Line
	6200 -8250 6200 -8300
Wire Wire Line
	13200 -12200 13200 -12100
Wire Wire Line
	12950 -12200 12950 -12100
Wire Wire Line
	1175 -4225 1325 -4225
Wire Wire Line
	1175 -3875 1175 -4225
Wire Wire Line
	875  -3875 1175 -3875
Connection ~ 2150 -5225
Wire Wire Line
	1550 -5225 2150 -5225
Wire Wire Line
	10550 -9550 10550 -9500
Wire Wire Line
	13800 -7200 13850 -7200
Wire Wire Line
	13800 -7000 13850 -7000
Wire Wire Line
	8550 -9650 9050 -9650
Wire Wire Line
	8600 -9600 8600 -9650
Wire Wire Line
	6200 -7850 6200 -7800
Wire Wire Line
	7350 -6700 7350 -6550
Wire Wire Line
	4400 -7650 4550 -7650
Wire Wire Line
	4400 -7550 4550 -7550
Wire Wire Line
	5400 -7250 4400 -7250
Wire Wire Line
	5400 -7400 5400 -7250
Wire Wire Line
	4950 -7350 4950 -7450
Wire Wire Line
	4400 -7350 4950 -7350
Wire Wire Line
	13700 -9700 13800 -9700
Wire Wire Line
	13700 -9600 13800 -9600
Wire Wire Line
	12650 -9800 12700 -9800
Wire Wire Line
	12650 -9700 12700 -9700
Wire Wire Line
	12650 -9300 12650 -9700
Wire Wire Line
	13650 -8750 13700 -8750
Wire Wire Line
	12900 -8750 12950 -8750
Wire Wire Line
	12900 -8550 12950 -8550
Wire Wire Line
	12950 -8350 12950 -8100
Wire Wire Line
	13400 -6750 13400 -6700
Connection ~ 11550 -11650
Connection ~ 10800 -11300
Wire Wire Line
	11500 -11300 11500 -11550
Wire Wire Line
	11550 -11400 11550 -11650
Wire Wire Line
	11500 -11650 11600 -11650
Wire Wire Line
	10900 -11400 11550 -11400
Wire Wire Line
	10900 -11750 10900 -11400
Wire Wire Line
	10800 -11300 10800 -11750
Wire Wire Line
	10500 -11300 11500 -11300
Wire Wire Line
	10500 -11300 10500 -11150
Connection ~ 10500 -11700
Wire Wire Line
	10450 -11600 10450 -11700
Wire Wire Line
	9900 -11750 10600 -11750
Wire Wire Line
	12900 -7050 13000 -7050
Wire Wire Line
	12900 -7150 13000 -7150
Connection ~ 8450 -4950
Wire Wire Line
	8100 -4900 8100 -4950
Wire Wire Line
	8450 -5150 8550 -5150
Wire Wire Line
	8400 -5250 8550 -5250
Wire Wire Line
	8400 -5050 8550 -5050
Wire Wire Line
	8400 -5500 8400 -5550
Wire Wire Line
	8400 -5550 8550 -5550
Wire Wire Line
	8500 -5650 8550 -5650
Wire Wire Line
	8500 -5750 8550 -5750
Wire Wire Line
	8500 -5850 8550 -5850
Wire Wire Line
	8500 -5950 8550 -5950
Wire Wire Line
	8500 -6050 8550 -6050
Wire Wire Line
	8500 -6150 8550 -6150
Wire Wire Line
	8500 -6250 8550 -6250
Wire Wire Line
	8500 -6350 8550 -6350
Wire Wire Line
	5000 -7600 4950 -7600
Wire Wire Line
	3900 -3950 3900 -4000
Wire Wire Line
	3650 -4850 3650 -4950
Wire Wire Line
	4000 -4000 4000 -4300
Wire Wire Line
	4000 -4300 3650 -4300
Wire Wire Line
	3650 -4300 3650 -4350
Wire Wire Line
	3650 -4350 3500 -4350
Connection ~ 4000 -4000
Connection ~ 4750 -9750
Wire Wire Line
	5000 -9050 4400 -9050
Wire Wire Line
	5000 -9300 5000 -9050
Wire Wire Line
	5950 -9750 5950 -9600
Connection ~ 5500 -9750
Wire Wire Line
	5500 -8950 5500 -8500
Wire Wire Line
	13700 -10950 13700 -11150
Wire Wire Line
	13750 -10950 13700 -10950
Wire Wire Line
	13700 -10550 13750 -10550
Wire Wire Line
	13700 -10650 13750 -10650
Wire Wire Line
	13700 -10750 13750 -10750
Wire Wire Line
	13700 -10850 13750 -10850
Wire Wire Line
	12000 -10550 12350 -10550
Wire Wire Line
	13700 -11150 13200 -11150
Wire Wire Line
	12000 -10750 12700 -10750
Wire Wire Line
	12000 -10850 12700 -10850
Connection ~ 13700 -5875
Wire Wire Line
	13075 -5775 13150 -5775
Wire Wire Line
	13725 -5775 13650 -5775
Wire Wire Line
	13700 -5475 13600 -5475
Wire Wire Line
	13700 -5875 13700 -5475
Wire Wire Line
	13650 -5875 13725 -5875
Wire Wire Line
	13200 -5475 13200 -5375
Wire Wire Line
	13100 -5475 13200 -5475
Wire Wire Line
	13100 -5875 13100 -5475
Wire Wire Line
	13150 -5875 13100 -5875
Wire Wire Line
	12950 -4625 12950 -4500
Connection ~ 14025 -4625
Wire Wire Line
	13875 -4625 14100 -4625
Wire Wire Line
	14025 -4125 14025 -4625
Wire Wire Line
	13475 -4125 13525 -4125
Wire Wire Line
	13875 -4225 13875 -4425
Wire Wire Line
	13075 -4225 13875 -4225
Wire Wire Line
	13075 -4425 13075 -4225
Wire Wire Line
	1325 -3750 1325 -3825
Wire Wire Line
	1500 -3825 1500 -4525
Wire Wire Line
	2150 -4425 775  -4425
Connection ~ 2150 -5775
Connection ~ 2150 -4875
Wire Wire Line
	2150 -5775 2150 -4425
Wire Wire Line
	1500 -4875 2150 -4875
Wire Wire Line
	1500 -4525 1150 -4525
Wire Wire Line
	1150 -4525 1150 -4875
Wire Wire Line
	1350 -4275 2250 -4275
Wire Wire Line
	1350 -4575 1350 -4275
Wire Wire Line
	1300 -5025 1300 -4725
Wire Wire Line
	9500 -8100 9500 -8050
Wire Wire Line
	9600 -8050 9600 -8100
Wire Wire Line
	9400 -8050 9400 -8100
Wire Wire Line
	10100 -8450 10150 -8450
Wire Wire Line
	10150 -8550 10100 -8550
Wire Wire Line
	10100 -8650 10150 -8650
Wire Wire Line
	10150 -8750 10100 -8750
Wire Wire Line
	10100 -8850 10150 -8850
Wire Wire Line
	10100 -8950 10150 -8950
Wire Wire Line
	10100 -9050 10150 -9050
Wire Wire Line
	10100 -9150 10150 -9150
Wire Wire Line
	10100 -9250 10150 -9250
Wire Wire Line
	10000 -9450 10150 -9450
Wire Wire Line
	10100 -9550 10550 -9550
Wire Wire Line
	10100 -9650 10150 -9650
Wire Wire Line
	9000 -8750 9050 -8750
Wire Wire Line
	9000 -8850 9050 -8850
Wire Wire Line
	9000 -8950 9050 -8950
Wire Wire Line
	9000 -9050 9050 -9050
Wire Wire Line
	9000 -9350 9050 -9350
Wire Wire Line
	6450 -11150 6300 -11150
Wire Wire Line
	8400 -4850 8550 -4850
Connection ~ 3650 -11650
Wire Wire Line
	3900 -11700 4250 -11700
Wire Wire Line
	3900 -11700 3900 -11650
Wire Wire Line
	3900 -11650 3650 -11650
Wire Wire Line
	1500 -6400 1500 -6550
Connection ~ 8100 -11750
Connection ~ 7450 -10750
Wire Wire Line
	8100 -10750 8100 -11350
Wire Wire Line
	7750 -11750 8250 -11750
Wire Wire Line
	6000 -11750 5900 -11750
Wire Wire Line
	7250 -11350 5900 -11350
Wire Wire Line
	7250 -11600 7250 -11350
Connection ~ 7000 -10750
Wire Wire Line
	6650 -10750 8100 -10750
Connection ~ 800  -7700
Connection ~ 1500 -6550
Wire Wire Line
	2100 -7850 2550 -7850
Wire Wire Line
	2100 -7500 2100 -7850
Wire Wire Line
	1500 -7500 2100 -7500
Wire Wire Line
	1200 -7000 1500 -7000
Connection ~ 800  -8550
Wire Wire Line
	200  -8550 800  -8550
Wire Wire Line
	800  -9200 800  -7350
Connection ~ 3200 -6850
Wire Wire Line
	3200 -7350 2950 -7350
Wire Wire Line
	3050 -6950 3300 -6950
Wire Wire Line
	3050 -6750 3300 -6750
Wire Wire Line
	3200 -6550 3200 -7350
Wire Wire Line
	3050 -6850 3200 -6850
Connection ~ 3550 -11000
Wire Wire Line
	3450 -11000 3450 -11200
Wire Wire Line
	0    -11000 3900 -11000
Wire Wire Line
	3900 -11000 3900 -11100
Wire Wire Line
	3650 -11100 3750 -11100
Wire Wire Line
	10450 -11700 10700 -11700
Wire Wire Line
	10700 -11700 10700 -11750
Wire Wire Line
	7050 -8250 7350 -8250
Connection ~ 7350 -8300
Connection ~ 7350 -8250
Connection ~ 1400 -7950
Connection ~ 1400 -8050
Connection ~ 1400 -9550
Wire Wire Line
	1400 -9450 1400 -9550
Connection ~ 8450 -5150
Wire Wire Line
	8450 -5350 8550 -5350
Wire Wire Line
	8450 -5350 8450 -4950
Wire Wire Line
	8100 -4950 8550 -4950
Connection ~ 6650 -11750
Wire Wire Line
	7550 -11550 7550 -11600
Connection ~ 1025 -5575
Connection ~ 1025 -4875
Wire Wire Line
	6650 -11750 6650 -11250
Connection ~ 1325 -3825
Connection ~ 1700 -4675
Connection ~ 1325 -4425
Wire Wire Line
	1325 -4225 1325 -4425
Wire Wire Line
	1225 -4125 2250 -4125
Wire Wire Line
	525  -4500 525  -4225
Wire Wire Line
	1700 -4500 525  -4500
Wire Wire Line
	775  -3825 1500 -3825
Wire Wire Line
	1225 -3800 1225 -4125
Wire Wire Line
	525  -3800 1225 -3800
Wire Wire Line
	525  -4025 525  -3800
Connection ~ 1150 -4875
Wire Wire Line
	1450 -4875 1450 -5175
Wire Wire Line
	1700 -5025 1700 -4500
Wire Wire Line
	1700 -5025 1725 -5025
Connection ~ 2125 -5150
Wire Wire Line
	1925 -5150 2125 -5150
Wire Wire Line
	2125 -5475 2125 -5025
Wire Wire Line
	1900 -5475 2125 -5475
Connection ~ 1200 -5150
Wire Wire Line
	1525 -5150 1200 -5150
Wire Wire Line
	1200 -5025 1300 -5025
Wire Wire Line
	1200 -5375 1200 -5025
Connection ~ 650  -5375
Wire Wire Line
	500  -5375 700  -5375
Connection ~ 650  -4875
Wire Wire Line
	500  -4975 500  -4875
Wire Wire Line
	500  -4875 1450 -4875
Connection ~ 1450 -5775
Wire Wire Line
	1425 -5775 2250 -5775
Wire Wire Line
	1025 -5775 1025 -4875
Wire Wire Line
	1200 -5575 1025 -5575
Connection ~ 1150 -5375
Wire Wire Line
	1100 -5375 1200 -5375
Connection ~ 11000 -11650
Connection ~ 6900 -11100
Wire Wire Line
	7800 -11200 7650 -11200
Wire Wire Line
	6650 -10750 6650 -10950
Wire Wire Line
	6450 -10900 6450 -11050
Wire Wire Line
	6900 -10900 6450 -10900
Wire Wire Line
	6900 -11150 6900 -10900
Wire Wire Line
	1200 -8850 2500 -8850
Wire Wire Line
	7050 -8250 7050 -7950
Wire Wire Line
	6400 -8300 6400 -7900
Wire Wire Line
	14100 -4525 13875 -4525
Wire Wire Line
	13075 -4925 13475 -4925
Connection ~ 13875 -4625
Wire Wire Line
	13875 -4925 13875 -4625
Wire Wire Line
	200  -8050 400  -8050
Wire Wire Line
	7550 -7700 7550 -7650
Wire Wire Line
	1500 -7500 1500 -6950
Connection ~ 7650 -7700
Wire Wire Line
	6400 -7900 6450 -7900
Wire Wire Line
	7350 -8300 7350 -8200
Connection ~ 6400 -8300
Wire Wire Line
	7350 -7800 7350 -7650
Wire Wire Line
	1500 -8850 1500 -8650
Wire Wire Line
	1400 -8050 1400 -7900
Wire Wire Line
	1100 -7950 1400 -7950
Wire Wire Line
	1100 -7400 1100 -7950
Wire Wire Line
	500  -7400 1100 -7400
Wire Wire Line
	500  -7450 500  -7400
Wire Wire Line
	300  -6550 300  -7700
Connection ~ 1400 -9450
Wire Wire Line
	1100 -9450 1400 -9450
Wire Wire Line
	1100 -8900 1100 -9450
Wire Wire Line
	500  -8900 1100 -8900
Wire Wire Line
	550  -9550 1500 -9550
Connection ~ 1200 -7000
Connection ~ 1500 -8050
Wire Wire Line
	500  -8950 500  -8900
Wire Wire Line
	400  -9550 200  -9550
Connection ~ 1500 -8200
Wire Wire Line
	300  -8200 300  -9200
Wire Wire Line
	2050 -9550 2050 -8050
Wire Wire Line
	550  -8050 1550 -8050
Wire Wire Line
	1800 -8450 1850 -8450
Wire Wire Line
	2350 -8450 2350 -6950
Wire Wire Line
	1500 -8200 1500 -8250
Connection ~ 13075 -4625
Wire Wire Line
	7050 -7450 7000 -7450
Wire Wire Line
	6500 -7450 6450 -7450
Wire Wire Line
	5450 -7350 5450 -7050
Wire Wire Line
	5450 -7200 7350 -7200
Wire Wire Line
	7350 -7200 7350 -7250
Wire Wire Line
	5850 -8300 5850 -7850
Wire Wire Line
	6500 -7450 6500 -7050
Wire Wire Line
	5450 -7050 6100 -7050
Connection ~ 5450 -7200
Connection ~ 5850 -6700
Wire Wire Line
	4700 -6700 7350 -6700
Wire Wire Line
	5100 -9250 5100 -8950
Wire Wire Line
	6650 -9100 5100 -9100
Wire Wire Line
	6650 -9550 6650 -9100
Wire Wire Line
	6150 -9550 6150 -8950
Wire Wire Line
	5100 -8950 5750 -8950
Connection ~ 5100 -9100
Connection ~ 5500 -8600
Wire Wire Line
	4500 -8600 6650 -8600
Wire Wire Line
	6100 -9350 6250 -9350
Connection ~ 6150 -9350
Connection ~ 7350 -7200
Connection ~ 6500 -7450
Wire Wire Line
	2000 -9550 2250 -9550
Wire Wire Line
	2200 -6550 2200 -8200
Wire Wire Line
	2200 -8200 300  -8200
Connection ~ 2050 -9550
Wire Wire Line
	300  -6550 3200 -6550
Wire Wire Line
	1800 -6750 1850 -6750
Connection ~ 2200 -6550
Wire Wire Line
	2300 -6850 2450 -6850
Wire Wire Line
	2300 -7350 2300 -6850
Wire Wire Line
	6600 -11750 7050 -11750
Wire Wire Line
	7750 -11550 7550 -11550
Wire Wire Line
	7750 -11750 7750 -11550
Wire Wire Line
	7450 -10750 7450 -11600
Wire Wire Line
	7350 -11550 7350 -11600
Wire Wire Line
	7050 -11550 7350 -11550
Wire Wire Line
	7050 -11750 7050 -11550
Wire Wire Line
	7800 -11750 7800 -11700
Connection ~ 7800 -11750
Wire Wire Line
	7800 -11200 7800 -11150
Wire Wire Line
	7650 -11200 7650 -11600
Connection ~ 7800 -11200
Wire Wire Line
	7800 -11150 7400 -11150
Wire Wire Line
	4600 -9500 4400 -9500
Wire Wire Line
	4500 -9400 4500 -8600
Wire Wire Line
	4750 -9200 4500 -9200
Connection ~ 4500 -9200
Wire Wire Line
	4750 -9750 4750 -9650
Wire Wire Line
	4400 -9750 5550 -9750
Wire Wire Line
	4750 -9250 4750 -9200
Wire Wire Line
	4500 -9400 4600 -9400
Wire Wire Line
	5100 -9450 5000 -9450
Wire Wire Line
	5450 -7550 5400 -7550
Wire Wire Line
	5150 -7350 5150 -6700
Connection ~ 5150 -6700
Wire Wire Line
	4700 -6700 4700 -7400
Wire Wire Line
	5000 -7500 5000 -7325
Wire Wire Line
	5000 -7325 5150 -7325
Connection ~ 5150 -7325
Wire Wire Line
	7000 -11750 7000 -11650
Connection ~ 7000 -11750
Wire Wire Line
	7000 -11250 7000 -10650
Wire Wire Line
	11000 -11750 11000 -11550
Wire Wire Line
	1400 -7500 1400 -6950
Connection ~ 1500 -7000
Wire Wire Line
	1300 -7000 1300 -6950
Connection ~ 1400 -7000
Wire Wire Line
	1200 -7000 1200 -6950
Connection ~ 1300 -7000
Wire Wire Line
	1400 -9050 1400 -8650
Connection ~ 1500 -8850
Wire Wire Line
	1300 -8850 1300 -8650
Connection ~ 1400 -8850
Wire Wire Line
	1200 -8850 1200 -8650
Connection ~ 1300 -8850
Wire Wire Line
	7450 -7700 7450 -7650
Wire Wire Line
	7350 -7700 7800 -7700
Connection ~ 7350 -7700
Connection ~ 7450 -7700
Wire Wire Line
	7650 -7700 7650 -7650
Connection ~ 7550 -7700
Wire Wire Line
	3550 -11700 3550 -10850
Wire Wire Line
	2350 -6950 2450 -6950
Wire Wire Line
	2350 -6750 2450 -6750
Wire Wire Line
	800  -7350 2550 -7350
Connection ~ 2300 -7350
Wire Wire Line
	3650 -11700 3650 -11100
Wire Wire Line
	3900 -11600 3750 -11600
Wire Wire Line
	3750 -11600 3750 -11700
Wire Wire Line
	7550 -8300 7550 -8200
Wire Wire Line
	13075 -4925 13075 -4525
Wire Wire Line
	13875 -4425 14100 -4425
Wire Wire Line
	12950 -4625 13075 -4625
Connection ~ 6650 -9350
Wire Wire Line
	4650 -7950 4400 -7950
Wire Wire Line
	5850 -6700 5850 -7050
Wire Wire Line
	10100 -9650 10100 -9800
Wire Wire Line
	10000 -9900 10000 -9450
Connection ~ 10100 -9450
Wire Wire Line
	10100 -9800 10150 -9800
Wire Wire Line
	10000 -9900 10150 -9900
$Comp
L CONN_1 P12
U 1 1 5389107C
P 10300 -9900
F 0 "P12" H 10380 -9900 40  0000 L CNN
F 1 "CONN_1" H 10300 -9845 30  0001 C CNN
F 2 "~" H 10300 -9900 60  0000 C CNN
F 3 "~" H 10300 -9900 60  0000 C CNN
	1    10300 -9900
	1    0    0    -1  
$EndComp
Wire Wire Line
	9050 -9650 9050 -9950
Wire Wire Line
	9050 -9950 8900 -9950
$Comp
L CONN_1 P11
U 1 1 538912B0
P 8750 -9950
F 0 "P11" H 8830 -9950 40  0000 L CNN
F 1 "CONN_1" H 8750 -9895 30  0001 C CNN
F 2 "~" H 8750 -9950 60  0000 C CNN
F 3 "~" H 8750 -9950 60  0000 C CNN
	1    8750 -9950
	-1   0    0    1   
$EndComp
$Comp
L R R2
U 1 1 53F758E0
P 8300 -9650
F 0 "R2" V 8380 -9650 40  0000 C CNN
F 1 "0" V 8307 -9649 40  0000 C CNN
F 2 "~" V 8230 -9650 30  0000 C CNN
F 3 "~" H 8300 -9650 30  0000 C CNN
	1    8300 -9650
	0    1    1    0   
$EndComp
$Comp
L GNDA #PWR13
U 1 1 53F75D4F
P 8000 -9600
F 0 "#PWR13" H 8000 -9600 40  0001 C CNN
F 1 "GNDA" H 8000 -9670 40  0000 C CNN
F 2 "" H 8000 -9600 60  0000 C CNN
F 3 "" H 8000 -9600 60  0000 C CNN
	1    8000 -9600
	1    0    0    -1  
$EndComp
Wire Wire Line
	8000 -9650 8000 -9600
$Comp
L GNDA #PWR2
U 1 1 53F75F8F
P 1500 -6400
F 0 "#PWR2" H 1500 -6400 40  0001 C CNN
F 1 "GNDA" H 1500 -6470 40  0000 C CNN
F 2 "" H 1500 -6400 60  0000 C CNN
F 3 "" H 1500 -6400 60  0000 C CNN
	1    1500 -6400
	1    0    0    -1  
$EndComp
$Comp
L GNDA #PWR10
U 1 1 53F75F9F
P 7000 -10650
F 0 "#PWR10" H 7000 -10650 40  0001 C CNN
F 1 "GNDA" H 7000 -10720 40  0000 C CNN
F 2 "" H 7000 -10650 60  0000 C CNN
F 3 "" H 7000 -10650 60  0000 C CNN
	1    7000 -10650
	1    0    0    -1  
$EndComp
$Comp
L GNDA #PWR25
U 1 1 53F75FAF
P 13200 -10250
F 0 "#PWR25" H 13200 -10250 40  0001 C CNN
F 1 "GNDA" H 13200 -10320 40  0000 C CNN
F 2 "" H 13200 -10250 60  0000 C CNN
F 3 "" H 13200 -10250 60  0000 C CNN
	1    13200 -10250
	1    0    0    -1  
$EndComp
Wire Wire Line
	8000 -9650 8050 -9650
Connection ~ 8600 -9650
Wire Wire Line
	13200 -10300 13200 -10250
$Comp
L GNDA #PWR20
U 1 1 53FB4188
P 12450 -12100
F 0 "#PWR20" H 12450 -12100 40  0001 C CNN
F 1 "GNDA" H 12450 -12170 40  0000 C CNN
F 2 "" H 12450 -12100 60  0000 C CNN
F 3 "" H 12450 -12100 60  0000 C CNN
	1    12450 -12100
	1    0    0    -1  
$EndComp
$Comp
L PWR_FLAG #FLG021
U 1 1 53FB418E
P 12450 -12200
F 0 "#FLG021" H 12450 -12105 30  0001 C CNN
F 1 "PWR_FLAG" H 12450 -12020 30  0000 C CNN
F 2 "" H 12450 -12200 60  0000 C CNN
F 3 "" H 12450 -12200 60  0000 C CNN
	1    12450 -12200
	-1   0    0    -1  
$EndComp
Wire Wire Line
	12450 -12200 12450 -12100
$Comp
L GNDA #PWR15
U 1 1 53FB4B8B
P 8150 -5400
F 0 "#PWR15" H 8150 -5400 40  0001 C CNN
F 1 "GNDA" H 8150 -5470 40  0000 C CNN
F 2 "" H 8150 -5400 60  0000 C CNN
F 3 "" H 8150 -5400 60  0000 C CNN
	1    8150 -5400
	1    0    0    -1  
$EndComp
Wire Wire Line
	8550 -5450 8150 -5450
Wire Wire Line
	8150 -5450 8150 -5400
NoConn ~ 13650 -8350
NoConn ~ 13650 -8550
Text GLabel 9600 -8050 3    40   Input ~ 0
DETB_A11_ADDON
Text Label 6650 -9350 0    20   ~ 0
cal-
Wire Wire Line
	5850 -8300 7550 -8300
Text Label 7350 -8250 2    20   ~ 0
ACT_comm
$EndSCHEMATC
