G04 #@! TF.FileFunction,Soldermask,Bot*
%FSLAX46Y46*%
G04 Gerber Fmt 4.6, Leading zero omitted, Abs format (unit mm)*
G04 Created by KiCad (PCBNEW 4.0.2+dfsg1-stable) date Thu 11 Aug 2016 05:37:14 PM EDT*
%MOMM*%
G01*
G04 APERTURE LIST*
%ADD10C,0.100000*%
%ADD11C,0.381000*%
%ADD12C,1.000000*%
%ADD13R,3.302000X1.800000*%
%ADD14O,3.302000X1.800000*%
G04 APERTURE END LIST*
D10*
D11*
X186738500Y-70386000D03*
X187310000Y-70386000D03*
X187881500Y-70386000D03*
X186738500Y-68925500D03*
X187310000Y-68925500D03*
X186738500Y-68354000D03*
X187310000Y-68354000D03*
X187881500Y-68354000D03*
X187881500Y-68925500D03*
X186738500Y-69814500D03*
X187310000Y-69814500D03*
X187881500Y-69814500D03*
X188707000Y-68989000D03*
X188707000Y-68354000D03*
X189469000Y-68354000D03*
X189469000Y-68989000D03*
X189469000Y-69624000D03*
X189469000Y-70259000D03*
X190104000Y-70259000D03*
X190104000Y-69624000D03*
X190104000Y-68989000D03*
X190104000Y-68354000D03*
X188707000Y-69624000D03*
X188707000Y-70259000D03*
X188531500Y-71484000D03*
X187960000Y-71484000D03*
X187388500Y-71484000D03*
X188531500Y-72944500D03*
X187960000Y-72944500D03*
X188531500Y-73516000D03*
X187960000Y-73516000D03*
X187388500Y-73516000D03*
X187388500Y-72944500D03*
X188531500Y-72055500D03*
X187960000Y-72055500D03*
X187388500Y-72055500D03*
X184318500Y-74716000D03*
X184890000Y-74716000D03*
X185461500Y-74716000D03*
X184318500Y-73255500D03*
X184890000Y-73255500D03*
X184318500Y-72684000D03*
X184890000Y-72684000D03*
X185461500Y-72684000D03*
X185461500Y-73255500D03*
X184318500Y-74144500D03*
X184890000Y-74144500D03*
X185461500Y-74144500D03*
X185861500Y-69854000D03*
X185290000Y-69854000D03*
X184718500Y-69854000D03*
X185861500Y-71314500D03*
X185290000Y-71314500D03*
X185861500Y-71886000D03*
X185290000Y-71886000D03*
X184718500Y-71886000D03*
X184718500Y-71314500D03*
X185861500Y-70425500D03*
X185290000Y-70425500D03*
X184718500Y-70425500D03*
X184318500Y-68756000D03*
X184890000Y-68756000D03*
X185461500Y-68756000D03*
X184318500Y-67295500D03*
X184890000Y-67295500D03*
X184318500Y-66724000D03*
X184890000Y-66724000D03*
X185461500Y-66724000D03*
X185461500Y-67295500D03*
X184318500Y-68184500D03*
X184890000Y-68184500D03*
X185461500Y-68184500D03*
D12*
X208070000Y-73750000D03*
D13*
X216460000Y-73040000D03*
D14*
X216460000Y-67960000D03*
D12*
X208060000Y-67220000D03*
M02*
