G04 #@! TF.FileFunction,Soldermask,Top*
%FSLAX46Y46*%
G04 Gerber Fmt 4.6, Leading zero omitted, Abs format (unit mm)*
G04 Created by KiCad (PCBNEW (2015-11-02 BZR 6292, Git 85c3ae3)-product) date 12/7/2015 2:01:28 PM*
%MOMM*%
G01*
G04 APERTURE LIST*
%ADD10C,0.100000*%
%ADD11R,1.650000X1.900000*%
%ADD12C,1.400000*%
%ADD13R,2.580000X2.000000*%
%ADD14R,2.000000X0.950000*%
%ADD15R,0.950000X2.000000*%
%ADD16R,1.800000X1.450000*%
%ADD17C,1.100000*%
G04 APERTURE END LIST*
D10*
D11*
X129794000Y-90825000D03*
X129794000Y-93325000D03*
D12*
X148463000Y-93472000D03*
X147193000Y-93472000D03*
X148463000Y-92202000D03*
X147193000Y-92202000D03*
X148463000Y-90932000D03*
X147193000Y-90932000D03*
X148463000Y-89662000D03*
X147193000Y-89662000D03*
X148463000Y-88392000D03*
X147193000Y-88392000D03*
D13*
X137002570Y-100581680D03*
X146207430Y-100586320D03*
D14*
X132529000Y-88513000D03*
X132529000Y-89313000D03*
X132529000Y-90113000D03*
X132529000Y-90913000D03*
X132529000Y-91713000D03*
X132529000Y-92513000D03*
X132529000Y-93313000D03*
X132529000Y-94113000D03*
D15*
X133979000Y-95563000D03*
X134779000Y-95563000D03*
X135579000Y-95563000D03*
X136379000Y-95563000D03*
X137179000Y-95563000D03*
X137979000Y-95563000D03*
X138779000Y-95563000D03*
X139579000Y-95563000D03*
D14*
X141029000Y-94113000D03*
X141029000Y-93313000D03*
X141029000Y-92513000D03*
X141029000Y-91713000D03*
X141029000Y-90913000D03*
X141029000Y-90113000D03*
X141029000Y-89313000D03*
X141029000Y-88513000D03*
D15*
X139579000Y-87063000D03*
X138779000Y-87063000D03*
X137979000Y-87063000D03*
X137179000Y-87063000D03*
X136379000Y-87063000D03*
X135579000Y-87063000D03*
X134779000Y-87063000D03*
X133979000Y-87063000D03*
D16*
X143328800Y-100392400D03*
X139728800Y-100392400D03*
X143328800Y-101842400D03*
X139728800Y-101842400D03*
D17*
X141528800Y-100217400D03*
X141528800Y-102017400D03*
M02*
