G04 #@! TF.FileFunction,Copper,L2,Bot,Signal*
%FSLAX46Y46*%
G04 Gerber Fmt 4.6, Leading zero omitted, Abs format (unit mm)*
G04 Created by KiCad (PCBNEW (2015-11-02 BZR 6292, Git 85c3ae3)-product) date 12/7/2015 2:01:28 PM*
%MOMM*%
G01*
G04 APERTURE LIST*
%ADD10C,0.100000*%
%ADD11C,1.000000*%
%ADD12C,0.600000*%
%ADD13C,0.250000*%
%ADD14C,0.254000*%
G04 APERTURE END LIST*
D10*
D11*
X148463000Y-93472000D03*
X147193000Y-93472000D03*
X148463000Y-92202000D03*
X147193000Y-92202000D03*
X148463000Y-90932000D03*
X147193000Y-90932000D03*
X148463000Y-89662000D03*
X147193000Y-89662000D03*
X148463000Y-88392000D03*
X147193000Y-88392000D03*
D12*
X150241000Y-94488000D03*
X134366000Y-91948000D03*
X134747000Y-94234000D03*
X137922000Y-98933000D03*
X139573000Y-93726000D03*
D13*
X149733000Y-93472000D02*
X148463000Y-92202000D01*
X149733000Y-93980000D02*
X149733000Y-93472000D01*
X150241000Y-94488000D02*
X149733000Y-93980000D01*
X148463000Y-87630000D02*
X148463000Y-88392000D01*
X148082000Y-87249000D02*
X148463000Y-87630000D01*
X139065000Y-87249000D02*
X148082000Y-87249000D01*
X134366000Y-91948000D02*
X139065000Y-87249000D01*
X139319000Y-89662000D02*
X147193000Y-89662000D01*
X134747000Y-94234000D02*
X139319000Y-89662000D01*
X137922000Y-98933000D02*
X139573000Y-97282000D01*
X139573000Y-97282000D02*
X139573000Y-93726000D01*
D14*
G36*
X151236000Y-102595000D02*
X141903723Y-102595000D01*
X141911789Y-102591667D01*
X142102398Y-102401390D01*
X142205682Y-102152654D01*
X142205917Y-101883327D01*
X142103067Y-101634411D01*
X141912790Y-101443802D01*
X141664054Y-101340518D01*
X141394727Y-101340283D01*
X141145811Y-101443133D01*
X140955202Y-101633410D01*
X140851918Y-101882146D01*
X140851683Y-102151473D01*
X140954533Y-102400389D01*
X141144810Y-102590998D01*
X141154448Y-102595000D01*
X128037000Y-102595000D01*
X128037000Y-100351473D01*
X140851683Y-100351473D01*
X140954533Y-100600389D01*
X141144810Y-100790998D01*
X141393546Y-100894282D01*
X141662873Y-100894517D01*
X141911789Y-100791667D01*
X142102398Y-100601390D01*
X142205682Y-100352654D01*
X142205917Y-100083327D01*
X142103067Y-99834411D01*
X141912790Y-99643802D01*
X141664054Y-99540518D01*
X141394727Y-99540283D01*
X141145811Y-99643133D01*
X140955202Y-99833410D01*
X140851918Y-100082146D01*
X140851683Y-100351473D01*
X128037000Y-100351473D01*
X128037000Y-99057171D01*
X137294891Y-99057171D01*
X137390145Y-99287703D01*
X137566369Y-99464235D01*
X137796735Y-99559891D01*
X138046171Y-99560109D01*
X138276703Y-99464855D01*
X138453235Y-99288631D01*
X138548891Y-99058265D01*
X138548990Y-98945234D01*
X139892613Y-97601612D01*
X139990594Y-97454973D01*
X140025000Y-97282000D01*
X140025000Y-94160728D01*
X140104235Y-94081631D01*
X140199891Y-93851265D01*
X140200109Y-93601829D01*
X140104855Y-93371297D01*
X139928631Y-93194765D01*
X139698265Y-93099109D01*
X139448829Y-93098891D01*
X139218297Y-93194145D01*
X139041765Y-93370369D01*
X138946109Y-93600735D01*
X138945891Y-93850171D01*
X139041145Y-94080703D01*
X139121000Y-94160698D01*
X139121000Y-97094775D01*
X137909787Y-98305989D01*
X137797829Y-98305891D01*
X137567297Y-98401145D01*
X137390765Y-98577369D01*
X137295109Y-98807735D01*
X137294891Y-99057171D01*
X128037000Y-99057171D01*
X128037000Y-94358171D01*
X134119891Y-94358171D01*
X134215145Y-94588703D01*
X134391369Y-94765235D01*
X134621735Y-94860891D01*
X134871171Y-94861109D01*
X135101703Y-94765855D01*
X135278235Y-94589631D01*
X135373891Y-94359265D01*
X135373990Y-94246234D01*
X139506225Y-90114000D01*
X146484948Y-90114000D01*
X146491495Y-90129846D01*
X146658445Y-90297088D01*
X146492312Y-90462930D01*
X146366144Y-90766778D01*
X146365857Y-91095779D01*
X146491495Y-91399846D01*
X146658445Y-91567088D01*
X146492312Y-91732930D01*
X146366144Y-92036778D01*
X146365857Y-92365779D01*
X146491495Y-92669846D01*
X146658445Y-92837088D01*
X146492312Y-93002930D01*
X146366144Y-93306778D01*
X146365857Y-93635779D01*
X146491495Y-93939846D01*
X146723930Y-94172688D01*
X147027778Y-94298856D01*
X147356779Y-94299143D01*
X147660846Y-94173505D01*
X147828088Y-94006555D01*
X147993930Y-94172688D01*
X148297778Y-94298856D01*
X148626779Y-94299143D01*
X148930846Y-94173505D01*
X149163688Y-93941070D01*
X149289856Y-93637222D01*
X149290143Y-93308221D01*
X149164505Y-93004154D01*
X148932070Y-92771312D01*
X148796352Y-92714957D01*
X148463000Y-92381605D01*
X148448858Y-92395748D01*
X148269253Y-92216143D01*
X148283395Y-92202000D01*
X148269253Y-92187858D01*
X148381496Y-92075614D01*
X148533724Y-92064834D01*
X148656748Y-92187858D01*
X148642605Y-92202000D01*
X149253104Y-92812499D01*
X149468217Y-92775352D01*
X149611112Y-92347028D01*
X149579217Y-91896625D01*
X149468217Y-91628648D01*
X149312338Y-91601730D01*
X149277608Y-91567000D01*
X149312338Y-91532270D01*
X149468217Y-91505352D01*
X149611112Y-91077028D01*
X149579217Y-90626625D01*
X149468217Y-90358648D01*
X149253104Y-90321501D01*
X148642605Y-90932000D01*
X148656748Y-90946143D01*
X148544504Y-91058386D01*
X148392276Y-91069166D01*
X148269253Y-90946143D01*
X148283395Y-90932000D01*
X148269253Y-90917858D01*
X148448858Y-90738253D01*
X148463000Y-90752395D01*
X148796294Y-90419101D01*
X148930846Y-90363505D01*
X149163688Y-90131070D01*
X149289856Y-89827222D01*
X149290143Y-89498221D01*
X149164505Y-89194154D01*
X148932070Y-88961312D01*
X148796352Y-88904957D01*
X148463000Y-88571605D01*
X148448858Y-88585748D01*
X148269253Y-88406143D01*
X148283395Y-88392000D01*
X148642605Y-88392000D01*
X149253104Y-89002499D01*
X149468217Y-88965352D01*
X149611112Y-88537028D01*
X149579217Y-88086625D01*
X149468217Y-87818648D01*
X149253104Y-87781501D01*
X148642605Y-88392000D01*
X148283395Y-88392000D01*
X147950101Y-88058706D01*
X147894505Y-87924154D01*
X147662070Y-87691312D01*
X147446732Y-87601896D01*
X147852501Y-87601896D01*
X148463000Y-88212395D01*
X149073499Y-87601896D01*
X149036352Y-87386783D01*
X148608028Y-87243888D01*
X148157625Y-87275783D01*
X147889648Y-87386783D01*
X147852501Y-87601896D01*
X147446732Y-87601896D01*
X147358222Y-87565144D01*
X147029221Y-87564857D01*
X146725154Y-87690495D01*
X146492312Y-87922930D01*
X146366144Y-88226778D01*
X146365857Y-88555779D01*
X146491495Y-88859846D01*
X146658445Y-89027088D01*
X146492312Y-89192930D01*
X146485224Y-89210000D01*
X139319000Y-89210000D01*
X139146027Y-89244406D01*
X138999387Y-89342388D01*
X134734787Y-93606989D01*
X134622829Y-93606891D01*
X134392297Y-93702145D01*
X134215765Y-93878369D01*
X134120109Y-94108735D01*
X134119891Y-94358171D01*
X128037000Y-94358171D01*
X128037000Y-84603000D01*
X151236000Y-84603000D01*
X151236000Y-102595000D01*
X151236000Y-102595000D01*
G37*
X151236000Y-102595000D02*
X141903723Y-102595000D01*
X141911789Y-102591667D01*
X142102398Y-102401390D01*
X142205682Y-102152654D01*
X142205917Y-101883327D01*
X142103067Y-101634411D01*
X141912790Y-101443802D01*
X141664054Y-101340518D01*
X141394727Y-101340283D01*
X141145811Y-101443133D01*
X140955202Y-101633410D01*
X140851918Y-101882146D01*
X140851683Y-102151473D01*
X140954533Y-102400389D01*
X141144810Y-102590998D01*
X141154448Y-102595000D01*
X128037000Y-102595000D01*
X128037000Y-100351473D01*
X140851683Y-100351473D01*
X140954533Y-100600389D01*
X141144810Y-100790998D01*
X141393546Y-100894282D01*
X141662873Y-100894517D01*
X141911789Y-100791667D01*
X142102398Y-100601390D01*
X142205682Y-100352654D01*
X142205917Y-100083327D01*
X142103067Y-99834411D01*
X141912790Y-99643802D01*
X141664054Y-99540518D01*
X141394727Y-99540283D01*
X141145811Y-99643133D01*
X140955202Y-99833410D01*
X140851918Y-100082146D01*
X140851683Y-100351473D01*
X128037000Y-100351473D01*
X128037000Y-99057171D01*
X137294891Y-99057171D01*
X137390145Y-99287703D01*
X137566369Y-99464235D01*
X137796735Y-99559891D01*
X138046171Y-99560109D01*
X138276703Y-99464855D01*
X138453235Y-99288631D01*
X138548891Y-99058265D01*
X138548990Y-98945234D01*
X139892613Y-97601612D01*
X139990594Y-97454973D01*
X140025000Y-97282000D01*
X140025000Y-94160728D01*
X140104235Y-94081631D01*
X140199891Y-93851265D01*
X140200109Y-93601829D01*
X140104855Y-93371297D01*
X139928631Y-93194765D01*
X139698265Y-93099109D01*
X139448829Y-93098891D01*
X139218297Y-93194145D01*
X139041765Y-93370369D01*
X138946109Y-93600735D01*
X138945891Y-93850171D01*
X139041145Y-94080703D01*
X139121000Y-94160698D01*
X139121000Y-97094775D01*
X137909787Y-98305989D01*
X137797829Y-98305891D01*
X137567297Y-98401145D01*
X137390765Y-98577369D01*
X137295109Y-98807735D01*
X137294891Y-99057171D01*
X128037000Y-99057171D01*
X128037000Y-94358171D01*
X134119891Y-94358171D01*
X134215145Y-94588703D01*
X134391369Y-94765235D01*
X134621735Y-94860891D01*
X134871171Y-94861109D01*
X135101703Y-94765855D01*
X135278235Y-94589631D01*
X135373891Y-94359265D01*
X135373990Y-94246234D01*
X139506225Y-90114000D01*
X146484948Y-90114000D01*
X146491495Y-90129846D01*
X146658445Y-90297088D01*
X146492312Y-90462930D01*
X146366144Y-90766778D01*
X146365857Y-91095779D01*
X146491495Y-91399846D01*
X146658445Y-91567088D01*
X146492312Y-91732930D01*
X146366144Y-92036778D01*
X146365857Y-92365779D01*
X146491495Y-92669846D01*
X146658445Y-92837088D01*
X146492312Y-93002930D01*
X146366144Y-93306778D01*
X146365857Y-93635779D01*
X146491495Y-93939846D01*
X146723930Y-94172688D01*
X147027778Y-94298856D01*
X147356779Y-94299143D01*
X147660846Y-94173505D01*
X147828088Y-94006555D01*
X147993930Y-94172688D01*
X148297778Y-94298856D01*
X148626779Y-94299143D01*
X148930846Y-94173505D01*
X149163688Y-93941070D01*
X149289856Y-93637222D01*
X149290143Y-93308221D01*
X149164505Y-93004154D01*
X148932070Y-92771312D01*
X148796352Y-92714957D01*
X148463000Y-92381605D01*
X148448858Y-92395748D01*
X148269253Y-92216143D01*
X148283395Y-92202000D01*
X148269253Y-92187858D01*
X148381496Y-92075614D01*
X148533724Y-92064834D01*
X148656748Y-92187858D01*
X148642605Y-92202000D01*
X149253104Y-92812499D01*
X149468217Y-92775352D01*
X149611112Y-92347028D01*
X149579217Y-91896625D01*
X149468217Y-91628648D01*
X149312338Y-91601730D01*
X149277608Y-91567000D01*
X149312338Y-91532270D01*
X149468217Y-91505352D01*
X149611112Y-91077028D01*
X149579217Y-90626625D01*
X149468217Y-90358648D01*
X149253104Y-90321501D01*
X148642605Y-90932000D01*
X148656748Y-90946143D01*
X148544504Y-91058386D01*
X148392276Y-91069166D01*
X148269253Y-90946143D01*
X148283395Y-90932000D01*
X148269253Y-90917858D01*
X148448858Y-90738253D01*
X148463000Y-90752395D01*
X148796294Y-90419101D01*
X148930846Y-90363505D01*
X149163688Y-90131070D01*
X149289856Y-89827222D01*
X149290143Y-89498221D01*
X149164505Y-89194154D01*
X148932070Y-88961312D01*
X148796352Y-88904957D01*
X148463000Y-88571605D01*
X148448858Y-88585748D01*
X148269253Y-88406143D01*
X148283395Y-88392000D01*
X148642605Y-88392000D01*
X149253104Y-89002499D01*
X149468217Y-88965352D01*
X149611112Y-88537028D01*
X149579217Y-88086625D01*
X149468217Y-87818648D01*
X149253104Y-87781501D01*
X148642605Y-88392000D01*
X148283395Y-88392000D01*
X147950101Y-88058706D01*
X147894505Y-87924154D01*
X147662070Y-87691312D01*
X147446732Y-87601896D01*
X147852501Y-87601896D01*
X148463000Y-88212395D01*
X149073499Y-87601896D01*
X149036352Y-87386783D01*
X148608028Y-87243888D01*
X148157625Y-87275783D01*
X147889648Y-87386783D01*
X147852501Y-87601896D01*
X147446732Y-87601896D01*
X147358222Y-87565144D01*
X147029221Y-87564857D01*
X146725154Y-87690495D01*
X146492312Y-87922930D01*
X146366144Y-88226778D01*
X146365857Y-88555779D01*
X146491495Y-88859846D01*
X146658445Y-89027088D01*
X146492312Y-89192930D01*
X146485224Y-89210000D01*
X139319000Y-89210000D01*
X139146027Y-89244406D01*
X138999387Y-89342388D01*
X134734787Y-93606989D01*
X134622829Y-93606891D01*
X134392297Y-93702145D01*
X134215765Y-93878369D01*
X134120109Y-94108735D01*
X134119891Y-94358171D01*
X128037000Y-94358171D01*
X128037000Y-84603000D01*
X151236000Y-84603000D01*
X151236000Y-102595000D01*
M02*
