G04 #@! TF.FileFunction,Legend,Bot*
%FSLAX46Y46*%
G04 Gerber Fmt 4.6, Leading zero omitted, Abs format (unit mm)*
G04 Created by KiCad (PCBNEW 4.0.2+dfsg1-stable) date Tue 12 Jul 2016 11:05:08 PM EDT*
%MOMM*%
G01*
G04 APERTURE LIST*
%ADD10C,0.100000*%
%ADD11C,0.508000*%
%ADD12C,0.300000*%
%ADD13C,0.150000*%
%ADD14C,0.005000*%
%ADD15C,0.010000*%
%ADD16C,0.400000*%
%ADD17C,0.020000*%
%ADD18C,0.031750*%
G04 APERTURE END LIST*
D10*
D11*
X132910000Y-78790000D02*
X126560000Y-78790000D01*
X126560000Y-97840000D02*
X126560000Y-78790000D01*
X126560000Y-97840000D02*
X132910000Y-97840000D01*
X132910000Y-78790000D02*
X132910000Y-97840000D01*
D12*
X91608095Y-80054763D02*
X90308095Y-80054763D01*
X91236667Y-80488096D01*
X90308095Y-80921429D01*
X91608095Y-80921429D01*
X90741429Y-82097620D02*
X91608095Y-82097620D01*
X90741429Y-81540477D02*
X91422381Y-81540477D01*
X91546190Y-81602382D01*
X91608095Y-81726191D01*
X91608095Y-81911905D01*
X91546190Y-82035715D01*
X91484286Y-82097620D01*
X91608095Y-82902381D02*
X91546190Y-82778572D01*
X91422381Y-82716667D01*
X90308095Y-82716667D01*
X90741429Y-83211905D02*
X90741429Y-83707143D01*
X90308095Y-83397619D02*
X91422381Y-83397619D01*
X91546190Y-83459524D01*
X91608095Y-83583333D01*
X91608095Y-83707143D01*
X91608095Y-84140476D02*
X90741429Y-84140476D01*
X90308095Y-84140476D02*
X90370000Y-84078571D01*
X90431905Y-84140476D01*
X90370000Y-84202381D01*
X90308095Y-84140476D01*
X90431905Y-84140476D01*
X91546190Y-84697619D02*
X91608095Y-84821429D01*
X91608095Y-85069048D01*
X91546190Y-85192857D01*
X91422381Y-85254762D01*
X91360476Y-85254762D01*
X91236667Y-85192857D01*
X91174762Y-85069048D01*
X91174762Y-84883333D01*
X91112857Y-84759524D01*
X90989048Y-84697619D01*
X90927143Y-84697619D01*
X90803333Y-84759524D01*
X90741429Y-84883333D01*
X90741429Y-85069048D01*
X90803333Y-85192857D01*
X90741429Y-85811905D02*
X92041429Y-85811905D01*
X90803333Y-85811905D02*
X90741429Y-85935714D01*
X90741429Y-86183333D01*
X90803333Y-86307143D01*
X90865238Y-86369048D01*
X90989048Y-86430952D01*
X91360476Y-86430952D01*
X91484286Y-86369048D01*
X91546190Y-86307143D01*
X91608095Y-86183333D01*
X91608095Y-85935714D01*
X91546190Y-85811905D01*
X91546190Y-87483333D02*
X91608095Y-87359523D01*
X91608095Y-87111904D01*
X91546190Y-86988095D01*
X91422381Y-86926190D01*
X90927143Y-86926190D01*
X90803333Y-86988095D01*
X90741429Y-87111904D01*
X90741429Y-87359523D01*
X90803333Y-87483333D01*
X90927143Y-87545238D01*
X91050952Y-87545238D01*
X91174762Y-86926190D01*
X91731905Y-88969047D02*
X91670000Y-88845238D01*
X91546190Y-88721428D01*
X91360476Y-88535714D01*
X91298571Y-88411905D01*
X91298571Y-88288095D01*
X91608095Y-88350000D02*
X91546190Y-88226190D01*
X91422381Y-88102381D01*
X91174762Y-88040476D01*
X90741429Y-88040476D01*
X90493810Y-88102381D01*
X90370000Y-88226190D01*
X90308095Y-88350000D01*
X90308095Y-88597619D01*
X90370000Y-88721428D01*
X90493810Y-88845238D01*
X90741429Y-88907143D01*
X91174762Y-88907143D01*
X91422381Y-88845238D01*
X91546190Y-88721428D01*
X91608095Y-88597619D01*
X91608095Y-88350000D01*
X90308095Y-90269048D02*
X91608095Y-90702381D01*
X90308095Y-91135714D01*
X91608095Y-92250000D02*
X91608095Y-91507143D01*
X91608095Y-91878572D02*
X90308095Y-91878572D01*
X90493810Y-91754762D01*
X90617619Y-91630953D01*
X90679524Y-91507143D01*
X91484286Y-92807143D02*
X91546190Y-92869048D01*
X91608095Y-92807143D01*
X91546190Y-92745238D01*
X91484286Y-92807143D01*
X91608095Y-92807143D01*
X90308095Y-93673810D02*
X90308095Y-93797619D01*
X90370000Y-93921429D01*
X90431905Y-93983334D01*
X90555714Y-94045238D01*
X90803333Y-94107143D01*
X91112857Y-94107143D01*
X91360476Y-94045238D01*
X91484286Y-93983334D01*
X91546190Y-93921429D01*
X91608095Y-93797619D01*
X91608095Y-93673810D01*
X91546190Y-93550000D01*
X91484286Y-93488096D01*
X91360476Y-93426191D01*
X91112857Y-93364286D01*
X90803333Y-93364286D01*
X90555714Y-93426191D01*
X90431905Y-93488096D01*
X90370000Y-93550000D01*
X90308095Y-93673810D01*
X93047143Y-82376191D02*
X93109048Y-82561905D01*
X93170952Y-82623810D01*
X93294762Y-82685715D01*
X93480476Y-82685715D01*
X93604286Y-82623810D01*
X93666190Y-82561905D01*
X93728095Y-82438096D01*
X93728095Y-81942858D01*
X92428095Y-81942858D01*
X92428095Y-82376191D01*
X92490000Y-82500001D01*
X92551905Y-82561905D01*
X92675714Y-82623810D01*
X92799524Y-82623810D01*
X92923333Y-82561905D01*
X92985238Y-82500001D01*
X93047143Y-82376191D01*
X93047143Y-81942858D01*
X93728095Y-83428572D02*
X93666190Y-83304763D01*
X93604286Y-83242858D01*
X93480476Y-83180953D01*
X93109048Y-83180953D01*
X92985238Y-83242858D01*
X92923333Y-83304763D01*
X92861429Y-83428572D01*
X92861429Y-83614286D01*
X92923333Y-83738096D01*
X92985238Y-83800001D01*
X93109048Y-83861905D01*
X93480476Y-83861905D01*
X93604286Y-83800001D01*
X93666190Y-83738096D01*
X93728095Y-83614286D01*
X93728095Y-83428572D01*
X93728095Y-84976191D02*
X93047143Y-84976191D01*
X92923333Y-84914286D01*
X92861429Y-84790476D01*
X92861429Y-84542857D01*
X92923333Y-84419048D01*
X93666190Y-84976191D02*
X93728095Y-84852381D01*
X93728095Y-84542857D01*
X93666190Y-84419048D01*
X93542381Y-84357143D01*
X93418571Y-84357143D01*
X93294762Y-84419048D01*
X93232857Y-84542857D01*
X93232857Y-84852381D01*
X93170952Y-84976191D01*
X93728095Y-85595238D02*
X92861429Y-85595238D01*
X93109048Y-85595238D02*
X92985238Y-85657143D01*
X92923333Y-85719047D01*
X92861429Y-85842857D01*
X92861429Y-85966666D01*
X93728095Y-86957143D02*
X92428095Y-86957143D01*
X93666190Y-86957143D02*
X93728095Y-86833333D01*
X93728095Y-86585714D01*
X93666190Y-86461905D01*
X93604286Y-86400000D01*
X93480476Y-86338095D01*
X93109048Y-86338095D01*
X92985238Y-86400000D01*
X92923333Y-86461905D01*
X92861429Y-86585714D01*
X92861429Y-86833333D01*
X92923333Y-86957143D01*
X92428095Y-88380952D02*
X93728095Y-88814285D01*
X92428095Y-89247618D01*
X92428095Y-89928571D02*
X92428095Y-90052380D01*
X92490000Y-90176190D01*
X92551905Y-90238095D01*
X92675714Y-90299999D01*
X92923333Y-90361904D01*
X93232857Y-90361904D01*
X93480476Y-90299999D01*
X93604286Y-90238095D01*
X93666190Y-90176190D01*
X93728095Y-90052380D01*
X93728095Y-89928571D01*
X93666190Y-89804761D01*
X93604286Y-89742857D01*
X93480476Y-89680952D01*
X93232857Y-89619047D01*
X92923333Y-89619047D01*
X92675714Y-89680952D01*
X92551905Y-89742857D01*
X92490000Y-89804761D01*
X92428095Y-89928571D01*
X93604286Y-90919047D02*
X93666190Y-90980952D01*
X93728095Y-90919047D01*
X93666190Y-90857142D01*
X93604286Y-90919047D01*
X93728095Y-90919047D01*
X92428095Y-92157142D02*
X92428095Y-91538095D01*
X93047143Y-91476190D01*
X92985238Y-91538095D01*
X92923333Y-91661904D01*
X92923333Y-91971428D01*
X92985238Y-92095238D01*
X93047143Y-92157142D01*
X93170952Y-92219047D01*
X93480476Y-92219047D01*
X93604286Y-92157142D01*
X93666190Y-92095238D01*
X93728095Y-91971428D01*
X93728095Y-91661904D01*
X93666190Y-91538095D01*
X93604286Y-91476190D01*
X94548095Y-80209525D02*
X94548095Y-80457144D01*
X94610000Y-80580953D01*
X94733810Y-80704763D01*
X94981429Y-80766668D01*
X95414762Y-80766668D01*
X95662381Y-80704763D01*
X95786190Y-80580953D01*
X95848095Y-80457144D01*
X95848095Y-80209525D01*
X95786190Y-80085715D01*
X95662381Y-79961906D01*
X95414762Y-79900001D01*
X94981429Y-79900001D01*
X94733810Y-79961906D01*
X94610000Y-80085715D01*
X94548095Y-80209525D01*
X94981429Y-81323811D02*
X96281429Y-81323811D01*
X95043333Y-81323811D02*
X94981429Y-81447620D01*
X94981429Y-81695239D01*
X95043333Y-81819049D01*
X95105238Y-81880954D01*
X95229048Y-81942858D01*
X95600476Y-81942858D01*
X95724286Y-81880954D01*
X95786190Y-81819049D01*
X95848095Y-81695239D01*
X95848095Y-81447620D01*
X95786190Y-81323811D01*
X95786190Y-82995239D02*
X95848095Y-82871429D01*
X95848095Y-82623810D01*
X95786190Y-82500001D01*
X95662381Y-82438096D01*
X95167143Y-82438096D01*
X95043333Y-82500001D01*
X94981429Y-82623810D01*
X94981429Y-82871429D01*
X95043333Y-82995239D01*
X95167143Y-83057144D01*
X95290952Y-83057144D01*
X95414762Y-82438096D01*
X94981429Y-83614287D02*
X95848095Y-83614287D01*
X95105238Y-83614287D02*
X95043333Y-83676192D01*
X94981429Y-83800001D01*
X94981429Y-83985715D01*
X95043333Y-84109525D01*
X95167143Y-84171430D01*
X95848095Y-84171430D01*
X95848095Y-85780953D02*
X94548095Y-85780953D01*
X95167143Y-85780953D02*
X95167143Y-86523810D01*
X95848095Y-86523810D02*
X94548095Y-86523810D01*
X95848095Y-87700001D02*
X95167143Y-87700001D01*
X95043333Y-87638096D01*
X94981429Y-87514286D01*
X94981429Y-87266667D01*
X95043333Y-87142858D01*
X95786190Y-87700001D02*
X95848095Y-87576191D01*
X95848095Y-87266667D01*
X95786190Y-87142858D01*
X95662381Y-87080953D01*
X95538571Y-87080953D01*
X95414762Y-87142858D01*
X95352857Y-87266667D01*
X95352857Y-87576191D01*
X95290952Y-87700001D01*
X95848095Y-88319048D02*
X94981429Y-88319048D01*
X95229048Y-88319048D02*
X95105238Y-88380953D01*
X95043333Y-88442857D01*
X94981429Y-88566667D01*
X94981429Y-88690476D01*
X95848095Y-89680953D02*
X94548095Y-89680953D01*
X95786190Y-89680953D02*
X95848095Y-89557143D01*
X95848095Y-89309524D01*
X95786190Y-89185715D01*
X95724286Y-89123810D01*
X95600476Y-89061905D01*
X95229048Y-89061905D01*
X95105238Y-89123810D01*
X95043333Y-89185715D01*
X94981429Y-89309524D01*
X94981429Y-89557143D01*
X95043333Y-89680953D01*
X94981429Y-90176190D02*
X95848095Y-90423809D01*
X95229048Y-90671428D01*
X95848095Y-90919047D01*
X94981429Y-91166666D01*
X95848095Y-92219048D02*
X95167143Y-92219048D01*
X95043333Y-92157143D01*
X94981429Y-92033333D01*
X94981429Y-91785714D01*
X95043333Y-91661905D01*
X95786190Y-92219048D02*
X95848095Y-92095238D01*
X95848095Y-91785714D01*
X95786190Y-91661905D01*
X95662381Y-91600000D01*
X95538571Y-91600000D01*
X95414762Y-91661905D01*
X95352857Y-91785714D01*
X95352857Y-92095238D01*
X95290952Y-92219048D01*
X95848095Y-92838095D02*
X94981429Y-92838095D01*
X95229048Y-92838095D02*
X95105238Y-92900000D01*
X95043333Y-92961904D01*
X94981429Y-93085714D01*
X94981429Y-93209523D01*
X95786190Y-94138095D02*
X95848095Y-94014285D01*
X95848095Y-93766666D01*
X95786190Y-93642857D01*
X95662381Y-93580952D01*
X95167143Y-93580952D01*
X95043333Y-93642857D01*
X94981429Y-93766666D01*
X94981429Y-94014285D01*
X95043333Y-94138095D01*
X95167143Y-94200000D01*
X95290952Y-94200000D01*
X95414762Y-93580952D01*
X96730000Y-80580953D02*
X96668095Y-80457144D01*
X96668095Y-80271429D01*
X96730000Y-80085715D01*
X96853810Y-79961906D01*
X96977619Y-79900001D01*
X97225238Y-79838096D01*
X97410952Y-79838096D01*
X97658571Y-79900001D01*
X97782381Y-79961906D01*
X97906190Y-80085715D01*
X97968095Y-80271429D01*
X97968095Y-80395239D01*
X97906190Y-80580953D01*
X97844286Y-80642858D01*
X97410952Y-80642858D01*
X97410952Y-80395239D01*
X97968095Y-81200001D02*
X96668095Y-81200001D01*
X96668095Y-81695239D01*
X96730000Y-81819048D01*
X96791905Y-81880953D01*
X96915714Y-81942858D01*
X97101429Y-81942858D01*
X97225238Y-81880953D01*
X97287143Y-81819048D01*
X97349048Y-81695239D01*
X97349048Y-81200001D01*
X97968095Y-83119048D02*
X97968095Y-82500001D01*
X96668095Y-82500001D01*
X97101429Y-83428572D02*
X97968095Y-83738096D01*
X97101429Y-84047620D01*
X96668095Y-84419048D02*
X96668095Y-85223810D01*
X97163333Y-84790477D01*
X97163333Y-84976191D01*
X97225238Y-85100001D01*
X97287143Y-85161905D01*
X97410952Y-85223810D01*
X97720476Y-85223810D01*
X97844286Y-85161905D01*
X97906190Y-85100001D01*
X97968095Y-84976191D01*
X97968095Y-84604763D01*
X97906190Y-84480953D01*
X97844286Y-84419048D01*
X97968095Y-86957143D02*
X97906190Y-86833334D01*
X97782381Y-86771429D01*
X96668095Y-86771429D01*
X97968095Y-87452381D02*
X97101429Y-87452381D01*
X96668095Y-87452381D02*
X96730000Y-87390476D01*
X96791905Y-87452381D01*
X96730000Y-87514286D01*
X96668095Y-87452381D01*
X96791905Y-87452381D01*
X97906190Y-88628572D02*
X97968095Y-88504762D01*
X97968095Y-88257143D01*
X97906190Y-88133334D01*
X97844286Y-88071429D01*
X97720476Y-88009524D01*
X97349048Y-88009524D01*
X97225238Y-88071429D01*
X97163333Y-88133334D01*
X97101429Y-88257143D01*
X97101429Y-88504762D01*
X97163333Y-88628572D01*
X97906190Y-89680953D02*
X97968095Y-89557143D01*
X97968095Y-89309524D01*
X97906190Y-89185715D01*
X97782381Y-89123810D01*
X97287143Y-89123810D01*
X97163333Y-89185715D01*
X97101429Y-89309524D01*
X97101429Y-89557143D01*
X97163333Y-89680953D01*
X97287143Y-89742858D01*
X97410952Y-89742858D01*
X97534762Y-89123810D01*
X97101429Y-90300001D02*
X97968095Y-90300001D01*
X97225238Y-90300001D02*
X97163333Y-90361906D01*
X97101429Y-90485715D01*
X97101429Y-90671429D01*
X97163333Y-90795239D01*
X97287143Y-90857144D01*
X97968095Y-90857144D01*
X97906190Y-91414286D02*
X97968095Y-91538096D01*
X97968095Y-91785715D01*
X97906190Y-91909524D01*
X97782381Y-91971429D01*
X97720476Y-91971429D01*
X97596667Y-91909524D01*
X97534762Y-91785715D01*
X97534762Y-91600000D01*
X97472857Y-91476191D01*
X97349048Y-91414286D01*
X97287143Y-91414286D01*
X97163333Y-91476191D01*
X97101429Y-91600000D01*
X97101429Y-91785715D01*
X97163333Y-91909524D01*
X97906190Y-93023810D02*
X97968095Y-92900000D01*
X97968095Y-92652381D01*
X97906190Y-92528572D01*
X97782381Y-92466667D01*
X97287143Y-92466667D01*
X97163333Y-92528572D01*
X97101429Y-92652381D01*
X97101429Y-92900000D01*
X97163333Y-93023810D01*
X97287143Y-93085715D01*
X97410952Y-93085715D01*
X97534762Y-92466667D01*
X97968095Y-94200001D02*
X96668095Y-94200001D01*
X97906190Y-94200001D02*
X97968095Y-94076191D01*
X97968095Y-93828572D01*
X97906190Y-93704763D01*
X97844286Y-93642858D01*
X97720476Y-93580953D01*
X97349048Y-93580953D01*
X97225238Y-93642858D01*
X97163333Y-93704763D01*
X97101429Y-93828572D01*
X97101429Y-94076191D01*
X97163333Y-94200001D01*
D13*
X245350000Y-82413000D02*
X244842000Y-81905000D01*
X244334000Y-82413000D02*
X244842000Y-82921000D01*
X244842000Y-82921000D02*
X245350000Y-82413000D01*
X244842000Y-80127000D02*
G75*
G03X244842000Y-80127000I-2286000J0D01*
G01*
X245306000Y-80127000D02*
G75*
G03X245306000Y-80127000I-2750000J0D01*
G01*
X246571003Y-93177000D02*
G75*
G03X246571003Y-93177000I-115003J0D01*
G01*
X247793484Y-94180300D02*
G75*
G03X247793484Y-94180300I-143684J0D01*
G01*
D14*
X247656000Y-93177000D02*
X247656000Y-92177000D01*
X247656000Y-92177000D02*
X245256000Y-92177000D01*
X245256000Y-92177000D02*
X245256000Y-94177000D01*
X245256000Y-94177000D02*
X247656000Y-94177000D01*
X247656000Y-94177000D02*
X247656000Y-93177000D01*
D15*
X246661000Y-93177000D02*
X246661000Y-92927000D01*
X246661000Y-92927000D02*
X246256000Y-92927000D01*
X246256000Y-92927000D02*
X246256000Y-93422000D01*
X246256000Y-93422000D02*
X246661000Y-93422000D01*
X246661000Y-93422000D02*
X246661000Y-93177000D01*
D14*
X246456000Y-93177000D02*
X246481000Y-93177000D01*
X246481000Y-93177000D02*
X246431000Y-93177000D01*
X246431000Y-93177000D02*
X246456000Y-93177000D01*
X246456000Y-93177000D02*
X246456000Y-93202000D01*
X246456000Y-93202000D02*
X246456000Y-93177000D01*
X246456000Y-93177000D02*
X246456000Y-93152000D01*
X246456000Y-93152000D02*
X246456000Y-93177000D01*
D16*
X74940000Y-102260000D02*
X74940000Y-99260000D01*
X74940000Y-102260000D02*
X74940000Y-106760000D01*
X74940000Y-106760000D02*
X73440000Y-106760000D01*
X73440000Y-106760000D02*
X73440000Y-102260000D01*
X73440000Y-102260000D02*
X71940000Y-102260000D01*
X71940000Y-102260000D02*
X71940000Y-106760000D01*
X71940000Y-106760000D02*
X70440000Y-106760000D01*
X70440000Y-106760000D02*
X70440000Y-102260000D01*
X70440000Y-102260000D02*
X68940000Y-102260000D01*
X68940000Y-102260000D02*
X68940000Y-106760000D01*
X68940000Y-106760000D02*
X67440000Y-106760000D01*
X67440000Y-106760000D02*
X67440000Y-102260000D01*
X67440000Y-102260000D02*
X65940000Y-102260000D01*
X65940000Y-102260000D02*
X65940000Y-106760000D01*
X65940000Y-106760000D02*
X64440000Y-106760000D01*
X64440000Y-106760000D02*
X64440000Y-102260000D01*
D13*
X62930000Y-80960000D02*
X75930000Y-80960000D01*
X75930000Y-80960000D02*
X75930000Y-107860000D01*
X75930000Y-107860000D02*
X62930000Y-107860000D01*
X62930000Y-107860000D02*
X62930000Y-80960000D01*
D10*
X239505238Y-78530952D02*
X239505238Y-78854762D01*
X239486190Y-78892857D01*
X239467143Y-78911905D01*
X239429047Y-78930952D01*
X239352857Y-78930952D01*
X239314762Y-78911905D01*
X239295714Y-78892857D01*
X239276666Y-78854762D01*
X239276666Y-78530952D01*
X238876666Y-78930952D02*
X239105238Y-78930952D01*
X238990952Y-78930952D02*
X238990952Y-78530952D01*
X239029047Y-78588095D01*
X239067142Y-78626190D01*
X239105238Y-78645238D01*
X238724286Y-78569048D02*
X238705238Y-78550000D01*
X238667143Y-78530952D01*
X238571905Y-78530952D01*
X238533809Y-78550000D01*
X238514762Y-78569048D01*
X238495714Y-78607143D01*
X238495714Y-78645238D01*
X238514762Y-78702381D01*
X238743333Y-78930952D01*
X238495714Y-78930952D01*
X244651952Y-92877238D02*
X244975762Y-92877238D01*
X245013857Y-92896286D01*
X245032905Y-92915333D01*
X245051952Y-92953429D01*
X245051952Y-93029619D01*
X245032905Y-93067714D01*
X245013857Y-93086762D01*
X244975762Y-93105810D01*
X244651952Y-93105810D01*
X245051952Y-93315334D02*
X245051952Y-93391524D01*
X245032905Y-93429619D01*
X245013857Y-93448667D01*
X244956714Y-93486762D01*
X244880524Y-93505810D01*
X244728143Y-93505810D01*
X244690048Y-93486762D01*
X244671000Y-93467715D01*
X244651952Y-93429619D01*
X244651952Y-93353429D01*
X244671000Y-93315334D01*
X244690048Y-93296286D01*
X244728143Y-93277238D01*
X244823381Y-93277238D01*
X244861476Y-93296286D01*
X244880524Y-93315334D01*
X244899571Y-93353429D01*
X244899571Y-93429619D01*
X244880524Y-93467715D01*
X244861476Y-93486762D01*
X244823381Y-93505810D01*
X247887952Y-91552266D02*
X247887952Y-91780838D01*
X248287952Y-91666552D02*
X247887952Y-91666552D01*
X248249857Y-92142743D02*
X248268905Y-92123695D01*
X248287952Y-92066552D01*
X248287952Y-92028457D01*
X248268905Y-91971314D01*
X248230810Y-91933219D01*
X248192714Y-91914171D01*
X248116524Y-91895123D01*
X248059381Y-91895123D01*
X247983190Y-91914171D01*
X247945095Y-91933219D01*
X247907000Y-91971314D01*
X247887952Y-92028457D01*
X247887952Y-92066552D01*
X247907000Y-92123695D01*
X247926048Y-92142743D01*
X248268905Y-92295123D02*
X248287952Y-92352266D01*
X248287952Y-92447504D01*
X248268905Y-92485600D01*
X248249857Y-92504647D01*
X248211762Y-92523695D01*
X248173667Y-92523695D01*
X248135571Y-92504647D01*
X248116524Y-92485600D01*
X248097476Y-92447504D01*
X248078429Y-92371314D01*
X248059381Y-92333219D01*
X248040333Y-92314171D01*
X248002238Y-92295123D01*
X247964143Y-92295123D01*
X247926048Y-92314171D01*
X247907000Y-92333219D01*
X247887952Y-92371314D01*
X247887952Y-92466552D01*
X247907000Y-92523695D01*
X247887952Y-92657028D02*
X247887952Y-92904647D01*
X248040333Y-92771314D01*
X248040333Y-92828456D01*
X248059381Y-92866552D01*
X248078429Y-92885599D01*
X248116524Y-92904647D01*
X248211762Y-92904647D01*
X248249857Y-92885599D01*
X248268905Y-92866552D01*
X248287952Y-92828456D01*
X248287952Y-92714171D01*
X248268905Y-92676075D01*
X248249857Y-92657028D01*
X248021286Y-93247504D02*
X248287952Y-93247504D01*
X247868905Y-93152266D02*
X248154619Y-93057027D01*
X248154619Y-93304647D01*
X247887952Y-93418932D02*
X247887952Y-93685599D01*
X248287952Y-93514170D01*
X248287952Y-94047503D02*
X248287952Y-93818931D01*
X248287952Y-93933217D02*
X247887952Y-93933217D01*
X247945095Y-93895122D01*
X247983190Y-93857027D01*
X248002238Y-93818931D01*
X247887952Y-94409407D02*
X247887952Y-94218931D01*
X248078429Y-94199883D01*
X248059381Y-94218931D01*
X248040333Y-94257026D01*
X248040333Y-94352264D01*
X248059381Y-94390360D01*
X248078429Y-94409407D01*
X248116524Y-94428455D01*
X248211762Y-94428455D01*
X248249857Y-94409407D01*
X248268905Y-94390360D01*
X248287952Y-94352264D01*
X248287952Y-94257026D01*
X248268905Y-94218931D01*
X248249857Y-94199883D01*
X248078429Y-94733216D02*
X248078429Y-94599883D01*
X248287952Y-94599883D02*
X247887952Y-94599883D01*
X247887952Y-94790359D01*
X248287952Y-94942740D02*
X247887952Y-94942740D01*
X248287952Y-95171312D01*
X247887952Y-95171312D01*
D17*
X246339281Y-93137086D02*
X246290900Y-93137086D01*
X246321138Y-93221752D02*
X246321138Y-93112895D01*
X246315090Y-93100800D01*
X246302995Y-93094752D01*
X246290900Y-93094752D01*
X246230424Y-93221752D02*
X246242519Y-93215705D01*
X246248567Y-93209657D01*
X246254615Y-93197562D01*
X246254615Y-93161276D01*
X246248567Y-93149181D01*
X246242519Y-93143133D01*
X246230424Y-93137086D01*
X246212281Y-93137086D01*
X246200186Y-93143133D01*
X246194138Y-93149181D01*
X246188091Y-93161276D01*
X246188091Y-93197562D01*
X246194138Y-93209657D01*
X246200186Y-93215705D01*
X246212281Y-93221752D01*
X246230424Y-93221752D01*
X246151805Y-93137086D02*
X246103424Y-93137086D01*
X246133662Y-93094752D02*
X246133662Y-93203610D01*
X246127614Y-93215705D01*
X246115519Y-93221752D01*
X246103424Y-93221752D01*
X246042948Y-93221752D02*
X246055043Y-93215705D01*
X246061091Y-93209657D01*
X246067139Y-93197562D01*
X246067139Y-93161276D01*
X246061091Y-93149181D01*
X246055043Y-93143133D01*
X246042948Y-93137086D01*
X246024805Y-93137086D01*
X246012710Y-93143133D01*
X246006662Y-93149181D01*
X246000615Y-93161276D01*
X246000615Y-93197562D01*
X246006662Y-93209657D01*
X246012710Y-93215705D01*
X246024805Y-93221752D01*
X246042948Y-93221752D01*
D18*
X244295071Y-92601429D02*
X244295071Y-93762572D01*
X244343452Y-93182001D02*
X244246690Y-93182001D01*
D13*
X70318905Y-87715581D02*
X70318905Y-88525105D01*
X70271286Y-88620343D01*
X70223667Y-88667962D01*
X70128429Y-88715581D01*
X69937952Y-88715581D01*
X69842714Y-88667962D01*
X69795095Y-88620343D01*
X69747476Y-88525105D01*
X69747476Y-87715581D01*
X68747476Y-88715581D02*
X69318905Y-88715581D01*
X69033191Y-88715581D02*
X69033191Y-87715581D01*
X69128429Y-87858438D01*
X69223667Y-87953676D01*
X69318905Y-88001295D01*
X75482391Y-89766571D02*
X75339534Y-89814190D01*
X75291915Y-89861810D01*
X75244296Y-89957048D01*
X75244296Y-90099905D01*
X75291915Y-90195143D01*
X75339534Y-90242762D01*
X75434772Y-90290381D01*
X75815725Y-90290381D01*
X75815725Y-89290381D01*
X75482391Y-89290381D01*
X75387153Y-89338000D01*
X75339534Y-89385619D01*
X75291915Y-89480857D01*
X75291915Y-89576095D01*
X75339534Y-89671333D01*
X75387153Y-89718952D01*
X75482391Y-89766571D01*
X75815725Y-89766571D01*
X74672868Y-90290381D02*
X74768106Y-90242762D01*
X74815725Y-90147524D01*
X74815725Y-89290381D01*
X73863343Y-89623714D02*
X73863343Y-90290381D01*
X74291915Y-89623714D02*
X74291915Y-90147524D01*
X74244296Y-90242762D01*
X74149058Y-90290381D01*
X74006200Y-90290381D01*
X73910962Y-90242762D01*
X73863343Y-90195143D01*
X73006200Y-90242762D02*
X73101438Y-90290381D01*
X73291915Y-90290381D01*
X73387153Y-90242762D01*
X73434772Y-90147524D01*
X73434772Y-89766571D01*
X73387153Y-89671333D01*
X73291915Y-89623714D01*
X73101438Y-89623714D01*
X73006200Y-89671333D01*
X72958581Y-89766571D01*
X72958581Y-89861810D01*
X73434772Y-89957048D01*
X72672867Y-89623714D02*
X72291915Y-89623714D01*
X72530010Y-89290381D02*
X72530010Y-90147524D01*
X72482391Y-90242762D01*
X72387153Y-90290381D01*
X72291915Y-90290381D01*
X71815724Y-90290381D02*
X71910962Y-90242762D01*
X71958581Y-90195143D01*
X72006200Y-90099905D01*
X72006200Y-89814190D01*
X71958581Y-89718952D01*
X71910962Y-89671333D01*
X71815724Y-89623714D01*
X71672866Y-89623714D01*
X71577628Y-89671333D01*
X71530009Y-89718952D01*
X71482390Y-89814190D01*
X71482390Y-90099905D01*
X71530009Y-90195143D01*
X71577628Y-90242762D01*
X71672866Y-90290381D01*
X71815724Y-90290381D01*
X70910962Y-90290381D02*
X71006200Y-90242762D01*
X71053819Y-90195143D01*
X71101438Y-90099905D01*
X71101438Y-89814190D01*
X71053819Y-89718952D01*
X71006200Y-89671333D01*
X70910962Y-89623714D01*
X70768104Y-89623714D01*
X70672866Y-89671333D01*
X70625247Y-89718952D01*
X70577628Y-89814190D01*
X70577628Y-90099905D01*
X70625247Y-90195143D01*
X70672866Y-90242762D01*
X70768104Y-90290381D01*
X70910962Y-90290381D01*
X70291914Y-89623714D02*
X69910962Y-89623714D01*
X70149057Y-89290381D02*
X70149057Y-90147524D01*
X70101438Y-90242762D01*
X70006200Y-90290381D01*
X69910962Y-90290381D01*
X69577628Y-90290381D02*
X69577628Y-89290381D01*
X69149056Y-90290381D02*
X69149056Y-89766571D01*
X69196675Y-89671333D01*
X69291913Y-89623714D01*
X69434771Y-89623714D01*
X69530009Y-89671333D01*
X69577628Y-89718952D01*
X67910961Y-90290381D02*
X67910961Y-89290381D01*
X67910961Y-89766571D02*
X67339532Y-89766571D01*
X67339532Y-90290381D02*
X67339532Y-89290381D01*
X66291913Y-90195143D02*
X66339532Y-90242762D01*
X66482389Y-90290381D01*
X66577627Y-90290381D01*
X66720485Y-90242762D01*
X66815723Y-90147524D01*
X66863342Y-90052286D01*
X66910961Y-89861810D01*
X66910961Y-89718952D01*
X66863342Y-89528476D01*
X66815723Y-89433238D01*
X66720485Y-89338000D01*
X66577627Y-89290381D01*
X66482389Y-89290381D01*
X66339532Y-89338000D01*
X66291913Y-89385619D01*
X65863342Y-89909429D02*
X65101437Y-89909429D01*
X64434771Y-89290381D02*
X64339532Y-89290381D01*
X64244294Y-89338000D01*
X64196675Y-89385619D01*
X64149056Y-89480857D01*
X64101437Y-89671333D01*
X64101437Y-89909429D01*
X64149056Y-90099905D01*
X64196675Y-90195143D01*
X64244294Y-90242762D01*
X64339532Y-90290381D01*
X64434771Y-90290381D01*
X64530009Y-90242762D01*
X64577628Y-90195143D01*
X64625247Y-90099905D01*
X64672866Y-89909429D01*
X64672866Y-89671333D01*
X64625247Y-89480857D01*
X64577628Y-89385619D01*
X64530009Y-89338000D01*
X64434771Y-89290381D01*
X63244294Y-89290381D02*
X63434771Y-89290381D01*
X63530009Y-89338000D01*
X63577628Y-89385619D01*
X63672866Y-89528476D01*
X63720485Y-89718952D01*
X63720485Y-90099905D01*
X63672866Y-90195143D01*
X63625247Y-90242762D01*
X63530009Y-90290381D01*
X63339532Y-90290381D01*
X63244294Y-90242762D01*
X63196675Y-90195143D01*
X63149056Y-90099905D01*
X63149056Y-89861810D01*
X63196675Y-89766571D01*
X63244294Y-89718952D01*
X63339532Y-89671333D01*
X63530009Y-89671333D01*
X63625247Y-89718952D01*
X63672866Y-89766571D01*
X63720485Y-89861810D01*
X75199523Y-77970000D02*
X75275714Y-77931905D01*
X75389999Y-77931905D01*
X75504285Y-77970000D01*
X75580476Y-78046190D01*
X75618571Y-78122381D01*
X75656666Y-78274762D01*
X75656666Y-78389048D01*
X75618571Y-78541429D01*
X75580476Y-78617619D01*
X75504285Y-78693810D01*
X75389999Y-78731905D01*
X75313809Y-78731905D01*
X75199523Y-78693810D01*
X75161428Y-78655714D01*
X75161428Y-78389048D01*
X75313809Y-78389048D01*
X74818571Y-78731905D02*
X74818571Y-77931905D01*
X74361428Y-78731905D01*
X74361428Y-77931905D01*
X73980476Y-78731905D02*
X73980476Y-77931905D01*
X73790000Y-77931905D01*
X73675714Y-77970000D01*
X73599523Y-78046190D01*
X73561428Y-78122381D01*
X73523333Y-78274762D01*
X73523333Y-78389048D01*
X73561428Y-78541429D01*
X73599523Y-78617619D01*
X73675714Y-78693810D01*
X73790000Y-78731905D01*
X73980476Y-78731905D01*
X64829523Y-77930000D02*
X64905714Y-77891905D01*
X65019999Y-77891905D01*
X65134285Y-77930000D01*
X65210476Y-78006190D01*
X65248571Y-78082381D01*
X65286666Y-78234762D01*
X65286666Y-78349048D01*
X65248571Y-78501429D01*
X65210476Y-78577619D01*
X65134285Y-78653810D01*
X65019999Y-78691905D01*
X64943809Y-78691905D01*
X64829523Y-78653810D01*
X64791428Y-78615714D01*
X64791428Y-78349048D01*
X64943809Y-78349048D01*
X64448571Y-78691905D02*
X64448571Y-77891905D01*
X63991428Y-78691905D01*
X63991428Y-77891905D01*
X63610476Y-78691905D02*
X63610476Y-77891905D01*
X63420000Y-77891905D01*
X63305714Y-77930000D01*
X63229523Y-78006190D01*
X63191428Y-78082381D01*
X63153333Y-78234762D01*
X63153333Y-78349048D01*
X63191428Y-78501429D01*
X63229523Y-78577619D01*
X63305714Y-78653810D01*
X63420000Y-78691905D01*
X63610476Y-78691905D01*
X74029523Y-82340000D02*
X74105714Y-82301905D01*
X74219999Y-82301905D01*
X74334285Y-82340000D01*
X74410476Y-82416190D01*
X74448571Y-82492381D01*
X74486666Y-82644762D01*
X74486666Y-82759048D01*
X74448571Y-82911429D01*
X74410476Y-82987619D01*
X74334285Y-83063810D01*
X74219999Y-83101905D01*
X74143809Y-83101905D01*
X74029523Y-83063810D01*
X73991428Y-83025714D01*
X73991428Y-82759048D01*
X74143809Y-82759048D01*
X73648571Y-83101905D02*
X73648571Y-82301905D01*
X73191428Y-83101905D01*
X73191428Y-82301905D01*
X72810476Y-83101905D02*
X72810476Y-82301905D01*
X72620000Y-82301905D01*
X72505714Y-82340000D01*
X72429523Y-82416190D01*
X72391428Y-82492381D01*
X72353333Y-82644762D01*
X72353333Y-82759048D01*
X72391428Y-82911429D01*
X72429523Y-82987619D01*
X72505714Y-83063810D01*
X72620000Y-83101905D01*
X72810476Y-83101905D01*
X73975238Y-96581905D02*
X74356191Y-96581905D01*
X74356191Y-95781905D01*
X73708572Y-96162857D02*
X73441905Y-96162857D01*
X73327619Y-96581905D02*
X73708572Y-96581905D01*
X73708572Y-95781905D01*
X73327619Y-95781905D01*
X72984762Y-96581905D02*
X72984762Y-95781905D01*
X72794286Y-95781905D01*
X72680000Y-95820000D01*
X72603809Y-95896190D01*
X72565714Y-95972381D01*
X72527619Y-96124762D01*
X72527619Y-96239048D01*
X72565714Y-96391429D01*
X72603809Y-96467619D01*
X72680000Y-96543810D01*
X72794286Y-96581905D01*
X72984762Y-96581905D01*
X71765714Y-96581905D02*
X72222857Y-96581905D01*
X71994286Y-96581905D02*
X71994286Y-95781905D01*
X72070476Y-95896190D01*
X72146667Y-95972381D01*
X72222857Y-96010476D01*
X73985238Y-98111905D02*
X74366191Y-98111905D01*
X74366191Y-97311905D01*
X73718572Y-97692857D02*
X73451905Y-97692857D01*
X73337619Y-98111905D02*
X73718572Y-98111905D01*
X73718572Y-97311905D01*
X73337619Y-97311905D01*
X72994762Y-98111905D02*
X72994762Y-97311905D01*
X72804286Y-97311905D01*
X72690000Y-97350000D01*
X72613809Y-97426190D01*
X72575714Y-97502381D01*
X72537619Y-97654762D01*
X72537619Y-97769048D01*
X72575714Y-97921429D01*
X72613809Y-97997619D01*
X72690000Y-98073810D01*
X72804286Y-98111905D01*
X72994762Y-98111905D01*
X72232857Y-97388095D02*
X72194762Y-97350000D01*
X72118571Y-97311905D01*
X71928095Y-97311905D01*
X71851905Y-97350000D01*
X71813809Y-97388095D01*
X71775714Y-97464286D01*
X71775714Y-97540476D01*
X71813809Y-97654762D01*
X72270952Y-98111905D01*
X71775714Y-98111905D01*
X74424286Y-101101905D02*
X74424286Y-100301905D01*
X73967143Y-101101905D02*
X74310000Y-100644762D01*
X73967143Y-100301905D02*
X74424286Y-100759048D01*
X73624286Y-100682857D02*
X73357619Y-100682857D01*
X73243333Y-101101905D02*
X73624286Y-101101905D01*
X73624286Y-100301905D01*
X73243333Y-100301905D01*
X72748095Y-100720952D02*
X72748095Y-101101905D01*
X73014762Y-100301905D02*
X72748095Y-100720952D01*
X72481428Y-100301905D01*
X71376666Y-101406667D02*
X71414762Y-101368571D01*
X71490952Y-101254286D01*
X71529047Y-101178095D01*
X71567143Y-101063810D01*
X71605238Y-100873333D01*
X71605238Y-100720952D01*
X71567143Y-100530476D01*
X71529047Y-100416190D01*
X71490952Y-100340000D01*
X71414762Y-100225714D01*
X71376666Y-100187619D01*
X71148095Y-100301905D02*
X70652857Y-100301905D01*
X70919524Y-100606667D01*
X70805238Y-100606667D01*
X70729048Y-100644762D01*
X70690952Y-100682857D01*
X70652857Y-100759048D01*
X70652857Y-100949524D01*
X70690952Y-101025714D01*
X70729048Y-101063810D01*
X70805238Y-101101905D01*
X71033810Y-101101905D01*
X71110000Y-101063810D01*
X71148095Y-101025714D01*
X69967143Y-100568571D02*
X69967143Y-101101905D01*
X70157619Y-100263810D02*
X70348095Y-100835238D01*
X69852857Y-100835238D01*
X69624285Y-101406667D02*
X69586190Y-101368571D01*
X69510000Y-101254286D01*
X69471904Y-101178095D01*
X69433809Y-101063810D01*
X69395714Y-100873333D01*
X69395714Y-100720952D01*
X69433809Y-100530476D01*
X69471904Y-100416190D01*
X69510000Y-100340000D01*
X69586190Y-100225714D01*
X69624285Y-100187619D01*
X65629524Y-100261905D02*
X65172381Y-100261905D01*
X65400952Y-101061905D02*
X65400952Y-100261905D01*
X64981904Y-100261905D02*
X64448571Y-101061905D01*
X64448571Y-100261905D02*
X64981904Y-101061905D01*
X65203333Y-99551905D02*
X65470000Y-99170952D01*
X65660476Y-99551905D02*
X65660476Y-98751905D01*
X65355714Y-98751905D01*
X65279523Y-98790000D01*
X65241428Y-98828095D01*
X65203333Y-98904286D01*
X65203333Y-99018571D01*
X65241428Y-99094762D01*
X65279523Y-99132857D01*
X65355714Y-99170952D01*
X65660476Y-99170952D01*
X64936666Y-98751905D02*
X64403333Y-99551905D01*
X64403333Y-98751905D02*
X64936666Y-99551905D01*
X66640952Y-83751905D02*
X66145714Y-83751905D01*
X66412381Y-84056667D01*
X66298095Y-84056667D01*
X66221905Y-84094762D01*
X66183809Y-84132857D01*
X66145714Y-84209048D01*
X66145714Y-84399524D01*
X66183809Y-84475714D01*
X66221905Y-84513810D01*
X66298095Y-84551905D01*
X66526667Y-84551905D01*
X66602857Y-84513810D01*
X66640952Y-84475714D01*
X65802857Y-84475714D02*
X65764762Y-84513810D01*
X65802857Y-84551905D01*
X65840952Y-84513810D01*
X65802857Y-84475714D01*
X65802857Y-84551905D01*
X65498095Y-83751905D02*
X65002857Y-83751905D01*
X65269524Y-84056667D01*
X65155238Y-84056667D01*
X65079048Y-84094762D01*
X65040952Y-84132857D01*
X65002857Y-84209048D01*
X65002857Y-84399524D01*
X65040952Y-84475714D01*
X65079048Y-84513810D01*
X65155238Y-84551905D01*
X65383810Y-84551905D01*
X65460000Y-84513810D01*
X65498095Y-84475714D01*
X64774286Y-83751905D02*
X64507619Y-84551905D01*
X64240952Y-83751905D01*
X65929523Y-82320000D02*
X66005714Y-82281905D01*
X66119999Y-82281905D01*
X66234285Y-82320000D01*
X66310476Y-82396190D01*
X66348571Y-82472381D01*
X66386666Y-82624762D01*
X66386666Y-82739048D01*
X66348571Y-82891429D01*
X66310476Y-82967619D01*
X66234285Y-83043810D01*
X66119999Y-83081905D01*
X66043809Y-83081905D01*
X65929523Y-83043810D01*
X65891428Y-83005714D01*
X65891428Y-82739048D01*
X66043809Y-82739048D01*
X65548571Y-83081905D02*
X65548571Y-82281905D01*
X65091428Y-83081905D01*
X65091428Y-82281905D01*
X64710476Y-83081905D02*
X64710476Y-82281905D01*
X64520000Y-82281905D01*
X64405714Y-82320000D01*
X64329523Y-82396190D01*
X64291428Y-82472381D01*
X64253333Y-82624762D01*
X64253333Y-82739048D01*
X64291428Y-82891429D01*
X64329523Y-82967619D01*
X64405714Y-83043810D01*
X64520000Y-83081905D01*
X64710476Y-83081905D01*
M02*
