(module Elko_vert_20x10mm_RM7.5_CopperClear (layer F.Cu) (tedit 5454A42F)
  (descr "Electrolytic Capacitor, vertical, diameter 10mm, RM 7,5mm, Copper without +,")
  (tags "Electrolytic Capacitor, vertical, diameter 10mm, RM 7,5mm, Elko, Electrolytkondensator, Kondensator gepolt, Durchmesser 10mm, Copper without +,")
  (fp_text reference REF** (at 3.81 -6.35) (layer F.SilkS)
    (effects (font (size 1 1) (thickness 0.15)))
  )
  (fp_text value Elko_vert_20x10mm_RM7.5_CopperClear (at 3.81 6.35) (layer F.Fab)
    (effects (font (size 1 1) (thickness 0.15)))
  )
  (fp_line (start 0.762 -2.54) (end 0.762 -1.524) (layer F.SilkS) (width 0.15))
  (fp_line (start 0.254 -2.032) (end 1.27 -2.032) (layer F.SilkS) (width 0.15))
  (fp_circle (center 3.81 0) (end 8.89 0) (layer F.SilkS) (width 0.15))
  (pad 2 thru_hole circle (at 7.62 0) (size 1.50114 1.50114) (drill 0.8001) (layers *.Cu *.Mask F.SilkS))
  (pad 1 thru_hole circle (at 0 0) (size 1.50114 1.50114) (drill 0.8001) (layers *.Cu *.Mask F.SilkS))
  (model Capacitors_Elko_ThroughHole.3dshapes/Elko_vert_20x10mm_RM7.5_CopperClear.wrl
    (at (xyz 0 0 0))
    (scale (xyz 1 1 1))
    (rotate (xyz 0 0 0))
  )
)
