(module Elko_vert_31.5x16mm_RM7.5_CopperClear (layer F.Cu) (tedit 5454A54A)
  (descr "Electrolytic Capacitor, vertical, diameter 16mm, RM 7,5mm, Copper without +,")
  (tags "Electrolytic Capacitor, vertical, diameter 16mm, RM 7,5mm, Elko, Electrolytkondensator, Kondensator gepolt, Durchmesser 16mm, Copper without +,")
  (fp_text reference REF** (at 3.81 -10.16) (layer F.SilkS)
    (effects (font (size 1 1) (thickness 0.15)))
  )
  (fp_text value Elko_vert_31.5x16mm_RM7.5_CopperClear (at 3.81 10.16) (layer F.Fab)
    (effects (font (size 1 1) (thickness 0.15)))
  )
  (fp_line (start -1.778 -3.556) (end 0.254 -3.556) (layer F.SilkS) (width 0.15))
  (fp_line (start -0.762 -4.572) (end -0.762 -2.54) (layer F.SilkS) (width 0.15))
  (fp_circle (center 3.81 0) (end 11.811 0) (layer F.SilkS) (width 0.15))
  (pad 2 thru_hole circle (at 7.62 0) (size 2.99974 2.99974) (drill 1.19888) (layers *.Cu *.Mask F.SilkS))
  (pad 1 thru_hole circle (at 0 0) (size 2.99974 2.99974) (drill 1.19888) (layers *.Cu *.Mask F.SilkS))
  (model Capacitors_Elko_ThroughHole.3dshapes/Elko_vert_31.5x16mm_RM7.5_CopperClear.wrl
    (at (xyz 0 0 0))
    (scale (xyz 1 1 1))
    (rotate (xyz 0 0 0))
  )
)
