M48
;DRILL file {KiCad (2015-07-24 BZR 5989, Git 9b9c794)-product} date 8/12/2015 3:23:38 PM
;FORMAT={-:-/ absolute / inch / decimal}
FMAT,2
INCH,TZ
T1C0.015
T2C0.020
T3C0.028
T4C0.031
T5C0.032
T6C0.039
T7C0.043
%
G90
G05
M72
T1
X0.57Y-0.81
X0.578Y-1.503
X0.5796Y-0.6048
X0.583Y-4.479
X0.593Y-1.0583
X0.598Y-4.391
X0.599Y-4.124
X0.6025Y-0.7325
X0.6112Y-1.1683
X0.6112Y-1.2321
X0.6116Y-1.1026
X0.62Y-1.596
X0.62Y-4.427
X0.6225Y-4.0625
X0.623Y-5.414
X0.6304Y-0.9534
X0.631Y-0.8842
X0.632Y-4.335
X0.6362Y-1.4583
X0.638Y-1.661
X0.6425Y-1.3402
X0.65Y-4.205
X0.6742Y-1.1026
X0.6742Y-1.2319
X0.675Y-4.52
X0.68Y-2.88
X0.68Y-2.94
X0.685Y-0.825
X0.685Y-4.18
X0.685Y-4.625
X0.6858Y-4.8792
X0.6928Y-0.6048
X0.702Y-2.8405
X0.7047Y-5.2843
X0.7085Y-2.989
X0.7198Y-0.9596
X0.72Y-2.025
X0.72Y-4.625
X0.7256Y-4.2033
X0.7331Y-1.7429
X0.7339Y-1.4882
X0.7407Y-1.1026
X0.7407Y-1.2321
X0.7411Y-1.1683
X0.7413Y-1.4087
X0.745Y-2.839
X0.7478Y-1.0214
X0.7515Y-2.989
X0.7575Y-4.975
X0.7736Y-1.2898
X0.78Y-4.64
X0.815Y-4.605
X0.815Y-4.833
X0.816Y-2.974
X0.82Y-0.969
X0.8375Y-3.5475
X0.8455Y-3.291
X0.85Y-1.412
X0.8569Y-0.9683
X0.8744Y-3.6009
X0.8748Y-3.5184
X0.8772Y-1.2772
X0.88Y-3.995
X0.885Y-3.952
X0.894Y-3.642
X0.8975Y-1.3925
X0.8988Y-2.9148
X0.9075Y-1.4525
X0.924Y-5.366
X0.9257Y-3.9926
X0.932Y-2.956
X0.9384Y-0.9634
X0.9525Y-3.241
X0.955Y-3.897
X0.956Y-3.547
X0.959Y-3.606
X0.96Y-3.66
X0.9675Y-4.4525
X0.9764Y-0.9626
X0.9827Y-0.9192
X0.987Y-3.376
X0.994Y-1.439
X0.998Y-2.748
X1.0026Y-3.7966
X1.0127Y-0.9486
X1.0166Y-3.8511
X1.0175Y-4.945
X1.025Y-5.165
X1.04Y-4.45
X1.04Y-5.56
X1.0492Y-4.7193
X1.0515Y-4.1945
X1.0549Y-3.5255
X1.0625Y-4.625
X1.065Y-4.67
X1.067Y-4.403
X1.0677Y-3.2748
X1.0728Y-3.3587
X1.0816Y-4.7529
X1.095Y-4.32
X1.0994Y-3.1158
X1.1018Y-2.8063
X1.1082Y-3.9964
X1.1125Y-4.625
X1.115Y-4.9956
X1.1338Y-4.7574
X1.1356Y-1.2278
X1.1382Y-3.8118
X1.14Y-5.07
X1.143Y-3.621
X1.143Y-3.7454
X1.1498Y-3.9926
X1.1556Y-4.5933
X1.162Y-5.285
X1.1638Y-3.5054
X1.17Y-3.321
X1.171Y-3.4098
X1.1798Y-3.8116
X1.18Y-4.7601
X1.186Y-3.942
X1.1905Y-5.0705
X1.1954Y-3.9941
X1.205Y-5.175
X1.205Y-5.466
X1.2053Y-3.5062
X1.2112Y-4.5944
X1.213Y-4.7301
X1.215Y-4.3125
X1.216Y-3.904
X1.225Y-4.205
X1.228Y-3.3539
X1.228Y-5.2965
X1.233Y-5.429
X1.2418Y-4.6353
X1.2425Y-4.6875
X1.2681Y-3.8709
X1.2715Y-3.1665
X1.2894Y-4.2996
X1.2927Y-3.1257
X1.2985Y-3.6995
X1.305Y-4.235
X1.31Y-3.975
X1.311Y-5.57
X1.3186Y-1.2874
X1.3225Y-3.919
X1.3275Y-4.8175
X1.328Y-5.461
X1.3295Y-3.3012
X1.3375Y-3.211
X1.3475Y-3.5855
X1.348Y-4.0039
X1.35Y-4.19
X1.365Y-4.545
X1.37Y-5.19
X1.3725Y-3.293
X1.3744Y-1.2808
X1.375Y-4.26
X1.376Y-4.91
X1.3811Y-1.1564
X1.3898Y-2.9508
X1.402Y-2.772
X1.402Y-5.342
X1.4398Y-2.9413
X1.463Y-3.5855
X1.4689Y-2.826
X1.4697Y-3.2941
X1.4725Y-3.45
X1.4728Y-3.8332
X1.4911Y-0.761
X1.4988Y-3.3681
X1.5Y-3.666
X1.5035Y-3.3205
X1.511Y-2.826
X1.519Y-4.13
X1.5217Y-0.72
X1.5232Y-1.2816
X1.543Y-1.456
X1.545Y-4.655
X1.546Y-1.388
X1.5642Y-2.8272
X1.577Y-2.736
X1.58Y-3.0514
X1.58Y-3.0882
X1.5965Y-4.6146
X1.61Y-0.68
X1.615Y-0.868
X1.62Y-3.386
X1.625Y-4.825
X1.6303Y-4.3661
X1.635Y-0.76
X1.6456Y-2.9913
X1.654Y-3.662
X1.6567Y-4.4008
X1.662Y-4.22
X1.6636Y-2.8264
X1.667Y-2.894
X1.6678Y-0.8935
X1.668Y-4.27
X1.6681Y-0.9402
X1.6712Y-0.9963
X1.676Y-3.25
X1.678Y-3.136
X1.685Y-0.84
X1.6874Y-4.437
X1.69Y-4.364
X1.69Y-4.88
X1.6957Y-3.3764
X1.7069Y-0.6424
X1.715Y-0.895
X1.727Y-0.713
X1.73Y-4.965
T2
X0.6112Y-1.2954
T3
X1.161Y-5.5079
X1.161Y-5.5709
T4
X0.76Y-4.715
X0.76Y-4.815
X0.76Y-4.915
X1.6Y-4.515
X1.6Y-4.915
X1.6Y-5.015
X1.6Y-5.115
X1.6Y-5.215
X1.6Y-5.315
X1.6Y-5.415
T5
X0.87Y-4.215
X0.87Y-4.315
X0.87Y-4.415
X0.87Y-4.515
X0.87Y-4.615
X0.87Y-4.715
X0.87Y-4.815
X0.87Y-4.915
X0.87Y-5.015
X0.87Y-5.115
X0.87Y-5.215
X0.87Y-5.315
X0.87Y-5.415
X0.87Y-5.515
X0.97Y-5.015
X0.97Y-5.115
X0.97Y-5.215
X0.9925Y-5.4177
X0.9925Y-5.5177
X1.47Y-4.215
X1.47Y-4.315
X1.47Y-4.415
X1.47Y-4.515
X1.47Y-4.615
X1.47Y-4.715
X1.47Y-4.815
X1.47Y-4.915
X1.47Y-5.015
X1.47Y-5.115
X1.47Y-5.215
X1.47Y-5.315
X1.47Y-5.415
X1.47Y-5.515
T6
X1.0272Y-2.5949
X1.1272Y-1.4256
X1.1272Y-2.5949
X1.2272Y-1.4256
X1.2272Y-2.5949
X1.3272Y-1.4256
X1.3272Y-2.5949
X1.4272Y-1.4256
X1.4272Y-2.5949
T7
X1.0882Y-0.623G85X1.1448Y-0.623
G05
X1.0882Y-0.823G85X1.1448Y-0.823
G05
T0
M30
