(module Barrel_Jack (layer F.Cu) (tedit 609DBA24)
  (descr "2-way 3.5mm pitch terminal block, https://cdn-shop.adafruit.com/datasheets/19963.pdf")
  (tags "screw terminal block")
  (fp_text reference J5 (at 1.75 -4.6) (layer F.SilkS)
    (effects (font (size 1 1) (thickness 0.15)))
  )
  (fp_text value Barrel_Jack (at -6.5 2.5) (layer F.Fab)
    (effects (font (size 1 1) (thickness 0.15)))
  )
  (fp_line (start 0 -9.25) (end 0 -0.25) (layer F.SilkS) (width 0.15))
  (fp_line (start -15.5 -0.25) (end 0 -0.25) (layer F.SilkS) (width 0.15))
  (fp_line (start -15.5 -9.25) (end 0 -9.25) (layer F.SilkS) (width 0.15))
  (fp_line (start -15.5 -9.25) (end -15.5 -0.25) (layer F.SilkS) (width 0.15))
  (pad 2 thru_hole oval (at -7.75 -4.75 90) (size 5.5 2.2) (drill oval 4 1) (layers *.Cu *.Mask))
  (pad 1 thru_hole oval (at -1.75 -4.75 90) (size 6 2.2) (drill oval 4.5 1) (layers *.Cu *.Mask))
  (model ${KISYS3DMOD}/Connectors_Terminal_Blocks.3dshapes/TerminalBlock_4UCON_19963_02x3.5mm_Straight.wrl
    (at (xyz 0 0 0))
    (scale (xyz 1 1 1))
    (rotate (xyz 0 0 0))
  )
)
