(module BME680_UL (layer F.Cu) (tedit 5B96E25B)
  (descr "8-Lead Plastic Dual Flat, No Lead Package (MF) - 3x3x0.9 mm Body [DFN] (see Microchip Packaging Specification 00000049BS.pdf)")
  (tags BME680)
  (attr smd)
  (fp_text reference REF** (at -2.566674 -0.012748 90) (layer F.SilkS)
    (effects (font (size 1 1) (thickness 0.15)))
  )
  (fp_text value BME680_UL (at 2.533326 -0.012748 90) (layer F.Fab)
    (effects (font (size 1 1) (thickness 0.15)))
  )
  (fp_circle (center -1.216674 -2.012748) (end -1.216674 -2.212748) (layer F.SilkS) (width 0.15))
  (fp_line (start -1.816674 2.137252) (end 1.783326 2.137252) (layer F.CrtYd) (width 0.05))
  (fp_line (start -1.816674 -2.162748) (end 1.783326 -2.162748) (layer F.CrtYd) (width 0.05))
  (fp_line (start -1.816674 2.137252) (end -1.816674 -2.162748) (layer F.CrtYd) (width 0.05))
  (fp_line (start 1.783326 2.137252) (end 1.783326 -2.162748) (layer F.CrtYd) (width 0.05))
  (fp_line (start -1.641674 1.537252) (end -1.641674 -1.637748) (layer F.SilkS) (width 0.15))
  (pad 8 smd rect (at -1.216674 1.187252 90) (size 0.4 0.4) (layers F.Cu F.Paste F.Mask))
  (pad 7 smd rect (at -0.416674 1.187252 90) (size 0.4 0.4) (layers F.Cu F.Paste F.Mask))
  (pad 6 smd rect (at 0.383326 1.187252 90) (size 0.4 0.4) (layers F.Cu F.Paste F.Mask))
  (pad 5 smd rect (at 1.183326 1.187252 90) (size 0.4 0.4) (layers F.Cu F.Paste F.Mask))
  (pad 4 smd rect (at 1.183326 -1.212748 90) (size 0.4 0.4) (layers F.Cu F.Paste F.Mask))
  (pad 3 smd rect (at 0.383326 -1.212748 90) (size 0.4 0.4) (layers F.Cu F.Paste F.Mask))
  (pad 2 smd rect (at -0.416674 -1.212748 90) (size 0.4 0.4) (layers F.Cu F.Paste F.Mask))
  (pad 1 smd rect (at -1.216674 -1.212748 90) (size 0.4 0.4) (layers F.Cu F.Paste F.Mask))
  (model ${KISYS3DMOD}/Housings_DFN_QFN.3dshapes/DFN-8-1EP_3x3mm_Pitch0.65mm.wrl
    (at (xyz 0 0 0))
    (scale (xyz 1 1 1))
    (rotate (xyz 0 0 0))
  )
)
