(module crystal_FA238-TSX3225_tape (layer F.Cu) (tedit 5B96D836)
  (descr "crystal Epson Toyocom FA-238 and TSX-3225 series")
  (fp_text reference X1 (at -1.905 0) (layer F.SilkS)
    (effects (font (size 0.4 0.4) (thickness 0.1)))
  )
  (fp_text value CRYSTAL_SMD (at 0 2.54) (layer F.Fab)
    (effects (font (size 0.4 0.4) (thickness 0.1)))
  )
  (fp_line (start 1.3 -1.6) (end 1.3 1.6) (layer F.SilkS) (width 0.15))
  (fp_line (start 1.3 1.6) (end -1.3 1.6) (layer F.SilkS) (width 0.15))
  (fp_line (start -1.3 1.6) (end -1.3 -1.6) (layer F.SilkS) (width 0.15))
  (fp_line (start -1.3 -1.6) (end 1.3 -1.6) (layer F.SilkS) (width 0.15))
  (pad 1 smd rect (at -0.8 -1.1 270) (size 1.4 1.2) (layers F.Cu F.Paste F.Mask))
  (pad 2 smd rect (at -0.8 1.1 270) (size 1.4 1.2) (layers F.Cu F.Paste F.Mask))
  (pad 4 smd rect (at 0.8 -1.1 270) (size 1.4 1.2) (layers F.Cu F.Paste F.Mask))
  (pad 3 smd rect (at 0.8 1.1 270) (size 1.4 1.2) (layers F.Cu F.Paste F.Mask))
  (model Crystals_Oscillators_SMD.3dshapes/crystal_FA238-TSX3225.wrl
    (at (xyz 0 0 0))
    (scale (xyz 0.24 0.24 0.24))
    (rotate (xyz 0 0 0))
  )
)
