(module DFN-8-1EP_2x2mm_Pitch0.5mm (layer F.Cu) (tedit 5B8FE6DA)
  (descr "DFN8 2x2, 0.5P; CASE 506CN (see ON Semiconductor 506CN.PDF)")
  (tags "DFN 0.5")
  (attr smd)
  (fp_text reference U36 (at -0.0254 1.6637) (layer F.SilkS)
    (effects (font (size 0.4 0.4) (thickness 0.1)))
  )
  (fp_text value TPS61252 (at 2.9845 1.5875 180) (layer F.Fab)
    (effects (font (size 0.4 0.4) (thickness 0.1)))
  )
  (fp_line (start -1.4 -1.35) (end -1.4 1.35) (layer F.CrtYd) (width 0.05))
  (fp_line (start 1.4 -1.35) (end 1.4 1.35) (layer F.CrtYd) (width 0.05))
  (fp_line (start -1.4 -1.35) (end 1.4 -1.35) (layer F.CrtYd) (width 0.05))
  (fp_line (start -1.4 1.35) (end 1.4 1.35) (layer F.CrtYd) (width 0.05))
  (fp_line (start -0.65 1.15) (end 0.65 1.15) (layer F.SilkS) (width 0.15))
  (fp_line (start -1.225 -1.15) (end 0.65 -1.15) (layer F.SilkS) (width 0.15))
  (pad 1 smd rect (at -0.9 -0.75) (size 0.5 0.3) (layers F.Cu F.Paste F.Mask))
  (pad 2 smd rect (at -0.9 -0.25) (size 0.5 0.3) (layers F.Cu F.Paste F.Mask))
  (pad 3 smd rect (at -0.9 0.25) (size 0.5 0.3) (layers F.Cu F.Paste F.Mask))
  (pad 4 smd rect (at -0.9 0.75) (size 0.5 0.3) (layers F.Cu F.Paste F.Mask))
  (pad 5 smd rect (at 0.9 0.75) (size 0.5 0.3) (layers F.Cu F.Paste F.Mask))
  (pad 6 smd rect (at 0.9 0.25) (size 0.5 0.3) (layers F.Cu F.Paste F.Mask))
  (pad 7 smd rect (at 0.9 -0.25) (size 0.5 0.3) (layers F.Cu F.Paste F.Mask))
  (pad 8 smd rect (at 0.9 -0.75) (size 0.5 0.3) (layers F.Cu F.Paste F.Mask))
  (pad 1 smd rect (at 0 0.44) (size 0.98 0.88) (layers F.Cu F.Paste F.Mask)
    (solder_paste_margin_ratio -0.2))
  (pad 1 smd rect (at 0 -0.44) (size 0.98 0.88) (layers F.Cu F.Paste F.Mask)
    (solder_paste_margin_ratio -0.2))
  (pad 1 thru_hole circle (at 0 -0.42) (size 0.6 0.6) (drill 0.3) (layers *.Cu F.Mask))
  (pad 1 thru_hole circle (at -0.01 0.44) (size 0.6 0.6) (drill 0.3) (layers *.Cu F.Mask))
  (model Housings_DFN_QFN.3dshapes/DFN-8-1EP_2x2mm_Pitch0.5mm.wrl
    (at (xyz 0 0 0))
    (scale (xyz 1 1 1))
    (rotate (xyz 0 0 0))
  )
)
