(module Luxeon_Z+t locked (layer F.Cu) (tedit 57890507)
  (descr "Philips Lumileds Luxeon Z with large thermals")
  (tags "Luxeon Z, thermals")
  (attr smd)
  (fp_text reference D7 (at 0.4154 1.3172 90) (layer F.SilkS)
    (effects (font (size 0.4 0.4) (thickness 0.1)))
  )
  (fp_text value ACT_PULSE (at 1.0631 2.5872 90) (layer F.SilkS)
    (effects (font (size 0.4 0.4) (thickness 0.1)))
  )
  (fp_line (start -0.83 1.07) (end -0.83 1.92) (layer F.SilkS) (width 0.25))
  (fp_line (start 0.55 -0.75) (end -0.55 0.25) (layer F.SilkS) (width 0.02))
  (fp_line (start 0.55 -0.75) (end 0.55 0.25) (layer F.SilkS) (width 0.02))
  (fp_line (start 0.55 0.25) (end -0.55 0.25) (layer F.SilkS) (width 0.02))
  (fp_line (start -0.55 0.25) (end -0.55 -0.75) (layer F.SilkS) (width 0.02))
  (fp_line (start -0.55 -0.75) (end 0.55 0.25) (layer F.SilkS) (width 0.02))
  (fp_line (start -0.55 -0.75) (end 0.55 -0.75) (layer F.SilkS) (width 0.02))
  (fp_line (start -0.65 -0.85) (end 0.65 -0.85) (layer F.SilkS) (width 0.05))
  (fp_line (start 0.65 -0.85) (end 0.65 0.85) (layer F.SilkS) (width 0.05))
  (fp_line (start 0.65 0.85) (end -0.65 0.85) (layer F.SilkS) (width 0.05))
  (fp_line (start -0.65 0.85) (end -0.65 -0.85) (layer F.SilkS) (width 0.05))
  (pad 2 smd rect (at -0.8 0) (size 1.1 1.5) (layers F.Cu F.Paste F.Mask))
  (pad 1 smd rect (at 0.78 0) (size 1.1 1.5) (layers F.Cu F.Paste F.Mask))
  (pad 2 thru_hole circle (at -1.016 -0.5715) (size 0.381 0.381) (drill 0.254) (layers *.Cu *.Mask F.SilkS))
  (pad 2 thru_hole circle (at -1.016 0) (size 0.381 0.381) (drill 0.254) (layers *.Cu *.Mask F.SilkS))
  (pad 2 thru_hole circle (at -1.016 0.5715) (size 0.381 0.381) (drill 0.254) (layers *.Cu *.Mask F.SilkS))
  (pad 1 thru_hole circle (at 0.4445 -0.5715) (size 0.381 0.381) (drill 0.254) (layers *.Cu *.Mask F.SilkS))
  (pad 1 thru_hole circle (at 0.4445 0) (size 0.381 0.381) (drill 0.254) (layers *.Cu *.Mask F.SilkS))
  (pad 1 thru_hole circle (at 1.016 -0.5715) (size 0.381 0.381) (drill 0.254) (layers *.Cu *.Mask F.SilkS))
  (pad 1 thru_hole circle (at 1.016 0) (size 0.381 0.381) (drill 0.254) (layers *.Cu *.Mask F.SilkS))
  (pad 1 thru_hole circle (at 1.016 0.5715) (size 0.381 0.381) (drill 0.254) (layers *.Cu *.Mask F.SilkS))
  (pad 1 thru_hole circle (at 0.4445 0.5715) (size 0.381 0.381) (drill 0.254) (layers *.Cu *.Mask F.SilkS))
  (pad 2 thru_hole circle (at -0.4445 -0.5715) (size 0.381 0.381) (drill 0.254) (layers *.Cu *.Mask F.SilkS))
  (pad 2 thru_hole circle (at -0.4445 0) (size 0.381 0.381) (drill 0.254) (layers *.Cu *.Mask F.SilkS))
  (pad 2 thru_hole circle (at -0.4445 0.5715) (size 0.381 0.381) (drill 0.254) (layers *.Cu *.Mask F.SilkS))
  (model walter\smd_leds\luxeon_m.wrl
    (at (xyz 0 0 0))
    (scale (xyz 1 1 1))
    (rotate (xyz 0 0 0))
  )
)
