(module Luxeon_C (layer F.Cu) (tedit 4FB26F77)
  (descr "Philips Lumileds Luxeon C")
  (fp_text reference LD? (at 0 -1.39954) (layer F.SilkS)
    (effects (font (size 0.52324 0.52324) (thickness 0.09906)))
  )
  (fp_text value Luxeon_C (at 0 1.6002) (layer F.SilkS)
    (effects (font (size 0.5207 0.5207) (thickness 0.09906)))
  )
  (fp_line (start 0.39878 -0.29972) (end 0.70104 -0.29972) (layer F.SilkS) (width 0.127))
  (fp_line (start 0.70104 -0.29972) (end 0.70104 0.29972) (layer F.SilkS) (width 0.127))
  (fp_line (start 0.70104 0.29972) (end 0.39878 0.29972) (layer F.SilkS) (width 0.127))
  (fp_line (start 0.39878 0.29972) (end 0.39878 -0.29972) (layer F.SilkS) (width 0.127))
  (fp_line (start -0.70104 0) (end -0.70104 -0.39878) (layer F.SilkS) (width 0.127))
  (fp_line (start -0.70104 -0.39878) (end 0.09906 -0.39878) (layer F.SilkS) (width 0.127))
  (fp_line (start 0.09906 -0.39878) (end 0.09906 0.39878) (layer F.SilkS) (width 0.127))
  (fp_line (start 0.09906 0.39878) (end -0.70104 0.39878) (layer F.SilkS) (width 0.127))
  (fp_line (start -0.70104 0.39878) (end -0.70104 0) (layer F.SilkS) (width 0.127))
  (fp_line (start -1.00076 -0.8001) (end 1.00076 -0.8001) (layer F.SilkS) (width 0.127))
  (fp_line (start 1.00076 -0.8001) (end 1.00076 0.8001) (layer F.SilkS) (width 0.127))
  (fp_line (start 1.00076 0.8001) (end -1.00076 0.8001) (layer F.SilkS) (width 0.127))
  (fp_line (start -1.00076 0.8001) (end -1.00076 -0.8001) (layer F.SilkS) (width 0.127))
  (pad 1 smd rect (at 0.3937 0) (size 1.05918 1.4478) (layers F.Cu F.Paste F.Mask)
    (solder_mask_margin 0.0508) (solder_paste_margin -0.0508))
  (pad 2 smd rect (at -0.69342 0) (size 0.4572 1.4478) (layers F.Cu F.Paste F.Mask)
    (solder_mask_margin 0.0508) (solder_paste_margin -0.0508))
  (pad 1 smd oval (at 0.89916 -0.6985 315) (size 0.50038 1.00076) (layers F.Cu F.Mask)
    (solder_mask_margin 0.0508) (solder_paste_margin -0.0508))
  (pad 1 smd oval (at 0.89916 0.6985 45) (size 0.50038 1.00076) (layers F.Cu F.Mask)
    (solder_mask_margin 0.0508) (solder_paste_margin -0.0508))
  (pad 2 smd oval (at -0.89916 0.6985 315) (size 0.50038 1.00076) (layers F.Cu F.Mask)
    (solder_mask_margin 0.0508) (solder_paste_margin -0.0508))
  (pad 2 smd oval (at -0.89916 -0.6985 45) (size 0.50038 1.00076) (layers F.Cu F.Mask)
    (solder_mask_margin 0.0508) (solder_paste_margin -0.0508))
  (model walter\smd_leds\luxeon_c.wrl
    (at (xyz 0 0 0))
    (scale (xyz 1 1 1))
    (rotate (xyz 0 0 0))
  )
)
