(module Luxeon_Rebel (layer F.Cu) (tedit 4F5DCF3A)
  (descr "Philips Lumileds Luxeon Rebel")
  (fp_text reference LD? (at 0.70104 -2.10058) (layer F.SilkS)
    (effects (font (size 0.52324 0.52324) (thickness 0.09906)))
  )
  (fp_text value Luxeon_Rebel (at 0.70104 2.10058) (layer F.SilkS)
    (effects (font (size 0.52324 0.52324) (thickness 0.09906)))
  )
  (fp_circle (center 0 0) (end 0 -1.30048) (layer F.SilkS) (width 0.14986))
  (fp_line (start -1.6002 -1.5494) (end -1.6002 1.5494) (layer F.SilkS) (width 0.14986))
  (fp_line (start -1.6002 1.5494) (end 2.90068 1.5494) (layer F.SilkS) (width 0.14986))
  (fp_line (start 2.90068 1.5494) (end 2.90068 -1.5494) (layer F.SilkS) (width 0.14986))
  (fp_line (start 2.90068 -1.5494) (end -1.6002 -1.5494) (layer F.SilkS) (width 0.14986))
  (pad 1 smd rect (at 2.47396 -0.8001) (size 0.89916 1.30048) (layers F.Cu F.Paste F.Mask)
    (solder_mask_margin 0.0508) (solder_paste_margin -0.0508))
  (pad 2 smd rect (at 2.47396 0.8001) (size 0.89916 1.30048) (layers F.Cu F.Paste F.Mask)
    (solder_mask_margin 0.0508) (solder_paste_margin -0.0508))
  (pad 3 smd rect (at -0.55118 0) (size 1.89992 2.99974) (layers F.Cu F.Paste F.Mask)
    (solder_mask_margin 0.0508) (solder_paste_margin -0.0508))
  (pad 1 smd oval (at 2.90068 -1.45034 315) (size 0.50038 1.00076) (layers F.Cu F.Mask)
    (solder_mask_margin 0.0508) (solder_paste_margin -0.0508))
  (pad 2 smd oval (at 2.90068 1.45034 45) (size 0.50038 1.00076) (layers F.Cu F.Mask)
    (solder_mask_margin 0.0508) (solder_paste_margin -0.0508))
  (pad 3 smd oval (at -1.50114 1.50114 315) (size 0.50038 1.00076) (layers F.Cu F.Mask)
    (solder_mask_margin 0.0508) (solder_paste_margin -0.0508))
  (pad 3 smd oval (at -1.50114 -1.50114 45) (size 0.50038 1.00076) (layers F.Cu F.Mask)
    (solder_mask_margin 0.0508) (solder_paste_margin -0.0508))
  (model walter\smd_leds\luxeon_rebel.wrl
    (at (xyz 0 0 0))
    (scale (xyz 1 1 1))
    (rotate (xyz 0 0 0))
  )
)
