(module SC70-6L (layer F.Cu) (tedit 5B871802)
  (descr SC70-6L)
  (tags SC70-6L)
  (attr smd)
  (fp_text reference Q1 (at -1.4 -0.7) (layer F.SilkS)
    (effects (font (size 0.29972 0.29972) (thickness 0.06096)))
  )
  (fp_text value SiA461DJ (at 0 0.3556) (layer F.SilkS) hide
    (effects (font (size 0.29972 0.29972) (thickness 0.06096)))
  )
  (fp_circle (center -1.266199 1.05) (end -1.142899 0.99804) (layer F.SilkS) (width 0.1))
  (fp_line (start -1.025 -1.025) (end 1.025 -1.025) (layer F.SilkS) (width 0.1))
  (fp_line (start 1.025 -1.025) (end 1.025 1.025) (layer F.SilkS) (width 0.1))
  (fp_line (start 1.025 1.025) (end -1.025 1.025) (layer F.SilkS) (width 0.1))
  (fp_line (start -1.025 1.025) (end -1.025 -1.025) (layer F.SilkS) (width 0.1))
  (pad 6 smd rect (at -0.65 -1) (size 0.3 0.5) (layers F.Cu F.Paste F.Mask))
  (pad 4 smd rect (at 0.65 -1) (size 0.3 0.5) (layers F.Cu F.Paste F.Mask))
  (pad 5 smd rect (at 0 -1) (size 0.3 0.5) (layers F.Cu F.Paste F.Mask))
  (pad 3 smd rect (at 0.65 1) (size 0.3 0.5) (layers F.Cu F.Paste F.Mask))
  (pad 1 smd rect (at -0.65 1) (size 0.3 0.5) (layers F.Cu F.Paste F.Mask))
  (pad 2 smd rect (at 0 1) (size 0.3 0.5) (layers F.Cu F.Paste F.Mask))
  (pad 4 smd rect (at 0.6675 -0.04) (size 0.235 0.87) (layers F.Cu F.Paste F.Mask))
  (pad 1 smd rect (at -0.325 0) (size 0.95 1.51) (layers F.Cu F.Paste F.Mask))
  (model smd/smd_transistors/sc70-6.wrl
    (at (xyz 0 0 0))
    (scale (xyz 1 1 1))
    (rotate (xyz 0 0 0))
  )
)
