(module SparkFun_Qwiic_Scale_2 (layer F.Cu) (tedit 609C5152)
  (fp_text reference U5 (at 0 0.5) (layer F.SilkS)
    (effects (font (size 1 1) (thickness 0.15)))
  )
  (fp_text value SparkFun_Qwiik_Scale_PCB (at 0.635 -1.135) (layer F.Fab)
    (effects (font (size 1 1) (thickness 0.15)))
  )
  (fp_line (start 0 0) (end 25.4 0) (layer F.SilkS) (width 0.15))
  (fp_line (start 25.4 0) (end 25.4 -35.56) (layer F.SilkS) (width 0.15))
  (fp_line (start 25.4 -35.56) (end 0 -35.56) (layer F.SilkS) (width 0.15))
  (fp_line (start 0 -35.56) (end 0 0) (layer F.SilkS) (width 0.15))
  (fp_circle (center 22.86 -2.54) (end 24.13 -1.27) (layer F.SilkS) (width 0.15))
  (fp_circle (center 2.54 -2.54) (end 3.81 -1.27) (layer F.SilkS) (width 0.15))
  (fp_circle (center 2.54 -33.02) (end 3.81 -31.75) (layer F.SilkS) (width 0.15))
  (fp_circle (center 22.86 -33.02) (end 24.13 -31.75) (layer F.SilkS) (width 0.15))
  (fp_poly (pts (xy 8.89 -12.7) (xy 17.78 -12.7) (xy 17.78 -7.62) (xy 7.62 -7.62)
    (xy 7.62 -12.7)) (layer F.SilkS) (width 0.15))
  (fp_poly (pts (xy 21.59 -15.24) (xy 24.13 -15.24) (xy 24.13 -11.43) (xy 21.59 -11.43)) (layer F.SilkS) (width 0.15))
  (fp_poly (pts (xy 1.27 -15.24) (xy 3.81 -15.24) (xy 3.81 -11.43) (xy 1.27 -11.43)) (layer F.SilkS) (width 0.15))
  (fp_poly (pts (xy 7.62 -31.75) (xy 19.05 -31.75) (xy 19.05 -21.59) (xy 6.35 -21.59)
    (xy 6.35 -31.75)) (layer F.SilkS) (width 0.15))
  (pad 3 thru_hole circle (at 8.89 -1.905) (size 1.524 1.524) (drill 0.762) (layers *.Cu *.Mask))
  (pad 2 thru_hole circle (at 11.43 -1.905) (size 1.524 1.524) (drill 0.762) (layers *.Cu *.Mask))
  (pad 1 thru_hole circle (at 13.97 -1.905) (size 1.524 1.524) (drill 0.762) (layers *.Cu *.Mask))
  (pad 6 thru_hole circle (at 16.51 -1.905) (size 1.524 1.524) (drill 0.762) (layers *.Cu *.Mask))
  (pad 5 thru_hole circle (at 19.05 -1.905) (size 1.524 1.524) (drill 0.762) (layers *.Cu *.Mask))
  (pad 4 thru_hole circle (at 6.35 -1.905) (size 1.524 1.524) (drill 0.762) (layers *.Cu *.Mask))
  (pad 8 thru_hole circle (at 17.78 -19.685) (size 1.524 1.524) (drill 0.762) (layers *.Cu *.Mask))
  (pad 11 thru_hole circle (at 10.16 -19.685) (size 1.524 1.524) (drill 0.762) (layers *.Cu *.Mask))
  (pad 12 thru_hole circle (at 7.62 -19.685) (size 1.524 1.524) (drill 0.762) (layers *.Cu *.Mask))
  (pad 13 thru_hole circle (at 5.08 -19.685) (size 1.524 1.524) (drill 0.762) (layers *.Cu *.Mask))
  (pad 9 thru_hole circle (at 15.24 -19.685) (size 1.524 1.524) (drill 0.762) (layers *.Cu *.Mask))
  (pad 10 thru_hole circle (at 12.7 -19.685) (size 1.524 1.524) (drill 0.762) (layers *.Cu *.Mask))
  (pad 7 thru_hole circle (at 20.32 -19.685) (size 1.524 1.524) (drill 0.762) (layers *.Cu *.Mask))
)
