(module TSSOP-10_3x3mm_Pitch0.5mm (layer F.Cu) (tedit 5B8FE58C)
  (descr "TSSOP10: plastic thin shrink small outline package; 10 leads; body width 3 mm; (see NXP SSOP-TSSOP-VSO-REFLOW.pdf and sot552-1_po.pdf)")
  (tags "SSOP 0.5")
  (attr smd)
  (fp_text reference U34 (at 2.131 -2.127) (layer F.SilkS)
    (effects (font (size 0.4 0.4) (thickness 0.1)))
  )
  (fp_text value BQ24093DGQR (at 0.154 2.976) (layer F.SilkS)
    (effects (font (size 0.4 0.4) (thickness 0.1)))
  )
  (fp_circle (center -2.286 -2.032) (end -2.286 -1.778) (layer F.SilkS) (width 0.15))
  (fp_line (start -2.95 -1.8) (end -2.95 1.8) (layer F.CrtYd) (width 0.05))
  (fp_line (start 2.95 -1.8) (end 2.95 1.8) (layer F.CrtYd) (width 0.05))
  (fp_line (start -2.95 -1.8) (end 2.95 -1.8) (layer F.CrtYd) (width 0.05))
  (fp_line (start -2.95 1.8) (end 2.95 1.8) (layer F.CrtYd) (width 0.05))
  (fp_line (start -1.625 -1.625) (end -1.625 -1.35) (layer F.SilkS) (width 0.15))
  (fp_line (start 1.625 -1.625) (end 1.625 -1.35) (layer F.SilkS) (width 0.15))
  (fp_line (start 1.625 1.625) (end 1.625 1.35) (layer F.SilkS) (width 0.15))
  (fp_line (start -1.625 1.625) (end -1.625 1.35) (layer F.SilkS) (width 0.15))
  (fp_line (start -1.625 -1.625) (end 1.625 -1.625) (layer F.SilkS) (width 0.15))
  (fp_line (start -1.625 1.625) (end 1.625 1.625) (layer F.SilkS) (width 0.15))
  (fp_line (start -1.625 -1.35) (end -2.7 -1.35) (layer F.SilkS) (width 0.15))
  (pad 1 smd rect (at -2.15 -1) (size 1.1 0.25) (layers F.Cu F.Paste F.Mask))
  (pad 2 smd rect (at -2.15 -0.5) (size 1.1 0.25) (layers F.Cu F.Paste F.Mask))
  (pad 3 smd rect (at -2.15 0) (size 1.1 0.25) (layers F.Cu F.Paste F.Mask))
  (pad 4 smd rect (at -2.15 0.5) (size 1.1 0.25) (layers F.Cu F.Paste F.Mask))
  (pad 5 smd rect (at -2.15 1) (size 1.1 0.25) (layers F.Cu F.Paste F.Mask))
  (pad 6 smd rect (at 2.15 1) (size 1.1 0.25) (layers F.Cu F.Paste F.Mask))
  (pad 7 smd rect (at 2.15 0.5) (size 1.1 0.25) (layers F.Cu F.Paste F.Mask))
  (pad 8 smd rect (at 2.15 0) (size 1.1 0.25) (layers F.Cu F.Paste F.Mask))
  (pad 9 smd rect (at 2.15 -0.5) (size 1.1 0.25) (layers F.Cu F.Paste F.Mask))
  (pad 10 smd rect (at 2.15 -1) (size 1.1 0.25) (layers F.Cu F.Paste F.Mask))
  (pad 3 smd rect (at 0 0) (size 1.57 1.8) (layers F.Cu F.Paste F.Mask))
  (pad 3 thru_hole circle (at -0.508 -0.508) (size 0.3 0.3) (drill 0.2) (layers *.Cu F.Mask))
  (pad 3 thru_hole circle (at 0.508 -0.508) (size 0.3 0.3) (drill 0.2) (layers *.Cu F.Mask))
  (pad 3 thru_hole circle (at 0.508 0.508) (size 0.3 0.3) (drill 0.2) (layers *.Cu F.Mask))
  (pad 3 thru_hole circle (at -0.508 0.508) (size 0.3 0.3) (drill 0.2) (layers *.Cu F.Mask))
  (pad 3 thru_hole circle (at 0 0) (size 0.3 0.3) (drill 0.2) (layers *.Cu F.Mask))
  (model Housings_SSOP.3dshapes/TSSOP-10_3x3mm_Pitch0.5mm.wrl
    (at (xyz 0 0 0))
    (scale (xyz 1 1 1))
    (rotate (xyz 0 0 0))
  )
)
