EESchema Schematic File Version 2
LIBS:multispec
LIBS:main-rescue
LIBS:main-cache
LIBS:power
LIBS:device
LIBS:transistors
LIBS:conn
LIBS:linear
LIBS:regul
LIBS:74xx
LIBS:cmos4000
LIBS:adc-dac
LIBS:memory
LIBS:xilinx
LIBS:microcontrollers
LIBS:dsp
LIBS:microchip
LIBS:analog_switches
LIBS:motorola
LIBS:texas
LIBS:intel
LIBS:audio
LIBS:interface
LIBS:digital-audio
LIBS:philips
LIBS:display
LIBS:cypress
LIBS:siliconi
LIBS:opto
LIBS:atmel
LIBS:contrib
LIBS:valves
EELAYER 25 0
EELAYER END
$Descr A3 16535 11693
encoding utf-8
Sheet 2 9
Title "Reflectance 1.0"
Date "2017-04-24"
Rev "1.0"
Comp "OurSci"
Comment1 "Zegarac Robert"
Comment2 "Jon Zeeff"
Comment3 ""
Comment4 ""
$EndDescr
$Comp
L R R23
U 1 1 59094D05
P 8700 5450
F 0 "R23" V 8780 5450 50  0000 C CNN
F 1 "150" V 8700 5450 50  0000 C CNN
F 2 "multispeq:r_0603" H 8700 5450 60  0001 C CNN
F 3 "RC0603JR-07150RL" V 8700 5450 12  0001 C CNN
F 4 "RC0603JR-07150RL" H 8700 5450 60  0001 C CNN "manf#"
	1    8700 5450
	0    1    -1   0   
$EndComp
$Comp
L R R25
U 1 1 55DCCEF4
P 9200 5925
F 0 "R25" V 9280 5925 50  0000 C CNN
F 1 "3" V 9200 5925 50  0000 C CNN
F 2 "multispeq:r_1206" H 9200 5925 60  0001 C CNN
F 3 "KTR18EZPF3R00" V 9200 5925 12  0001 C CNN
F 4 "KTR18EZPF3R00" V 9200 5925 60  0001 C CNN "manf#"
	1    9200 5925
	-1   0    0    -1  
$EndComp
$Comp
L C C6
U 1 1 55DCCEF6
P 8500 5600
F 0 "C6" H 8320 5605 40  0000 L CNN
F 1 "22p" H 8620 5600 50  0000 L CNN
F 2 "multispeq:c_0603" H 8500 5600 60  0001 C CNN
F 3 "06035A220JAT2A" H 8500 5600 10  0001 C CNN
F 4 "06035A220JAT2A" H 8500 5600 60  0001 C CNN "manf#"
	1    8500 5600
	1    0    0    1   
$EndComp
Text Label 9200 5750 0    20   Italic 0
ACT_SAT_FB
Text Label 8700 6100 0    20   Italic 0
ACT_GND
$Comp
L DG4157DL-T1-E3 U5
U 1 1 55DCCEFB
P 7700 5500
F 0 "U5" H 7800 5400 30  0000 L CNN
F 1 "SW_SPDT" H 7550 5600 30  0000 L CNN
F 2 "multispeq:sc70-6" H 7700 5500 60  0001 C CNN
F 3 "DG4157DL-T1-E3" H 7650 5550 10  0001 C CNN
F 4 "DG4157DL-T1-E3" H 7700 5500 60  0001 C CNN "manf#"
	1    7700 5500
	-1   0    0    -1  
$EndComp
$Comp
L MOSN-TSOP6 Q4
U 1 1 59094D06
P 9100 5450
F 0 "Q4" H 9350 5400 40  0000 C CNN
F 1 "MOSN" H 9450 5500 40  0000 C CNN
F 2 "multispeq:sc70-6L" H 9400 5300 60  0001 C CNN
F 3 "SIA416DJ-T1-GE3" H 9100 5450 20  0001 C CNN
F 4 "SIA416DJ-T1-GE3" H 9100 5450 60  0001 C CNN "manf#"
	1    9100 5450
	1    0    0    -1  
$EndComp
Text Notes 7925 4225 0    40   ~ 0
ACToPULSEr_Circuit (current controller)
Text Label 7900 5500 0    10   ~ 0
ACT_SAT_SW
Text Label 9450 5200 0    20   ~ 0
ACT_LED_C
Text HLabel 7125 4700 0    39   Input ~ 0
+5v
Text HLabel 7100 5450 0    40   Input ~ 0
ACT
Text HLabel 7175 5750 0    40   Input ~ 0
PULSE
Text HLabel 7150 6100 0    40   Input ~ 0
AGND
$Comp
L R R22
U 1 1 56045A37
P 7900 5925
F 0 "R22" V 7980 5925 50  0000 C CNN
F 1 "100K" V 7900 5925 50  0000 C CNN
F 2 "multispeq:r_0603" V 7830 5925 30  0001 C CNN
F 3 "RC0603JR-07100KL" H 7900 5925 30  0001 C CNN
F 4 "RC0603JR-07100KL" H 7900 5925 60  0001 C CNN "manf#"
	1    7900 5925
	1    0    0    -1  
$EndComp
Connection ~ 8675 4700
Wire Wire Line
	8675 4700 8675 4750
Wire Wire Line
	9200 6100 9200 6075
Wire Wire Line
	9400 5150 9400 5250
Wire Wire Line
	8850 5450 8900 5450
Wire Wire Line
	9200 5650 9200 5775
Connection ~ 9200 5750
Wire Wire Line
	9300 5200 9300 5250
Wire Wire Line
	9200 5200 9500 5200
Connection ~ 9200 5200
Connection ~ 9300 5200
Wire Wire Line
	9500 5200 9500 5250
Connection ~ 9400 5200
Wire Wire Line
	9400 4700 9400 4850
Wire Wire Line
	7125 4700 9755 4700
Wire Wire Line
	8450 5450 8550 5450
Connection ~ 8500 5450
Wire Wire Line
	7900 5500 8000 5500
Wire Wire Line
	7175 5750 7900 5750
Wire Wire Line
	7900 5650 7900 5775
Wire Wire Line
	7500 5550 7500 5700
Wire Wire Line
	7500 5700 7650 5700
Wire Wire Line
	7650 5700 7650 6100
Wire Wire Line
	7150 6100 9200 6100
Wire Wire Line
	7650 5300 7650 4700
Wire Wire Line
	8200 4700 8200 5300
Connection ~ 7650 4700
Connection ~ 8200 4700
Wire Wire Line
	7400 5450 7500 5450
Wire Wire Line
	8000 5400 8000 5400
Wire Wire Line
	8000 5400 8000 5750
Connection ~ 7650 6100
Connection ~ 7900 5750
Wire Wire Line
	7900 6075 7900 6100
Connection ~ 7900 6100
Wire Wire Line
	8000 5750 8550 5750
Wire Wire Line
	8850 5750 9200 5750
Connection ~ 8500 5750
Wire Wire Line
	8200 5600 8200 6100
Connection ~ 8200 6100
$Comp
L C C5
U 1 1 56238CF7
P 7400 5950
F 0 "C5" H 7425 6025 40  0000 L CNN
F 1 "0.1u" H 7425 5850 50  0000 L CNN
F 2 "multispeq:c_0603" H 7400 5950 60  0001 C CNN
F 3 "C0603C104M5RACTU" H 7400 5950 10  0001 C CNN
F 4 "C0603C104M5RACTU" H 7400 5950 60  0001 C CNN "manf#"
	1    7400 5950
	1    0    0    1   
$EndComp
Connection ~ 7400 5450
Connection ~ 7400 6100
Wire Wire Line
	7400 5450 7400 5800
Connection ~ 7650 5700
Text HLabel 8650 5050 0    40   Input ~ 0
AGND
Wire Wire Line
	8675 5050 8650 5050
$Comp
L TSV911 U6
U 1 1 562B77DC
P 8300 5450
F 0 "U6" H 8250 5550 40  0000 L CNN
F 1 "TSV911ILT" H 8255 5610 30  0000 L CNN
F 2 "multispeq:sot23-5" H 8300 5450 60  0001 C CNN
F 3 "TSV911ILT" H 8300 5450 60  0001 C CNN
F 4 "TSV911ILT" H 8300 5450 60  0001 C CNN "manf#"
	1    8300 5450
	1    0    0    -1  
$EndComp
$Comp
L R R24
U 1 1 562BD42D
P 8700 5750
F 0 "R24" V 8605 5745 40  0000 C CNN
F 1 "2K" V 8707 5751 40  0000 C CNN
F 2 "multispeq:r_0603" V 8630 5750 10  0001 C CNN
F 3 "RC0603JR-072KL" V 8700 5750 10  0001 C CNN
F 4 "RC0603JR-072KL" V 8700 5750 60  0001 C CNN "manf#"
	1    8700 5750
	0    1    -1   0   
$EndComp
$Comp
L R R20
U 1 1 562BD7C4
P 7250 5450
F 0 "R20" V 7330 5450 40  0000 C CNN
F 1 "2K" V 7257 5451 40  0000 C CNN
F 2 "multispeq:r_0603" V 7180 5450 10  0001 C CNN
F 3 "RC0603JR-072KL" V 7250 5450 10  0001 C CNN
F 4 "RC0603JR-072KL" H 7250 5450 60  0001 C CNN "manf#"
	1    7250 5450
	0    1    -1   0   
$EndComp
$Comp
L PWR_FLAG #FLG023
U 1 1 56588A31
P 8200 4700
F 0 "#FLG023" H 8200 4795 50  0001 C CNN
F 1 "PWR_FLAG" H 8200 4880 50  0000 C CNN
F 2 "" H 8200 4700 60  0000 C CNN
F 3 "" H 8200 4700 60  0000 C CNN
	1    8200 4700
	1    0    0    -1  
$EndComp
$Comp
L C C7
U 1 1 5662B441
P 8675 4900
F 0 "C7" H 8675 5000 40  0000 L CNN
F 1 "10u" H 8681 4815 40  0000 L CNN
F 2 "multispeq:c_0603" H 8675 4900 10  0000 C CNN
F 3 "CC0603KRX5R6BB106" H 8675 4900 10  0001 C CNN
F 4 "CC0603KRX5R6BB106" H 8675 4900 60  0001 C CNN "manf#"
	1    8675 4900
	1    0    0    -1  
$EndComp
Wire Wire Line
	9200 5250 9200 5200
Text HLabel 9750 5200 2    40   Output ~ 0
ACTO_Out
Wire Wire Line
	9400 5200 9750 5200
NoConn ~ 860  5895
$Comp
L R R26
U 1 1 55DCCF01
P 9400 5000
F 0 "R26" V 9480 5000 40  0000 C CNN
F 1 "150" V 9407 5001 40  0000 C CNN
F 2 "multispeq:r_0603" V 9330 5000 10  0001 C CNN
F 3 "RC0603JR-07150RL" V 9400 5000 10  0001 C CNN
F 4 "RC0603JR-07150RL" H 9400 5000 60  0001 C CNN "manf#"
	1    9400 5000
	-1   0    0    -1  
$EndComp
Text Notes 9400 6100 0    60   ~ 0
1.5 ohm net for a 1.2V DAC\n6.8 for a 5V DAC
Wire Wire Line
	9755 4700 9755 4715
Connection ~ 9400 4700
Connection ~ 9755 4705
Text Notes 9640 4955 0    60   ~ 0
LED is connected here\n
Text Notes 9650 5490 0    60   ~ 0
Low side regulator
Text Notes 7410 6605 0    60   ~ 0
Consider 1A op amp with no mosfet and no bypass resistor\nSwitch may not be needed (use DAC or multiplexor)
Text Notes 9105 4525 0    60   ~ 0
150 ohm resistor causes significant \nnon-linearity in LED output\n
Text Notes 9415 5860 0    60   ~ 0
+/-100 PPM or better, large size
$Comp
L R R90
U 1 1 59C46B03
P 8980 5915
F 0 "R90" V 9060 5915 50  0000 C CNN
F 1 "3" V 8980 5915 50  0000 C CNN
F 2 "multispeq:r_1206" H 8980 5915 60  0001 C CNN
F 3 "KTR18EZPF3R00" V 8980 5915 12  0001 C CNN
F 4 "KTR18EZPF3R00" V 8980 5915 60  0001 C CNN "manf#"
	1    8980 5915
	-1   0    0    -1  
$EndComp
Wire Wire Line
	8980 5750 8975 5750
Wire Wire Line
	8980 6100 8980 6065
Connection ~ 8980 6100
Wire Wire Line
	8980 5765 8980 5750
Connection ~ 8975 5750
$EndSCHEMATC
