EESchema Schematic File Version 2
LIBS:multispec
LIBS:main-rescue
LIBS:main-cache
LIBS:power
LIBS:device
LIBS:transistors
LIBS:conn
LIBS:linear
LIBS:regul
LIBS:74xx
LIBS:cmos4000
LIBS:adc-dac
LIBS:memory
LIBS:xilinx
LIBS:microcontrollers
LIBS:dsp
LIBS:microchip
LIBS:analog_switches
LIBS:motorola
LIBS:texas
LIBS:intel
LIBS:audio
LIBS:interface
LIBS:digital-audio
LIBS:philips
LIBS:display
LIBS:cypress
LIBS:siliconi
LIBS:opto
LIBS:atmel
LIBS:contrib
LIBS:valves
EELAYER 25 0
EELAYER END
$Descr USLegal 14000 8500
encoding utf-8
Sheet 1 9
Title "Reflectance"
Date "2017-04-24"
Rev "1.0"
Comp "OurSci"
Comment1 "Robert Zegarac"
Comment2 "Greg Austic"
Comment3 "Jon Zeeff"
Comment4 ""
$EndDescr
$Comp
L PWR_FLAG #FLG01
U 1 1 563D36C1
P 1500 6985
F 0 "#FLG01" H 1500 7080 30  0001 C CNN
F 1 "PWR_FLAG" H 1500 7165 30  0000 C CNN
F 2 "" H 1500 6985 60  0000 C CNN
F 3 "" H 1500 6985 60  0000 C CNN
	1    1500 6985
	0    1    1    0   
$EndComp
Text GLabel 10525 4700 2    40   BiDi ~ 0
SDA
Text GLabel 9700 4700 0    40   Input ~ 0
SCL
Text GLabel 10525 4350 2    40   Input ~ 0
+3.3V_SW
$Comp
L GND #PWR02
U 1 1 563D36C6
P 10125 5075
F 0 "#PWR02" H 10125 5075 30  0001 C CNN
F 1 "GND" H 10125 5005 30  0001 C CNN
F 2 "" H 10125 5075 60  0000 C CNN
F 3 "" H 10125 5075 60  0000 C CNN
	1    10125 5075
	-1   0    0    -1  
$EndComp
Text Notes 10140 4185 0    60   ~ 0
IR temperature
Text GLabel 8100 6475 2    40   Output ~ 0
Intensity
Text GLabel 2825 1175 2    39   Input ~ 0
+5V
$Sheet
S 2025 1075 750  500 
U 563D36C9
F0 "ACToPULSer" 60
F1 "ACToPULSer.sch" 60
F2 "+5v" I R 2775 1175 39 
F3 "PULSE" I R 2775 1375 39 
F4 "ACT" I R 2775 1275 39 
F5 "AGND" I R 2775 1475 60 
F6 "ACTO_Out" O L 2025 1175 60 
$EndSheet
Text GLabel 2825 1275 2    40   Input ~ 0
Intensity
Text GLabel 1790 2255 2    39   Input ~ 0
+Vdet
Text GLabel 2825 1375 2    40   Input ~ 0
PULSEOFF
Text GLabel 2830 2780 2    39   Output ~ 0
A1_N
Text GLabel 1790 2155 2    39   Input ~ 0
-Vdet
$Sheet
S 10800 1850 875  925 
U 563D36D4
F0 "Vreg_silent" 60
F1 "Vreg_silent.sch" 60
F2 "+6V" I L 10800 2350 60 
F3 "GND+5" O R 11675 2325 60 
F4 "GND-10" O R 11675 2425 60 
F5 "GND+5" O R 11675 2525 60 
F6 "-5Vc" O R 11675 2050 60 
F7 "+5V" O R 11675 1950 60 
F8 "-7V" I L 10800 2125 60 
$EndSheet
$Comp
L MLX90615 U2
U 1 1 563D36D5
P 10125 4700
F 0 "U2" V 9850 4850 60  0000 C CNN
F 1 "MLX90615" V 10375 4875 40  0000 C CNN
F 2 "multispeq:TO-72_4Pin" H 10125 4700 60  0001 C CNN
F 3 "MLX90615SSG-DAG-000-TU" H 10125 4700 60  0001 C CNN
F 4 "MLX90615SSG-DAG-000-TU" H 10125 4700 60  0001 C CNN "manf#"
	1    10125 4700
	0    1    1    0   
$EndComp
$Comp
L GND #PWR03
U 1 1 563D36D6
P 9750 4450
F 0 "#PWR03" H 9750 4450 30  0001 C CNN
F 1 "GND" H 9750 4380 30  0001 C CNN
F 2 "" H 9750 4450 60  0000 C CNN
F 3 "" H 9750 4450 60  0000 C CNN
	1    9750 4450
	-1   0    0    -1  
$EndComp
Text GLabel 11860 1845 2    39   Output ~ 0
+5V
Text GLabel 6300 5875 0    40   Output ~ 0
PULSE7
Text GLabel 6300 6075 0    40   Output ~ 0
PULSE8
Text GLabel 6300 5575 0    40   Output ~ 0
PULSE9
Text GLabel 6300 5275 0    40   Output ~ 0
PULSE6
Text GLabel 6300 5675 0    40   Output ~ 0
PULSE10
Text GLabel 6300 5475 0    40   Output ~ 0
PULSE3
Text GLabel 6300 6925 0    40   Output ~ 0
SCL
Text GLabel 6300 6825 0    40   BiDi ~ 0
SDA
Text GLabel 6300 5175 0    40   Output ~ 0
PULSE5
Text GLabel 6300 5975 0    40   Output ~ 0
PULSE1
Text GLabel 6300 5375 0    40   Output ~ 0
PULSE2
Text GLabel 6300 5775 0    40   Output ~ 0
PULSE4
Text GLabel 8100 6600 2    40   Input ~ 0
BLE_TXd
Text GLabel 8100 6700 2    40   Output ~ 0
BLE_RXd
$Sheet
S 6350 4475 1700 2925
U 563D36EF
F0 "Teensy31" 60
F1 "Teensy31.sch" 60
F2 "23/A9" O L 6350 5675 40 
F3 "22/A8" I L 6350 7350 40 
F4 "21/A7" O L 6350 6600 40 
F5 "20/A6" O L 6350 5475 40 
F6 "19/A5" O L 6350 6925 40 
F7 "18/A4" B L 6350 6825 40 
F8 "17/A3" O L 6350 6475 40 
F9 "16/A2" O L 6350 6375 40 
F10 "15/A1" O L 6350 6275 40 
F11 "13(LED)" O L 6350 7250 40 
F12 "12" I L 6350 7050 40 
F13 "11" O L 6350 7150 40 
F14 "10" O R 8050 5225 39 
F15 "9" B R 8050 7150 40 
F16 "8" I R 8050 7250 40 
F17 "7" O R 8050 7350 40 
F18 "6" O L 6350 6700 40 
F19 "5" O L 6350 5375 40 
F20 "3" O L 6350 5175 40 
F21 "2" O R 8050 5850 40 
F22 "28" O L 6350 5575 40 
F23 "27" O L 6350 6075 40 
F24 "A11" I R 8050 5625 39 
F25 "AREF" O R 8050 4950 40 
F26 "A10" I R 8050 5725 40 
F27 "4" O L 6350 5275 40 
F28 "1" O R 8050 6700 40 
F29 "0" I R 8050 6600 40 
F30 "33" O R 8050 5325 40 
F31 "32" B R 8050 6375 40 
F32 "31" O R 8050 5975 39 
F33 "30" B R 8050 6825 40 
F34 "29" O R 8050 6925 40 
F35 "26" O L 6350 5975 40 
F36 "25" O L 6350 5875 40 
F37 "24" O L 6350 5775 40 
F38 "+5V" I L 6350 4575 40 
F39 "RESET" I R 8050 5025 40 
F40 "14/A0" B R 8050 6275 40 
F41 "D+" B L 6350 4850 60 
F42 "D-" B L 6350 4950 60 
F43 "DAC/A14" O R 8050 6475 40 
F44 "A12" I R 8050 5525 39 
F45 "A13" I R 8050 5425 39 
F46 "+3.3V" O L 6350 4650 39 
F47 "3.3Vperm" I L 6350 4725 39 
F48 "AGND" O R 8050 4850 40 
$EndSheet
$Sheet
S 8450 1900 700  650 
U 563D36F5
F0 "BMS" 40
F1 "BMS.sch" 40
F2 "D+" I L 8450 2200 60 
F3 "D-" B L 8450 2100 60 
F4 "Iset" O R 9150 2050 60 
F5 "GNDb" O R 9150 2250 60 
F6 "Vbatt" O R 9150 1950 60 
F7 "Vusb" O L 8450 1950 60 
F8 "NTC" I R 9150 2425 60 
$EndSheet
Text GLabel 6300 4650 0    39   Output ~ 0
+3.3V
Text GLabel 8400 2200 0    39   Output ~ 0
D+
Text GLabel 8400 2100 0    39   Output ~ 0
D-
Text GLabel 6300 4850 0    39   BiDi ~ 0
D+
Text GLabel 6300 4950 0    39   BiDi ~ 0
D-
Text GLabel 6300 4725 0    39   Input ~ 0
+3.3V
Text GLabel 6300 6375 0    40   Input ~ 0
Bat_test
Text GLabel 1400 6985 0    39   Output ~ 0
-Vdet
Text GLabel 11850 2050 2    39   Output ~ 0
-Vdet
Text GLabel 11850 1950 2    39   Output ~ 0
+Vdet
Text GLabel 11850 2325 2    39   Output ~ 0
GND+10
Text GLabel 11850 2425 2    39   Output ~ 0
GND-10
Text GLabel 11850 2525 2    39   Output ~ 0
GND+5
Text GLabel 12150 1025 0    39   Input ~ 0
GND+10
Text GLabel 12150 1125 0    39   Input ~ 0
GND-10
Text GLabel 12150 1225 0    39   Input ~ 0
GND+5
Text GLabel 2825 1475 2    39   Input ~ 0
ACTGND
Text GLabel 12950 1125 2    39   Input ~ 0
ACTGND
$Comp
L GNDREF #PWR04
U 1 1 563D3708
P 1375 6600
F 0 "#PWR04" H 1375 6350 50  0001 C CNN
F 1 "GNDREF" V 1375 6350 50  0000 C CNN
F 2 "" H 1375 6600 60  0000 C CNN
F 3 "" H 1375 6600 60  0000 C CNN
	1    1375 6600
	0    1    -1   0   
$EndComp
$Comp
L PWR_FLAG #FLG05
U 1 1 563D3709
P 1500 6600
F 0 "#FLG05" H 1500 6695 30  0001 C CNN
F 1 "PWR_FLAG" H 1500 6780 30  0000 C CNN
F 2 "" H 1500 6600 60  0000 C CNN
F 3 "" H 1500 6600 60  0000 C CNN
	1    1500 6600
	0    1    1    0   
$EndComp
Text Notes 11865 790  0    60   ~ 0
split ground plane \nwith star grounding pattern\n
$Comp
L GND #PWR06
U 1 1 563D3712
P 12750 1325
F 0 "#PWR06" H 12750 1325 30  0001 C CNN
F 1 "GND" H 12750 1255 30  0001 C CNN
F 2 "" H 12750 1325 60  0000 C CNN
F 3 "" H 12750 1325 60  0000 C CNN
	1    12750 1325
	-1   0    0    -1  
$EndComp
Text GLabel 4550 2050 0    40   Output ~ 0
Bat_test
$Comp
L R R4
U 1 1 563D3713
P 4775 1875
F 0 "R4" V 4855 1875 50  0000 C CNN
F 1 "2K" V 4775 1875 50  0000 C CNN
F 2 "multispeq:r_0603" V 4705 1875 30  0001 C CNN
F 3 "RC0603JR-072KL" H 4775 1875 30  0001 C CNN
F 4 "RC0603JR-072KL" H 4775 1875 60  0001 C CNN "manf#"
	1    4775 1875
	1    0    0    -1  
$EndComp
$Comp
L R R5
U 1 1 563D3714
P 4775 2225
F 0 "R5" V 4700 2150 50  0000 C CNN
F 1 "680" V 4775 2225 50  0000 C CNN
F 2 "multispeq:r_0603" V 4705 2225 30  0001 C CNN
F 3 "RC0603JR-07680RL" H 4775 2225 30  0001 C CNN
F 4 "RC0603JR-07680RL" H 4775 2225 60  0001 C CNN "manf#"
	1    4775 2225
	-1   0    0    1   
$EndComp
$Comp
L GND #PWR07
U 1 1 563D3715
P 4775 2425
F 0 "#PWR07" H 4775 2425 30  0001 C CNN
F 1 "GND" H 4775 2355 30  0001 C CNN
F 2 "" H 4775 2425 60  0000 C CNN
F 3 "" H 4775 2425 60  0000 C CNN
	1    4775 2425
	-1   0    0    -1  
$EndComp
Text GLabel 9325 1750 0    39   Output ~ 0
Vbatt
Text GLabel 5075 1225 2    39   Input ~ 0
Vbatt
Text GLabel 8125 5325 2    39   Output ~ 0
~Bat_meas
Text GLabel 4275 1475 0    39   Input ~ 0
~Bat_meas
$Comp
L Q_PMOS_GDS Q1
U 1 1 563D3718
P 4675 1475
F 0 "Q1" H 4975 1525 50  0000 R CNN
F 1 "Q_PMOS_GSD" H 5325 1425 50  0000 R CNN
F 2 "multispeq:sot23" H 4875 1575 29  0001 C CNN
F 3 "DMG2305UX-7" H 4675 1475 60  0001 C CNN
F 4 "DMG2305UX-7" H 4675 1475 60  0001 C CNN "manf#"
	1    4675 1475
	1    0    0    1   
$EndComp
Text Notes 3725 1890 0    60   ~ 0
Battery level\nvoltage measurement\nswitch 
$Comp
L C_Small C1
U 1 1 563D371C
P 4650 2250
F 0 "C1" H 4720 2310 50  0000 L CNN
F 1 "0.1u" H 4660 2185 50  0000 L CNN
F 2 "multispeq:c_0603" H 4650 2250 10  0001 C CNN
F 3 "C0603C104M5RACTU" H 4650 2250 10  0001 C CNN
F 4 "C0603C104M5RACTU" H 4650 2250 60  0001 C CNN "manf#"
	1    4650 2250
	-1   0    0    1   
$EndComp
Text Notes 950  5125 0    60   ~ 0
ERC pacifier
$Comp
L R R3
U 1 1 565885AE
P 4575 1225
F 0 "R3" V 4500 1150 50  0000 C CNN
F 1 "130K" V 4575 1225 50  0000 C CNN
F 2 "multispeq:r_0603" V 4505 1225 30  0001 C CNN
F 3 "RC0603JR-07130KL" H 4575 1225 30  0001 C CNN
F 4 "RC0603JR-07130KL" H 4575 1225 60  0001 C CNN "manf#"
	1    4575 1225
	0    -1   -1   0   
$EndComp
$Comp
L C_Small C2
U 1 1 56624548
P 9900 4350
F 0 "C2" H 9700 4400 50  0000 L CNN
F 1 "10u" H 9750 4300 50  0000 L CNN
F 2 "multispeq:c_0603" H 9900 4350 10  0000 C CNN
F 3 "CC0603KRX5R6BB106" H 9900 4350 10  0001 C CNN
F 4 "CC0603KRX5R6BB106" H 9900 4350 60  0001 C CNN "manf#"
	1    9900 4350
	0    1    1    0   
$EndComp
$Comp
L R R10
U 1 1 566077B7
P 9450 2700
F 0 "R10" V 9530 2700 50  0000 C CNN
F 1 "10K" V 9450 2700 50  0000 C CNN
F 2 "multispeq:r_0603" V 9380 2700 30  0001 C CNN
F 3 "RC1608J103CS" H 9450 2700 30  0001 C CNN
F 4 "RC1608J103CS" H 9450 2700 60  0001 C CNN "manf#"
	1    9450 2700
	1    0    0    -1  
$EndComp
$Comp
L SW_PUSH SW1
U 1 1 56611EC2
P 5850 3475
F 0 "SW1" H 6000 3585 50  0000 C CNN
F 1 "RESET" H 5850 3395 50  0000 C CNN
F 2 "multispeq:SW_PB_RA" H 5850 3475 60  0001 C CNN
F 3 "APTCLGTVTR" H 5850 3475 60  0001 C CNN
F 4 "APTCLGTVTR" H 5850 3475 60  0001 C CNN "manf#"
	1    5850 3475
	1    0    0    -1  
$EndComp
$Comp
L GND #PWR08
U 1 1 56F15E70
P 9250 2050
F 0 "#PWR08" H 9250 2050 30  0001 C CNN
F 1 "GND" H 9250 1980 30  0001 C CNN
F 2 "" H 9250 2050 60  0000 C CNN
F 3 "" H 9250 2050 60  0000 C CNN
	1    9250 2050
	-1   0    0    -1  
$EndComp
$Comp
L PWR_FLAG #FLG09
U 1 1 563D36FD
P 1500 5475
F 0 "#FLG09" H 1500 5570 30  0001 C CNN
F 1 "PWR_FLAG" H 1500 5655 30  0000 C CNN
F 2 "" H 1500 5475 60  0000 C CNN
F 3 "" H 1500 5475 60  0000 C CNN
	1    1500 5475
	0    1    -1   0   
$EndComp
Text GLabel 1450 5475 0    39   Input ~ 0
Vbatt_sw
Text GLabel 6300 7350 0    40   Input ~ 0
5V_USB_meas
Text GLabel 3225 5000 2    40   Input ~ 0
SDA
Text GLabel 3225 5100 2    40   Input ~ 0
SCL
$Comp
L R R1
U 1 1 57463752
P 3075 5000
F 0 "R1" V 3000 4925 50  0000 C CNN
F 1 "2K" V 3075 5000 50  0000 C CNN
F 2 "multispeq:r_0603" V 3005 5000 30  0001 C CNN
F 3 "RT0603DRD072KL" H 3075 5000 30  0001 C CNN
F 4 "RT0603DRD072KL" H 3075 5000 60  0001 C CNN "manf#"
	1    3075 5000
	0    1    1    0   
$EndComp
$Comp
L R R2
U 1 1 57466A80
P 3075 5100
F 0 "R2" V 3150 5025 50  0000 C CNN
F 1 "2K" V 3075 5100 50  0000 C CNN
F 2 "multispeq:r_0603" V 3005 5100 30  0001 C CNN
F 3 "RC0603JR-072KL" H 3075 5100 30  0001 C CNN
F 4 "RC0603JR-072KL" H 3075 5100 60  0001 C CNN "manf#"
	1    3075 5100
	0    1    1    0   
$EndComp
Text GLabel 2850 5050 0    39   Input ~ 0
+3.3V_SW
Text Notes 2750 4875 0    60   ~ 0
I2C pull-up's\n(DNI)
Text GLabel 9400 2975 0    40   Input ~ 0
wake_DC/DC
$Comp
L Q_PMOS_GDS Q3
U 1 1 574EAF4F
P 6200 3225
F 0 "Q3" V 6125 3450 50  0000 R CNN
F 1 "Q_PMOS_GSD" V 6400 3450 50  0000 R CNN
F 2 "multispeq:sot23" H 6400 3325 29  0001 C CNN
F 3 "DMG2305UX-7" H 6200 3225 60  0001 C TNN
F 4 "DMG2305UX-7" H 6200 3225 60  0001 C CNN "manf#"
	1    6200 3225
	0    1    -1   0   
$EndComp
Text GLabel 5500 3125 0    39   Input ~ 0
Vbatt
$Comp
L R R7
U 1 1 574F7FDE
P 6200 3675
F 0 "R7" H 6025 3650 50  0000 C CNN
F 1 "10K" V 6200 3675 50  0000 C CNN
F 2 "multispeq:r_0603" V 6130 3675 30  0001 C CNN
F 3 "RC1608J103CS" H 6200 3675 30  0001 C CNN
F 4 "RC1608J103CS" H 6200 3675 60  0001 C CNN "manf#"
	1    6200 3675
	-1   0    0    1   
$EndComp
$Comp
L GND #PWR010
U 1 1 574FE6B9
P 6200 3825
F 0 "#PWR010" H 6200 3825 30  0001 C CNN
F 1 "GND" H 6200 3755 30  0001 C CNN
F 2 "" H 6200 3825 60  0000 C CNN
F 3 "" H 6200 3825 60  0000 C CNN
	1    6200 3825
	-1   0    0    -1  
$EndComp
Text GLabel 6700 3125 2    39   Output ~ 0
Vbatt/SW
Text GLabel 6300 4575 0    39   Input ~ 0
Vbatt/SW
Text GLabel 6075 2450 2    39   Input ~ 0
~3.3V_ON
$Comp
L Q_PMOS_GDS Q2
U 1 1 57539CDF
P 6025 2150
F 0 "Q2" V 5975 2400 50  0000 R CNN
F 1 "Q_PMOS_GSD" V 6225 2375 50  0000 R CNN
F 2 "multispeq:sot23" H 6225 2250 29  0001 C CNN
F 3 "DMG2305UX-7" H 6025 2150 60  0001 C CNN
F 4 "DMG2305UX-7" H 6025 2150 60  0001 C CNN "manf#"
	1    6025 2150
	0    1    -1   0   
$EndComp
$Comp
L R R6
U 1 1 5754AA77
P 5775 2450
F 0 "R6" V 5675 2425 50  0000 C CNN
F 1 "130K" V 5775 2450 50  0000 C CNN
F 2 "multispeq:r_0603" V 5705 2450 30  0001 C CNN
F 3 "RC0603JR-07130KL" H 5775 2450 30  0001 C CNN
F 4 "RC0603JR-07130KL" H 5775 2450 60  0001 C CNN "manf#"
	1    5775 2450
	0    -1   -1   0   
$EndComp
Text GLabel 5575 2050 0    39   Input ~ 0
+3.3V
Text GLabel 6525 2050 2    39   Output ~ 0
+3.3V_SW
Text GLabel 8125 5850 2    40   Output ~ 0
wake_DC/DC
Text Notes 6500 3425 0    60   ~ 0
main SW RESET \ncircuit
Text Notes 6350 2325 0    60   ~ 0
3.3V switched \ncircuit
Text GLabel 8125 5975 2    39   Output ~ 0
~3.3V_ON
Text Notes 8625 6750 1    24   ~ 0
BLE_DATA
Text Notes 8625 6825 3    16   ~ 0
External I2C
Text Notes 8425 7150 3    24   ~ 0
External SPI
Text Label 6225 3475 0    39   ~ 0
reset
Text GLabel 1450 5800 0    39   Input ~ 0
+5V
Text GLabel 1450 6200 0    39   Input ~ 0
+3.3V_SW
$Comp
L PWR_FLAG #FLG011
U 1 1 574301CA
P 1500 6200
F 0 "#FLG011" H 1500 6295 30  0001 C CNN
F 1 "PWR_FLAG" H 1500 6380 30  0000 C CNN
F 2 "" H 1500 6200 60  0000 C CNN
F 3 "" H 1500 6200 60  0000 C CNN
	1    1500 6200
	0    1    -1   0   
$EndComp
Text GLabel 8050 2300 0    40   Output ~ 0
5V_USB_meas
$Comp
L GND #PWR012
U 1 1 574A52F4
P 8100 2625
F 0 "#PWR012" H 8100 2625 30  0001 C CNN
F 1 "GND" H 8100 2555 30  0001 C CNN
F 2 "" H 8100 2625 60  0000 C CNN
F 3 "" H 8100 2625 60  0000 C CNN
	1    8100 2625
	-1   0    0    -1  
$EndComp
$Comp
L R R9
U 1 1 5749F1E0
P 8100 2475
F 0 "R9" V 8180 2475 50  0000 C CNN
F 1 "2K" V 8100 2475 50  0000 C CNN
F 2 "multispeq:r_0603" V 8030 2475 30  0001 C CNN
F 3 "RC0603JR-072KL" H 8100 2475 30  0001 C CNN
F 4 "RC0603JR-072KL" H 8100 2475 60  0001 C CNN "manf#"
	1    8100 2475
	1    0    0    -1  
$EndComp
$Comp
L R R8
U 1 1 574F0D17
P 8100 2100
F 0 "R8" V 8180 2100 50  0000 C CNN
F 1 "10K" V 8100 2100 50  0000 C CNN
F 2 "multispeq:r_0603" V 8030 2100 30  0001 C CNN
F 3 "RC1608J103CS" H 8100 2100 30  0001 C CNN
F 4 "RC1608J103CS" H 8100 2100 60  0001 C CNN "manf#"
	1    8100 2100
	1    0    0    -1  
$EndComp
$Sheet
S 9550 1800 700  750 
U 563D371A
F0 "SMPS" 40
F1 "SMPS.sch" 40
F2 "+6V" O R 10250 2350 60 
F3 "GNDb" B L 9550 2350 60 
F4 "Vbatt" I L 9550 1950 60 
F5 "DC/DC_on" I L 9550 2450 60 
F6 "-7V" O R 10250 2125 60 
$EndSheet
$Comp
L ITEAD_HC-05 U1
U 1 1 5760CD0B
P 4500 6700
F 0 "U1" H 4500 6675 60  0000 C CNN
F 1 "Bluetooth HC-06" H 4500 5500 60  0000 C CNN
F 2 "multispeq:HC_05_Bluetooth" H 4500 6700 60  0001 C CNN
F 3 "Bluetooth HC-06" H 4500 6700 60  0001 C CNN
F 4 "Bluetooth HC-06" H 4500 6700 60  0001 C CNN "manf#"
	1    4500 6700
	1    0    0    -1  
$EndComp
NoConn ~ 5100 6000
NoConn ~ 5100 6100
NoConn ~ 5100 6300
NoConn ~ 5100 6400
NoConn ~ 5100 6500
NoConn ~ 5100 6600
NoConn ~ 5100 6700
NoConn ~ 5100 6800
NoConn ~ 5100 6900
NoConn ~ 5100 7000
NoConn ~ 5100 7100
NoConn ~ 5100 7200
NoConn ~ 5100 7300
NoConn ~ 5100 7400
NoConn ~ 3900 6050
NoConn ~ 3900 6150
NoConn ~ 3900 6500
NoConn ~ 3900 6600
NoConn ~ 3900 6700
NoConn ~ 3900 6800
NoConn ~ 3900 6950
NoConn ~ 3900 7050
NoConn ~ 3900 7200
NoConn ~ 3900 7300
NoConn ~ 3900 7400
NoConn ~ 3900 7500
NoConn ~ 3900 5900
Text GLabel 3625 5750 0    39   Input ~ 0
+3.3V_SW
Text GLabel 3625 6250 0    40   Input ~ 0
BLE_RXd
Text GLabel 3625 6350 0    40   Output ~ 0
BLE_TXd
Text Notes 3850 5525 0    60   ~ 0
Bluetooth Classic Module
Text GLabel 12225 5800 2    40   Input ~ 0
+3.3V_SW
$Comp
L GND #PWR013
U 1 1 59021FCF
P 10750 5800
F 0 "#PWR013" H 10750 5800 30  0001 C CNN
F 1 "GND" H 10750 5730 30  0001 C CNN
F 2 "" H 10750 5800 60  0000 C CNN
F 3 "" H 10750 5800 60  0000 C CNN
	1    10750 5800
	-1   0    0    -1  
$EndComp
$Comp
L C_Small C4
U 1 1 590222D7
P 12050 5700
F 0 "C4" H 11850 5750 50  0000 L CNN
F 1 "10u" H 11900 5650 50  0000 L CNN
F 2 "multispeq:c_0603" H 12050 5700 10  0000 C CNN
F 3 "CC0603KRX5R6BB106" H 12050 5700 10  0000 C CNN
F 4 "CC0603KRX5R6BB106" H 12050 5700 60  0001 C CNN "manf#"
	1    12050 5700
	-1   0    0    1   
$EndComp
$Comp
L GND #PWR014
U 1 1 5902288A
P 12400 5900
F 0 "#PWR014" H 12400 5900 30  0001 C CNN
F 1 "GND" H 12400 5830 30  0001 C CNN
F 2 "" H 12400 5900 60  0000 C CNN
F 3 "" H 12400 5900 60  0000 C CNN
	1    12400 5900
	-1   0    0    -1  
$EndComp
$Comp
L GND #PWR015
U 1 1 59042BA2
P 11950 6100
F 0 "#PWR015" H 11950 6100 30  0001 C CNN
F 1 "GND" H 11950 6030 30  0001 C CNN
F 2 "" H 11950 6100 60  0000 C CNN
F 3 "" H 11950 6100 60  0000 C CNN
	1    11950 6100
	-1   0    0    -1  
$EndComp
Text GLabel 11150 6100 0    40   Input ~ 0
SCL
Text GLabel 11150 6000 0    40   BiDi ~ 0
SDA
Text GLabel 11150 5900 0    40   Input ~ 0
+3.3V_SW
Text GLabel 1950 1175 0    40   Input ~ 0
LED_Drive
$Sheet
S 4425 3495 725  1400
U 590FF6D9
F0 "LEDS" 60
F1 "LEDS.sch" 60
F2 "PULSE1" I L 4425 3895 60 
F3 "PULSE2" I L 4425 3985 60 
F4 "+5" I L 4425 3720 60 
F5 "PULSE3" I L 4425 4075 60 
F6 "PULSE9" I L 4425 4615 60 
F7 "PULSE7" I L 4425 4435 60 
F8 "PULSE8" I L 4425 4525 60 
F9 "PULSE6" I L 4425 4345 60 
F10 "PULSE4" I L 4425 4165 60 
F11 "PULSE5" I L 4425 4255 60 
F12 "PULSE10" I L 4425 4705 60 
F13 "Acto_drive" I L 4425 3595 60 
$EndSheet
Text GLabel 4350 3595 0    40   Input ~ 0
LED_Drive
Text GLabel 4375 4705 0    40   Input ~ 0
PULSE10
Text GLabel 4375 4525 0    40   Input ~ 0
PULSE8
Text GLabel 4375 4435 0    40   Input ~ 0
PULSE7
Text GLabel 4375 4345 0    40   Input ~ 0
PULSE6
Text GLabel 4375 3895 0    40   Input ~ 0
PULSE1
Text GLabel 4375 3985 0    40   Input ~ 0
PULSE2
Text GLabel 4375 4075 0    40   Input ~ 0
PULSE3
Text GLabel 4375 4165 0    40   Input ~ 0
PULSE4
Text GLabel 4375 4255 0    40   Input ~ 0
PULSE5
Text GLabel 4350 3720 0    39   Input ~ 0
+5V
Text Notes 11275 5525 0    60   ~ 0
Humidity Sensor
Text GLabel 8125 5625 2    39   Input ~ 0
A1_N
NoConn ~ 6300 6600
NoConn ~ 8100 6825
NoConn ~ 8100 6925
NoConn ~ 6300 7250
Text GLabel 8125 5725 2    39   Input ~ 0
A1_P
Text Notes 8450 5650 0    40   ~ 0
Differential inputs\nParallel traces\nall the way to detector AGND
Text GLabel 1790 3760 2    39   Input ~ 0
+Vdet
Text GLabel 2845 4260 2    39   Output ~ 0
A2_N
Text GLabel 1790 3660 2    39   Input ~ 0
-Vdet
Text GLabel 8125 5425 2    39   Input ~ 0
A2_N
Text GLabel 8125 5525 2    39   Input ~ 0
A2_P
$Comp
L OHS3150U U22
U 1 1 5949D58A
P 11650 3925
F 0 "U22" H 11422 3993 40  0000 R CNN
F 1 "OHS3150U" H 11422 3917 40  0000 R CNN
F 2 "multispeq:TO-92_Inline_Narrow_Oval" H 11422 3864 12  0000 R CNN
F 3 "OHS3150U" H 11422 3834 12  0000 R CNN
F 4 "OHS3150U" H 11650 3925 60  0001 C CNN "manf#"
	1    11650 3925
	1    0    0    -1  
$EndComp
Text GLabel 11725 3600 2    40   Input ~ 0
+5V
$Comp
L C_Small C66
U 1 1 594A5A0B
P 11475 3600
F 0 "C66" H 11275 3650 50  0000 L CNN
F 1 "10u" H 11325 3550 50  0000 L CNN
F 2 "multispeq:c_0603" H 11475 3600 10  0000 C CNN
F 3 "CC0603KRX5R6BB106" H 11475 3600 10  0000 C CNN
F 4 "CC0603KRX5R6BB106" H 11475 3600 60  0001 C CNN "manf#"
	1    11475 3600
	0    -1   -1   0   
$EndComp
$Comp
L R R88
U 1 1 594A5F94
P 11975 4125
F 0 "R88" V 12055 4125 50  0000 C CNN
F 1 "10K" V 11975 4125 50  0000 C CNN
F 2 "multispeq:r_0603" V 11905 4125 30  0001 C CNN
F 3 "RC1608J103CS" H 11975 4125 30  0001 C CNN
F 4 "RC1608J103CS" H 11975 4125 60  0001 C CNN "manf#"
	1    11975 4125
	1    0    0    -1  
$EndComp
$Comp
L R R89
U 1 1 594A74CC
P 11975 4525
F 0 "R89" V 12055 4525 50  0000 C CNN
F 1 "27K" V 11975 4525 50  0000 C CNN
F 2 "multispeq:r_0603" V 11905 4525 30  0001 C CNN
F 3 "RC0603JR-0727KL" H 11975 4525 30  0001 C CNN
F 4 "RC0603JR-0727KL" H 11975 4525 60  0001 C CNN "manf#"
	1    11975 4525
	1    0    0    -1  
$EndComp
$Comp
L GND #PWR016
U 1 1 594AEB5C
P 11200 3650
F 0 "#PWR016" H 11200 3650 30  0001 C CNN
F 1 "GND" H 11200 3580 30  0001 C CNN
F 2 "" H 11200 3650 60  0000 C CNN
F 3 "" H 11200 3650 60  0000 C CNN
	1    11200 3650
	-1   0    0    -1  
$EndComp
$Comp
L GND #PWR017
U 1 1 594AF57C
P 11650 4275
F 0 "#PWR017" H 11650 4275 30  0001 C CNN
F 1 "GND" H 11650 4205 30  0001 C CNN
F 2 "" H 11650 4275 60  0000 C CNN
F 3 "" H 11650 4275 60  0000 C CNN
	1    11650 4275
	-1   0    0    -1  
$EndComp
$Comp
L GND #PWR018
U 1 1 594AFA7B
P 11975 4675
F 0 "#PWR018" H 11975 4675 30  0001 C CNN
F 1 "GND" H 11975 4605 30  0001 C CNN
F 2 "" H 11975 4675 60  0000 C CNN
F 3 "" H 11975 4675 60  0000 C CNN
	1    11975 4675
	-1   0    0    -1  
$EndComp
Text GLabel 12100 4325 2    40   Output ~ 0
Hall_out
Text GLabel 6300 6475 0    40   Input ~ 0
Hall_out
Text GLabel 4375 4615 0    40   Input ~ 0
PULSE9
Text GLabel 8100 6375 2    40   Output ~ 0
PULSEOFF
$Sheet
S 1010 2080 745  700 
U 563D36D0
F0 "detector1" 60
F1 "detector_m.sch" 60
F2 "DetVcc" I R 1755 2255 39 
F3 "-5V" I R 1755 2155 39 
F4 "AnaOut_N" O R 1755 2660 39 
F5 "AnaOut_P" O R 1755 2455 39 
F6 "det_out" O L 1010 2435 39 
F7 "det_return" O L 1010 2735 39 
$EndSheet
$Sheet
S 1015 3585 740  675 
U 5948C701
F0 "detector2" 60
F1 "detector_m.sch" 60
F2 "DetVcc" I R 1755 3760 39 
F3 "-5V" I R 1755 3660 39 
F4 "AnaOut_N" O R 1755 4130 39 
F5 "AnaOut_P" O R 1755 3960 39 
F6 "det_out" O L 1015 3875 39 
F7 "det_return" O L 1015 4175 39 
$EndSheet
NoConn ~ 6300 6275
Text GLabel 2835 3960 2    39   Output ~ 0
A2_P
Text GLabel 2820 2455 2    39   Output ~ 0
A1_P
Text Notes 8090 4805 0    39   ~ 0
Use for analog out (via audio jack)
$Comp
L GND #PWR019
U 1 1 5973FBD2
P 4500 7650
F 0 "#PWR019" H 4500 7400 50  0001 C CNN
F 1 "GND" H 4500 7500 50  0000 C CNN
F 2 "" H 4500 7650 60  0000 C CNN
F 3 "" H 4500 7650 60  0000 C CNN
	1    4500 7650
	1    0    0    -1  
$EndComp
$Comp
L GNDREF #PWR020
U 1 1 5974ECFE
P 12550 1600
F 0 "#PWR020" H 12550 1350 50  0001 C CNN
F 1 "GNDREF" H 12550 1450 50  0000 C CNN
F 2 "" H 12550 1600 60  0000 C CNN
F 3 "" H 12550 1600 60  0000 C CNN
	1    12550 1600
	1    0    0    -1  
$EndComp
$Comp
L GNDA #PWR021
U 1 1 597A5AE7
P 8400 4850
F 0 "#PWR021" H 8400 4600 50  0001 C CNN
F 1 "GNDA" H 8400 4700 50  0000 C CNN
F 2 "" H 8400 4850 60  0000 C CNN
F 3 "" H 8400 4850 60  0000 C CNN
	1    8400 4850
	1    0    0    -1  
$EndComp
$Comp
L R R32
U 1 1 59603333
P 2350 2630
F 0 "R32" V 2425 2640 30  0000 C CNN
F 1 "360" V 2350 2630 50  0000 C CNN
F 2 "multispeq:r_0603" H 2350 2630 60  0001 C CNN
F 3 "RT0603DRE07360RL" V 2350 2630 10  0000 C CNN
F 4 "RT0603DRE07360RL" H 2350 2630 60  0001 C CNN "manf#"
	1    2350 2630
	-1   0    0    1   
$EndComp
$Comp
L R R15
U 1 1 59603348
P 2200 2455
F 0 "R15" V 2275 2445 30  0000 C CNN
F 1 "1K" V 2200 2455 50  0000 C CNN
F 2 "multispeq:r_0603" H 2200 2455 60  0001 C CNN
F 3 "RT0603DRD071KL" V 2200 2455 10  0001 C CNN
F 4 "RT0603DRD071KL" H 2200 2455 60  0001 C CNN "manf#"
	1    2200 2455
	0    1    1    0   
$EndComp
$Comp
L C C3
U 1 1 59603350
P 2500 2630
F 0 "C3" V 2525 2680 30  0000 L CNN
F 1 "22p" V 2525 2505 30  0000 L CNN
F 2 "multispeq:c_0603" H 2500 2630 60  0001 C CNN
F 3 "06035A220JAT2A" H 2500 2630 10  0001 C CNN
F 4 "06035A220JAT2A" H 2500 2630 60  0001 C CNN "manf#"
	1    2500 2630
	1    0    0    -1  
$EndComp
$Comp
L R R31
U 1 1 59612DEC
P 2205 3960
F 0 "R31" V 2280 3965 30  0000 C CNN
F 1 "1K" V 2205 3960 50  0000 C CNN
F 2 "multispeq:r_0603" H 2205 3960 60  0001 C CNN
F 3 "RT0603DRD071KL" V 2205 3960 10  0000 C CNN
F 4 "RT0603DRD071KL" H 2205 3960 60  0001 C CNN "manf#"
	1    2205 3960
	0    1    1    0   
$EndComp
$Comp
L R R77
U 1 1 59615188
P 2430 4110
F 0 "R77" V 2505 4115 30  0000 C CNN
F 1 "360" V 2430 4110 50  0000 C CNN
F 2 "multispeq:r_0603" H 2430 4110 60  0001 C CNN
F 3 "RT0603DRE07360RL" V 2430 4110 10  0000 C CNN
F 4 "RT0603DRE07360RL" H 2430 4110 60  0001 C CNN "manf#"
	1    2430 4110
	-1   0    0    1   
$EndComp
$Comp
L C C15
U 1 1 59616150
P 2585 4110
F 0 "C15" V 2610 4160 30  0000 L CNN
F 1 "22p" V 2610 3985 30  0000 L CNN
F 2 "multispeq:c_0603" H 2585 4110 60  0001 C CNN
F 3 "06035A220JAT2A" H 2585 4110 10  0001 C CNN
F 4 "06035A220JAT2A" H 2585 4110 60  0001 C CNN "manf#"
	1    2585 4110
	1    0    0    -1  
$EndComp
Text Notes 2445 2250 0    39   ~ 0
place filter near MK20
Text Notes 2470 3775 0    39   ~ 0
place filter near MK20
$Comp
L Audio-Jack-3_2Switches J1
U 1 1 5966635A
P 8485 3890
F 0 "J1" H 8461 4315 50  0000 C CNN
F 1 "Audio-Jack-3_2Switches" H 8461 4224 50  0000 C CNN
F 2 "multispeq:SJ1-3523N" H 8735 3990 50  0001 C CNN
F 3 "SJ1-3523N" H 8735 3990 50  0001 C CNN
F 4 "SJ1-3523N" H 8485 3890 60  0001 C CNN "manf#"
	1    8485 3890
	1    0    0    -1  
$EndComp
Text GLabel 8925 3790 2    40   Input ~ 0
+3.3V_SW
NoConn ~ 8685 3690
NoConn ~ 8685 3990
Text Notes 7735 3375 0    60   ~ 0
SDI-12 or Analog input via audio jack
Text GLabel 8100 6275 2    40   Input ~ 0
Analog_out
Text GLabel 8225 4115 0    40   Input ~ 0
Analog_out
$Comp
L PhotoD D1
U 1 1 59689400
P 875 2585
F 0 "D1" V 940 2470 50  0000 R CNN
F 1 "DET1" V 1020 2520 50  0000 R CNN
F 2 "multispeq:Pin_diode_SIPS_down" V 880 2625 12  0000 R CNN
F 3 "S6775 Hamamatsu" H 935 2585 10  0000 C CNN
F 4 "S6775 Hamamatsu" V 875 2585 60  0001 C CNN "manf#"
	1    875  2585
	0    1    1    0   
$EndComp
$Comp
L PhotoD D17
U 1 1 5968E318
P 915 4025
F 0 "D17" V 980 3935 50  0000 R CNN
F 1 "DET2" V 1055 3955 50  0000 R CNN
F 2 "multispeq:Pin_diode_SIPS_down" V 915 4065 12  0000 R CNN
F 3 "S6775-01 Hamamatsu" H 975 4025 10  0000 C CNN
F 4 "S6775-01 Hamamatsu" V 915 4025 60  0001 C CNN "manf#"
	1    915  4025
	0    1    1    0   
$EndComp
$Comp
L GNDA #PWR022
U 1 1 5969D9A9
P 8925 3920
F 0 "#PWR022" H 8925 3670 50  0001 C CNN
F 1 "GNDA" H 8925 3770 50  0000 C CNN
F 2 "" H 8925 3920 60  0000 C CNN
F 3 "" H 8925 3920 60  0000 C CNN
	1    8925 3920
	1    0    0    -1  
$EndComp
Text Notes 12065 3775 0    60   ~ 0
Hall effect
Text Notes 2105 2395 0    60   ~ 0
thin film
Text Notes 2110 3900 0    60   ~ 0
thin film
Text Notes 2650 2645 0    60   ~ 0
C0G
Text Notes 2705 4135 0    60   ~ 0
C0G
$Comp
L BME680 U4
U 1 1 5A3692C9
P 11550 5950
F 0 "U4" H 11750 5650 60  0000 C CNN
F 1 "BME680" H 11350 6250 40  0000 C CNN
F 2 "" H 11550 5950 60  0000 C CNN
F 3 "" H 11550 5950 60  0000 C CNN
F 4 "Value" H 11550 5950 60  0001 C CNN "manf#"
	1    11550 5950
	1    0    0    -1  
$EndComp
$Comp
L C C12
U 1 1 5A3DCE40
P 1125 1675
F 0 "C12" V 1150 1725 30  0000 L CNN
F 1 "150p" V 1150 1550 30  0000 L CNN
F 2 "multispeq:c_0603" H 1125 1675 60  0001 C CNN
F 3 "GRM1885C1H151JA01D" H 1125 1675 10  0001 C CNN
F 4 "GRM1885C1H151JA01D" H 1125 1675 60  0001 C CNN "manf#"
	1    1125 1675
	0    1    1    0   
$EndComp
$Comp
L R R29
U 1 1 5A3DDB46
P 1125 1905
F 0 "R29" V 1200 1915 30  0000 C CNN
F 1 "13K" V 1125 1905 50  0000 C CNN
F 2 "multispeq:r_0603" H 1125 1905 60  0001 C CNN
F 3 "RT0603DRD0713KL" V 1125 1905 10  0000 C CNN
F 4 "RT0603DRD0713KL" H 1125 1905 60  0001 C CNN "manf#"
	1    1125 1905
	0    -1   -1   0   
$EndComp
$Comp
L C C62
U 1 1 5A3DECD3
P 1130 3150
F 0 "C62" V 1155 3200 30  0000 L CNN
F 1 "560p" V 1155 3025 30  0000 L CNN
F 2 "multispeq:c_0603" H 1130 3150 60  0001 C CNN
F 3 "GRM1885C1H561JA01D " H 1130 3150 10  0001 C CNN
F 4 "GRM1885C1H561JA01D " H 1130 3150 60  0001 C CNN "manf#"
	1    1130 3150
	0    -1   -1   0   
$EndComp
$Comp
L R R59
U 1 1 5A3DEFE9
P 1130 3390
F 0 "R59" V 1205 3400 30  0000 C CNN
F 1 "2K" V 1130 3390 50  0000 C CNN
F 2 "multispeq:r_0603" H 1130 3390 60  0001 C CNN
F 3 "RT0603DRD072KL" V 1130 3390 10  0000 C CNN
F 4 "RT0603DRD072KL" H 1130 3390 60  0001 C CNN "manf#"
	1    1130 3390
	0    -1   -1   0   
$EndComp
Text Notes 4925 800  0    60   ~ 0
USE 5MILS GRID TO PREVENT EVERYONE\nFROM DRIVING NUTS
Text Notes 540  3195 0    60   ~ 0
NP0/C0G
Text Notes 705  3450 0    39   ~ 0
low ppm\nthin film
Text Notes 530  1950 0    60   ~ 0
NP0/C0G
Text Notes 695  2205 0    39   ~ 0
low ppm\nthin film
Text Notes 1310 3290 0    39   ~ 0
place near op amp
Text Notes 1295 1810 0    39   ~ 0
place near op amp
Wire Wire Line
	1500 6600 1375 6600
Connection ~ 12550 1125
Connection ~ 12550 1325
Connection ~ 12550 1225
Wire Wire Line
	11675 2525 11850 2525
Wire Wire Line
	11675 2425 11850 2425
Wire Wire Line
	11675 2325 11850 2325
Wire Wire Line
	11675 2050 11850 2050
Wire Wire Line
	8050 5725 8125 5725
Wire Wire Line
	9375 2350 9550 2350
Wire Wire Line
	9375 2250 9375 2350
Wire Wire Line
	9150 2250 9375 2250
Wire Wire Line
	6350 4950 6300 4950
Wire Wire Line
	6350 4850 6300 4850
Wire Wire Line
	8400 2200 8450 2200
Wire Wire Line
	8400 2100 8450 2100
Wire Wire Line
	9150 1950 9550 1950
Wire Wire Line
	10250 2125 10800 2125
Wire Wire Line
	10250 2350 10800 2350
Wire Wire Line
	6350 4725 6300 4725
Wire Wire Line
	6300 4650 6350 4650
Wire Wire Line
	8050 5850 8125 5850
Wire Wire Line
	8050 6700 8100 6700
Wire Wire Line
	8050 6600 8100 6600
Wire Wire Line
	6350 6475 6300 6475
Wire Wire Line
	6350 6375 6300 6375
Wire Wire Line
	6350 6275 6300 6275
Wire Wire Line
	6350 6700 6300 6700
Wire Wire Line
	6350 6600 6300 6600
Wire Wire Line
	8100 7150 8050 7150
Wire Wire Line
	8050 7350 8100 7350
Wire Wire Line
	8050 7250 8100 7250
Wire Wire Line
	8050 6925 8100 6925
Wire Wire Line
	8050 6825 8100 6825
Wire Wire Line
	8050 5625 8125 5625
Wire Wire Line
	8050 6475 8100 6475
Wire Wire Line
	8050 6375 8100 6375
Wire Wire Line
	8050 6275 8100 6275
Wire Wire Line
	8050 5325 8125 5325
Wire Wire Line
	6350 6925 6300 6925
Wire Wire Line
	6350 6825 6300 6825
Wire Wire Line
	6300 4575 6350 4575
Wire Wire Line
	6300 6075 6350 6075
Wire Wire Line
	6300 5975 6350 5975
Wire Wire Line
	6300 5875 6350 5875
Wire Wire Line
	6300 5775 6350 5775
Wire Wire Line
	6300 5675 6350 5675
Wire Wire Line
	6300 5575 6350 5575
Wire Wire Line
	6300 5475 6350 5475
Wire Wire Line
	6300 5375 6350 5375
Wire Wire Line
	6300 5275 6350 5275
Wire Wire Line
	6300 5175 6350 5175
Wire Wire Line
	9750 4350 9800 4350
Wire Wire Line
	11675 1950 11850 1950
Connection ~ 10125 4350
Wire Wire Line
	9750 4450 9750 4350
Wire Wire Line
	10000 4350 10525 4350
Wire Wire Line
	9775 4700 9700 4700
Wire Wire Line
	10125 5050 10125 5075
Wire Wire Line
	10525 4700 10475 4700
Wire Wire Line
	2775 1475 2825 1475
Wire Wire Line
	2775 1375 2825 1375
Wire Wire Line
	2775 1275 2825 1275
Wire Wire Line
	2825 1175 2775 1175
Wire Wire Line
	1500 6985 1400 6985
Wire Wire Line
	9350 1750 9350 1950
Connection ~ 9350 1950
Connection ~ 4775 2050
Wire Wire Line
	9325 1750 9350 1750
Wire Wire Line
	4275 1475 4475 1475
Connection ~ 4425 1475
Wire Wire Line
	4425 1475 4425 1225
Wire Wire Line
	4725 1225 5075 1225
Wire Wire Line
	4775 1225 4775 1275
Connection ~ 4775 1225
Wire Wire Line
	4775 1675 4775 1725
Wire Wire Line
	4775 2025 4775 2075
Wire Wire Line
	4650 2150 4650 2050
Wire Wire Line
	4650 2350 4650 2375
Wire Wire Line
	4650 2375 4775 2375
Wire Wire Line
	4775 2375 4775 2425
Connection ~ 4650 2050
Wire Wire Line
	4550 2050 4775 2050
Wire Wire Line
	8050 5525 8125 5525
Wire Wire Line
	8050 5425 8125 5425
Wire Bus Line
	2250 7875 2250 5025
Wire Bus Line
	2250 5025 600  5025
Wire Bus Line
	600  5025 600  7875
Wire Bus Line
	600  7875 2250 7875
Wire Wire Line
	9450 2550 9450 2450
Wire Wire Line
	12150 1125 12950 1125
Wire Wire Line
	12150 1025 12550 1025
Wire Wire Line
	12550 1225 12150 1225
Wire Wire Line
	9450 2450 9550 2450
Wire Wire Line
	9150 2050 9250 2050
Wire Wire Line
	9450 2850 9450 2975
Wire Wire Line
	1450 5475 1500 5475
Wire Wire Line
	2850 5050 2925 5050
Wire Wire Line
	2925 5000 2925 5100
Connection ~ 2925 5050
Wire Wire Line
	9450 2975 9400 2975
Wire Wire Line
	6200 3425 6200 3525
Wire Wire Line
	6150 3475 6225 3475
Connection ~ 6200 3475
Wire Wire Line
	5550 3475 5550 3125
Connection ~ 5550 3125
Wire Wire Line
	6400 3125 6700 3125
Wire Wire Line
	5575 2050 5825 2050
Wire Wire Line
	6025 2450 6025 2350
Wire Wire Line
	6225 2050 6525 2050
Wire Wire Line
	5625 2450 5625 2050
Connection ~ 5625 2050
Wire Wire Line
	5925 2450 6075 2450
Connection ~ 6025 2450
Wire Wire Line
	8125 5975 8050 5975
Wire Bus Line
	8500 6575 8575 6575
Wire Bus Line
	8575 6575 8575 6750
Wire Bus Line
	8575 6750 8500 6750
Wire Bus Line
	8500 6800 8575 6800
Wire Bus Line
	8575 6800 8575 6975
Wire Bus Line
	8575 6975 8500 6975
Wire Bus Line
	8425 6900 8500 6900
Wire Bus Line
	8500 6900 8500 7400
Wire Bus Line
	8500 7400 8425 7400
Wire Wire Line
	1500 5800 1450 5800
Wire Wire Line
	1500 6200 1450 6200
Wire Wire Line
	8100 1950 8450 1950
Wire Wire Line
	8100 2250 8100 2325
Wire Wire Line
	8050 2300 8100 2300
Connection ~ 8100 2300
Wire Wire Line
	3625 5750 4500 5750
Wire Wire Line
	3625 6250 3900 6250
Wire Wire Line
	3625 6350 3900 6350
Wire Wire Line
	11950 5800 12225 5800
Wire Wire Line
	10750 5800 11150 5800
Wire Wire Line
	12050 5600 10750 5600
Wire Wire Line
	10750 5600 10750 5800
Connection ~ 10750 5800
Wire Wire Line
	11950 5900 12400 5900
Connection ~ 12050 5800
Wire Wire Line
	12050 5800 12050 6000
Wire Wire Line
	12050 6000 11950 6000
Wire Wire Line
	5500 3125 6000 3125
Wire Wire Line
	1950 1175 2025 1175
Wire Wire Line
	4350 3595 4425 3595
Wire Wire Line
	4375 4705 4425 4705
Wire Wire Line
	4375 4525 4425 4525
Wire Wire Line
	4375 4435 4425 4435
Wire Wire Line
	4375 4345 4425 4345
Wire Wire Line
	4375 4255 4425 4255
Wire Wire Line
	4375 4165 4425 4165
Wire Wire Line
	4375 4075 4425 4075
Wire Wire Line
	4375 3985 4425 3985
Wire Wire Line
	4375 3895 4425 3895
Wire Wire Line
	4400 7650 4600 7650
Connection ~ 4500 7650
Wire Wire Line
	4350 3720 4425 3720
Wire Wire Line
	6300 7350 6350 7350
Wire Wire Line
	6300 7250 6350 7250
Wire Wire Line
	6300 7050 6350 7050
Wire Wire Line
	6300 7150 6350 7150
Wire Wire Line
	11975 4275 11975 4375
Wire Wire Line
	11900 3925 11975 3925
Wire Wire Line
	11975 3925 11975 3975
Wire Wire Line
	11650 3675 11650 3600
Wire Wire Line
	11575 3600 11725 3600
Connection ~ 11650 3600
Wire Wire Line
	11375 3600 11200 3600
Wire Wire Line
	11200 3600 11200 3650
Wire Wire Line
	11650 4175 11650 4275
Wire Wire Line
	11975 4325 12100 4325
Connection ~ 11975 4325
Wire Wire Line
	4375 4615 4425 4615
Wire Wire Line
	8050 5225 8110 5225
Wire Wire Line
	1790 2155 1755 2155
Wire Wire Line
	1755 2255 1790 2255
Wire Wire Line
	1755 2455 2050 2455
Wire Wire Line
	1755 3660 1790 3660
Wire Wire Line
	1755 3760 1790 3760
Wire Wire Line
	1755 3960 2055 3960
Wire Wire Line
	8050 4850 8400 4850
Wire Wire Line
	12550 1025 12550 1600
Connection ~ 2500 2455
Wire Wire Line
	2350 2455 2820 2455
Wire Wire Line
	2500 2455 2500 2480
Wire Wire Line
	2350 2480 2350 2455
Connection ~ 2500 2780
Connection ~ 2350 2780
Connection ~ 2350 2455
Wire Wire Line
	2355 3960 2835 3960
Connection ~ 2430 3960
Connection ~ 2585 3960
Wire Wire Line
	1855 4260 2845 4260
Connection ~ 2585 4260
Connection ~ 2430 4260
Wire Wire Line
	8685 3890 8925 3890
Wire Wire Line
	8925 3890 8925 3920
Wire Wire Line
	8685 3790 8925 3790
Wire Wire Line
	8285 4090 8285 4115
Wire Wire Line
	8285 4115 8225 4115
Wire Wire Line
	875  2435 1010 2435
Wire Wire Line
	1010 2735 875  2735
Wire Wire Line
	1015 4175 915  4175
Wire Wire Line
	915  3875 1015 3875
Wire Wire Line
	1755 2660 1880 2660
Wire Wire Line
	1755 4130 1855 4130
Wire Wire Line
	1855 4130 1855 4260
Wire Wire Line
	2350 2780 2350 2775
Wire Wire Line
	2500 2780 2500 2785
Wire Wire Line
	12550 1325 12750 1325
Wire Wire Line
	11860 1845 11790 1845
Wire Wire Line
	11790 1845 11790 1950
Connection ~ 11790 1950
Wire Wire Line
	1880 2780 2830 2780
Wire Wire Line
	1275 1675 1275 1905
Wire Wire Line
	1280 3150 1280 3390
Wire Wire Line
	1275 1905 2050 1905
Wire Wire Line
	2050 1905 2050 2455
Wire Wire Line
	1280 3390 2055 3390
Wire Wire Line
	2055 3390 2055 3960
Connection ~ 2050 2455
Connection ~ 2055 3960
Wire Wire Line
	975  1675 920  1675
Wire Wire Line
	920  1675 920  2435
Connection ~ 920  2435
Wire Wire Line
	975  1905 920  1905
Connection ~ 920  1905
Wire Wire Line
	945  3150 945  3875
Wire Wire Line
	945  3150 980  3150
Connection ~ 945  3875
Wire Wire Line
	980  3390 945  3390
Connection ~ 945  3390
Wire Wire Line
	1880 2660 1880 2780
Text Label 1880 2455 0    30   ~ 0
A1_P
Text Label 2050 2250 0    30   ~ 0
A1_P
Text Label 1865 3960 0    30   ~ 0
A2_P
Text Label 2055 3770 0    30   ~ 0
A2_P
$EndSCHEMATC
