PCBNEW-LibModule-V1  9/10/2014 5:01:19 PM
# encoding utf-8
Units mm
$INDEX
CONN16_RIBBON_SMD
LM5111
Luxeon_Z+
Pin_diode_SIP_down
SM0402
SM0805
SM1206
SM1210
SO8E
sc70-6
sod323
sot23-6
$EndINDEX
$MODULE CONN16_RIBBON_SMD
Po 202.69 129.65 0 15 537E3E96 00000000 ~~
Li CONN16_RIBBON_SMD
Sc 0
AR /5254250E
Op 0 0 0
At SMD
T0 -11.1486 -4.174 1.016 1.016 0 0.127 N V 21 N "P1"
T1 -3.8334 -0.3894 1.016 1.016 0 0.127 N V 21 N "CONN_12"
DS 9.54062 -2.75082 9.54062 2.75082 0.14986 21
DS -9.50062 -2.73082 9.54 -2.73082 0.14986 21
DS 9.54 2.77082 -9.50062 2.77082 0.14986 21
DS -9.50062 2.77082 -9.50062 -2.73082 0.14986 21
$PAD
Sh "9" R 0.64008 3.29946 0 0 0
Dr 0 0 0
At SMD N 00888000
Ne 13 "GND"
Po 0.5019 -3.2312
$EndPAD
$PAD
Sh "12" R 0.64008 3.29946 0 0 0
Dr 0 0 0
At SMD N 00888000
Ne 11 "DETB_A11_ADDON"
Po 3.50418 -3.2312
$EndPAD
$PAD
Sh "11" R 0.64008 3.29946 0 0 0
Dr 0 0 0
At SMD N 00888000
Ne 10 "AGND"
Po 2.50088 -3.2312
$EndPAD
$PAD
Sh "10" R 0.64008 3.29946 0 0 0
Dr 0 0 0
At SMD N 00888000
Ne 14 "GNDA"
Po 1.50266 -3.2312
$EndPAD
$PAD
Sh "5" R 0.64008 3.29946 0 0 0
Dr 0 0 0
At SMD N 00888000
Ne 18 "MEAS1B_PIN11"
Po -3.4986 -3.2312
$EndPAD
$PAD
Sh "6" R 0.64008 3.29946 0 0 0
Dr 0 0 0
At SMD N 00888000
Ne 19 "MEAS2B_PIN12"
Po -2.50038 -3.2312
$EndPAD
$PAD
Sh "8" R 0.64008 3.29946 0 0 0
Dr 0 0 0
At SMD N 00888000
Ne 1 "+5V"
Po -0.49886 -3.2312
$EndPAD
$PAD
Sh "7" R 0.64008 3.29946 0 0 0
Dr 0 0 0
At SMD N 00888000
Ne 2 "+V_meas_regulated"
Po -1.49708 -3.2312
$EndPAD
$PAD
Sh "3" R 0.64008 3.29946 0 0 0
Dr 0 0 0
At SMD N 00888000
Ne 36 "preselected ACT"
Po -5.49758 -3.2312
$EndPAD
$PAD
Sh "4" R 0.64008 3.29946 0 0 0
Dr 0 0 0
At SMD N 00888000
Ne 9 "ACTB_PIN2"
Po -4.49936 -3.2312
$EndPAD
$PAD
Sh "2" R 0.64008 3.29946 0 0 0
Dr 0 0 0
At SMD N 00888000
Ne 17 "IR_CAL"
Po -6.50088 -3.2312
$EndPAD
$PAD
Sh "1" R 0.64008 3.29946 0 0 0
Dr 0 0 0
At SMD N 00888000
Ne 16 "IRCALB_PIN10"
Po -7.4991 -3.2312
$EndPAD
$PAD
Sh "9" R 0.75946 5.00126 0 0 0
Dr 0 0 0
At SMD N 00888000
Ne 13 "GND"
Po -8.49986 -1.22968
$EndPAD
$PAD
Sh "9" R 0.75946 5.00126 0 0 0
Dr 0 0 0
At SMD N 00888000
Ne 13 "GND"
Po 8.56418 -1.22968
$EndPAD
$PAD
Sh "13" R 0.64008 3.29946 0 0 0
Dr 0 0 0
At SMD N 00888000
Ne 10 "AGND"
Po 4.50418 -3.2312
$EndPAD
$PAD
Sh "14" R 0.64008 3.29946 0 0 0
Dr 0 0 0
At SMD N 00888000
Ne 12 "DetVcc"
Po 5.50418 -3.2312
$EndPAD
$PAD
Sh "15" R 0.64008 3.29946 0 0 0
Dr 0 0 0
At SMD N 00888000
Ne 10 "AGND"
Po 6.50418 -3.2312
$EndPAD
$PAD
Sh "16" R 0.64008 3.29946 0 0 0
Dr 0 0 0
At SMD N 00888000
Ne 15 "HOLD"
Po 7.50418 -3.2312
$EndPAD
$SHAPE3D
Na "smd/conn20_smd.wrl"
Sc 0.4 0.4 0.4
Of 0 0 0
Ro 0 0 0
$EndSHAPE3D
$EndMODULE CONN16_RIBBON_SMD
$MODULE LM5111
Po 202.25 115.82 0 15 537E3E4F 00000000 ~~
Li LM5111
Sc 0
AR /521F678B
Op 0 0 0
T0 -2.1376 0.0864 0.5 0.5 900 0.125 N V 21 N "U104"
T1 0.03156 0.00512 0.5 0.5 0 0.125 N V 21 N "LM5551"
DS -0.3175 1.5875 -1.5875 0.381 0.2032 21
DS -1.5875 1.5875 1.5875 1.5875 0.2032 21
DS 1.5875 1.5875 1.5875 -1.5875 0.2032 21
DS 1.5875 -1.5875 -1.5875 -1.5875 0.2032 21
DS -1.5875 -1.5875 -1.5875 1.5875 0.2032 21
$PAD
Sh "1" R 0.381 1.27 0 0 0
Dr 0 0 0
At SMD N 00888000
Ne 0 ""
Po -0.97536 2.159
$EndPAD
$PAD
Sh "2" R 0.381 1.27 0 0 0
Dr 0 0 0
At SMD N 00888000
Ne 18 "MEAS1B_PIN11"
Po -0.32512 2.159
$EndPAD
$PAD
Sh "3" R 0.381 1.27 0 0 0
Dr 0 0 0
At SMD N 00888000
Ne 14 "GNDA"
Po 0.32512 2.159
$EndPAD
$PAD
Sh "4" R 0.381 1.27 0 0 0
Dr 0 0 0
At SMD N 00888000
Ne 19 "MEAS2B_PIN12"
Po 0.97536 2.159
$EndPAD
$PAD
Sh "5" R 0.381 1.27 0 0 0
Dr 0 0 0
At SMD N 00888000
Ne 20 "N-000001"
Po 0.97536 -2.159
$EndPAD
$PAD
Sh "6" R 0.381 1.27 0 0 0
Dr 0 0 0
At SMD N 00888000
Ne 1 "+5V"
Po 0.32512 -2.159
$EndPAD
$PAD
Sh "7" R 0.381 1.27 0 0 0
Dr 0 0 0
At SMD N 00888000
Ne 25 "N-0000022"
Po -0.32512 -2.159
$EndPAD
$PAD
Sh "8" R 0.381 1.27 0 0 0
Dr 0 0 0
At SMD N 00888000
Ne 0 ""
Po -0.97536 -2.159
$EndPAD
$PAD
Sh "3" R 1.85 1.73 0 0 0
Dr 0 0 0
At SMD N 00888000
Ne 14 "GNDA"
Po 0 0
$EndPAD
$SHAPE3D
Na "smd/MSOP_8.wrl"
Sc 0.3937 0.3937 0.3937
Of 0 0 0.001
Ro 0 0 0
$EndSHAPE3D
$EndMODULE LM5111
$MODULE Luxeon_Z+
Po 211.8 90.5 0 15 53E29899 00000000 ~~
Li Luxeon_Z+
Cd Philips Lumileds Luxeon Z
Kw Luxeon Z
Sc 0
AR /5182DAE5
Op 0 0 0
T0 2.33978 -0.08584 0.5 0.5 0 0.1 N V 21 N "D104"
T1 0.036 1.95632 0.254 0.254 0 0.0381 N V 21 N "ACTB"
DS 0.55 -0.75 -0.55 0.25 0.02 21
DS 0.55 -0.75 0.55 0.25 0.02 21
DS 0.55 0.25 -0.55 0.25 0.02 21
DS -0.55 0.25 -0.55 -0.75 0.02 21
DS -0.55 -0.75 0.55 0.25 0.02 21
DS -0.55 -0.75 0.55 -0.75 0.02 21
DS -0.65 -0.85 0.65 -0.85 0.05 21
DS 0.65 -0.85 0.65 0.85 0.05 21
DS 0.65 0.85 -0.65 0.85 0.05 21
DS -0.65 0.85 -0.65 -0.85 0.05 21
$PAD
Sh "2" R 1.3 1.5 0 0 0
Dr 0 0 0
At SMD N 00888000
Ne 3 "/ACT_SAT-LED"
Po -0.775 0
$EndPAD
$PAD
Sh "1" R 1.3 1.5 0 0 0
Dr 0 0 0
At SMD N 00888000
Ne 5 "/ActVCC"
Po 0.775 0
$EndPAD
$SHAPE3D
Na "walter\\smd_leds\\luxeon_m.wrl"
Sc 1 1 1
Of 0 0 0
Ro 0 0 0
$EndSHAPE3D
$EndMODULE Luxeon_Z+
$MODULE Pin_diode_SIP_down
Po 214.88 95.53 0 15 537F5D56 00000000 F~
Li Pin_diode_SIP_down
Cd Pin photodiode flat
Kw PIN photo diode flat hammamatsu
Sc 0
AR /532C9214
Op 0 0 0
T0 -5.55606 5.95824 1.016 1.016 0 0.2032 N V 21 N "D105"
T1 0.1143 3.2385 1.016 0.889 0 0.2032 N I 21 N "PIN"
DS -2.18694 -3.5687 -3.44678 -2.32918 0.15 21
DS -2.39776 -2.2479 2.4003 2.25044 0.15 21
DS -2.39268 2.2352 2.4003 -2.25044 0.15 21
DS -2.4 -2.25 2.4 -2.25 0.15 21
DS 2.4 -2.25 2.4 2.25 0.15 21
DS 2.4 2.25 -2.4 2.25 0.15 21
DS -2.4 2.25 -2.4 -2.25 0.15 21
DS 3.5 -3.65 -3.5 -3.65 0.3048 21
DS -3.5 4.15 3.5 4.15 0.3048 21
DS -3.5 -3.65 -3.5127 4.15 0.3048 21
DS 3.5 -3.65 3.4873 4.15 0.3048 21
$PAD
Sh "1" R 1.524 2.19964 0 0 0
Dr 1.00076 0 0
At STD N 00E0FFFF
Ne 10 "AGND"
Po -2.54 7.65
$EndPAD
$PAD
Sh "2" O 1.524 2.19964 0 0 0
Dr 1.00076 0 0
At STD N 00E0FFFF
Ne 8 "/pinK"
Po 2.54 7.65
$EndPAD
$SHAPE3D
Na "walter\\pin_strip\\pin_strip_4.wrl"
Sc 1 1 1
Of 0 0 0
Ro 0 0 0
$EndSHAPE3D
$EndMODULE Pin_diode_SIP_down
$MODULE SM0402
Po 212.4148 105.5212 0 15 537E3F16 00000000 ~~
Li SM0402
Sc 0
AR /517FDF22
Op 0 0 0
At SMD
T0 0.28988 -0.68524 0.35052 0.3048 0 0.07112 N V 21 N "R114"
T1 0.02826 0.02088 0.35052 0.3048 900 0.07112 N I 21 N "1K"
DS -0.254 -0.381 -0.762 -0.381 0.07112 21
DS -0.762 -0.381 -0.762 0.381 0.07112 21
DS -0.762 0.381 -0.254 0.381 0.07112 21
DS 0.254 -0.381 0.762 -0.381 0.07112 21
DS 0.762 -0.381 0.762 0.381 0.07112 21
DS 0.762 0.381 0.254 0.381 0.07112 21
$PAD
Sh "1" R 0.39878 0.59944 0 0 0
Dr 0 0 0
At SMD N 00888000
Ne 10 "AGND"
Po -0.44958 0
$EndPAD
$PAD
Sh "2" R 0.39878 0.59944 0 0 0
Dr 0 0 0
At SMD N 00888000
Ne 29 "N-0000037"
Po 0.44958 0
$EndPAD
$SHAPE3D
Na "smd\\chip_cms.wrl"
Sc 0.05 0.05 0.05
Of 0 0 0.002
Ro 0 0 0
$EndSHAPE3D
$EndMODULE SM0402
$MODULE SM0805
Po 195.8848 102.0572 0 15 5091495C 00000000 ~~
Li SM0805
Sc 0
AR /53FBA377
Op 0 0 0
At SMD
T0 0 -0.3175 0.50038 0.50038 0 0.10922 N V 21 N "C2"
T1 0 0.381 0.50038 0.50038 0 0.10922 N V 21 N "10u"
DC -1.651 0.762 -1.651 0.635 0.09906 21
DS -0.508 0.762 -1.524 0.762 0.09906 21
DS -1.524 0.762 -1.524 -0.762 0.09906 21
DS -1.524 -0.762 -0.508 -0.762 0.09906 21
DS 0.508 -0.762 1.524 -0.762 0.09906 21
DS 1.524 -0.762 1.524 0.762 0.09906 21
DS 1.524 0.762 0.508 0.762 0.09906 21
$PAD
Sh "1" R 0.889 1.397 0 0 0
Dr 0 0 0
At SMD N 00888000
Ne 5 "/ActVCC"
Po -0.9525 0
$EndPAD
$PAD
Sh "2" R 0.889 1.397 0 0 0
Dr 0 0 0
At SMD N 00888000
Ne 13 "GND"
Po 0.9525 0
$EndPAD
$SHAPE3D
Na "smd/chip_cms.wrl"
Sc 0.1 0.1 0.1
Of 0 0 0
Ro 0 0 0
$EndSHAPE3D
$EndMODULE SM0805
$MODULE SM1206
Po 214.92 103.3 0 15 537E3EFF 00000000 ~~
Li SM1206
Sc 0
AR /521F7EBE
Op 0 0 0
At SMD
T0 -2.1318 -1.9833 0.4 0.4 900 0.1 N V 21 N "C115"
T1 -0.04138 0.01314 0.762 0.762 900 0.127 N I 21 N "0.1u"
DS -2.54 -1.143 -2.54 1.143 0.127 21
DS -2.54 1.143 -0.889 1.143 0.127 21
DS 0.889 -1.143 2.54 -1.143 0.127 21
DS 2.54 -1.143 2.54 1.143 0.127 21
DS 2.54 1.143 0.889 1.143 0.127 21
DS -0.889 -1.143 -2.54 -1.143 0.127 21
$PAD
Sh "1" R 1.524 2.032 0 0 0
Dr 0 0 0
At SMD N 00888000
Ne 8 "/pinK"
Po -1.651 0
$EndPAD
$PAD
Sh "2" R 1.524 2.032 0 0 0
Dr 0 0 0
At SMD N 00888000
Ne 29 "N-0000037"
Po 1.651 0
$EndPAD
$SHAPE3D
Na "smd/chip_cms.wrl"
Sc 0.17 0.16 0.16
Of 0 0 0
Ro 0 0 0
$EndSHAPE3D
$EndMODULE SM1206
$MODULE SM1210
Po 197.56 110.23 0 15 537F5B27 00000000 ~~
Li SM1210
Kw CMS SM
Sc 0
AR /5182E98C
Op 0 0 0
At SMD
T0 2.79266 -1.91932 0.762 0.762 0 0.127 N V 21 N "R101"
T1 -0.20962 -0.30388 0.762 0.762 900 0.127 N V 21 N "300"
DC -2.413 1.524 -2.286 1.397 0.127 21
DS -0.762 -1.397 -2.286 -1.397 0.127 21
DS -2.286 -1.397 -2.286 1.397 0.127 21
DS -2.286 1.397 -0.762 1.397 0.127 21
DS 0.762 1.397 2.286 1.397 0.127 21
DS 2.286 1.397 2.286 -1.397 0.127 21
DS 2.286 -1.397 0.762 -1.397 0.127 21
$PAD
Sh "1" R 1.27 2.54 0 0 0
Dr 0 0 0
At SMD N 00888000
Ne 23 "N-0000015"
Po -1.524 0
$EndPAD
$PAD
Sh "2" R 1.27 2.54 0 0 0
Dr 0 0 0
At SMD N 00888000
Ne 2 "+V_meas_regulated"
Po 1.524 0
$EndPAD
$SHAPE3D
Na "smd/chip_cms.wrl"
Sc 0.17 0.2 0.17
Of 0 0 0
Ro 0 0 0
$EndSHAPE3D
$EndMODULE SM1210
$MODULE SO8E
Po 191.95 104.34 0 15 4F33A5C7 00000000 ~~
Li SO8E
Cd module CMS SOJ 8 pins etroit
Kw CMS SOJ
Sc 0
AR /51801A7B
Op 0 0 0
At SMD
T0 0 -0.889 1.143 1.143 0 0.1524 N V 21 N "U103"
T1 0 1.016 0.889 0.889 0 0.1524 N V 21 N "OPA2180"
DS -2.667 1.778 -2.667 1.905 0.127 21
DS -2.667 1.905 2.667 1.905 0.127 21
DS 2.667 -1.905 -2.667 -1.905 0.127 21
DS -2.667 -1.905 -2.667 1.778 0.127 21
DS -2.667 -0.508 -2.159 -0.508 0.127 21
DS -2.159 -0.508 -2.159 0.508 0.127 21
DS -2.159 0.508 -2.667 0.508 0.127 21
DS 2.667 -1.905 2.667 1.905 0.127 21
$PAD
Sh "8" R 0.59944 1.39954 0 0 0
Dr 0 0 0
At SMD N 00888000
Ne 5 "/ActVCC"
Po -1.905 -2.667
$EndPAD
$PAD
Sh "1" R 0.59944 1.39954 0 0 0
Dr 0 0 0
At SMD N 00888000
Ne 31 "N-000004"
Po -1.905 2.667
$EndPAD
$PAD
Sh "7" R 0.59944 1.39954 0 0 0
Dr 0 0 0
At SMD N 00888000
Ne 7 "/calibration_LED"
Po -0.635 -2.667
$EndPAD
$PAD
Sh "6" R 0.59944 1.39954 0 0 0
Dr 0 0 0
At SMD N 00888000
Ne 26 "N-0000027"
Po 0.635 -2.667
$EndPAD
$PAD
Sh "5" R 0.59944 1.39954 0 0 0
Dr 0 0 0
At SMD N 00888000
Ne 34 "N-000007"
Po 1.905 -2.667
$EndPAD
$PAD
Sh "2" R 0.59944 1.39954 0 0 0
Dr 0 0 0
At SMD N 00888000
Ne 4 "/ACT_SAT_FB"
Po -0.635 2.667
$EndPAD
$PAD
Sh "3" R 0.59944 1.39954 0 0 0
Dr 0 0 0
At SMD N 00888000
Ne 6 "/actinic_switched"
Po 0.635 2.667
$EndPAD
$PAD
Sh "4" R 0.59944 1.39954 0 0 0
Dr 0 0 0
At SMD N 00888000
Ne 13 "GND"
Po 1.905 2.667
$EndPAD
$SHAPE3D
Na "smd/cms_so8.wrl"
Sc 0.5 0.32 0.5
Of 0 0 0
Ro 0 0 0
$EndSHAPE3D
$EndMODULE SO8E
$MODULE sc70-6
Po 212.09476 107.50748 0 15 537E3F55 00000000 ~~
Li sc70-6
Cd SC70-6
Sc 0
AR /51E446D8
Op 0 0 0
T0 -0.49498 1.77094 0.29972 0.29972 0 0.06096 N V 21 N "U105"
T1 0.03842 -0.2636 0.29972 0.29972 0 0.06096 N I 21 N "LMH6601"
DS 0 -0.6477 0 -1.2065 0.127 21
DS -0.4445 0.6477 -1.1049 -0.0127 0.127 21
DS -0.5969 0.6477 -1.1049 0.1524 0.127 21
DS 0.6477 -0.6477 0.6477 -1.2065 0.127 21
DS -0.6477 -0.6477 -0.6477 -1.2065 0.127 21
DS 0 0.6477 0 1.2065 0.127 21
DS 0.6477 0.6477 0.6477 1.2065 0.127 21
DS -0.6477 0.6477 -0.6477 1.2065 0.127 21
DS -1.1049 -0.6477 1.1049 -0.6477 0.127 21
DS 1.1049 -0.6477 1.1049 0.6477 0.127 21
DS 1.1049 0.6477 -1.1049 0.6477 0.127 21
DS -1.1049 0.6477 -1.1049 -0.6477 0.127 21
$PAD
Sh "1" R 0.4064 0.6604 0 0 0
Dr 0 0 0
At SMD N 00888000
Ne 30 "N-0000039"
Po -0.6604 1.016
$EndPAD
$PAD
Sh "3" R 0.4064 0.6604 0 0 0
Dr 0 0 0
At SMD N 00888000
Ne 10 "AGND"
Po 0.6604 1.016
$EndPAD
$PAD
Sh "2" R 0.4064 0.6604 0 0 0
Dr 0 0 0
At SMD N 00888000
Ne 10 "AGND"
Po 0 1.016
$EndPAD
$PAD
Sh "4" R 0.4064 0.6604 0 0 0
Dr 0 0 0
At SMD N 00888000
Ne 29 "N-0000037"
Po 0.6604 -1.016
$EndPAD
$PAD
Sh "6" R 0.4064 0.6604 0 0 0
Dr 0 0 0
At SMD N 00888000
Ne 12 "DetVcc"
Po -0.6604 -1.016
$EndPAD
$PAD
Sh "5" R 0.4064 0.6604 0 0 0
Dr 0 0 0
At SMD N 00888000
Ne 12 "DetVcc"
Po 0 -1.016
$EndPAD
$SHAPE3D
Na "walter\\smd_trans\\sc70-6.wrl"
Sc 1 1 1
Of 0 0 0
Ro 0 0 0
$EndSHAPE3D
$EndMODULE sc70-6
$MODULE sod323
Po 214.02516 109.38708 0 15 537E3F33 00000000 ~~
Li sod323
Cd SOD323
Sc 0
AR /52FD032F
Op 0 0 0
T0 -0.53142 -1.00806 0.39878 0.39878 0 0.09906 N V 21 N "D106"
T1 0.01976 0.2848 0.39878 0.39878 900 0.09906 N I 21 N "DIODE"
DS 0.8001 -0.70104 0.8001 0.70104 0.127 21
DS 0.70104 0.70104 0.70104 -0.70104 0.127 21
DS 0.59944 -0.70104 0.59944 0.70104 0.127 21
DS 0.50038 -0.70104 0.50038 0.70104 0.127 21
DS 0.89916 -0.70104 -0.89916 -0.70104 0.127 21
DS -0.89916 -0.70104 -0.89916 0.70104 0.127 21
DS -0.89916 0.70104 0.89916 0.70104 0.127 21
DS 0.89916 0.70104 0.89916 -0.70104 0.127 21
$PAD
Sh "2" R 1.00076 0.59944 0 0 0
Dr 0 0 0
At SMD N 00888000
Ne 21 "N-0000010"
Po 1.09982 0
$EndPAD
$PAD
Sh "1" R 1.00076 0.59944 0 0 0
Dr 0 0 0
At SMD N 00888000
Ne 30 "N-0000039"
Po -1.09982 0
$EndPAD
$SHAPE3D
Na "walter\\smd_diode\\sod323.wrl"
Sc 1 1 1
Of 0 0 0
Ro 0 0 0
$EndSHAPE3D
$EndMODULE sod323
$MODULE sot23-6
Po 216.46864 107.46176 0 15 537F5B4D 00000000 ~~
Li sot23-6
Cd SOT23-6
Sc 0
AR /53039D0D
Op 0 0 0
T0 -2.29814 -0.80042 0.50038 0.50038 900 0.09906 N V 21 N "U101"
T1 0.01072 -0.03842 0.50038 0.50038 0 0.09906 N I 21 N "SPST_SW_ADG701"
DS -0.8509 0.6985 -1.4986 0.0508 0.127 21
DS -1.0033 0.6985 -1.4986 0.2032 0.127 21
DS 0 -0.6985 0 -1.3589 0.127 21
DS 0.9525 -0.6985 0.9525 -1.3589 0.127 21
DS -0.9525 -0.6985 -0.9525 -1.3589 0.127 21
DS 0 0.6985 0 1.3589 0.127 21
DS 0.9525 0.6985 0.9525 1.3589 0.127 21
DS -0.9525 0.6985 -0.9525 1.3589 0.127 21
DS -1.4986 -0.6985 1.4986 -0.6985 0.127 21
DS 1.4986 -0.6985 1.4986 0.6985 0.127 21
DS 1.4986 0.6985 -1.4986 0.6985 0.127 21
DS -1.4986 0.6985 -1.4986 -0.6985 0.127 21
$PAD
Sh "1" R 0.59944 1.00076 0 0 0
Dr 0 0 0
At SMD N 00888000
Ne 29 "N-0000037"
Po -0.9525 1.05664
$EndPAD
$PAD
Sh "3" R 0.59944 1.00076 0 0 0
Dr 0 0 0
At SMD N 00888000
Ne 10 "AGND"
Po 0.9525 1.05664
$EndPAD
$PAD
Sh "2" R 0.59944 1.00076 0 0 0
Dr 0 0 0
At SMD N 00888000
Ne 21 "N-0000010"
Po 0 1.05664
$EndPAD
$PAD
Sh "4" R 0.59944 1.00076 0 0 0
Dr 0 0 0
At SMD N 00888000
Ne 28 "N-0000034"
Po 0.9525 -1.05664
$EndPAD
$PAD
Sh "6" R 0.59944 1.00076 0 0 0
Dr 0 0 0
At SMD N 00888000
Ne 12 "DetVcc"
Po -0.9525 -1.05664
$EndPAD
$PAD
Sh "5" R 0.59944 1.00076 0 0 0
Dr 0 0 0
At SMD N 00888000
Ne 0 ""
Po 0 -1.05664
$EndPAD
$SHAPE3D
Na "walter\\smd_trans\\sot23-6.wrl"
Sc 1 1 1
Of 0 0 0
Ro 0 0 0
$EndSHAPE3D
$EndMODULE sot23-6
$EndLIBRARY
