(module bridge_2KBP (layer F.Cu) (tedit 4B90E0D7)
  (descr "diode bridge, 2KBP series")
  (fp_text reference bridge_2KBP (at 0 -3.81) (layer F.SilkS)
    (effects (font (thickness 0.3048)))
  )
  (fp_text value DB*** (at 0 4.191) (layer F.SilkS) hide
    (effects (font (thickness 0.3048)))
  )
  (fp_line (start 6.604 -1.651) (end 5.588 -1.651) (layer F.SilkS) (width 0.3048))
  (fp_line (start -4.445 -1.651) (end -5.461 -1.651) (layer F.SilkS) (width 0.3048))
  (fp_line (start -4.953 -2.159) (end -4.953 -1.143) (layer F.SilkS) (width 0.3048))
  (fp_line (start -6.096 -2.413) (end -6.096 2.667) (layer F.SilkS) (width 0.3048))
  (fp_line (start 7.62 2.667) (end -7.62 2.667) (layer F.SilkS) (width 0.3048))
  (fp_line (start -7.62 2.667) (end -7.62 -2.413) (layer F.SilkS) (width 0.3048))
  (fp_line (start -7.62 -2.413) (end 7.62 -2.413) (layer F.SilkS) (width 0.3048))
  (fp_line (start 7.62 -2.413) (end 7.62 2.667) (layer F.SilkS) (width 0.3048))
  (fp_arc (start -2.413 -1.651) (end -2.413 -2.032) (angle 90) (layer F.SilkS) (width 0.254))
  (fp_arc (start -2.413 -1.651) (end -2.794 -1.651) (angle 90) (layer F.SilkS) (width 0.254))
  (fp_arc (start -1.651 -1.651) (end -1.651 -1.27) (angle 90) (layer F.SilkS) (width 0.254))
  (fp_arc (start -1.651 -1.651) (end -1.27 -1.651) (angle 90) (layer F.SilkS) (width 0.254))
  (fp_arc (start 2.413 -1.651) (end 2.794 -1.651) (angle 90) (layer F.SilkS) (width 0.254))
  (fp_arc (start 2.413 -1.651) (end 2.413 -1.27) (angle 90) (layer F.SilkS) (width 0.254))
  (fp_arc (start 1.651 -1.651) (end 1.27 -1.651) (angle 90) (layer F.SilkS) (width 0.254))
  (fp_arc (start 1.651 -1.651) (end 1.651 -2.032) (angle 90) (layer F.SilkS) (width 0.254))
  (pad 1 thru_hole rect (at -6.096 0) (size 1.99898 1.99898) (drill 1.24968) (layers *.Cu *.Mask F.SilkS))
  (pad 2 thru_hole circle (at -2.032 0) (size 1.99898 1.99898) (drill 1.24968) (layers *.Cu *.Mask F.SilkS))
  (pad 3 thru_hole circle (at 2.032 0) (size 1.99898 1.99898) (drill 1.24968) (layers *.Cu *.Mask F.SilkS))
  (pad 4 thru_hole circle (at 6.096 0) (size 1.99898 1.99898) (drill 1.24968) (layers *.Cu *.Mask F.SilkS))
  (model walter\pth_diodes\db_2KBP.wrl
    (at (xyz 0 0 0))
    (scale (xyz 1 1 1))
    (rotate (xyz 0 0 0))
  )
)
