(module c_0402 (layer F.Cu) (tedit 49047259)
  (descr "SMT capacitor, 0402")
  (fp_text reference c_0402 (at 0 -0.4826) (layer F.SilkS)
    (effects (font (size 0.1524 0.1524) (thickness 0.03048)))
  )
  (fp_text value C*** (at 0 0.4826) (layer F.SilkS) hide
    (effects (font (size 0.1524 0.1524) (thickness 0.03048)))
  )
  (fp_line (start 0.3302 -0.2794) (end 0.3302 0.2794) (layer F.SilkS) (width 0.127))
  (fp_line (start -0.3302 -0.2794) (end -0.3302 0.2794) (layer F.SilkS) (width 0.127))
  (fp_line (start -0.5334 -0.2794) (end -0.5334 0.2794) (layer F.SilkS) (width 0.127))
  (fp_line (start -0.5334 0.2794) (end 0.5334 0.2794) (layer F.SilkS) (width 0.127))
  (fp_line (start 0.5334 0.2794) (end 0.5334 -0.2794) (layer F.SilkS) (width 0.127))
  (fp_line (start 0.5334 -0.2794) (end -0.5334 -0.2794) (layer F.SilkS) (width 0.127))
  (pad 1 smd rect (at 0.54864 0) (size 0.8001 0.6985) (layers F.Cu F.Paste F.Mask))
  (pad 2 smd rect (at -0.54864 0) (size 0.8001 0.6985) (layers F.Cu F.Paste F.Mask))
  (model walter\smd_cap\c_0402.wrl
    (at (xyz 0 0 0))
    (scale (xyz 1 1 1))
    (rotate (xyz 0 0 0))
  )
)
