(module c_elec_4x4.5 (layer F.Cu) (tedit 49F5A3C5)
  (descr "SMT capacitor, aluminium electrolytic, 4x4.5")
  (fp_text reference c_elec_4x4.5 (at 0 -2.794) (layer F.SilkS)
    (effects (font (size 0.50038 0.50038) (thickness 0.11938)))
  )
  (fp_text value C*** (at 0 2.794) (layer F.SilkS) hide
    (effects (font (size 0.50038 0.50038) (thickness 0.11938)))
  )
  (fp_line (start 1.651 0) (end 0.889 0) (layer F.SilkS) (width 0.127))
  (fp_line (start 1.27 -0.381) (end 1.27 0.381) (layer F.SilkS) (width 0.127))
  (fp_line (start 1.524 2.286) (end -2.286 2.286) (layer F.SilkS) (width 0.127))
  (fp_line (start 2.286 -1.524) (end 2.286 1.524) (layer F.SilkS) (width 0.127))
  (fp_line (start 1.524 2.286) (end 2.286 1.524) (layer F.SilkS) (width 0.127))
  (fp_line (start 1.524 -2.286) (end -2.286 -2.286) (layer F.SilkS) (width 0.127))
  (fp_line (start 1.524 -2.286) (end 2.286 -1.524) (layer F.SilkS) (width 0.127))
  (fp_line (start -2.032 0.127) (end -2.032 -0.127) (layer F.SilkS) (width 0.127))
  (fp_line (start -1.905 -0.635) (end -1.905 0.635) (layer F.SilkS) (width 0.127))
  (fp_line (start -1.778 0.889) (end -1.778 -0.889) (layer F.SilkS) (width 0.127))
  (fp_line (start -1.651 1.143) (end -1.651 -1.143) (layer F.SilkS) (width 0.127))
  (fp_line (start -1.524 -1.27) (end -1.524 1.27) (layer F.SilkS) (width 0.127))
  (fp_line (start -1.397 1.397) (end -1.397 -1.397) (layer F.SilkS) (width 0.127))
  (fp_line (start -1.27 -1.524) (end -1.27 1.524) (layer F.SilkS) (width 0.127))
  (fp_line (start -1.143 -1.651) (end -1.143 1.651) (layer F.SilkS) (width 0.127))
  (fp_circle (center 0 0) (end -2.032 0) (layer F.SilkS) (width 0.127))
  (fp_line (start -2.286 -2.286) (end -2.286 2.286) (layer F.SilkS) (width 0.127))
  (pad 1 smd rect (at 1.80086 0) (size 2.60096 1.6002) (layers F.Cu F.Paste F.Mask))
  (pad 2 smd rect (at -1.80086 0) (size 2.60096 1.6002) (layers F.Cu F.Paste F.Mask))
  (model walter\smd_cap\c_elec_4x4_5.wrl
    (at (xyz 0 0 0))
    (scale (xyz 1 1 1))
    (rotate (xyz 0 0 0))
  )
)
