(module c_tant_X (layer F.Cu) (tedit 4D5D9149)
  (descr "SMT capacitor, tantalum size X")
  (fp_text reference c_tant_X (at 0 -2.7305) (layer F.SilkS)
    (effects (font (size 0.50038 0.50038) (thickness 0.11938)))
  )
  (fp_text value C*** (at 0 2.7305) (layer F.SilkS) hide
    (effects (font (size 0.50038 0.50038) (thickness 0.11938)))
  )
  (fp_line (start 2.54 -2.159) (end 2.54 2.159) (layer F.SilkS) (width 0.127))
  (fp_line (start -3.683 -2.159) (end -3.683 2.159) (layer F.SilkS) (width 0.127))
  (fp_line (start -3.683 2.159) (end 3.683 2.159) (layer F.SilkS) (width 0.127))
  (fp_line (start 3.683 2.159) (end 3.683 -2.159) (layer F.SilkS) (width 0.127))
  (fp_line (start 3.683 -2.159) (end -3.683 -2.159) (layer F.SilkS) (width 0.127))
  (pad 1 smd rect (at 2.99974 0) (size 2.55016 2.70002) (layers F.Cu F.Paste F.Mask))
  (pad 2 smd rect (at -2.99974 0) (size 2.55016 3.79984) (layers F.Cu F.Paste F.Mask))
  (model walter\smd_cap\c_tant_X.wrl
    (at (xyz 0 0 0))
    (scale (xyz 1 1 1))
    (rotate (xyz 0 0 0))
  )
)
