(module CO2S8 (layer F.Cu) (tedit 51E4527C)
  (descr http://co2meters.com/Documentation/Datasheets/DS-S8-PSP1081.pdf)
  (tags "CO2, monitor, S8")
  (attr smd)
  (fp_text reference CO2S8 (at -0.04064 -1.11506) (layer F.SilkS)
    (effects (font (size 0.762 0.762) (thickness 0.127)))
  )
  (fp_text value VAL** (at 0.0127 1.58242) (layer F.SilkS)
    (effects (font (size 0.762 0.762) (thickness 0.127)))
  )
  (fp_text user "Bottom WIEW" (at -0.00254 -3.7973) (layer F.SilkS)
    (effects (font (size 0.762 0.762) (thickness 0.127)))
  )
  (fp_line (start 13.15 -6.62) (end 16.15 -6.62) (layer F.SilkS) (width 0.15))
  (fp_line (start 16.15 -6.62) (end 16.15 6.1087) (layer F.SilkS) (width 0.15))
  (fp_line (start 16.15 6.1087) (end 13.15 6.1087) (layer F.SilkS) (width 0.15))
  (fp_line (start -13.15 3.54) (end -16.15 3.54) (layer F.SilkS) (width 0.15))
  (fp_line (start -16.15 -6.62) (end -16.15 3.54) (layer F.SilkS) (width 0.15))
  (fp_line (start -16.15 -6.62) (end -13.15 -6.62) (layer F.SilkS) (width 0.15))
  (fp_line (start -13.15 -9.8) (end 13.15 -9.8) (layer F.SilkS) (width 0.15))
  (fp_line (start 13.15 -9.8) (end 13.15 9.8) (layer F.SilkS) (width 0.15))
  (fp_line (start 13.15 9.8) (end -13.15 9.8) (layer F.SilkS) (width 0.15))
  (fp_line (start -13.15 9.8) (end -13.15 -9.8) (layer F.SilkS) (width 0.15))
  (pad 1 thru_hole circle (at -14.85 -5.35) (size 1.8 1.8) (drill 1) (layers *.Cu *.Mask F.SilkS))
  (pad 2 thru_hole circle (at -14.85 -2.81) (size 1.8 1.8) (drill 1) (layers *.Cu *.Mask F.SilkS))
  (pad 3 thru_hole circle (at -14.85 -0.27) (size 1.8 1.8) (drill 1) (layers *.Cu *.Mask F.SilkS))
  (pad 4 thru_hole circle (at -14.85 2.27) (size 1.8 1.8) (drill 1) (layers *.Cu *.Mask F.SilkS))
  (pad 5 thru_hole circle (at 14.85 4.81) (size 1.8 1.8) (drill 1) (layers *.Cu *.Mask F.SilkS))
  (pad 6 thru_hole circle (at 14.85 2.27) (size 1.8 1.8) (drill 1) (layers *.Cu *.Mask F.SilkS))
  (pad 7 thru_hole circle (at 14.85 -0.27) (size 1.8 1.8) (drill 1) (layers *.Cu *.Mask F.SilkS))
  (pad 8 thru_hole circle (at 14.85 -2.81) (size 1.8 1.8) (drill 1) (layers *.Cu *.Mask F.SilkS))
  (pad 9 thru_hole circle (at 14.85 -5.35) (size 1.8 1.8) (drill 1) (layers *.Cu *.Mask F.SilkS))
)
