(module conn_usb_A-vert (layer F.Cu) (tedit 4F088106)
  (descr "USB A-type vertical receptacle, Tyco P/N 440260-2")
  (fp_text reference conn_usb_A-vert (at 0 11.176) (layer F.SilkS)
    (effects (font (thickness 0.3048)))
  )
  (fp_text value JP*** (at 0 -11.176) (layer F.SilkS)
    (effects (font (thickness 0.3048)))
  )
  (fp_line (start 3.937 9.652) (end -3.937 9.652) (layer F.SilkS) (width 0.381))
  (fp_line (start -3.937 9.398) (end -3.937 9.906) (layer F.SilkS) (width 0.381))
  (fp_line (start -3.937 9.906) (end 3.937 9.906) (layer F.SilkS) (width 0.381))
  (fp_line (start 3.937 9.906) (end 3.937 9.398) (layer F.SilkS) (width 0.381))
  (fp_line (start 3.937 9.398) (end -3.937 9.398) (layer F.SilkS) (width 0.381))
  (fp_line (start 2.921 -9.652) (end -2.921 -9.652) (layer F.SilkS) (width 0.381))
  (fp_line (start -2.921 -9.652) (end -2.921 9.652) (layer F.SilkS) (width 0.381))
  (fp_line (start 2.921 9.652) (end 2.921 -9.652) (layer F.SilkS) (width 0.381))
  (pad "" thru_hole circle (at -2.72034 -9.29894) (size 2.19964 2.19964) (drill 1.30048) (layers *.Cu))
  (pad "" thru_hole circle (at 2.72034 -9.29894) (size 2.19964 2.19964) (drill 1.30048) (layers *.Cu))
  (pad 1 thru_hole circle (at 0 -3.03022) (size 1.50114 1.50114) (drill 0.89916) (layers *.Cu))
  (pad 2 thru_hole circle (at 0 -5.0292) (size 1.50114 1.50114) (drill 0.89916) (layers *.Cu))
  (pad 3 thru_hole circle (at 0 -7.03072) (size 1.50114 1.50114) (drill 0.89916) (layers *.Cu))
  (pad 4 thru_hole circle (at 0 -9.0297) (size 1.50114 1.50114) (drill 0.89916) (layers *.Cu))
  (pad "" thru_hole circle (at 2.72034 -2.30124) (size 2.19964 2.19964) (drill 1.30048) (layers *.Cu))
  (pad "" thru_hole circle (at -2.72034 -2.30124) (size 2.19964 2.19964) (drill 1.30048) (layers *.Cu))
  (model walter\conn_pc\usb_A_vert.wrl
    (at (xyz 0 0 0))
    (scale (xyz 1 1 1))
    (rotate (xyz 0 0 0))
  )
)
