(module Conn2X2_0.1 (layer F.Cu) (tedit 565F74BC)
  (descr "Through hole socket strip")
  (tags "socket strip")
  (fp_text reference BT1 (at 0 -5.1) (layer F.SilkS)
    (effects (font (size 1 1) (thickness 0.15)))
  )
  (fp_text value Battery (at 0 -3.1) (layer F.Fab)
    (effects (font (size 1 1) (thickness 0.15)))
  )
  (fp_line (start 1.27 -1.27) (end 1.27 -1.524) (layer F.SilkS) (width 0.15))
  (fp_line (start 3.81 -1.524) (end 3.81 -1.397) (layer F.SilkS) (width 0.15))
  (fp_line (start -1.27 3.81) (end 3.81 3.81) (layer F.SilkS) (width 0.15))
  (fp_line (start 1.27 -1.524) (end 3.556 -1.524) (layer F.SilkS) (width 0.15))
  (fp_line (start 3.556 -1.524) (end 3.81 -1.524) (layer F.SilkS) (width 0.15))
  (fp_line (start 3.81 -1.397) (end 3.81 3.81) (layer F.SilkS) (width 0.15))
  (fp_line (start -1.27 3.81) (end -1.27 1.27) (layer F.SilkS) (width 0.15))
  (fp_line (start 0 -1.55) (end -1.55 -1.55) (layer F.SilkS) (width 0.15))
  (fp_line (start -1.27 1.27) (end 1.27 1.27) (layer F.SilkS) (width 0.15))
  (fp_line (start 1.27 1.27) (end 1.27 -1.27) (layer F.SilkS) (width 0.15))
  (fp_line (start -1.55 -1.55) (end -1.55 0) (layer F.SilkS) (width 0.15))
  (pad 1 thru_hole rect (at 0 0) (size 1.7272 1.7272) (drill 1.016) (layers *.Cu *.Mask F.SilkS))
  (pad 2 thru_hole oval (at 0 2.54) (size 1.7272 1.7272) (drill 1.016) (layers *.Cu *.Mask F.SilkS))
  (pad 3 thru_hole oval (at 2.54 0) (size 1.7272 1.7272) (drill 1.016) (layers *.Cu *.Mask F.SilkS))
  (pad 4 thru_hole oval (at 2.54 2.54) (size 1.7272 1.7272) (drill 1.016) (layers *.Cu *.Mask F.SilkS))
  (model Socket_Strips.3dshapes/Socket_Strip_Straight_2x05.wrl
    (at (xyz 0.2 -0.05 0))
    (scale (xyz 1 1 1))
    (rotate (xyz 0 0 180))
  )
)
