(module Cree_XR (layer F.Cu) (tedit 4FA9190B)
  (descr "Cree XR")
  (fp_text reference LD? (at 0 -4.39928) (layer F.SilkS)
    (effects (font (size 1.00076 1.00076) (thickness 0.20066)))
  )
  (fp_text value Cree_XR (at 0 4.59994) (layer F.SilkS)
    (effects (font (size 1.00076 1.00076) (thickness 0.20066)))
  )
  (fp_circle (center 0 0) (end -2.79908 0) (layer F.SilkS) (width 0.381))
  (fp_circle (center 0 0) (end -3.40106 0) (layer F.SilkS) (width 0.381))
  (fp_line (start -4.50088 -3.50012) (end -4.50088 3.50012) (layer F.SilkS) (width 0.381))
  (fp_line (start -4.50088 3.50012) (end 4.50088 3.50012) (layer F.SilkS) (width 0.381))
  (fp_line (start 4.50088 3.50012) (end 4.50088 -3.50012) (layer F.SilkS) (width 0.381))
  (fp_line (start 4.50088 -3.50012) (end -4.50088 -3.50012) (layer F.SilkS) (width 0.381))
  (fp_line (start -3.8989 0.20066) (end -3.8989 -0.20066) (layer F.SilkS) (width 0.14986))
  (fp_line (start -3.69824 0) (end -4.09956 0) (layer F.SilkS) (width 0.14986))
  (pad 2 smd rect (at 3.8608 0) (size 0.29718 4.99618) (layers F.Cu F.Paste F.Mask)
    (solder_mask_margin 0.0508) (solder_paste_margin -0.0508))
  (pad 1 smd rect (at -3.8608 0) (size 0.29718 4.99618) (layers F.Cu F.Paste F.Mask)
    (solder_mask_margin 0.0508) (solder_paste_margin -0.0508))
  (pad 3 smd rect (at -0.6858 0.92456) (size 1.3716 1.84658) (layers F.Cu F.Paste F.Mask)
    (solder_mask_margin 0.0508) (solder_paste_margin -0.0508))
  (pad 3 smd rect (at -0.6858 -0.92456) (size 1.3716 1.84658) (layers F.Cu F.Paste F.Mask)
    (solder_mask_margin 0.0508) (solder_paste_margin -0.0508))
  (pad 3 smd rect (at 0.6858 -0.92456) (size 1.3716 1.84658) (layers F.Cu F.Paste F.Mask)
    (solder_mask_margin 0.0508) (solder_paste_margin -0.0508))
  (pad 3 smd rect (at 0.6858 0.92456) (size 1.3716 1.84658) (layers F.Cu F.Paste F.Mask)
    (solder_mask_margin 0.0508) (solder_paste_margin -0.0508))
  (model walter\smd_leds\cree_xr.wrl
    (at (xyz 0 0 0))
    (scale (xyz 1 1 1))
    (rotate (xyz 0 0 0))
  )
)
