(module Cree_MC-E (layer F.Cu) (tedit 4FA239C1)
  (descr "Cree MC-E")
  (fp_text reference LD** (at 0 -4.20116) (layer F.SilkS)
    (effects (font (size 0.8001 0.8001) (thickness 0.14986)))
  )
  (fp_text value Cree_MC-E (at 0 4.30022) (layer F.SilkS)
    (effects (font (size 0.8001 0.8001) (thickness 0.14986)))
  )
  (fp_circle (center 0 0) (end -3.2004 0) (layer F.SilkS) (width 0.254))
  (fp_line (start -3.79984 2.60096) (end -3.79984 -3.50012) (layer F.SilkS) (width 0.254))
  (fp_line (start -2.90068 3.50012) (end -3.79984 2.60096) (layer F.SilkS) (width 0.254))
  (fp_line (start 3.79984 3.50012) (end 3.79984 -3.50012) (layer F.SilkS) (width 0.254))
  (fp_line (start 3.79984 -3.50012) (end -3.79984 -3.50012) (layer F.SilkS) (width 0.254))
  (fp_line (start -2.90068 3.50012) (end 3.79984 3.50012) (layer F.SilkS) (width 0.254))
  (pad 3 smd rect (at -4.42976 -0.7493) (size 1.19888 1.04902) (layers F.Cu F.Paste F.Mask)
    (solder_mask_margin 0.0508))
  (pad 8 smd rect (at 4.42976 2.25044) (size 1.19888 1.04902) (layers F.Cu F.Paste F.Mask)
    (solder_mask_margin 0.0508))
  (pad 4 smd rect (at -4.42976 -2.2479) (size 1.19888 1.04902) (layers F.Cu F.Paste F.Mask)
    (solder_mask_margin 0.0508))
  (pad 7 smd rect (at 4.42976 0.7493) (size 1.19888 1.04902) (layers F.Cu F.Paste F.Mask)
    (solder_mask_margin 0.0508))
  (pad 2 smd rect (at -4.42976 0.7493) (size 1.19888 1.04902) (layers F.Cu F.Paste F.Mask)
    (solder_mask_margin 0.0508))
  (pad 1 smd rect (at -4.42976 2.25044) (size 1.19888 1.04902) (layers F.Cu F.Paste F.Mask)
    (solder_mask_margin 0.0508))
  (pad 6 smd rect (at 4.42976 -0.7493) (size 1.19888 1.04902) (layers F.Cu F.Paste F.Mask)
    (solder_mask_margin 0.0508))
  (pad 5 smd rect (at 4.42976 -2.25044) (size 1.19888 1.04902) (layers F.Cu F.Paste F.Mask)
    (solder_mask_margin 0.0508))
  (pad 9 smd rect (at 0 0) (size 1.79832 3.99796) (layers F.Cu F.Paste F.Mask)
    (solder_mask_margin 0.0508))
  (model walter\smd_leds\cree_mc-e.wrl
    (at (xyz 0 0 0))
    (scale (xyz 1 1 1))
    (rotate (xyz 0 0 0))
  )
)
