(module Cree_XM (layer F.Cu) (tedit 4F5DCFBA)
  (descr "Cree XM")
  (fp_text reference LD? (at 0 -3.0988) (layer F.SilkS)
    (effects (font (size 0.52324 0.52324) (thickness 0.09906)))
  )
  (fp_text value Cree_XM (at 0 3.2004) (layer F.SilkS)
    (effects (font (size 0.52324 0.52324) (thickness 0.09906)))
  )
  (fp_circle (center 0 0) (end -2.10058 0) (layer F.SilkS) (width 0.254))
  (fp_line (start -1.89992 -0.29972) (end -1.89992 0.29972) (layer F.SilkS) (width 0.254))
  (fp_line (start -2.19964 0) (end -1.6002 0) (layer F.SilkS) (width 0.254))
  (fp_line (start 1.69926 -1.69926) (end 2.49936 -1.69926) (layer F.SilkS) (width 0.254))
  (fp_line (start 1.69926 -1.69926) (end 1.69926 -2.49936) (layer F.SilkS) (width 0.254))
  (fp_line (start -2.49936 -1.69926) (end -1.69926 -1.69926) (layer F.SilkS) (width 0.254))
  (fp_line (start -1.69926 -1.69926) (end -1.69926 -2.49936) (layer F.SilkS) (width 0.254))
  (fp_line (start -2.49936 -2.49936) (end -2.49936 2.49936) (layer F.SilkS) (width 0.254))
  (fp_line (start -2.49936 2.49936) (end 2.49936 2.49936) (layer F.SilkS) (width 0.254))
  (fp_line (start 2.49936 2.49936) (end 2.49936 -2.49936) (layer F.SilkS) (width 0.254))
  (fp_line (start 2.49936 -2.49936) (end -2.49936 -2.49936) (layer F.SilkS) (width 0.254))
  (pad 2 smd rect (at 2.14884 0) (size 0.50038 4.8006) (layers F.Cu F.Paste F.Mask)
    (solder_mask_margin 0.0508) (solder_paste_margin -0.0508))
  (pad 1 smd rect (at -2.14884 0) (size 0.50038 4.8006) (layers F.Cu F.Paste F.Mask)
    (solder_mask_margin 0.0508) (solder_paste_margin -0.0508))
  (pad 3 smd rect (at 0 0) (size 2.7813 4.8006) (layers F.Cu F.Paste F.Mask)
    (solder_mask_margin 0.0508) (solder_paste_margin -0.0508))
  (pad 1 smd rect (at -2.58064 0) (size 0.39878 0.50038) (layers F.Cu F.Mask)
    (solder_mask_margin 0.0508) (solder_paste_margin -0.0508))
  (pad 2 smd rect (at 2.58064 0) (size 0.39878 0.50038) (layers F.Cu F.Mask)
    (solder_mask_margin 0.0508) (solder_paste_margin -0.0508))
  (model walter\smd_leds\cree_xm.wrl
    (at (xyz 0 0 0))
    (scale (xyz 1 1 1))
    (rotate (xyz 0 0 0))
  )
)
