(module DFN-10-1EP_2x2mm_Pitch0.4mm (layer F.Cu) (tedit 5665AB90)
  (tags "DFN, 0.4, 2x2mm")
  (attr smd)
  (fp_text reference U6 (at -1.9 -1.3) (layer F.SilkS)
    (effects (font (size 0.4 0.4) (thickness 0.1)))
  )
  (fp_text value MCP4728 (at 0 0 90) (layer F.Fab)
    (effects (font (size 0.3 0.3) (thickness 0.06)))
  )
  (fp_circle (center -1.5 -0.8) (end -1.4 -0.8) (layer F.SilkS) (width 0.15))
  (fp_line (start -1.4 -1.35) (end -1.4 1.35) (layer F.CrtYd) (width 0.05))
  (fp_line (start 1.4 -1.35) (end 1.4 1.35) (layer F.CrtYd) (width 0.05))
  (fp_line (start -1.4 -1.35) (end 1.4 -1.35) (layer F.CrtYd) (width 0.05))
  (fp_line (start -1.4 1.35) (end 1.4 1.35) (layer F.CrtYd) (width 0.05))
  (fp_line (start -0.65 1.15) (end 0.65 1.15) (layer F.SilkS) (width 0.15))
  (fp_line (start -1.225 -1.15) (end 0.65 -1.15) (layer F.SilkS) (width 0.15))
  (pad 1 smd rect (at -0.9 -0.8) (size 0.7 0.23) (layers F.Cu F.Paste F.Mask))
  (pad 2 smd rect (at -0.9 -0.4) (size 0.7 0.23) (layers F.Cu F.Paste F.Mask))
  (pad 3 smd rect (at -0.9 0) (size 0.7 0.23) (layers F.Cu F.Paste F.Mask))
  (pad 4 smd rect (at -0.9 0.4) (size 0.7 0.23) (layers F.Cu F.Paste F.Mask))
  (pad 5 smd rect (at -0.9 0.8) (size 0.7 0.23) (layers F.Cu F.Paste F.Mask))
  (pad 6 smd rect (at 0.8 0.8) (size 0.7 0.23) (layers F.Cu F.Paste F.Mask))
  (pad 7 smd rect (at 0.8 0.4) (size 0.7 0.23) (layers F.Cu F.Paste F.Mask))
  (pad 8 smd rect (at 0.8 0) (size 0.7 0.23) (layers F.Cu F.Paste F.Mask))
  (pad 9 smd rect (at 0.8 -0.4) (size 0.7 0.23) (layers F.Cu F.Paste F.Mask))
  (pad 10 smd rect (at 0.8 -0.8) (size 0.7 0.23) (layers F.Cu F.Paste F.Mask))
  (model Housings_DFN_QFN.3dshapes/DFN-8-1EP_2x2mm_Pitch0.5mm.wrl
    (at (xyz 0 0 0))
    (scale (xyz 1 1 1))
    (rotate (xyz 0 0 0))
  )
)
