(module do214ac (layer F.Cu) (tedit 51101973)
  (descr DO214AC)
  (fp_text reference DO214AC (at 0 -1.9685) (layer F.SilkS)
    (effects (font (size 0.50038 0.50038) (thickness 0.11938)))
  )
  (fp_text value D*** (at 0 1.9685) (layer F.SilkS) hide
    (effects (font (size 0.50038 0.50038) (thickness 0.11938)))
  )
  (fp_line (start 2.10058 1.39954) (end 2.10058 -1.39954) (layer F.SilkS) (width 0.127))
  (fp_line (start 1.99898 -1.39954) (end 1.99898 1.39954) (layer F.SilkS) (width 0.127))
  (fp_line (start 1.89992 1.39954) (end 1.89992 -1.39954) (layer F.SilkS) (width 0.127))
  (fp_line (start 1.80086 -1.39954) (end 1.80086 1.39954) (layer F.SilkS) (width 0.127))
  (fp_line (start 1.69926 -1.39954) (end 1.69926 1.39954) (layer F.SilkS) (width 0.127))
  (fp_line (start 2.19964 -1.39954) (end -2.19964 -1.39954) (layer F.SilkS) (width 0.127))
  (fp_line (start -2.19964 -1.39954) (end -2.19964 1.39954) (layer F.SilkS) (width 0.127))
  (fp_line (start -2.19964 1.39954) (end 2.19964 1.39954) (layer F.SilkS) (width 0.127))
  (fp_line (start 2.19964 1.39954) (end 2.19964 -1.39954) (layer F.SilkS) (width 0.127))
  (pad 2 smd rect (at 1.72974 0) (size 2.10058 1.69926) (layers F.Cu F.Paste F.Mask))
  (pad 1 smd rect (at -1.72974 0) (size 2.10058 1.69926) (layers F.Cu F.Paste F.Mask))
  (model walter\smd_diode\do214ac.wrl
    (at (xyz 0 0 0))
    (scale (xyz 1 1 1))
    (rotate (xyz 0 0 0))
  )
)
