(module do214aa (layer F.Cu) (tedit 51101957)
  (descr DO214AA)
  (fp_text reference DO214AA (at 0 -2.49936) (layer F.SilkS)
    (effects (font (size 0.50038 0.50038) (thickness 0.11938)))
  )
  (fp_text value D*** (at 0 2.49936) (layer F.SilkS) hide
    (effects (font (size 0.50038 0.50038) (thickness 0.11938)))
  )
  (fp_line (start 2.30124 -1.99898) (end 2.30124 1.99898) (layer F.SilkS) (width 0.127))
  (fp_line (start 2.19964 1.99898) (end 2.19964 -1.99898) (layer F.SilkS) (width 0.127))
  (fp_line (start 2.10058 -1.99898) (end 2.10058 1.99898) (layer F.SilkS) (width 0.127))
  (fp_line (start 1.99898 1.99898) (end 1.99898 -1.99898) (layer F.SilkS) (width 0.127))
  (fp_line (start 1.89992 -1.99898) (end 1.89992 1.99898) (layer F.SilkS) (width 0.127))
  (fp_line (start 1.80086 -1.99898) (end 1.80086 1.99898) (layer F.SilkS) (width 0.127))
  (fp_line (start 2.4003 -1.99898) (end 2.4003 1.99898) (layer F.SilkS) (width 0.127))
  (fp_line (start 2.4003 1.99898) (end -2.4003 1.99898) (layer F.SilkS) (width 0.127))
  (fp_line (start -2.4003 1.99898) (end -2.4003 -1.99898) (layer F.SilkS) (width 0.127))
  (fp_line (start -2.4003 -1.99898) (end 2.4003 -1.99898) (layer F.SilkS) (width 0.127))
  (pad 2 smd rect (at 2.00914 0) (size 1.99898 2.30124) (layers F.Cu F.Paste F.Mask))
  (pad 1 smd rect (at -2.00914 0) (size 1.99898 2.30124) (layers F.Cu F.Paste F.Mask))
  (model walter\smd_diode\do214aa.wrl
    (at (xyz 0 0 0))
    (scale (xyz 1 1 1))
    (rotate (xyz 0 0 0))
  )
)
