(module Luxeon_Z_combo+880ir (layer F.Cu) (tedit 578527A8)
  (descr "Philips Lumileds Luxeon Z with large thermals")
  (tags "Luxeon Z, thermals")
  (attr smd)
  (fp_text reference D1 (at -0.37388 -3.52536 90) (layer F.SilkS)
    (effects (font (size 0.4 0.4) (thickness 0.05)))
  )
  (fp_text value ACT_PULSE (at 0.22302 -3.01228 90) (layer F.SilkS)
    (effects (font (size 0.4 0.4) (thickness 0.05)))
  )
  (fp_line (start 1.63 0.79) (end -1.57 0.79) (layer F.SilkS) (width 0.15))
  (fp_line (start 1.63 -0.8) (end 1.63 0.8) (layer F.SilkS) (width 0.15))
  (fp_line (start -1.26 -2.19) (end -1.26 -1.35) (layer F.SilkS) (width 0.25))
  (fp_line (start -1.69 -1.74) (end -0.77 -1.74) (layer F.SilkS) (width 0.25))
  (fp_line (start 1.63 -0.8) (end -1.57 -0.8) (layer F.SilkS) (width 0.15))
  (fp_line (start -1.57 -0.8) (end -1.57 0.8) (layer F.SilkS) (width 0.15))
  (fp_circle (center 0.01 -0.01) (end 0.53 0.41) (layer F.SilkS) (width 0.15))
  (pad 2 smd rect (at 0.8166 0) (size 2.1 2.2) (layers F.Cu F.Paste F.Mask))
  (pad 1 smd rect (at -1.2582 0) (size 1.3 2.2) (layers F.Cu F.Paste F.Mask))
  (pad 1 thru_hole circle (at -1.436 -0.8715) (size 0.381 0.381) (drill 0.254) (layers *.Cu *.Mask F.SilkS))
  (pad 1 thru_hole circle (at -1.436 -0.3) (size 0.381 0.381) (drill 0.254) (layers *.Cu *.Mask F.SilkS))
  (pad 1 thru_hole circle (at -1.436 0.2715) (size 0.381 0.381) (drill 0.254) (layers *.Cu *.Mask F.SilkS))
  (pad 2 thru_hole circle (at 0.0245 -0.8715) (size 0.381 0.381) (drill 0.254) (layers *.Cu *.Mask F.SilkS))
  (pad 2 thru_hole circle (at 0.0245 -0.3) (size 0.381 0.381) (drill 0.254) (layers *.Cu *.Mask F.SilkS))
  (pad 2 thru_hole circle (at 0.596 -0.8715) (size 0.381 0.381) (drill 0.254) (layers *.Cu *.Mask F.SilkS))
  (pad 2 thru_hole circle (at 0.596 -0.3) (size 0.381 0.381) (drill 0.254) (layers *.Cu *.Mask F.SilkS))
  (pad 2 thru_hole circle (at 0.596 0.2715) (size 0.381 0.381) (drill 0.254) (layers *.Cu *.Mask F.SilkS))
  (pad 2 thru_hole circle (at 0.0245 0.2715) (size 0.381 0.381) (drill 0.254) (layers *.Cu *.Mask F.SilkS))
  (pad 1 thru_hole circle (at -0.8645 -0.8715) (size 0.381 0.381) (drill 0.254) (layers *.Cu *.Mask F.SilkS))
  (pad 1 thru_hole circle (at -0.8645 -0.3) (size 0.381 0.381) (drill 0.254) (layers *.Cu *.Mask F.SilkS))
  (pad 1 thru_hole circle (at -0.8645 0.2715) (size 0.381 0.381) (drill 0.254) (layers *.Cu *.Mask F.SilkS))
  (model walter\smd_leds\luxeon_m.wrl
    (at (xyz 0 0 0))
    (scale (xyz 1 1 1))
    (rotate (xyz 0 0 0))
  )
)
