(module micromelf (layer F.Cu) (tedit 49047482)
  (descr Micromelf)
  (fp_text reference Micromelf (at 0 -1.0668) (layer F.SilkS)
    (effects (font (size 0.50038 0.50038) (thickness 0.11938)))
  )
  (fp_text value D*** (at 0 1.0668) (layer F.SilkS) hide
    (effects (font (size 0.50038 0.50038) (thickness 0.11938)))
  )
  (fp_line (start 0.5207 -0.5969) (end 0.5207 0.5969) (layer F.SilkS) (width 0.127))
  (fp_line (start 0.3937 0.5969) (end 0.3937 -0.5969) (layer F.SilkS) (width 0.127))
  (fp_line (start 0.2667 -0.5969) (end 0.2667 0.5969) (layer F.SilkS) (width 0.127))
  (fp_line (start -1.0033 -0.5969) (end -1.0033 0.5969) (layer F.SilkS) (width 0.127))
  (fp_line (start -1.0033 0.5969) (end 1.0033 0.5969) (layer F.SilkS) (width 0.127))
  (fp_line (start 1.0033 0.5969) (end 1.0033 -0.5969) (layer F.SilkS) (width 0.127))
  (fp_line (start 1.0033 -0.5969) (end -1.0033 -0.5969) (layer F.SilkS) (width 0.127))
  (pad 1 smd rect (at -1.00076 0) (size 0.8001 1.30048) (layers F.Cu F.Paste F.Mask))
  (pad 2 smd rect (at 1.00076 0) (size 0.8001 1.30048) (layers F.Cu F.Paste F.Mask))
  (model walter\smd_diode\micromelf.wrl
    (at (xyz 0 0 0))
    (scale (xyz 1 1 1))
    (rotate (xyz 0 0 0))
  )
)
