(module msop-12 (layer F.Cu) (tedit 513B08B0)
  (descr MSOP-12)
  (solder_mask_margin 0.06858)
  (solder_paste_margin -0.04826)
  (clearance 0.09906)
  (attr smd)
  (fp_text reference U*** (at 0 -3.40106) (layer F.SilkS)
    (effects (font (size 0.49784 0.49784) (thickness 0.09906)))
  )
  (fp_text value MSOP-12 (at 0 3.49758) (layer F.SilkS)
    (effects (font (size 0.4953 0.4953) (thickness 0.09906)))
  )
  (fp_line (start -1.6002 2.4003) (end -1.6002 1.50114) (layer F.SilkS) (width 0.127))
  (fp_line (start 1.6002 -2.4003) (end 1.6002 -1.50114) (layer F.SilkS) (width 0.127))
  (fp_line (start 1.00076 -2.4003) (end 1.00076 -1.50114) (layer F.SilkS) (width 0.127))
  (fp_line (start -1.99898 -1.50114) (end 1.99898 -1.50114) (layer F.SilkS) (width 0.127))
  (fp_line (start -1.99898 1.50114) (end 1.99898 1.50114) (layer F.SilkS) (width 0.127))
  (fp_line (start -1.60782 -2.413) (end -1.60782 -1.524) (layer F.SilkS) (width 0.127))
  (fp_line (start -1.00076 -2.413) (end -1.00076 -1.524) (layer F.SilkS) (width 0.127))
  (fp_line (start -0.3175 -2.413) (end -0.3175 -1.524) (layer F.SilkS) (width 0.127))
  (fp_line (start 0.31496 -2.413) (end 0.31496 -1.524) (layer F.SilkS) (width 0.127))
  (fp_line (start 1.61544 2.413) (end 1.61544 1.524) (layer F.SilkS) (width 0.127))
  (fp_line (start 1.00838 2.413) (end 1.00838 1.524) (layer F.SilkS) (width 0.127))
  (fp_line (start 0.29972 2.413) (end 0.29972 1.524) (layer F.SilkS) (width 0.127))
  (fp_line (start -0.30734 2.413) (end -0.30734 1.524) (layer F.SilkS) (width 0.127))
  (fp_line (start -0.9906 2.413) (end -0.9906 1.524) (layer F.SilkS) (width 0.127))
  (fp_circle (center -1.6002 1.10236) (end -1.80086 1.30048) (layer F.SilkS) (width 0.127))
  (fp_line (start -1.99898 -1.4986) (end -1.99898 1.4986) (layer F.SilkS) (width 0.127))
  (fp_line (start 1.99898 1.50114) (end 1.99898 -1.50114) (layer F.SilkS) (width 0.127))
  (pad 1 smd rect (at -1.62306 2.16916) (size 0.4191 0.889) (layers F.Cu F.Paste F.Mask))
  (pad 2 smd rect (at -0.97282 2.16916) (size 0.4191 0.889) (layers F.Cu F.Paste F.Mask))
  (pad 3 smd rect (at -0.32258 2.16916) (size 0.4191 0.889) (layers F.Cu F.Paste F.Mask))
  (pad 4 smd rect (at 0.32258 2.16916) (size 0.4191 0.889) (layers F.Cu F.Paste F.Mask))
  (pad 7 smd rect (at 1.62306 -2.16916) (size 0.4191 0.889) (layers F.Cu F.Paste F.Mask))
  (pad 8 smd rect (at 0.97282 -2.16916) (size 0.4191 0.889) (layers F.Cu F.Paste F.Mask))
  (pad 9 smd rect (at 0.32258 -2.16916) (size 0.4191 0.889) (layers F.Cu F.Paste F.Mask))
  (pad 10 smd rect (at -0.32258 -2.16916) (size 0.4191 0.889) (layers F.Cu F.Paste F.Mask))
  (pad 13 smd rect (at 0 0) (size 2.8448 1.651) (layers F.Cu F.Paste F.Mask)
    (solder_mask_margin 0.06858) (solder_paste_margin -0.04826))
  (pad 5 smd rect (at 0.97282 2.16916) (size 0.4191 0.889) (layers F.Cu F.Paste F.Mask))
  (pad 6 smd rect (at 1.62306 2.16916) (size 0.4191 0.889) (layers F.Cu F.Paste F.Mask))
  (pad 11 smd rect (at -0.97282 -2.16916) (size 0.4191 0.889) (layers F.Cu F.Paste F.Mask))
  (pad 12 smd rect (at -1.62306 -2.16916) (size 0.4191 0.889) (layers F.Cu F.Paste F.Mask))
  (model walter\smd_dil\msop-12.wrl
    (at (xyz 0 0 0))
    (scale (xyz 1 1 1))
    (rotate (xyz 0 0 0))
  )
)
