(module Multi_Rebel+XP1 (layer F.Cu) (tedit 51E5A44D)
  (descr "Multi footprint, Rebel+XP")
  (tags "Multi footprint, Rebel+XP, no  corner pads")
  (fp_text reference D125 (at 0.70104 -2.10058) (layer F.SilkS)
    (effects (font (size 0.52324 0.52324) (thickness 0.09906)))
  )
  (fp_text value IR (at 0.70104 2.10058) (layer F.SilkS)
    (effects (font (size 0.52324 0.52324) (thickness 0.09906)))
  )
  (fp_line (start 1.24968 1.75006) (end 1.24968 1.24968) (layer F.SilkS) (width 0.127))
  (fp_line (start 1.24968 1.24968) (end 1.75006 1.24968) (layer F.SilkS) (width 0.127))
  (fp_line (start -1.75006 1.24968) (end -1.24968 1.24968) (layer F.SilkS) (width 0.127))
  (fp_line (start -1.24968 1.24968) (end -1.24968 1.75006) (layer F.SilkS) (width 0.127))
  (fp_line (start -1.75006 -1.75006) (end -1.75006 1.75006) (layer F.SilkS) (width 0.127))
  (fp_line (start -1.75006 1.75006) (end 1.75006 1.75006) (layer F.SilkS) (width 0.127))
  (fp_line (start 1.75006 1.75006) (end 1.75006 -1.75006) (layer F.SilkS) (width 0.127))
  (fp_line (start 1.75006 -1.75006) (end -1.75006 -1.75006) (layer F.SilkS) (width 0.127))
  (fp_circle (center 0 0) (end 0 -1.30048) (layer F.SilkS) (width 0.14986))
  (fp_line (start -1.6002 -1.5494) (end -1.6002 1.5494) (layer F.SilkS) (width 0.14986))
  (fp_line (start -1.6002 1.5494) (end 2.90068 1.5494) (layer F.SilkS) (width 0.14986))
  (fp_line (start 2.90068 1.5494) (end 2.90068 -1.5494) (layer F.SilkS) (width 0.14986))
  (fp_line (start 2.90068 -1.5494) (end -1.6002 -1.5494) (layer F.SilkS) (width 0.14986))
  (pad 1 smd rect (at 2.47396 -0.8001) (size 0.89916 1.30048) (layers F.Cu F.Paste F.Mask)
    (solder_mask_margin 0.0508) (solder_paste_margin -0.0508))
  (pad 2 smd rect (at 2.47396 0.8001) (size 0.89916 1.30048) (layers F.Cu F.Paste F.Mask)
    (solder_mask_margin 0.0508) (solder_paste_margin -0.0508))
  (pad 2 smd rect (at -0.89916 0) (size 0.59944 2.99974) (layers F.Cu F.Paste F.Mask)
    (solder_mask_margin 0.0508) (solder_paste_margin -0.0508))
  (pad 2 smd rect (at 0 0) (size 1.30048 3.29946) (layers F.Cu F.Paste F.Mask)
    (solder_mask_margin 0.0508) (solder_paste_margin -0.0508))
  (pad 1 smd rect (at 1.39954 0) (size 0.50038 3.29946) (layers F.Cu F.Paste F.Mask)
    (solder_mask_margin 0.0508) (solder_paste_margin -0.0508))
  (pad 2 smd rect (at -1.39954 0) (size 0.50038 3.29946) (layers F.Cu F.Paste F.Mask)
    (solder_mask_margin 0.0508) (solder_paste_margin -0.0508))
  (pad 1 smd rect (at 1.84912 -0.8001) (size 0.39878 1.30048) (layers F.Cu))
  (model walter\smd_leds\luxeon_rebel.wrl
    (at (xyz 0 0 0))
    (scale (xyz 1 1 1))
    (rotate (xyz 0 0 0))
  )
  (model walter\smd_leds\cree_xp.wrl
    (at (xyz 0 0 0))
    (scale (xyz 1 1 1))
    (rotate (xyz 0 0 180))
  )
)
