(module Neosid_Inductor_Ms42l (layer F.Cu) (tedit 56942CE3)
  (descr "Neosid, Power Inductor, Ms42, SMD, Festinduktivitaet,")
  (tags "Neosid, Power Inductor, Ms42, SMD, Festinduktivitaet,")
  (attr smd)
  (fp_text reference L3 (at 3.7592 -0.9652) (layer F.SilkS)
    (effects (font (size 1 1) (thickness 0.15)))
  )
  (fp_text value 1uH (at 0 -0.15) (layer F.Fab)
    (effects (font (size 1 1) (thickness 0.15)))
  )
  (fp_line (start 1.99898 1.99898) (end -1.99898 1.99898) (layer F.SilkS) (width 0.15))
  (fp_line (start 1.99898 -1.99898) (end -1.99898 -1.99898) (layer F.SilkS) (width 0.15))
  (pad 1 smd rect (at -2.2 0) (size 1.4 2.4003) (layers F.Cu F.Paste F.Mask))
  (pad 2 smd rect (at 2.2 0) (size 1.4 2.4003) (layers F.Cu F.Paste F.Mask))
)
