(module osram_oslon (layer F.Cu) (tedit 4F5DCF55)
  (descr "Osram Oslon")
  (fp_text reference LD? (at 0 -1.99898) (layer F.SilkS)
    (effects (font (size 0.52324 0.52324) (thickness 0.09906)))
  )
  (fp_text value "Osram Oslon" (at 0 2.10058) (layer F.SilkS)
    (effects (font (size 0.52324 0.52324) (thickness 0.09906)))
  )
  (fp_line (start 0.50038 -0.20066) (end 0.50038 0.20066) (layer F.SilkS) (width 0.127))
  (fp_arc (start 0.50038 0) (end 0.29972 0) (angle 90) (layer F.SilkS) (width 0.127))
  (fp_arc (start 0.50038 0) (end 0.50038 0.20066) (angle 90) (layer F.SilkS) (width 0.127))
  (fp_circle (center 0 0) (end -1.09982 0) (layer F.SilkS) (width 0.127))
  (fp_line (start -1.50114 -1.50114) (end -1.50114 1.50114) (layer F.SilkS) (width 0.127))
  (fp_line (start -1.50114 1.50114) (end 1.50114 1.50114) (layer F.SilkS) (width 0.127))
  (fp_line (start 1.50114 1.50114) (end 1.50114 -1.50114) (layer F.SilkS) (width 0.127))
  (fp_line (start 1.50114 -1.50114) (end -1.50114 -1.50114) (layer F.SilkS) (width 0.127))
  (pad 2 smd rect (at 1.12522 0) (size 0.55118 2.79908) (layers F.Cu F.Paste F.Mask)
    (solder_mask_margin 0.0508) (solder_paste_margin -0.0508))
  (pad 1 smd rect (at -1.12522 0) (size 0.55118 2.79908) (layers F.Cu F.Paste F.Mask)
    (solder_mask_margin 0.0508) (solder_paste_margin -0.0508))
  (pad 3 smd rect (at 0 0) (size 1.00076 2.79908) (layers F.Cu F.Paste F.Mask)
    (solder_mask_margin 0.0508) (solder_paste_margin -0.0508))
  (model walter\smd_leds\osram_oslon.wrl
    (at (xyz 0 0 0))
    (scale (xyz 1 1 1))
    (rotate (xyz 0 0 0))
  )
)
