(module psop-24 (layer F.Cu) (tedit 4DEB8A8C)
  (descr "PSOP-24 - PowerPad Small-Outline")
  (fp_text reference PSOP-24 (at 0 0.508) (layer F.SilkS)
    (effects (font (size 0.50038 0.50038) (thickness 0.09906)))
  )
  (fp_text value U*** (at 0 -1.143) (layer F.SilkS)
    (effects (font (size 0.50038 0.50038) (thickness 0.09906)))
  )
  (fp_line (start -3.9497 2.25044) (end 3.9497 2.25044) (layer F.SilkS) (width 0.127))
  (fp_line (start 3.9497 2.25044) (end 3.9497 -2.25044) (layer F.SilkS) (width 0.127))
  (fp_line (start 3.9497 -2.25044) (end -3.9497 -2.25044) (layer F.SilkS) (width 0.127))
  (fp_line (start -3.9497 -2.25044) (end -3.9497 2.25044) (layer F.SilkS) (width 0.127))
  (fp_circle (center -3.06324 1.524) (end -3.19024 1.778) (layer F.SilkS) (width 0.127))
  (pad 6 smd rect (at -0.32512 2.79908) (size 0.29972 1.6002) (layers F.Cu F.Paste F.Mask))
  (pad 7 smd rect (at 0.32512 2.79908) (size 0.29972 1.6002) (layers F.Cu F.Paste F.Mask))
  (pad 8 smd rect (at 0.97536 2.79908) (size 0.29972 1.6002) (layers F.Cu F.Paste F.Mask))
  (pad 9 smd rect (at 1.6256 2.79908) (size 0.29972 1.6002) (layers F.Cu F.Paste F.Mask))
  (pad 22 smd rect (at -2.26568 -2.794) (size 0.29972 1.6002) (layers F.Cu F.Paste F.Mask))
  (pad 3 smd rect (at -2.27584 2.79908) (size 0.29972 1.6002) (layers F.Cu F.Paste F.Mask))
  (pad 4 smd rect (at -1.6256 2.79908) (size 0.29972 1.6002) (layers F.Cu F.Paste F.Mask))
  (pad 5 smd rect (at -0.97536 2.79908) (size 0.29972 1.6002) (layers F.Cu F.Paste F.Mask))
  (pad 15 smd rect (at 2.27584 -2.79908) (size 0.29972 1.6002) (layers F.Cu F.Paste F.Mask))
  (pad 16 smd rect (at 1.6256 -2.79908) (size 0.29972 1.6002) (layers F.Cu F.Paste F.Mask))
  (pad 17 smd rect (at 0.97536 -2.79908) (size 0.29972 1.6002) (layers F.Cu F.Paste F.Mask))
  (pad 18 smd rect (at 0.32512 -2.79908) (size 0.29972 1.6002) (layers F.Cu F.Paste F.Mask))
  (pad 19 smd rect (at -0.32512 -2.79908) (size 0.29972 1.6002) (layers F.Cu F.Paste F.Mask))
  (pad 20 smd rect (at -0.97536 -2.79908) (size 0.29972 1.6002) (layers F.Cu F.Paste F.Mask))
  (pad 10 smd rect (at 2.27584 2.79908) (size 0.29972 1.6002) (layers F.Cu F.Paste F.Mask))
  (pad 21 smd rect (at -1.6256 -2.794) (size 0.29972 1.6002) (layers F.Cu F.Paste F.Mask))
  (pad 2 smd rect (at -2.92608 2.79908) (size 0.29972 1.6002) (layers F.Cu F.Paste F.Mask))
  (pad 11 smd rect (at 2.92608 2.79908) (size 0.29972 1.6002) (layers F.Cu F.Paste F.Mask))
  (pad 14 smd rect (at 2.92608 -2.79908) (size 0.29972 1.6002) (layers F.Cu F.Paste F.Mask))
  (pad 23 smd rect (at -2.92608 -2.79908) (size 0.29972 1.6002) (layers F.Cu F.Paste F.Mask))
  (pad 25 smd rect (at 0 0) (size 5.15874 2.4003) (layers F.Cu F.Paste F.Mask))
  (pad 1 smd rect (at -3.57378 2.79908) (size 0.29972 1.6002) (layers F.Cu F.Paste F.Mask))
  (pad 12 smd rect (at 3.57378 2.79908) (size 0.29972 1.6002) (layers F.Cu F.Paste F.Mask)
    (solder_mask_margin 0.07112))
  (pad 13 smd rect (at 3.57378 -2.79908) (size 0.29972 1.6002) (layers F.Cu F.Paste F.Mask))
  (pad 24 smd rect (at -3.57378 -2.79908) (size 0.29972 1.6002) (layers F.Cu F.Paste F.Mask))
  (model walter\smd_dil\psop-24.wrl
    (at (xyz 0 0 0))
    (scale (xyz 1 1 1))
    (rotate (xyz 0 0 0))
  )
)
