(module R_0402S (layer F.Cu) (tedit 564CCB52)
  (descr "Resistor SMD 0402, reflow soldering, Vishay (see dcrcw.pdf)")
  (tags "resistor 0402S, shorting, zero")
  (attr smd)
  (fp_text reference REF** (at 0 -0.375) (layer F.SilkS)
    (effects (font (size 0.127 0.127) (thickness 0.01)))
  )
  (fp_text value R_0402 (at 0 0.4) (layer F.Fab)
    (effects (font (size 0.127 0.127) (thickness 0.01)))
  )
  (pad 1 smd rect (at -0.45 0) (size 0.4 0.6) (layers F.Cu F.Paste F.Mask))
  (pad 2 smd rect (at 0.45 0) (size 0.4 0.6) (layers F.Cu F.Paste F.Mask))
  (pad 2 smd rect (at 0 0) (size 0.7 0.4) (layers F.Cu F.Paste F.Mask))
  (model Resistors_SMD.3dshapes/R_0402.wrl
    (at (xyz 0 0 0))
    (scale (xyz 1 1 1))
    (rotate (xyz 0 0 0))
  )
)
