(module Samsung_2323 (layer F.Cu) (tedit 4F5DD08C)
  (fp_text reference LD** (at 0 -1.651) (layer F.SilkS)
    (effects (font (size 0.8001 0.8001) (thickness 0.14986)))
  )
  (fp_text value Samsung_2323 (at 0 1.80086) (layer F.SilkS)
    (effects (font (size 0.8001 0.8001) (thickness 0.14986)))
  )
  (fp_line (start -0.70104 -0.8509) (end 0.44958 -0.8509) (layer F.SilkS) (width 0.127))
  (fp_line (start -0.8509 0.70104) (end -0.8509 -0.70104) (layer F.SilkS) (width 0.127))
  (fp_line (start 0.70104 0.8509) (end -0.70104 0.8509) (layer F.SilkS) (width 0.127))
  (fp_line (start 0.8509 -0.35052) (end 0.8509 0.70104) (layer F.SilkS) (width 0.127))
  (fp_arc (start 0.39878 -0.39878) (end 0.44958 -0.8509) (angle 90) (layer F.SilkS) (width 0.127))
  (fp_arc (start 0.70104 0.70104) (end 0.8509 0.70104) (angle 90) (layer F.SilkS) (width 0.127))
  (fp_arc (start -0.70104 0.70104) (end -0.70104 0.8509) (angle 90) (layer F.SilkS) (width 0.127))
  (fp_arc (start -0.70104 -0.70104) (end -0.8509 -0.70104) (angle 90) (layer F.SilkS) (width 0.127))
  (fp_line (start 1.00076 -1.15062) (end 1.15062 -1.00076) (layer F.SilkS) (width 0.127))
  (fp_line (start 0.8509 -1.15062) (end 1.15062 -0.8509) (layer F.SilkS) (width 0.127))
  (fp_line (start 1.15062 -0.70104) (end 0.70104 -1.15062) (layer F.SilkS) (width 0.127))
  (fp_line (start 1.15062 -1.15062) (end 1.15062 1.15062) (layer F.SilkS) (width 0.127))
  (fp_line (start 1.15062 1.15062) (end -1.15062 1.15062) (layer F.SilkS) (width 0.127))
  (fp_line (start -1.15062 1.15062) (end -1.15062 -1.15062) (layer F.SilkS) (width 0.127))
  (fp_line (start -1.15062 -1.15062) (end 1.15062 -1.15062) (layer F.SilkS) (width 0.127))
  (pad 1 smd rect (at -0.73152 0) (size 0.33528 2.02438) (layers F.Cu F.Paste F.Mask)
    (solder_mask_margin 0.0508) (solder_paste_margin -0.0508))
  (pad 2 smd rect (at 0.38608 0) (size 1.06934 2.02438) (layers F.Cu F.Paste F.Mask)
    (solder_mask_margin 0.0508) (solder_paste_margin -0.0508))
  (pad 1 smd trapezoid (at -0.5334 -0.71628) (size 0.07112 0.50038) (rect_delta 0.09906 0 ) (layers F.Cu F.Paste F.Mask)
    (solder_mask_margin 0.0508) (solder_paste_margin -0.0508))
  (pad 1 smd trapezoid (at -0.5334 0.71628) (size 0.07112 0.50038) (rect_delta 0.09906 0 ) (layers F.Cu F.Paste F.Mask)
    (solder_mask_margin 0.0508) (solder_paste_margin -0.0508))
  (pad 2 smd trapezoid (at -0.22098 0) (size 0.1651 1.00076) (rect_delta -0.14986 0 ) (layers F.Cu F.Paste F.Mask)
    (solder_mask_margin 0.0508) (solder_paste_margin -0.0508))
  (pad 1 smd rect (at -1.15062 0) (size 0.29972 0.20066) (layers F.Cu F.Paste F.Mask)
    (solder_mask_margin 0.0508) (solder_paste_margin -0.0508))
  (pad 2 smd rect (at 1.15062 0) (size 0.29972 0.20066) (layers F.Cu F.Paste F.Mask)
    (solder_mask_margin 0.0508) (solder_paste_margin -0.0508))
  (pad 1 smd trapezoid (at -0.94996 0) (size 0.1651 1.00076) (rect_delta -0.12954 0 ) (layers F.Cu F.Paste F.Mask)
    (solder_mask_margin 0.0508) (solder_paste_margin -0.0508))
  (pad 2 smd trapezoid (at 0.94996 0) (size 0.1651 1.00076) (rect_delta 0.12954 0 ) (layers F.Cu F.Paste F.Mask)
    (solder_mask_margin 0.0508) (solder_paste_margin -0.0508))
  (model walter\smd_leds\samsung_2323.wrl
    (at (xyz 0 0 0))
    (scale (xyz 1 1 1))
    (rotate (xyz 0 0 0))
  )
)
