(module Socket_Strips:Socket_Strip_Straight_2x05 (layer F.Cu) (tedit 0)
  (descr "Through hole socket strip")
  (tags "socket strip")
  (fp_text reference P3 (at 0 -5.1) (layer F.SilkS)
    (effects (font (size 1 1) (thickness 0.15)))
  )
  (fp_text value SWD (at 0 -3.1) (layer F.Fab)
    (effects (font (size 1 1) (thickness 0.15)))
  )
  (fp_line (start -1.75 -1.75) (end -1.75 4.3) (layer F.CrtYd) (width 0.05))
  (fp_line (start 11.95 -1.75) (end 11.95 4.3) (layer F.CrtYd) (width 0.05))
  (fp_line (start -1.75 -1.75) (end 11.95 -1.75) (layer F.CrtYd) (width 0.05))
  (fp_line (start -1.75 4.3) (end 11.95 4.3) (layer F.CrtYd) (width 0.05))
  (fp_line (start -1.27 3.81) (end 11.43 3.81) (layer F.SilkS) (width 0.15))
  (fp_line (start 11.43 3.81) (end 11.43 -1.27) (layer F.SilkS) (width 0.15))
  (fp_line (start 11.43 -1.27) (end 1.27 -1.27) (layer F.SilkS) (width 0.15))
  (fp_line (start -1.27 3.81) (end -1.27 1.27) (layer F.SilkS) (width 0.15))
  (fp_line (start 0 -1.55) (end -1.55 -1.55) (layer F.SilkS) (width 0.15))
  (fp_line (start -1.27 1.27) (end 1.27 1.27) (layer F.SilkS) (width 0.15))
  (fp_line (start 1.27 1.27) (end 1.27 -1.27) (layer F.SilkS) (width 0.15))
  (fp_line (start -1.55 -1.55) (end -1.55 0) (layer F.SilkS) (width 0.15))
  (pad 1 thru_hole rect (at 0 0) (size 1.7272 1.7272) (drill 1.016) (layers *.Cu *.Mask F.SilkS))
  (pad 2 thru_hole oval (at 0 2.54) (size 1.7272 1.7272) (drill 1.016) (layers *.Cu *.Mask F.SilkS))
  (pad 3 thru_hole oval (at 2.54 0) (size 1.7272 1.7272) (drill 1.016) (layers *.Cu *.Mask F.SilkS))
  (pad 4 thru_hole oval (at 2.54 2.54) (size 1.7272 1.7272) (drill 1.016) (layers *.Cu *.Mask F.SilkS))
  (pad 5 thru_hole oval (at 5.08 0) (size 1.7272 1.7272) (drill 1.016) (layers *.Cu *.Mask F.SilkS))
  (pad 6 thru_hole oval (at 5.08 2.54) (size 1.7272 1.7272) (drill 1.016) (layers *.Cu *.Mask F.SilkS))
  (pad 7 thru_hole oval (at 7.62 0) (size 1.7272 1.7272) (drill 1.016) (layers *.Cu *.Mask F.SilkS))
  (pad 8 thru_hole oval (at 7.62 2.54) (size 1.7272 1.7272) (drill 1.016) (layers *.Cu *.Mask F.SilkS))
  (pad 9 thru_hole oval (at 10.16 0) (size 1.7272 1.7272) (drill 1.016) (layers *.Cu *.Mask F.SilkS))
  (pad 10 thru_hole oval (at 10.16 2.54) (size 1.7272 1.7272) (drill 1.016) (layers *.Cu *.Mask F.SilkS))
  (model Socket_Strips.3dshapes/Socket_Strip_Straight_2x05.wrl
    (at (xyz 0.2 -0.05 0))
    (scale (xyz 1 1 1))
    (rotate (xyz 0 0 180))
  )
)
