(module sod523 (layer F.Cu) (tedit 511019B4)
  (descr SOD523)
  (fp_text reference SOD523 (at 0 -0.70104) (layer F.SilkS)
    (effects (font (size 0.29972 0.29972) (thickness 0.07112)))
  )
  (fp_text value D*** (at 0 0.70104) (layer F.SilkS) hide
    (effects (font (size 0.29972 0.29972) (thickness 0.07112)))
  )
  (fp_line (start 0.50038 0.39878) (end 0.50038 -0.39878) (layer F.SilkS) (width 0.127))
  (fp_line (start 0.39878 -0.39878) (end 0.39878 0.39878) (layer F.SilkS) (width 0.127))
  (fp_line (start 0.29972 -0.39878) (end 0.29972 0.39878) (layer F.SilkS) (width 0.127))
  (fp_line (start 0.59944 -0.39878) (end -0.59944 -0.39878) (layer F.SilkS) (width 0.127))
  (fp_line (start -0.59944 -0.39878) (end -0.59944 0.39878) (layer F.SilkS) (width 0.127))
  (fp_line (start -0.59944 0.39878) (end 0.59944 0.39878) (layer F.SilkS) (width 0.127))
  (fp_line (start 0.59944 0.39878) (end 0.59944 -0.39878) (layer F.SilkS) (width 0.127))
  (pad 2 smd rect (at 0.8509 0) (size 0.59944 0.8001) (layers F.Cu F.Paste F.Mask))
  (pad 1 smd rect (at -0.8509 0) (size 0.59944 0.8001) (layers F.Cu F.Paste F.Mask))
  (model walter\smd_diode\sod523.wrl
    (at (xyz 0 0 0))
    (scale (xyz 1 1 1))
    (rotate (xyz 0 0 0))
  )
)
