(module SOT-23-5 (layer F.Cu) (tedit 5654B093)
  (descr "5-pin SOT23 package")
  (tags SOT-23-5)
  (attr smd)
  (fp_text reference U37 (at 1.1176 -0.0508) (layer F.SilkS)
    (effects (font (size 0.4 0.4) (thickness 0.1)))
  )
  (fp_text value AP3012 (at 0 0 90) (layer F.Fab)
    (effects (font (size 0.3 0.3) (thickness 0.05)))
  )
  (fp_line (start -1.8 -1.6) (end 1.8 -1.6) (layer F.CrtYd) (width 0.05))
  (fp_line (start 1.8 -1.6) (end 1.8 1.6) (layer F.CrtYd) (width 0.05))
  (fp_line (start 1.8 1.6) (end -1.8 1.6) (layer F.CrtYd) (width 0.05))
  (fp_line (start -1.8 1.6) (end -1.8 -1.6) (layer F.CrtYd) (width 0.05))
  (fp_circle (center -0.3 -1.7) (end -0.2 -1.7) (layer F.SilkS) (width 0.15))
  (fp_line (start 0.25 -1.45) (end -0.25 -1.45) (layer F.SilkS) (width 0.15))
  (fp_line (start 0.25 1.45) (end 0.25 -1.45) (layer F.SilkS) (width 0.15))
  (fp_line (start -0.25 1.45) (end 0.25 1.45) (layer F.SilkS) (width 0.15))
  (fp_line (start -0.25 -1.45) (end -0.25 1.45) (layer F.SilkS) (width 0.15))
  (pad 1 smd rect (at -1.1 -0.95) (size 1.06 0.65) (layers F.Cu F.Paste F.Mask))
  (pad 2 smd rect (at -1.1 0) (size 1.06 0.65) (layers F.Cu F.Paste F.Mask))
  (pad 3 smd rect (at -1.1 0.95) (size 1.06 0.65) (layers F.Cu F.Paste F.Mask))
  (pad 4 smd rect (at 1.1 0.95) (size 1.06 0.65) (layers F.Cu F.Paste F.Mask))
  (pad 5 smd rect (at 1.1 -0.95) (size 1.06 0.65) (layers F.Cu F.Paste F.Mask))
  (model Housings_SOT-23_SOT-143_TSOT-6.3dshapes/SOT-23-5.wrl
    (at (xyz 0 0 0))
    (scale (xyz 0.11 0.11 0.11))
    (rotate (xyz 0 0 90))
  )
)
