(module tssop-8 (layer F.Cu) (tedit 512880EE)
  (descr TSSOP-8)
  (fp_text reference TSSOP-8 (at 0 0.508) (layer F.SilkS)
    (effects (font (size 0.50038 0.50038) (thickness 0.09906)))
  )
  (fp_text value U*** (at 0 -1.143) (layer F.SilkS)
    (effects (font (size 0.50038 0.50038) (thickness 0.09906)))
  )
  (fp_line (start -1.5494 2.30124) (end 1.5494 2.30124) (layer F.SilkS) (width 0.127))
  (fp_line (start 1.5494 2.30124) (end 1.5494 -2.30124) (layer F.SilkS) (width 0.127))
  (fp_line (start 1.5494 -2.30124) (end -1.5494 -2.30124) (layer F.SilkS) (width 0.127))
  (fp_line (start -1.5494 -2.30124) (end -1.5494 2.30124) (layer F.SilkS) (width 0.127))
  (fp_circle (center -0.90678 1.524) (end -1.03378 1.778) (layer F.SilkS) (width 0.127))
  (pad 2 smd rect (at -0.32258 2.79908) (size 0.4191 1.47066) (layers F.Cu F.Paste F.Mask))
  (pad 3 smd rect (at 0.32258 2.79908) (size 0.4191 1.47066) (layers F.Cu F.Paste F.Mask))
  (pad 4 smd rect (at 0.97536 2.79908) (size 0.4191 1.47066) (layers F.Cu F.Paste F.Mask))
  (pad 1 smd rect (at -0.97536 2.79908) (size 0.4191 1.47066) (layers F.Cu F.Paste F.Mask))
  (pad 5 smd rect (at 0.97536 -2.79908) (size 0.4191 1.47066) (layers F.Cu F.Paste F.Mask))
  (pad 6 smd rect (at 0.32258 -2.79908) (size 0.4191 1.47066) (layers F.Cu F.Paste F.Mask))
  (pad 7 smd rect (at -0.32258 -2.79908) (size 0.4191 1.47066) (layers F.Cu F.Paste F.Mask))
  (pad 8 smd rect (at -0.97536 -2.79908) (size 0.4191 1.47066) (layers F.Cu F.Paste F.Mask))
  (model walter\smd_dil\tssop-8.wrl
    (at (xyz 0 0 0))
    (scale (xyz 1 1 1))
    (rotate (xyz 0 0 0))
  )
)
