(module w_smd_leds%3aMulti_Rebel+XPv (layer F.Cu) (tedit 55CA3DB7)
  (descr "Multi footprint, via, Rebel+XP")
  (tags "Multi footprint, via, Rebel+XP")
  (attr smd)
  (fp_text reference D3 (at 0.70104 -2.10058) (layer F.SilkS)
    (effects (font (size 0.52324 0.52324) (thickness 0.09906)))
  )
  (fp_text value LED (at 0.70104 2.10058) (layer F.SilkS)
    (effects (font (size 0.52324 0.52324) (thickness 0.09906)))
  )
  (fp_line (start 1.24968 1.75006) (end 1.24968 1.24968) (layer F.SilkS) (width 0.127))
  (fp_line (start 1.24968 1.24968) (end 1.75006 1.24968) (layer F.SilkS) (width 0.127))
  (fp_line (start -1.75006 1.24968) (end -1.24968 1.24968) (layer F.SilkS) (width 0.127))
  (fp_line (start -1.24968 1.24968) (end -1.24968 1.75006) (layer F.SilkS) (width 0.127))
  (fp_line (start -1.75006 -1.75006) (end -1.75006 1.75006) (layer F.SilkS) (width 0.127))
  (fp_line (start -1.75006 1.75006) (end 1.75006 1.75006) (layer F.SilkS) (width 0.127))
  (fp_line (start 1.75006 1.75006) (end 1.75006 -1.75006) (layer F.SilkS) (width 0.127))
  (fp_line (start 1.75006 -1.75006) (end -1.75006 -1.75006) (layer F.SilkS) (width 0.127))
  (fp_circle (center 0 0) (end 0 -1.30048) (layer F.SilkS) (width 0.14986))
  (fp_line (start -1.6002 -1.5494) (end -1.6002 1.5494) (layer F.SilkS) (width 0.14986))
  (fp_line (start -1.6002 1.5494) (end 2.90068 1.5494) (layer F.SilkS) (width 0.14986))
  (fp_line (start 2.90068 1.5494) (end 2.90068 -1.5494) (layer F.SilkS) (width 0.14986))
  (fp_line (start 2.90068 -1.5494) (end -1.6002 -1.5494) (layer F.SilkS) (width 0.14986))
  (pad 2 smd rect (at 2.47396 -0.8001) (size 0.89916 1.30048) (layers F.Cu F.Paste F.Mask)
    (solder_mask_margin 0.0508) (solder_paste_margin -0.0508))
  (pad 1 smd rect (at 2.47396 0.8001) (size 0.89916 1.30048) (layers F.Cu F.Paste F.Mask)
    (solder_mask_margin 0.0508) (solder_paste_margin -0.0508))
  (pad 1 smd rect (at -0.89916 0) (size 0.59944 2.99974) (layers F.Cu F.Paste F.Mask)
    (solder_mask_margin 0.0508) (solder_paste_margin -0.0508))
  (pad 2 smd oval (at 2.90068 -1.45034 315) (size 0.50038 1.00076) (layers F.Cu F.Mask)
    (solder_mask_margin 0.0508) (solder_paste_margin -0.0508))
  (pad 1 smd oval (at 2.90068 1.45034 45) (size 0.50038 1.00076) (layers F.Cu F.Mask)
    (solder_mask_margin 0.0508) (solder_paste_margin -0.0508))
  (pad 1 smd oval (at -1.50114 1.50114 315) (size 0.50038 1.00076) (layers F.Cu F.Mask)
    (solder_mask_margin 0.0508) (solder_paste_margin -0.0508))
  (pad 1 smd oval (at -1.50114 -1.50114 45) (size 0.50038 1.00076) (layers F.Cu F.Mask)
    (solder_mask_margin 0.0508) (solder_paste_margin -0.0508))
  (pad 1 smd rect (at 0 0) (size 1.30048 3.29946) (layers F.Cu F.Paste F.Mask)
    (solder_mask_margin 0.0508) (solder_paste_margin -0.0508))
  (pad 2 smd rect (at 1.39954 0) (size 0.50038 3.29946) (layers F.Cu F.Paste F.Mask)
    (solder_mask_margin 0.0508) (solder_paste_margin -0.0508))
  (pad 1 smd rect (at -1.39954 0) (size 0.50038 3.29946) (layers F.Cu F.Paste F.Mask)
    (solder_mask_margin 0.0508) (solder_paste_margin -0.0508))
  (pad 2 smd rect (at 1.84912 -0.8001) (size 0.39878 1.30048) (layers F.Cu))
  (pad 1 thru_hole circle (at -1.7 -1.5) (size 0.4 0.4) (drill 0.3) (layers *.Cu *.Mask F.SilkS))
  (pad 1 thru_hole circle (at -0.95 -1.5) (size 0.4 0.4) (drill 0.3) (layers *.Cu *.Mask F.SilkS))
  (pad 1 thru_hole circle (at -0.2 -1.5) (size 0.4 0.4) (drill 0.3) (layers *.Cu *.Mask F.SilkS))
  (pad 1 thru_hole circle (at 0.55 -1.5) (size 0.4 0.4) (drill 0.3) (layers *.Cu *.Mask F.SilkS))
  (pad 1 thru_hole circle (at 0.55 -0.75) (size 0.4 0.4) (drill 0.3) (layers *.Cu *.Mask F.SilkS))
  (pad 1 thru_hole circle (at -0.2 -0.75) (size 0.4 0.4) (drill 0.3) (layers *.Cu *.Mask F.SilkS))
  (pad 1 thru_hole circle (at -0.95 -0.75) (size 0.4 0.4) (drill 0.3) (layers *.Cu *.Mask F.SilkS))
  (pad 1 thru_hole circle (at -1.7 -0.75) (size 0.4 0.4) (drill 0.3) (layers *.Cu *.Mask F.SilkS))
  (pad 1 thru_hole circle (at -1.7 0) (size 0.4 0.4) (drill 0.3) (layers *.Cu *.Mask F.SilkS))
  (pad 1 thru_hole circle (at -0.95 0) (size 0.4 0.4) (drill 0.3) (layers *.Cu *.Mask F.SilkS))
  (pad 1 thru_hole circle (at 0 0) (size 0.4 0.4) (drill 0.3) (layers *.Cu *.Mask F.SilkS))
  (pad 1 thru_hole circle (at 0.55 0) (size 0.4 0.4) (drill 0.3) (layers *.Cu *.Mask F.SilkS))
  (pad 1 thru_hole circle (at 0.55 0.75) (size 0.4 0.4) (drill 0.3) (layers *.Cu *.Mask F.SilkS))
  (pad 1 thru_hole circle (at -0.2 0.75) (size 0.4 0.4) (drill 0.3) (layers *.Cu *.Mask F.SilkS))
  (pad 1 thru_hole circle (at -0.95 0.75) (size 0.4 0.4) (drill 0.3) (layers *.Cu *.Mask F.SilkS))
  (pad 1 thru_hole circle (at -1.7 0.75) (size 0.4 0.4) (drill 0.3) (layers *.Cu *.Mask F.SilkS))
  (pad 1 thru_hole circle (at -1.7 1.5) (size 0.4 0.4) (drill 0.3) (layers *.Cu *.Mask F.SilkS))
  (pad 1 thru_hole circle (at -0.95 1.5) (size 0.4 0.4) (drill 0.3) (layers *.Cu *.Mask F.SilkS))
  (pad 1 thru_hole circle (at -0.2 1.5) (size 0.4 0.4) (drill 0.3) (layers *.Cu *.Mask F.SilkS))
  (pad 1 thru_hole circle (at 0.55 1.5) (size 0.4 0.4) (drill 0.3) (layers *.Cu *.Mask F.SilkS))
  (model walter\smd_leds\luxeon_rebel.wrl
    (at (xyz 0 0 0))
    (scale (xyz 1 1 1))
    (rotate (xyz 0 0 0))
  )
  (model walter\smd_leds\cree_xp.wrl
    (at (xyz 0 0 0))
    (scale (xyz 1 1 1))
    (rotate (xyz 0 0 180))
  )
)
